id,name,init,lower,upper,step
Ti1,Ti,15,0,25,1
Th1,Th,15,-15,25,1
Te1,Te,5,-15,25,1
Ci1,Ci,5,0.1,20,1
CiZoom,Ci,0.12,0,3,0.001
Ch1,Ch,1,0.00001,10,10
Ce1,Ce,10,0.01,300,10
CeZoom,Ce,0.12,0,25,1
Rea1,Rea,10,0.01,100,10
ReaZoom,Rea,20,15,25,0.1
Rih1,Rih,1,0.001,100,10
Rie1,Rie,10,0.1,100,10
RieZoom,Rie,5,0,10,0.1
Ria1,Ria,0.5,0.1,50,5
RiaZoom,Ria,20,15,25,0.1
Aw1,Aw,10,0.1,40,10
AwZoom,Aw,10,0,30,1
p111,p11,0,-50,10,5
p221,p22,1,-50,10,5
p331,p33,1,-50,10,5
e111,e11,-1,-50,10,5