,pred,true
0,43.82415,42.28014215442296
1,51.800827000000005,52.98045694520278
2,44.490790000000004,47.10383797096242
3,60.055252,60.27599717239335
4,48.08502,47.2033364645536
5,43.654284999999994,44.9091027271522
6,47.584553,46.138835319719256
7,57.589104000000006,57.130605657455035
8,59.764469999999996,57.48242889456819
9,46.27377,49.381954277936366
10,44.61573,45.36594910579604
11,46.6679,48.86108812607871
12,57.020435,54.99381289691664
13,54.22995,55.17503474418477
14,54.94421,53.157798533659204
15,58.30065,60.23977052493287
16,50.328083,51.250396512622444
17,51.6363,51.05753933216098
18,44.746990000000004,43.93972243341405
19,48.497032,47.55419618405082
20,51.574383000000005,51.59473137500104
21,47.59134,48.61948325643999
22,45.12585,44.231137664971335
23,48.397865,51.09579200387397
24,53.68190799999999,53.94239621521737
25,51.482605,50.466218855343335
26,49.589714,47.747505499525296
27,60.437897,59.84185904002629
28,47.682884,47.63902392472031
29,47.068478000000006,45.683445433538616
30,56.32676,54.696808254143754
31,45.900238,46.518947122667726
32,49.69272,49.45339744908057
33,52.54079,54.92089399518785
34,57.82489399999999,59.083878771314794
35,55.673653,53.641538484833774
36,41.939021999999994,40.706535183513076
37,61.507053000000006,59.46227671968846
38,51.507263,52.913127933419474
39,57.358414,56.94113601632672
40,43.310629999999996,42.49338475943315
41,58.595074,57.626487047482996
42,46.696262,46.91362268846787
43,48.915695,48.25734650303648
44,44.030907,42.7852196990404
45,56.654340000000005,54.85487912029521
46,51.015587,51.776273582051324
47,62.72160699999999,62.409517221870615
48,41.147053,43.616423289740325
49,44.983273,45.792002772354394
50,46.68046,45.32379030595644
51,54.033203,53.4226891796211
52,53.65023000000001,53.646959221357285
53,61.792736,60.07901711849525
54,47.302322,48.396112428616036
55,57.40169,57.73322774342029
56,55.58922,55.540443974540004
57,54.710854000000005,54.57230916828002
58,46.235413,46.45286659342944
59,51.507053000000006,52.210257370214634
60,45.73563,46.9778829643564
61,51.944675,49.95987360547326
62,48.16077,46.78688759801815
63,46.96317,47.860655537602604
64,59.954124,58.880411858914535
65,43.1404,42.91726269535662
66,48.103455,46.96537156334
67,44.43371,44.04407325314364
68,52.106094,49.69991899101996
69,54.904163,54.40028696082543
70,43.90402,42.91874210503285
71,48.010059999999996,49.820204847993296
72,48.849712,49.392282314970544
73,46.698414,48.60783225414853
74,41.27609,42.840082246096365
75,54.849846,52.80737271380339
76,55.270664000000004,53.53337283983383
77,59.482964,58.94865519620574
78,43.292984000000004,44.09209030628613
79,39.637836,41.05317801635028
80,41.119735999999996,43.081736175173006
81,58.785465,59.3571768636149
82,53.082577,53.2769253117276
83,42.044994,42.44103239548319
84,44.971790000000006,45.2962919307906
85,50.11034,52.002284012546845
86,45.746773,44.679828014350576
87,42.051964,43.691010042486006
88,51.053093,50.80072147716782
89,57.569359999999996,58.30520382005379
90,41.050995,42.825265123142536
91,45.59936,44.58231776140665
92,50.186363,48.411456054107006
93,50.690540000000006,50.91148282117084
94,43.688095000000004,45.03500901862609
95,48.99876,48.035041312834565
96,49.56234,51.707739725212356
97,53.16955,54.64298595382346
98,51.296608,51.66087799954514
99,49.456657,51.99629658333684
100,41.45787,41.284201235834864
101,53.985077000000004,53.584885485189005
102,50.318979999999996,48.66017790838461
103,42.908432,44.142501879195045
104,60.220369999999996,59.155146312720426
105,51.7591,53.032623791268904
106,49.54164,52.576182149813526
107,44.945763,45.65321281023138
108,47.6426,48.218754080329504
109,52.194447,52.452818594190454
110,44.942640000000004,43.87308955929249
111,46.81165,46.3585282387836
112,42.745020000000004,42.04758017862312
113,51.654697,51.414599724445466
114,45.495934000000005,46.11941405110639
115,48.788909999999994,51.00132947871358
116,44.367340000000006,45.57057244675747
117,50.34425,48.88274673316467
118,55.431362,55.47143447548929
119,51.034766999999995,50.828581113934774
120,46.888000000000005,47.03611873314258
121,49.679432,49.73863859302607
122,40.78675,41.49717279585964
123,51.62223,51.66281062005137
124,62.50035,61.95573307653043
125,48.400074,48.141868143863114
126,55.592290000000006,56.554472901962406
127,45.986507,47.85771400885924
128,55.26276800000001,57.027871881476656
129,51.75693,53.00436746649875
130,40.098938000000004,40.167595742075896
131,46.990623,47.67986334419032
132,40.190186,43.20164227876482
133,49.01124,48.1604535719843
134,52.357357,52.68853435745609
135,42.59233,43.428211234010924
136,47.719035999999996,48.46874270006549
137,42.760727,40.94415546352385
138,44.59263,45.75565027464418
139,55.371871999999996,55.35483339978174
140,56.611880000000006,56.67279606744176
141,45.340073,43.94461413408236
142,48.422043,47.763163918465345
143,41.194958,42.44320560023407
144,49.38048,49.595304106758185
145,49.729233,51.307250861095326
146,50.948475,50.73513719713636
147,51.47293,51.60235902227959
148,45.237583,45.197854890400826
149,44.740707,44.362884809552526
150,47.172990000000006,51.12972954445046
151,44.183735,45.30832928864734
152,54.416866000000006,53.20724915165899
153,52.18801,49.71747723069805
154,63.4577,62.07520490143224
155,46.90903,45.71494763316896
156,44.890144,44.27728856646488
157,50.024105,48.396972366123144
158,43.878871999999994,43.27335537162767
159,46.695507,48.28293792597204
160,43.82754,42.825300108552725
161,53.484554,51.88925139035878
162,48.801266,49.197323928613436
163,47.605583,45.819128117387464
164,54.61478,54.16584130430729
165,52.530480000000004,53.92748257994485
166,42.826904,42.86609842191253
167,49.209076,48.64487473322874
168,47.700542,46.67665677745457
169,56.74798199999999,55.6461957653628
170,53.522606,53.356272645427026
171,41.202362,41.972314134024025
172,44.44728,45.9685779772701
173,52.774914,51.82246355095196
174,43.465294,42.696421429307215
175,42.351547,43.21318914054985
176,47.79188,45.89832744889122
177,58.560382999999995,57.20245919728874
178,50.35584,51.13158179401779
179,53.085953,53.859679058847554
180,44.593685,40.95784815301895
