,pred,true
0,40.91387553556655,41.613534570609495
1,42.16405836453721,43.59687435116263
2,46.09695216926988,48.4459563244699
3,52.94989618411047,53.33399132493822
4,41.420439717845134,42.012333963691134
5,43.24665260662896,44.33395994478857
6,51.66398954012306,51.80980903806943
7,42.18921810852543,41.69730893700605
8,49.54245880659297,49.15881869398327
9,46.03920400464225,44.47986365633136
10,56.20649553351464,55.181468310357104
11,47.32232983494088,47.96578710518829
12,43.29791796931889,44.658854181231455
13,45.290602194513795,45.61818324443642
14,55.956615050496616,56.58222518554086
15,45.116459034437845,44.3540154162759
16,47.640277761736705,46.274355578382405
17,46.20103419996367,45.21191847706465
18,56.827198877398736,57.783651936989315
19,54.36252291332129,53.122457080359965
20,48.356525061917964,46.97387968096079
21,39.2953070537295,40.42266101681392
22,41.57939079141863,40.80345942376976
23,52.709249515021256,51.451763494163764
24,55.54132822260817,55.24111093468842
25,45.821154480780564,44.800858614320916
26,54.53405787491077,54.700172360558646
27,56.07083288791432,55.508991899770024
28,61.60087010608854,60.232985846633746
29,45.67577150393824,46.91823350096193
30,43.697714631189605,44.01835751874931
31,57.49661011884616,56.954788170252854
32,45.689745203296916,45.33717903329553
33,43.07607410170788,42.51386618297715
34,46.92354724859186,46.72000473780504
35,45.41061426659596,46.42821852213992
36,60.60728337409014,60.342542227544314
37,54.0383331119924,54.04695585817735
38,57.78708383847787,57.885528506910475
39,45.86673020071291,46.71692149275838
40,48.22421734142056,47.83090057832178
41,46.28073728747254,46.68315021801941
42,50.642488854668436,50.112288501364205
43,61.3011451870695,61.032857007382354
44,52.582527537414414,51.60992411422329
45,52.20466342488465,51.58488928297609
46,49.48670239727446,49.2551900950035
47,44.44146517497217,46.26582708004613
48,47.19958364122096,47.632548106563654
49,49.0434376000821,49.60996634019949
50,40.212240985717294,42.342808412428376
51,45.94574219691253,45.63461118269045
52,44.166631343732064,45.64201120527557
53,41.696997408593475,41.76461420395784
54,43.12714087950562,42.73858283501243
55,49.682724190683864,48.094897436974094
56,53.06755610692842,51.89900643900477
57,53.080721050529654,51.71234999306305
58,55.20719379571665,55.27798324720071
59,43.69228941176258,44.3172301671343
60,50.296506324052274,51.22010120998095
61,42.88356117748572,42.957333236570165
62,51.5482365602809,52.185694356566046
63,44.23300577166268,43.41980383379382
64,44.52921668116986,44.68168286895219
65,40.73901544646793,40.817133937637045
66,49.974368017845705,49.85019802050057
67,55.00511723155736,53.33021953048808
68,52.90260023149185,52.79357611462552
69,41.75311303299605,42.929463189214935
70,48.34880875457287,47.12998488716399
71,54.185047328182705,52.96398637307503
72,51.80620927876748,51.801626954429295
73,55.77546758057931,55.92767028436778
74,47.419222596328275,49.74811686039794
75,51.946206409888276,53.421742089134426
76,40.659752879829796,41.787503341704046
77,53.10094409070711,54.434411902626145
78,44.24228316529357,42.733610394891315
79,49.75999640624017,49.94941354508094
80,55.76541923549932,55.22152160950271
81,40.1950389485276,41.25230694816258
82,41.07585442622989,39.82238640377522
83,53.904478274158315,53.82718793735045
84,42.12279179740495,42.800309500558846
85,45.944757380197714,47.4685307505572
86,42.42694736042983,41.961883910877006
87,48.65227631925776,47.3614202691446
88,52.034662906496926,52.85619719403204
89,45.90658673322042,47.08685848802453
90,42.59186622768962,43.86702250245763
91,46.34363937384205,45.51530341203703
92,41.95143913793692,42.25668620135719
93,50.94587524736203,52.163738439415496
94,42.455024563171385,43.682049801123476
95,53.063144642891245,51.16843532503581
96,50.00750267152489,49.02871644551215
97,48.874439109410325,50.45767753070795
98,48.940886696626386,48.66269497674307
99,56.09738196903637,57.12748269116506
100,46.291756933072264,45.66346499191797
101,46.11603954670357,47.09273991134789
102,47.01351448764346,46.6712835267903
103,41.091766788583584,41.71679955089364
104,40.59555074351708,41.222155264054315
105,48.2468640516609,46.888923593536575
106,45.76287852896101,46.10728721306521
107,43.47288136180374,42.900279680337356
108,46.69275188496048,49.29187895772382
109,53.47284776518377,53.561482934860955
110,44.18351966215576,43.445649977701976
111,50.60345850264971,50.93207250522666
112,58.89202536400164,56.91474387004954
113,46.97104066639946,46.29459913459082
114,50.828574762822846,51.341796761581286
115,44.89988369858176,46.776086969142675
116,43.3673192916976,43.99734952118265
117,46.95220743348432,49.29479792412939
118,50.15871531979208,49.517418814571855
119,46.087163384088676,44.62524350081011
120,44.90885795934015,44.007184650322955
121,43.061602628290736,42.58114959437725
122,43.317502964460246,44.23644333785767
123,47.744837504089276,47.97336016109171
124,50.096107802411105,50.0421844138315
125,41.28313394353124,41.36606864609802
126,41.95647528968258,41.28859272751071
127,50.483238852554884,51.35011883932447
128,52.72609338385316,52.440830706202505
129,43.69609794566966,43.150807082147686
130,52.015962095157086,51.73008440028549
131,58.86699682631835,58.88890803511101
132,44.623311766346035,45.29292573605211
133,40.187919846356635,39.6401720128092
134,39.03246114105339,39.94064628819408
135,53.49776570956347,52.80026024116636
136,49.03384916099991,49.65831062555995
137,49.646793815712435,51.36655657334825
138,39.71101464849685,40.030132686738966
139,44.990779632523505,45.07891629242457
140,47.33029521009962,46.89225601850347
141,51.90970369151761,51.665350205080756
142,45.49477467416279,44.38257522871268
143,49.45633835437231,50.46367329146264
144,50.367852470282294,48.162439771544584
145,51.62836538124225,52.06362879125474
146,40.00650389733908,41.95230625638026
147,51.70218093344944,51.89387015005867
148,49.67813427264257,49.09756358607342
149,38.15357746631928,39.025738479207156
150,47.89902728145504,47.27608504411904
151,47.588566519869936,46.691864801415946
152,40.70466206290051,41.642278488231604
153,50.19411883154667,50.26784026781104
154,47.3268264296064,48.52537655219749
155,49.48682782450086,50.54992357541008
156,56.52572012394918,54.80275957718559
157,43.61982577091393,44.464826262577695
158,46.21849594584435,45.443952516388045
159,55.69290805256298,55.17862416824743
160,45.48094116119822,46.11286258625826
161,41.98025162510547,41.73199526674616
162,43.40253585501216,43.88637403675529
163,49.39469313547447,50.02179526442994
164,42.555511586022725,41.383260117221276
165,41.93380610609698,41.00670551518075
166,59.16583502492043,57.92162269468502
167,46.785437928662994,45.947460595657574
168,57.86194823830734,57.044855739537795
169,50.02799078747716,48.66327116338794
170,49.906268692512,50.56720904109044
171,40.71715562462408,42.346976573817294
172,59.47064223495136,58.69412847856965
173,58.743282944056006,57.33966055228977
174,50.64936520775841,50.76652074992607
175,49.87400105283041,49.25126857831608
176,43.68823801746167,45.7515356025375
177,41.61506155358995,41.534094111414866
178,66.34310952969781,47.213102021984426
