,pred,true
0,42.55484120909625,42.60681559165805
1,42.04238063264921,42.026862287636774
2,51.367755136583796,52.2142517668886
3,41.82774698920943,41.64287127077628
4,54.25377989158471,54.93845661731283
5,45.65996714924716,46.328642666058215
6,46.476348842117154,46.351071862979204
7,53.43034466884284,54.294844201067285
8,43.139642203428785,42.93981645924893
9,42.709531684693054,42.76328170672567
10,48.69054435973134,49.21888142263173
11,44.32674056624423,44.60045383963888
12,52.194056642834404,51.97155626287004
13,41.22985242521437,41.29754317118682
14,49.534768576203156,49.34827771207797
15,46.09128334757961,46.37172954928547
16,44.34265633056111,43.97882155631354
17,41.36112045367085,41.58827578997226
18,41.617487753547714,41.99555548859203
19,46.81158728799475,46.873652499421475
20,43.165489079844825,43.45064637099882
21,53.352606654054185,53.88558740662554
22,58.42352883142884,58.64955612237336
23,54.39411805831256,54.748241685306155
24,57.275952322540476,57.89865223777309
25,45.82856456251716,46.11591075877426
26,41.33030352948335,41.26663572899537
27,45.50505444112994,45.63351050476771
28,48.12536206385726,47.8997719194035
29,57.72989663175914,57.38477883804588
30,42.178077076110185,42.38915964247215
31,55.01343250008396,55.13862489311799
32,50.9671913540591,50.819990421205254
33,55.444501986608955,55.28507086234546
34,49.09811045267461,48.93294367871486
35,48.92049817183129,49.616015697144384
36,43.089673602593344,42.750340052124244
37,40.08450304789749,39.98254159247436
38,52.86398302900064,52.45542311856892
39,57.33006328757226,56.99626496325906
40,50.91967933210589,50.38986574106476
41,51.174029270653584,51.94494972313244
42,47.87388889129798,47.92176882467413
43,47.84607277668093,47.692466722535066
44,57.732364372343206,57.671588528586256
45,42.95826372659323,42.8523126120087
46,41.813787446078365,41.80786789234792
47,46.057456458992064,46.43891949687129
48,56.19813112164894,56.49401365208404
49,48.48791541187122,49.366912368160456
50,45.24358754662029,46.19411950572955
51,50.584368657694036,50.076464234672365
52,39.836784366738456,39.909353346270095
53,45.779198795419006,46.761805702124526
54,45.20581114249243,45.26679312805442
55,46.477388637375114,46.84107076772364
56,52.12386383041895,52.86007736786718
57,43.192049428781786,43.180639836798704
58,51.41473012024753,51.267193586063044
59,42.01598056152453,41.811644874559256
60,46.89454155860302,46.744749312918756
61,42.22415295918353,42.65386759806242
62,45.37837350112506,45.74721576975436
63,54.97367094713622,54.76455479338779
64,50.33511509438982,50.0278910321629
65,52.087635966579114,51.83636691191314
66,44.02588596696781,43.906014751373384
67,49.38277112124939,49.05487316755127
68,51.33618563890541,51.404353345393645
69,38.85453748763448,39.065045866029116
70,42.27284007258801,42.305657018779115
71,51.4594225742865,51.31300259074591
72,44.21192760768761,44.26728921800368
73,45.47407433857494,45.56269877585486
74,54.47199115613866,55.089087818734924
75,40.81648565129972,40.86787539681095
76,40.0274564342999,40.08267546524735
77,50.718029889215096,50.59207780302015
78,48.93590479559224,49.56886134231966
79,57.28247114555378,57.780861290961475
80,41.93307354216043,41.697741418230315
81,49.93322927168798,50.43121366221808
82,52.998670936811926,52.880824277525655
83,48.6775516774414,48.65494895263914
84,45.411318941665364,45.258417797300865
85,45.09655494372697,45.47319379541336
86,47.50726849328202,47.46154001023488
87,51.76344884317304,51.811099101461906
88,50.28796604925302,50.41393113742763
89,45.05535296225533,44.788959269384705
90,53.76530521815522,53.81634965554725
91,60.3799663229965,60.85584722106689
92,46.619139428291156,46.719786801728894
93,45.49913770056427,45.68381976179513
94,40.72363807643272,41.36994032758708
95,45.19026533693214,45.06789194540212
96,43.382809354270506,43.912557266933014
97,48.741316328560686,48.56976607088195
98,41.007132406935646,40.890895513131106
99,41.924446472071,41.77695429222102
100,47.36636272947358,47.24742561939887
101,45.87667973128511,45.630636431816434
102,48.23561669653486,48.34338256936846
103,44.55712617489295,44.33606957240938
104,53.587705643129404,53.37206831318254
105,39.580887622864324,39.68542166426174
106,57.97733289018483,58.52175151432343
107,46.88368401802389,46.77141984363072
108,43.648173922592036,43.51088832340279
109,46.876449796552656,46.95751475182722
110,44.24600117478961,44.07217735820236
111,42.67130952715899,42.996783323452476
112,43.97659843568325,44.464071560408314
113,52.282335993992426,52.11282362336768
114,40.962215387313115,41.43821348661192
115,48.57731436503818,48.235039293687706
116,56.402733210280374,57.0459435630258
117,55.72367329463338,55.4685245193247
118,49.7553624511655,49.88650162867196
119,51.198241680173396,51.606039434284995
120,43.47813464338958,44.04312780138584
121,51.176028096528476,51.029367556359695
122,44.49077335967878,44.50200795260815
123,51.78886431160132,51.588009739087546
124,55.637501516550884,55.26868704582265
125,46.45714763225253,47.42245772028453
126,50.63914422020061,51.265490108329665
127,49.2413865748183,50.10060065329713
128,44.789425882650725,44.53938514975581
129,43.02635715778698,43.0059428149566
130,44.65952353963847,44.73193158249833
131,41.18894522135211,41.401978951138794
132,53.218360350242385,53.517561509670344
133,51.627491950269224,52.23111175522406
134,43.0725749461621,43.72110401410039
135,61.00963117728665,60.218051557576224
136,53.780200310120534,53.29684118018219
137,46.688198283369786,46.703859492759115
138,51.91874157618701,51.44489929619529
139,53.20573829915923,53.0400248016197
140,52.446924187408754,53.2857826573435
141,55.97562799964901,55.854534429905975
142,41.85074716232054,41.744381253676075
143,49.91771691966043,49.650297782570064
144,44.84918400128873,44.656271781080335
145,50.3928956173623,50.26690706693289
146,41.75381875853317,41.6948022665124
147,57.09394530421147,56.95626973322298
148,40.50230558584481,40.47496650019011
149,60.29712433672726,60.081655748164295
150,49.98258248840305,49.52464429227005
151,46.33953206174868,46.955957303693474
152,41.64284071159837,42.05752720326233
153,46.92151896454631,46.978686040604465
154,47.72948115850164,48.46081329020386
155,48.078947453179595,49.1680851028329
156,52.772978904636275,53.13852828867139
157,50.899169811465384,51.81879459314077
158,49.98159954913202,49.81241841882536
159,48.529443680564135,49.31848783556103
160,56.22877407651227,57.03768541052325
161,44.26747199596342,44.38744715879418
162,48.331466335967434,48.15745187278397
163,45.592960338644296,45.763211475418814
164,41.717837898265174,42.406967619289865
165,47.292406467023156,48.0350053509037
166,43.852676765229035,44.301992649057034
167,52.92391652234621,52.8027400177605
168,51.870531374176785,51.624786032091684
169,49.294320469402436,50.2293422278916
170,47.296448291072714,46.96959989260515
171,51.466021204187186,51.24859179803718
172,41.18717318431368,41.09228261250345
173,45.944498251648845,45.99005427302231
174,46.27839810698618,47.02751768310743
175,44.62540201925867,45.29426982998325
176,47.39363548632818,47.22532267744712
177,52.111158337630464,51.59413632224192
178,45.62674836105934,49.75221818935112
