,pred,true
0,57.07496,57.98256464748325
1,43.154007,43.76243718423147
2,39.079044,39.153149739308674
3,45.83345,46.42917294516076
4,51.471252,51.17723377156943
5,42.741707,42.93044136923681
6,46.008675,46.299207187003454
7,44.306744,43.942335037140005
8,53.858090000000004,53.190750498372246
9,45.46224,45.83733378722832
10,44.673794,44.68649661624854
11,47.0002,46.72203530484167
12,44.163990000000005,44.44867947968108
13,46.536384999999996,47.19652047428775
14,47.334133,48.08983808181198
15,52.220684000000006,52.823000319978675
16,57.356003,58.10343067357212
17,51.57848,51.323691573372955
18,43.270203,43.036171033983294
19,44.731026,44.44417118972533
20,51.55084,51.30835660017658
21,40.156845000000004,39.910130508961004
22,41.774944,42.49916950329565
23,52.995433999999996,52.38457090699367
24,48.46817,48.45457025614535
25,51.244553,51.548679965057076
26,43.03003,43.37805048927225
27,41.685062,42.06455865200976
28,45.628685,45.69795615276507
29,51.083218,51.79439005283683
30,47.371227000000005,47.408242193099134
31,50.039837,49.77934715973576
32,42.203293,42.42718430460869
33,49.214394,50.14764459912751
34,49.843468,49.97188308245741
35,46.458458,47.39933787868365
36,57.021781999999995,57.34816830593247
37,53.087180000000004,52.86929632177528
38,41.96777,41.72544190666481
39,41.71842,41.685128320820354
40,45.569927,45.72867849464533
41,40.847076,40.875302918123495
42,47.05207,47.03404914757115
43,48.967743,49.70282908432805
44,50.016438,49.4601901184729
45,56.630753000000006,57.00763757598877
46,46.745459999999994,46.71717252718671
47,45.289577,45.33110222617657
48,54.99233,55.234239996543884
49,53.973606000000004,54.682088969940956
50,49.255573,48.919839108853715
51,52.84195,53.02691741403866
52,42.577843,42.681960907413504
53,47.867523,47.894762246643104
54,45.975426,45.617588312284155
55,53.043873,53.76112877132035
56,57.653862,57.360112754397754
57,40.022964,40.004541806723694
58,52.990832999999995,52.72294294498185
59,50.829547999999996,51.676721756350595
60,44.8832,44.809276130902795
61,49.857997999999995,50.120361769205
62,51.362488,52.13115256592217
63,45.827034000000005,46.77044307113078
64,52.191371999999994,51.622597897875785
65,44.066615999999996,44.02626795865978
66,43.665764,43.65214670518639
67,45.399918,45.048286366644795
68,42.14819,41.783544304336814
69,51.395115000000004,51.2982497577945
70,54.85723,55.57354240271525
71,48.15582,47.93967305181284
72,50.362934,50.012892859176844
73,52.3154,51.852146008778966
74,47.548256,48.31183298820866
75,43.25595,44.07391910932324
76,46.132042,46.45233852313238
77,48.538109999999996,48.20583872469336
78,50.266354,50.90888759379926
79,47.893240000000006,47.68076218529054
80,43.026962,43.04834628952045
81,40.930943,40.956249036027
82,39.574745,39.68886223537305
83,46.45165,46.81717845728536
84,43.028996,42.770667647206714
85,41.295998,41.32882883075961
86,44.356644,44.07115495226913
87,55.81844,55.75928035161335
88,41.891059999999996,41.69790899606028
89,46.487865,46.355403392370576
90,48.38329,49.22597596564199
91,50.01343,49.646533822027855
92,59.92743299999999,59.863615490058
93,52.72749,52.58656086574775
94,52.106761999999996,51.43941235765744
95,53.342728,53.49140527882845
96,52.326077000000005,51.87398326054789
97,50.649223,50.53215865457789
98,45.499245,45.60919554953571
99,42.20626,42.11985804105563
100,40.424409999999995,40.43046741932569
101,42.89798,42.88471331906221
102,46.291286,46.185550658743274
103,55.881252,56.827178659213075
104,51.43708,51.117043082731115
105,53.648605,53.29692368176156
106,43.57606,44.032873573175294
107,41.446278,41.568828164137116
108,52.146137,51.486356393162794
109,46.58493,46.612096219530144
110,52.282238,53.16512581867892
111,50.5383,49.97214868350239
112,52.486126,52.07787652938354
113,54.93479,54.683337960702886
114,41.663773,41.76709142326677
115,44.86339,44.53674557979521
116,46.966784999999994,46.98297650668255
117,53.742430000000006,53.61017882062225
118,59.185825,59.76484701713049
119,51.886032,52.17517518622518
120,45.438946,45.1428620236471
121,55.876385,55.66429773707823
122,43.999752,44.409943720961635
123,60.788669999999996,60.11970259347791
124,44.480732,44.48970795528852
125,45.174459999999996,45.44792122186189
126,46.761757,46.81701541253594
127,41.757183000000005,42.04518957003456
128,44.49755,45.19107958448789
129,41.373363,41.319896334286014
130,48.770718,49.545723511555
131,43.552452,43.44537619888156
132,42.28712,42.740285109328546
133,43.139748,43.150933422006766
134,44.46393,44.31308798317573
135,47.313235999999996,47.22185848081563
136,45.210648,44.836010635660095
137,48.383926,49.3732733795085
138,46.947155,46.942736476954174
139,42.247966999999996,41.93915737004076
140,47.325977,46.972064043606345
141,41.287876000000004,41.177574054268
142,48.37106,48.18797568614515
143,41.086735,41.6715796917017
144,49.288456,50.12438957453927
145,49.359592,49.30227047075358
146,40.218674,40.22084243186037
147,47.926006,47.91380228897036
148,57.54091,57.06834954268354
149,43.90831,44.36275154470051
150,46.38285,47.18343138925328
151,50.924633,50.34223668937789
152,50.986427,50.75161301446001
153,44.81024,44.61380141365325
154,57.330433,56.828129634359186
155,40.839909999999996,41.388554857231796
156,57.446262,58.157962690234534
157,48.606373,49.15845705617848
158,57.11107,57.788957646122036
159,42.751472,42.84750390380805
160,41.22769,41.33628623244624
161,54.106685999999996,55.134429202138996
162,42.09669,41.705175128916366
163,49.988,50.35126555551569
164,45.412003000000006,45.55167680602101
165,46.052673,46.33134136847811
166,42.154284999999994,42.26330651841589
167,55.276554000000004,55.187015317212065
168,55.527817000000006,54.97896568089509
169,52.086758,51.889561156212224
170,45.338135,46.22844923673978
171,48.27888,48.25322234486431
172,48.34124,49.58270138996392
173,55.89527,56.2982088216968
174,51.058754,50.95979673370826
175,53.232204,53.87933929267725
176,49.508891999999996,49.2966755202641
177,50.157166,50.03761852493743
178,37.36121,41.768792284289695
