,pred,true
0,44.405025,43.997099561807815
1,52.947894999999995,52.5530781560756
2,59.612312,58.65702897310605
3,42.13216,42.46707690267512
4,47.025703,47.89629837626887
5,48.010612,47.97156432594954
6,43.706978,43.59590762606119
7,58.290764,59.03130037828619
8,51.778065000000005,51.04567884025833
9,41.343002,41.01536022262675
10,48.32436,47.84212292093697
11,49.373090000000005,48.86875346989329
12,44.168246999999994,44.25470743086815
13,51.519802,51.24081164915616
14,42.096540000000005,41.77841833399157
15,53.882874,52.958494448513754
16,59.44245,59.77658114985047
17,45.783176,45.771760150700466
18,57.700798,58.38058641989232
19,46.369811999999996,46.5445409448414
20,46.870377000000005,46.604883336539615
21,51.332775,51.15443627803106
22,44.590340000000005,45.06662509787652
23,41.353725,40.772219814175905
24,42.953506,42.53959003130333
25,53.717830000000006,52.94602853125728
26,42.856173999999996,42.64914445813034
27,42.12108,42.12140504205855
28,45.949946999999995,45.75642151142056
29,55.585426,54.76034998397019
30,48.165929999999996,47.99673280357894
31,48.86185,48.17374049408512
32,48.414696,49.19587599568092
33,50.57776,50.049840608668354
34,46.05239,45.528307533971365
35,45.307663,44.937893943745955
36,42.982136,42.58595543332199
37,48.291225,48.04586516991697
38,56.432930000000006,57.022284379679505
39,52.837306999999996,52.34324666794439
40,41.521637,42.19861903597275
41,49.226715000000006,50.74867000929971
42,40.908646000000005,40.695602478063066
43,53.63474,52.93582874540618
44,52.903423,53.52872325167456
45,45.016205,45.33742118072715
46,56.211887,56.63003897292329
47,45.5492,44.99882597275622
48,55.476112,56.578062074830726
49,43.24576,43.12154937701269
50,46.67908,46.20349092798868
51,49.630802,50.705740919655675
52,47.671852,47.457731160542345
53,52.25581,53.03716871813426
54,59.130880000000005,59.59575541932014
55,60.348663,61.625666333539115
56,52.93860600000001,52.384349779843284
57,49.522163,50.81216998335024
58,52.506588,53.104244629092406
59,52.717690000000005,53.06600029891689
60,57.719319999999996,57.22023158034833
61,42.344925,42.175745864227146
62,51.889107,51.29045825241738
63,49.925292999999996,50.66071267633762
64,47.674454,48.46630571056229
65,52.32537,51.90339155740365
66,44.262553999999994,44.01479537391737
67,43.769459999999995,43.840244857168344
68,52.6477,52.06604948394549
69,51.196090000000005,50.589918640855686
70,44.039158,43.79035429439988
71,44.25207,44.74454482395233
72,43.134009999999996,42.63153873840077
73,52.060146,51.48009029587122
74,47.35848,47.146796263905955
75,50.035652,50.426082393090894
76,49.297592,49.18707431870465
77,50.763348,51.50217474444466
78,42.558186,42.8799970048928
79,44.36945,43.75627138931898
80,53.268726,53.54021401622239
81,54.45073299999999,53.9874245971036
82,46.464220000000005,46.09972305728862
83,44.63515,44.9636318992725
84,46.741825,46.57184752084549
85,45.636641999999995,44.98212105748535
86,53.160725,52.536616910183135
87,47.443558,47.57869091960844
88,51.474790000000006,52.119894456097285
89,49.636654,50.40701129380562
90,48.61421,48.30277929388557
91,41.519695,41.21013143077804
92,55.204609999999995,55.12771862478121
93,53.68362,53.12411188454612
94,43.055893,42.970936966523325
95,48.56145,48.29023744955768
96,57.376490000000004,56.525526263685045
97,46.57033,46.6348636191306
98,42.648196999999996,43.404904639767636
99,54.208732999999995,53.495719640292684
100,45.7515,45.44567524287841
101,49.8205,49.423093725296326
102,49.997215000000004,49.40246619537177
103,42.48573,42.39557517911349
104,43.02263,42.63967197803578
105,51.55105,50.84962848537271
106,47.088226,47.509809193061066
107,40.548374,40.42417288450158
108,54.54315,54.58293639470688
109,52.031437,51.28057874482975
110,53.648669999999996,53.24067468680126
111,42.482384,42.89896010709085
112,47.54526,48.22600585261618
113,54.881863,54.211752939511975
114,46.012463000000004,45.450830829086115
115,53.10269,52.629996311266524
116,46.89705,46.7377242706159
117,48.244644,47.900363907176114
118,42.82819,42.53311455201551
119,51.0089,51.29019586586678
120,44.81873,44.38536345654333
121,54.22084,55.417192240728504
122,46.65827,46.33381458269165
123,43.79177,43.69908281842977
124,58.34012,58.76196805356478
125,53.238907,54.50365341175323
126,42.394484999999996,42.14751609734867
127,45.47869,46.13703313011086
128,55.413273,54.98209844914329
129,57.048916000000006,56.27155819443963
130,48.92365,48.5405719085102
131,44.34035,43.99297926853754
132,43.23483,43.63432052337095
133,57.976376,59.4508199919555
134,48.453293,47.80049622398205
135,55.508938,54.633712196301204
136,52.518080000000005,51.7966497383991
137,47.305256,46.726949657192705
138,46.34588,45.92354044647241
139,43.330690000000004,43.30577788635048
140,39.946053000000006,39.922431419960326
141,54.893467,54.30596423032707
142,45.561512,45.295060435034245
143,51.291424,51.664137523156725
144,44.906000000000006,44.5931313332475
145,46.215365999999996,45.65654244680218
146,52.705996999999996,52.69696090668025
147,53.721687,54.36931288443452
148,46.699985999999996,46.850808221552064
149,49.574715000000005,49.090844035423316
150,43.24733,42.74983084190853
151,46.40971,47.31164327700937
152,47.999836,47.666824321059806
153,60.308647,61.45518067823911
154,49.96117,49.66860659044728
155,59.182784999999996,58.97702781041504
156,59.58773000000001,58.492585066146916
157,47.10425,47.270495235536366
158,45.031696000000004,45.311955625913725
159,55.238482999999995,56.06221228873335
160,57.727768000000005,57.10902718323114
161,57.122009999999996,56.8195921855804
162,63.19466800000001,61.87518297291461
163,42.268271999999996,42.00643233201467
164,48.007675,47.400335724820394
165,41.746277,41.697844098710476
166,57.481407,57.78733923457181
167,47.405840000000005,48.21372136373817
168,49.433132,49.321941930295594
169,45.51449,45.4392387953284
170,54.20893,55.137953052490246
171,50.568934999999996,50.578018054761905
172,50.24004,50.875173180075556
173,60.12536,59.71054781238257
174,48.235123,48.067821422314395
175,48.63106,49.41012934272428
176,53.96485500000001,53.258718041999124
177,54.754898,53.77559961752197
178,48.893547,48.94246096526465
179,51.705690000000004,50.81247948605893
180,50.511005,51.40032911819225
