fname,hlc_mat,hlc_tot,hlc_se,hlc_si,hlc_inf_standard,hlc_inf_current,hlc_tot_pred,pred_err
victoria_control_concrete_schedTrue_job111,72.27368621062237,52.07061822284078,12672.351834695586,189.0544259500992,0.0,0.0,24.484316357964524,-6.0725821755900355
victoria_control_concrete_schedTrue_job91,57.62889342709804,43.99436252160915,12670.252781337298,188.72007877851746,0.0,0.0,18.156846731003522,-5.815374363629868
victoria_control_concrete_schedTrue_job9,69.74720438508795,50.803923609646105,12670.508783595717,189.8576725064512,0.0,0.0,21.473372003816472,-6.786017834722479
victoria_control_concrete_schedTrue_job69,60.884527125898025,45.76587016495731,12670.910587510552,187.02465236993416,0.0,0.0,19.452803816317612,-5.985085148654942
victoria_control_concrete_schedTrue_job146,56.81299559355434,43.369296793901206,12670.583961300305,185.9684143203791,0.0,0.0,16.425907445847223,-5.191569091384377
victoria_control_concrete_schedTrue_job156,63.360241970243784,47.23519982544437,12670.658501986942,188.3607390786487,0.0,0.0,22.700791866651784,-6.423137953121589
victoria_control_concrete_schedTrue_job62,52.812989413676526,40.997228260298826,12670.02781434068,185.93475435241643,0.0,0.0,15.669884406693447,-5.3113741860475745
victoria_control_concrete_schedTrue_job98,60.30212438470948,45.413795855115225,12671.207276910261,186.64872803320068,0.0,0.0,16.889683524490348,-5.5271118233768135
victoria_control_concrete_schedTrue_job139,61.608385636989006,46.17949780719699,12670.381730134806,187.1204792661717,0.0,0.0,19.688346856206255,-6.626304090982007
victoria_control_concrete_schedTrue_job60,77.93613931301012,55.10900107720095,12672.30070486017,190.98818972456885,0.0,0.0,27.002096438394588,-6.7721264289695
victoria_control_concrete_schedTrue_job173,62.8120742122354,46.814481157080394,12671.027294661528,186.51546852911088,0.0,0.0,22.17563594959823,-6.473193016385714
victoria_control_concrete_schedTrue_job112,70.79844134990525,51.3329014815441,12672.318834292146,189.49563274353903,0.0,0.0,24.905976793244875,-6.500580233667421
victoria_control_concrete_schedTrue_job176,70.61090651966401,51.326458012442686,12671.813430051972,190.76340720040054,0.0,0.0,24.89707904356439,-6.400546550078541
victoria_control_concrete_schedTrue_job14,60.34399039804627,45.44539149405885,12670.852851331136,186.78141756425092,0.0,0.0,16.88590991491472,-5.754392973052319
victoria_control_concrete_schedTrue_job126,55.45517708568315,42.69025277380739,12669.989762762336,188.21606445138508,0.0,0.0,17.321820958338648,-5.50164018361437
victoria_control_concrete_schedTrue_job117,62.3060932856948,46.75628233202568,12671.075772438691,190.15796585810162,0.0,0.0,20.110709939476877,-5.611723324394241
victoria_control_concrete_schedTrue_job168,64.99757772772661,48.106639770113766,12671.174782994056,187.862458088547,0.0,0.0,22.34935896414636,-6.194114221211279
victoria_control_concrete_schedTrue_job105,69.48706104558728,50.50261450502938,12672.371416204194,187.5864731783365,0.0,0.0,24.762237956311033,-6.410830421729489
victoria_control_concrete_schedTrue_job189,59.85487068957632,45.377441056648,12670.040137126447,190.42622701882462,0.0,0.0,19.390201596829957,-5.787630843920219
victoria_control_concrete_schedTrue_job171,63.6197105960064,47.25089661000905,12671.314684961377,186.34806320663952,0.0,0.0,19.416739683067266,-6.057457806819521
victoria_control_concrete_schedTrue_job39,62.03624491481796,46.54047178120282,12670.818507852324,189.1022322330486,0.0,0.0,21.404548025063036,-5.830645246640838
victoria_control_concrete_schedTrue_job38,52.42414125859128,40.80225198109932,12670.045073854899,186.764258799106,0.0,0.0,13.227947664205383,-4.754104873853999
victoria_control_concrete_schedTrue_job94,55.35499832236077,42.64708468829262,12670.051729157207,188.53270948482086,0.0,0.0,15.959483230344597,-5.415114310505727
victoria_control_concrete_schedTrue_job68,53.93124714131498,41.686265799066284,12670.120274009276,186.30078240872714,0.0,0.0,15.377090335026951,-5.290197104466474
victoria_control_concrete_schedTrue_job199,60.107731603656475,45.30357956887563,12670.741099654851,186.65094350210202,0.0,0.0,18.4497935759383,-6.011972379742986
victoria_control_concrete_schedTrue_job154,69.82603824345298,50.84228163400843,12670.293667822989,189.8095458573901,0.0,0.0,20.01145417054648,-6.578661042318025
victoria_control_concrete_schedTrue_job103,76.7421740863022,54.5775327359222,12672.199793464537,191.82811135439403,0.0,0.0,29.121401376851168,-6.564069563551094
victoria_control_concrete_schedTrue_job119,64.74942315976465,47.92696912416153,12671.818465796941,187.1954298038443,0.0,0.0,19.721146853899512,-5.794259765501323
victoria_control_concrete_schedTrue_job46,74.33968544962619,53.161315202819644,12672.102644681723,189.39422559532798,0.0,0.0,26.632607294616733,-6.731495861649151
victoria_control_concrete_schedTrue_job63,56.05769249380419,43.016329103439425,12670.182509726155,187.64205984815288,0.0,0.0,17.684858865928312,-5.900724729788269
victoria_control_concrete_schedTrue_job11,73.2616424257807,52.62382407149351,12672.007171237748,189.6029985832779,0.0,0.0,25.495005286440257,-6.752983676293955
victoria_control_concrete_schedTrue_job37,87.6304717575767,59.831425919252226,12672.634749324641,191.4550197082276,0.0,0.0,33.268585734206106,-7.653410565960634
victoria_control_concrete_schedTrue_job123,52.28860083958738,40.64253446968797,12670.04446612647,185.14365811531783,0.0,0.0,16.506049663368742,-5.751211630198966
victoria_control_concrete_schedTrue_job75,74.51733928804998,53.21867819022063,12672.632741274918,188.9719869547995,0.0,0.0,26.753218587727844,-6.479397732178171
victoria_control_concrete_schedTrue_job110,59.22569622046479,45.000788042108226,12670.435876291058,190.1738620914962,0.0,0.0,19.029637284061003,-5.668420281597712
victoria_control_concrete_schedTrue_job74,55.981489765118745,42.922460559191954,12669.983079192058,186.71167137976826,0.0,0.0,16.560433881507336,-5.85072884514495
victoria_control_concrete_schedTrue_job21,78.03376914309425,55.31695065309101,12670.77851374386,192.9103530754977,0.0,0.0,28.505472497145412,-7.24839122807942
victoria_control_concrete_schedTrue_job127,80.3962420077315,56.25227393545642,12673.318724531433,190.1227117839172,0.0,0.0,28.99344551475507,-6.87395758156212
victoria_control_concrete_schedTrue_job150,59.65450337062112,45.03510633351061,12670.960546493077,186.47028041411832,0.0,0.0,16.430790238586024,-5.615340558760387
victoria_control_concrete_schedTrue_job87,86.52787784579806,59.59287455764379,12671.74595757772,194.37687244460255,0.0,0.0,33.20884023037086,-7.554691013729645
victoria_control_concrete_schedTrue_job188,85.00554886018836,58.82080241827001,12672.278614141056,193.87593208722038,0.0,0.0,30.876346603766034,-6.727118368651592
victoria_control_concrete_schedTrue_job51,76.3553912621211,54.15437432566766,12672.97928924598,189.02988549361226,0.0,0.0,27.340323334618056,-6.705172582894143
victoria_control_concrete_schedTrue_job124,59.497394052272575,45.041623883704084,12670.55488794673,188.13598457101483,0.0,0.0,19.915053251552557,-5.980761603693189
victoria_control_concrete_schedTrue_job148,73.67060092896384,53.06698477520002,12671.67199981964,192.6316001140873,0.0,0.0,26.326166611876864,-6.01141901447626
victoria_control_concrete_schedTrue_job181,56.343678079773206,43.110959124602445,12670.429935362356,186.26087479892956,0.0,0.0,17.701866445808072,-5.722421367551309
victoria_control_concrete_schedTrue_job172,70.6207974306717,51.24317555161019,12671.624597507544,189.5467761281552,0.0,0.0,24.442771077303476,-6.414571311718536
victoria_control_concrete_schedTrue_job143,55.51319649577477,42.618425984443235,12670.377659523723,186.17223105041333,0.0,0.0,17.29025134133073,-5.775011948693603
victoria_control_concrete_schedTrue_job167,74.36459930285736,53.07348562878826,12672.11515441288,188.1245294551158,0.0,0.0,27.17039160919277,-7.008570121766198
victoria_control_concrete_schedTrue_job198,62.44469611407029,46.770776619216626,12670.258513374325,189.11539068950017,0.0,0.0,20.31542756837333,-6.519310757322344
victoria_control_concrete_schedTrue_job5,54.684530384123015,42.20543732236034,12670.226954696509,187.68778785623212,0.0,0.0,14.797129691901816,-5.152497122273509
victoria_control_concrete_schedTrue_job137,66.34216975606938,48.83839875262502,12671.92947732232,187.84957830929463,0.0,0.0,22.538840420181685,-5.931718395886648
victoria_control_concrete_schedTrue_job54,54.07996845309845,41.73146093332223,12670.154027674163,185.4367004046412,0.0,0.0,16.79271971568116,-5.697442249795536
victoria_control_concrete_schedTrue_job32,72.90724924680174,52.35497968826711,12672.02114748194,188.48689366199133,0.0,0.0,27.163005949393245,-6.984417828993941
victoria_control_concrete_schedTrue_job101,76.91705528648936,54.70343243034073,12671.965993631155,192.29081274696307,0.0,0.0,30.555201387210115,-6.796174035911104
victoria_control_concrete_schedTrue_job24,63.87858731159141,47.612693271056386,12671.098824381204,189.78267835286016,0.0,0.0,20.159117013988066,-5.56598353175481
victoria_control_concrete_schedTrue_job72,55.30415982367842,42.49213650241066,12669.871510525256,186.1152031571981,0.0,0.0,17.890592353895002,-5.7627577626808915
victoria_control_concrete_schedTrue_job145,64.25809462086103,47.66240579078292,12671.23704211324,187.2751816791734,0.0,0.0,22.098237214586288,-6.061841450979934
victoria_control_concrete_schedTrue_job125,66.78340282795884,49.05617973696125,12671.647869935348,187.54354606702,0.0,0.0,22.281731112513008,-6.254735953872981
victoria_control_concrete_schedTrue_job193,72.48334390661735,52.21332020334392,12671.565836909695,189.50121229169946,0.0,0.0,23.42111144399461,-6.155595585657906
victoria_control_concrete_schedTrue_job160,81.17775731077829,56.786949407388114,12671.674448227994,191.86056914883298,0.0,0.0,30.95727678015491,-7.295314263563132
victoria_control_concrete_schedTrue_job23,51.88462442755615,40.42290163064609,12669.694113100459,185.66686645784984,0.0,0.0,13.721904727596218,-5.3763089214962605
victoria_control_concrete_schedTrue_job107,64.64994102281776,47.850245337242775,12671.548757210689,186.85653817094877,0.0,0.0,20.22714065697754,-6.074071538079355
victoria_control_concrete_schedTrue_job190,65.22950167562419,48.40397476102786,12670.371475309614,190.47439307934792,0.0,0.0,22.918505999404516,-6.222794690852901
victoria_control_concrete_schedTrue_job164,70.16463591932809,50.92744251676895,12671.513061513946,188.51322040484982,0.0,0.0,21.94911808630222,-6.427756844564154
victoria_control_concrete_schedTrue_job136,55.71711493261286,42.850669379476976,12670.046252584616,188.31946767002933,0.0,0.0,16.36581292773271,-5.028808180491982
victoria_control_concrete_schedTrue_job147,77.64570996284931,55.12799756152265,12672.189943687214,192.98765406994926,0.0,0.0,28.151810866828665,-6.497045308761901
victoria_control_concrete_schedTrue_job134,64.82228391009404,48.191611256746086,12671.268912911772,190.66551181757652,0.0,0.0,23.6291790886008,-5.974012321150731
victoria_control_concrete_schedTrue_job64,54.44784614966995,41.99702553750504,12670.25529777076,186.35557720020972,0.0,0.0,17.027086001335235,-5.899160482645314
victoria_control_concrete_schedTrue_job52,64.3676556120379,47.856205099234394,12671.047625141697,189.34879867940091,0.0,0.0,21.210072327456235,-5.9219827117291
victoria_control_concrete_schedTrue_job185,59.08468816493759,44.72878101407752,12671.043063891846,186.804474430127,0.0,0.0,16.845389457192724,-5.532628819212274
victoria_control_concrete_schedTrue_job92,66.55451636239437,49.13726011149241,12670.672312423496,190.58668301638008,0.0,0.0,20.474271180235807,-5.916644517119824
victoria_control_concrete_schedTrue_job47,57.35072404917802,43.72410170108085,12670.328669433047,186.73489920614404,0.0,0.0,16.75950308366314,-5.761485890509412
victoria_control_concrete_schedTrue_job144,54.70651307528831,42.138972736194006,12670.217440083647,186.1255842064447,0.0,0.0,15.222792585286372,-5.282225157424078
victoria_control_concrete_schedTrue_job42,61.89461038584588,46.30794613681573,12671.076659171362,186.59673656706508,0.0,0.0,20.96174405899137,-5.716509637283867
victoria_control_concrete_schedTrue_job182,60.46838325455828,45.659376469126045,12670.561892205596,189.2213669937447,0.0,0.0,20.899655083538583,-5.783792634631997
victoria_control_concrete_schedTrue_job18,65.33364347894315,48.32349473471754,12671.34907637933,188.36295282377642,0.0,0.0,23.145850253934228,-6.232133824977719
victoria_control_concrete_schedTrue_job61,57.114149505653685,43.52292280840937,12670.566051121179,185.5742424904236,0.0,0.0,18.788829396315307,-6.044164664380766
victoria_control_concrete_schedTrue_job59,65.20972852332228,48.38856707912553,12670.308252338691,190.40442164242063,0.0,0.0,20.578201030850295,-6.39344928624628
victoria_control_concrete_schedTrue_job12,57.89988146623585,44.040091217528676,12670.40161924602,186.6902305413509,0.0,0.0,19.559874867814443,-5.748357907809911
victoria_control_concrete_schedTrue_job13,53.15365008149436,41.220906961452336,12670.05263142037,186.31603933348825,0.0,0.0,14.102911606862637,-4.913772938305737
victoria_control_concrete_schedTrue_job22,76.9239235711425,54.59233446209833,12671.223425322287,190.88289438907802,0.0,0.0,24.992641788818407,-7.484145945381773
victoria_control_concrete_schedTrue_job121,56.665820682234646,43.28876765231979,12670.46646942498,186.06607928046157,0.0,0.0,15.373305746312061,-5.435801057372112
victoria_control_concrete_schedTrue_job89,76.57589912169394,54.22256930223745,12672.772530386628,188.51361972249506,0.0,0.0,28.53897744119678,-6.991469098483943
victoria_control_concrete_schedTrue_job58,55.93415718749154,42.96385447254612,12670.015218808532,188.03039075392144,0.0,0.0,15.820216428729424,-5.14781736837832
victoria_control_concrete_schedTrue_job149,72.78508527950095,52.2703181578637,12672.685365481244,188.20595609985574,0.0,0.0,25.558203589090056,-6.671540719177258
victoria_control_concrete_schedTrue_job16,75.39692680711396,53.85264410339644,12672.228991973803,191.30929348197796,0.0,0.0,27.374567783255408,-6.390685801856577
victoria_control_concrete_schedTrue_job177,85.28807593166297,58.64890546953541,12673.041723958184,190.59452357169152,0.0,0.0,31.59131883803306,-7.394559619662559
victoria_control_concrete_schedTrue_job45,58.46312302687596,44.329455696552834,12670.685734519524,186.05889755594697,0.0,0.0,19.398298000879073,-6.265136917082788
victoria_control_concrete_schedTrue_job155,73.00063527527956,52.831716183568155,12670.689895389238,194.15247967122852,0.0,0.0,24.960954440263922,-6.376470325430947
victoria_control_concrete_schedTrue_job115,57.13380273876467,43.74737337213277,12669.870264408484,189.50827384729544,0.0,0.0,19.516255543789853,-5.669906240239811
victoria_control_concrete_schedTrue_job162,85.97019731259432,58.94911328067949,12673.30637254872,190.3695968324028,0.0,0.0,33.36856894287562,-7.5181173252636455
victoria_control_concrete_schedTrue_job33,73.89627659568609,53.012811175640714,12672.087633171954,190.40475352550456,0.0,0.0,26.254950747307657,-6.690145833422168
victoria_control_concrete_schedTrue_job114,75.07428148770953,53.60599270913092,12672.386718155403,190.27402104665816,0.0,0.0,24.261404936324908,-6.086142950275303
victoria_control_concrete_schedTrue_job41,69.58144273620906,50.840853746802985,12671.837428932966,191.62014036379463,0.0,0.0,23.681568803461747,-6.215227263823717
victoria_control_concrete_schedTrue_job6,64.66811202406053,47.86968329054574,12671.400554035725,187.00122308703456,0.0,0.0,22.08820000446626,-6.702687518551741
victoria_control_concrete_schedTrue_job184,75.03123755686269,53.61874282388065,12671.973851198904,190.71237521959142,0.0,0.0,25.654242057307535,-6.662941416012714
victoria_control_concrete_schedTrue_job159,91.12425819989934,61.77121004450345,12672.621902470813,194.71030810567055,0.0,0.0,35.41652411721678,-7.7382147293028964
victoria_control_concrete_schedTrue_job40,71.08245979441979,51.35539671711,12671.88966981256,187.79105707749557,0.0,0.0,24.08152406224034,-6.389825907177411
victoria_control_concrete_schedTrue_job142,60.500679959086625,45.800723408298296,12669.719942944404,191.34917729583168,0.0,0.0,19.42945346285923,-5.131745289453871
victoria_control_concrete_schedTrue_job56,61.33328516179152,46.282515467801154,12669.90247881358,191.45558020614067,0.0,0.0,19.573606764504852,-5.485041602895667
victoria_control_concrete_schedTrue_job108,71.76371493676737,51.953210945022555,12672.123895374498,191.03815388318924,0.0,0.0,23.859382725563844,-6.207997944830698
victoria_control_concrete_schedTrue_job166,67.19922766485652,49.47890522447247,12670.754667224264,190.45486685572803,0.0,0.0,23.726508824792855,-6.34837214818678
victoria_control_concrete_schedTrue_job186,76.34432480858142,54.4024398834771,12671.938449660931,192.15753559694684,0.0,0.0,26.918830534239373,-6.279456228340731
victoria_control_concrete_schedTrue_job1,71.19600347969994,51.47277976422444,12671.899209636966,188.56904838584407,0.0,0.0,25.746834404802073,-6.901599137718776
victoria_control_concrete_schedTrue_job165,70.8052299267768,51.24652345501477,12671.67950630637,188.27597342151938,0.0,0.0,24.993909011171056,-6.4001166883630525
victoria_control_concrete_schedTrue_job71,69.9603172426652,50.94017805601946,12671.742378669092,190.18144206221515,0.0,0.0,23.481900882863805,-6.298203920915807
victoria_control_concrete_schedTrue_job30,67.57417024157847,49.70286435592926,12670.79400959944,190.76363483165835,0.0,0.0,24.263955159516605,-6.260398345973719
victoria_control_concrete_schedTrue_job170,73.34529016100946,52.66586812274326,12672.40343811678,189.5886477965947,0.0,0.0,24.904813261256578,-6.196832892724522
victoria_control_concrete_schedTrue_job191,70.8156582405373,51.43632611060848,12670.728363344706,190.78798672452658,0.0,0.0,24.66264760007401,-6.583316131970385
victoria_control_concrete_schedTrue_job2,69.98555762976065,50.74941530299432,12672.334574440561,187.36815805651375,0.0,0.0,22.6449823483421,-6.081505721705362
victoria_control_concrete_schedTrue_job99,74.87731176490581,53.56403014990015,12672.540370227207,191.0163530019505,0.0,0.0,26.1326881676012,-6.226124087500384
victoria_control_concrete_schedTrue_job7,78.11381470910628,55.5248079898728,12670.129724468694,194.96183230613212,0.0,0.0,29.992210009133792,-7.307458314689562
victoria_control_concrete_schedTrue_job66,85.44690640420076,59.187602874921765,12671.371324992286,195.56696320216255,0.0,0.0,32.156730902346744,-7.479074033481538
victoria_control_concrete_schedTrue_job76,67.45269286585481,49.47279876558445,12670.871571462561,188.35933502161618,0.0,0.0,21.012868347318403,-6.487767657642486
victoria_control_concrete_schedTrue_job31,51.01645375432617,39.90050093960577,12670.101673028106,185.80809724558608,0.0,0.0,11.944916536825016,-5.333546495976776
victoria_control_concrete_schedTrue_job81,70.33159825773478,51.09171213514232,12672.216931435833,189.56005329741438,0.0,0.0,23.57512444716094,-6.281043495472311
victoria_control_concrete_schedTrue_job34,73.15896941098755,52.50209414820557,12672.557318884768,188.71183653241454,0.0,0.0,24.278577945746115,-6.293959971613539
victoria_control_concrete_schedTrue_job132,55.33386880849611,42.52325328068985,12670.579065078666,186.3756507944677,0.0,0.0,15.478917333975321,-5.3911166740106715
victoria_control_concrete_schedTrue_job10,57.1984096813301,43.65555444618617,12670.504052522958,187.10244566046384,0.0,0.0,18.30894359926792,-5.534455420663583
victoria_control_concrete_schedTrue_job179,91.84750406761816,62.06046958674476,12673.367278163536,194.29552535881686,0.0,0.0,34.49188956117578,-7.575142758144878
victoria_control_concrete_schedTrue_job194,55.136802376216316,42.379257543867936,12670.170460119529,185.8453749518252,0.0,0.0,15.637557852834881,-5.484669236069344
victoria_control_concrete_schedTrue_job8,58.246896058517635,44.34811099062355,12669.960431577736,188.62048506034043,0.0,0.0,19.55451527556818,-6.172479355261405
victoria_control_concrete_schedTrue_job161,80.79247776513917,56.59593271875757,12672.704392369844,191.83494640871868,0.0,0.0,29.405809715235318,-6.884852096578388
victoria_control_concrete_schedTrue_job113,67.06513149121793,49.18652801511323,12671.276366180342,187.23178466210842,0.0,0.0,22.64205450215811,-6.6092857935093505
victoria_control_concrete_schedTrue_job175,65.74826483626407,48.50623949465739,12670.883491620007,187.7068345180012,0.0,0.0,19.697905143109463,-5.941106467825978
victoria_control_concrete_schedTrue_job102,60.341709812851754,45.545026033374526,12670.65498240109,188.4983193929395,0.0,0.0,19.612796017155148,-6.194749182775016
victoria_control_concrete_schedTrue_job138,73.52729115486612,52.971333263544274,12671.865601142355,192.35103969371121,0.0,0.0,27.40828047613939,-6.25965547632169
victoria_control_concrete_schedTrue_job3,80.0447795699707,56.27229817571767,12671.643043438136,192.35171958869472,0.0,0.0,29.259840463994315,-6.966121022700484
victoria_control_concrete_schedTrue_job129,84.85366002643259,58.5457471888717,12673.34832295385,191.6899076010648,0.0,0.0,31.40602214993526,-6.962103878193936
victoria_control_concrete_schedTrue_job131,60.104146239465585,45.519433212483236,12670.125720065984,190.40633873160306,0.0,0.0,20.11429736164283,-5.757452559010744
victoria_control_concrete_schedTrue_job35,69.09016731766658,50.43619004959724,12671.557106888891,189.59946785342672,0.0,0.0,24.379128763826397,-6.271716573543852
victoria_control_concrete_schedTrue_job100,65.27595147234346,48.294040562194844,12670.70293379834,188.39527195954616,0.0,0.0,21.935988141452306,-6.256297717230364
victoria_control_concrete_schedTrue_job187,87.4603078524386,59.790068318425035,12673.084854159266,191.84577472423481,0.0,0.0,30.35684830626431,-7.2185054822466554
victoria_control_concrete_schedTrue_job153,60.855093563335764,45.93090536990029,12670.524395808003,190.09847697925946,0.0,0.0,21.837386499330425,-5.402847574439754
victoria_control_concrete_schedTrue_job158,57.790538691329296,43.963327158510175,12670.962197002324,186.44750501012606,0.0,0.0,17.80958294586786,-5.447235848754104
victoria_control_concrete_schedTrue_job57,63.755171125514096,47.39596481947004,12671.364628043497,187.44415600777225,0.0,0.0,20.957097842429615,-5.994643282784178
victoria_control_concrete_schedTrue_job44,65.77537789765917,48.52957204508244,12671.604896970444,187.8351016038237,0.0,0.0,23.787928957228342,-6.2758869633968715
victoria_control_concrete_schedTrue_job163,87.08840823452275,59.72143739718079,12672.290987823797,192.94182773426868,0.0,0.0,32.82930891925636,-7.518358019929131
victoria_control_concrete_schedTrue_job178,59.51645895556818,44.95921680139123,12670.68015909753,186.51903459697758,0.0,0.0,17.625407369636953,-5.8774441869514895
victoria_control_concrete_schedTrue_job157,81.52892538971383,56.73138266202772,12673.321642105922,189.3065753322686,0.0,0.0,30.97876146311887,-7.00316079522846
victoria_control_concrete_schedTrue_job79,82.37826422919552,57.33320342926436,12672.535236297495,191.42915237473488,0.0,0.0,29.046058196576933,-6.996397227447378
victoria_control_concrete_schedTrue_job96,64.85276943066795,48.06676937285865,12670.722559839352,188.46838256315843,0.0,0.0,22.907264575237612,-6.6361455528800555
victoria_control_concrete_schedTrue_job151,55.30419897456743,42.584216978953336,12670.015975255306,187.89425554497456,0.0,0.0,17.981150144983786,-5.668053116464087
victoria_control_concrete_schedTrue_job109,81.07514452879398,56.64917710761129,12671.885830479221,190.86315869077075,0.0,0.0,28.856347608405528,-7.193718557818293
victoria_control_concrete_schedTrue_job141,55.29210386506697,42.655232705099266,12669.825305140448,189.4265938491509,0.0,0.0,15.598019599481116,-5.1172657874534835
victoria_control_concrete_schedTrue_job86,62.39029097734943,46.594070441114184,12670.902695379322,186.7447634556429,0.0,0.0,20.404375493450065,-6.345235313826013
victoria_control_concrete_schedTrue_job116,62.62471883962232,46.741041277011895,12671.068997444361,187.00611701492562,0.0,0.0,18.603547140888892,-6.0307645411413375
victoria_control_concrete_schedTrue_job122,69.69300258228442,50.608917547776386,12672.207734067437,187.55364441132232,0.0,0.0,21.852098719418457,-6.213480367488433
victoria_control_concrete_schedTrue_job128,74.5701318006283,53.16762555889996,12672.489566794882,187.99352185016872,0.0,0.0,28.107291921944608,-7.011496601325639
victoria_control_concrete_schedTrue_job200,73.46122978778979,52.92094030854449,12672.073467282558,192.13863301732428,0.0,0.0,28.158746579817738,-6.353146496607863
victoria_control_concrete_schedTrue_job152,68.56455826586281,50.08988245959587,12671.617499813241,188.66499235054118,0.0,0.0,24.635494963012086,-6.489965129605174
victoria_control_concrete_schedTrue_job106,82.15041704730137,57.240250191555226,12672.313180256504,191.62524113189662,0.0,0.0,30.405408914246618,-7.4400534523269535
victoria_control_concrete_schedTrue_job36,57.439919178531746,43.778698976224454,12670.656669331265,186.78527155262108,0.0,0.0,17.180596667754006,-5.494350011602695
victoria_control_concrete_schedTrue_job196,84.83417333895737,58.398037503817456,12672.713880362317,190.2134828823323,0.0,0.0,30.141314608538778,-7.845427169494826
victoria_control_concrete_schedTrue_job85,54.74672589544546,42.1580567718826,12670.250746796555,186.0326377924363,0.0,0.0,14.727731431459963,-5.53451638676219
victoria_control_concrete_schedTrue_job43,57.56126694737847,43.80774148207679,12670.720802179674,186.03612452205255,0.0,0.0,17.32200164258009,-5.6651109373476025
victoria_control_concrete_schedTrue_job183,77.40472281933916,54.83537835514926,12672.71142305164,190.89857133069336,0.0,0.0,27.088523260127687,-6.328839895746398
victoria_control_concrete_schedTrue_job120,75.98899554851587,53.97550820204888,12672.700608893587,189.099851765679,0.0,0.0,26.56940766850189,-6.625398350289267
victoria_control_concrete_schedTrue_job20,64.50317855237307,47.79882349139745,12671.668384686422,187.30138420236702,0.0,0.0,21.427313928755403,-5.985631764797571
victoria_control_concrete_schedTrue_job133,66.57087065486567,49.20234530303064,12671.118867179863,191.434102191383,0.0,0.0,22.05145428684184,-5.902716891819161
victoria_control_concrete_schedTrue_job195,63.956311240238044,47.478133797958,12671.502521866709,186.99499522501065,0.0,0.0,17.608182803105226,-5.8077313425578225
victoria_control_concrete_schedTrue_job55,67.1991124600534,49.423760338265915,12671.521054284023,189.6411478896843,0.0,0.0,24.94795903352737,-6.315368644623128
victoria_control_concrete_schedTrue_job174,83.56350369010559,57.89604993392797,12672.379604270225,191.33347436460704,0.0,0.0,28.45530209306849,-7.336249843961674
victoria_control_concrete_schedTrue_job104,59.471630372908926,44.96218931496029,12670.619460752217,187.01211473535747,0.0,0.0,18.31778481461917,-6.078055762836879
victoria_control_concrete_schedTrue_job192,81.89510775384716,57.06910854629653,12671.809083058262,191.096516970814,0.0,0.0,32.046824175129295,-7.622819967263922
victoria_control_concrete_schedTrue_job169,58.80531954443881,44.65628065772958,12670.729523509895,188.3565405444125,0.0,0.0,16.828962190308303,-5.319884942127917
victoria_control_concrete_schedTrue_job90,64.90233690894759,48.013067937828765,12671.575488831553,187.23153743086633,0.0,0.0,19.608990746334747,-5.773124406647181
victoria_control_concrete_schedTrue_job82,63.58551400676207,47.376914194651555,12670.401987417328,188.6240823805073,0.0,0.0,20.86617379687609,-6.443115809402293
victoria_control_concrete_schedTrue_job197,60.157379623368655,45.35408053149911,12670.616650125552,187.02966120136776,0.0,0.0,20.81548277703986,-6.144887989649181
victoria_control_concrete_schedTrue_job73,91.09389551103632,61.5192304288585,12672.705984523818,192.3636979284329,0.0,0.0,33.92330909996246,-8.046476712926712
victoria_control_concrete_schedTrue_job27,69.05809316476902,50.69387911789082,12670.187361561468,193.5448929910195,0.0,0.0,24.961041544598785,-6.263129467595487
victoria_control_concrete_schedTrue_job65,61.21752254168983,46.13515144091252,12670.540966183506,190.06597849499667,0.0,0.0,19.9390366974388,-5.948508996955354
victoria_control_concrete_schedTrue_job180,71.33539929256287,51.725178044244096,12671.550415897495,190.9948948441147,0.0,0.0,22.976714663033885,-6.008752343123902
victoria_control_concrete_schedTrue_job70,54.82195341736101,42.163837442144306,12670.068084031318,185.28082936539602,0.0,0.0,16.819551113816836,-5.962333551875506
victoria_control_concrete_schedTrue_job118,71.28659783803444,51.80981400602997,12671.736877525143,192.5089213757732,0.0,0.0,24.736039910227632,-5.9233685998815915
victoria_control_concrete_schedTrue_job4,71.267940571131,51.41147331690375,12672.298984696223,187.2503390202454,0.0,0.0,25.417788834777305,-6.7470589892471295
victoria_control_concrete_schedTrue_job140,69.28725025282807,50.366076858997154,12671.514893151436,187.15913662125573,0.0,0.0,25.284655630068684,-6.452470439966714
victoria_control_concrete_schedTrue_job67,67.18552896823465,49.43967302603353,12671.5596335485,189.9841666970978,0.0,0.0,24.405046125459094,-6.470766349975246
victoria_control_concrete_schedTrue_job83,74.1974098241822,52.94968073126605,12672.35146210657,187.638954970225,0.0,0.0,25.784326273306135,-6.906984492605858
victoria_control_concrete_schedTrue_job130,63.82649093881657,47.38106608627386,12671.697789824851,186.5990113462696,0.0,0.0,23.012900815191827,-6.054718986802463
victoria_control_concrete_schedTrue_job135,62.302873621999495,46.54432839169225,12671.154176863502,186.72911023728932,0.0,0.0,19.740846520914346,-5.982353416366145
