fname,hlc_mat,hlc_tot,hlc_se,hlc_si,hlc_inf_standard,hlc_inf_current,hlc_tot_pred,pred_err
chicago_control_concrete_schedTrue_job60,77.93613931301012,53.59298359395119,1412.931023840289,195.2975319360833,0.0,0.0,24.749920419510502,-2.359326275443774
chicago_control_concrete_schedTrue_job194,55.136802376216316,41.51524750079787,1411.322291586233,190.7569226089753,0.0,0.0,16.396250328627715,-2.2003315058568553
chicago_control_concrete_schedTrue_job108,71.76371493676737,50.542775415192345,1412.7673489767942,194.44766005117646,0.0,0.0,21.96099016197607,-2.0871169038904362
chicago_control_concrete_schedTrue_job183,77.40472281933916,53.28769958544066,1413.1730882677493,194.5782288906538,0.0,0.0,23.833403546321094,-2.413481559220031
chicago_control_concrete_schedTrue_job12,57.89988146623585,43.11201189530596,1411.4934457789527,191.72772893622206,0.0,0.0,17.483189016433556,-2.112249292400101
chicago_control_concrete_schedTrue_job173,62.8120742122354,45.74915918199233,1411.9559268803994,191.21987600772133,0.0,0.0,20.118553094877925,-2.1445647136281067
chicago_control_concrete_schedTrue_job167,74.36459930285736,51.709857868959396,1412.6666936781835,192.91862547876892,0.0,0.0,24.193953303185097,-2.2834878955677382
chicago_control_concrete_schedTrue_job142,60.500679959086625,44.737603506176676,1411.0447246494964,195.49860037670268,0.0,0.0,18.052117953167453,-2.0266240662013466
chicago_control_concrete_schedTrue_job105,69.48706104558728,49.23208441465605,1412.9148006129635,191.82693812929,0.0,0.0,22.38331347278565,-2.2276393602091886
chicago_control_concrete_schedTrue_job43,57.56126694737847,42.888690047317326,1411.7263158723458,191.02108253811141,0.0,0.0,16.678466916884076,-2.0699837640234477
chicago_control_concrete_schedTrue_job132,55.33386880849611,41.64143011479536,1411.6243897245436,191.0574763544108,0.0,0.0,15.761232640733002,-1.9846551575998213
chicago_control_concrete_schedTrue_job161,80.79247776513917,54.959879111928736,1413.2024209092565,195.69133348029644,0.0,0.0,26.371800527449118,-2.3443486426186517
chicago_control_concrete_schedTrue_job18,65.33364347894315,47.15036280263554,1412.1384591609274,192.5094977646646,0.0,0.0,21.025676566052624,-2.1821287338842197
chicago_control_concrete_schedTrue_job38,52.42414125859128,39.989801039025075,1411.3357346192458,191.47382277107812,0.0,0.0,14.56644174719775,-1.968519883105774
chicago_control_concrete_schedTrue_job14,60.34399039804627,44.462825259053496,1411.8298432803565,191.9113426246596,0.0,0.0,18.18031045902,-2.188142891521565
chicago_control_concrete_schedTrue_job90,64.90233690894759,46.91137980951648,1412.3713921440344,192.27091837583671,0.0,0.0,19.225120218947907,-2.298235931596146
chicago_control_concrete_schedTrue_job198,62.44469611407029,45.7020838876516,1411.4507946776284,193.8668620334039,0.0,0.0,19.43078572117984,-2.305384350648456
chicago_control_concrete_schedTrue_job104,59.471630372908926,43.99417147890499,1411.7490933464953,192.04169261422948,0.0,0.0,18.3684749894908,-2.186073831897641
chicago_control_concrete_schedTrue_job122,69.69300258228442,49.340304087959026,1412.8941084182275,191.90187239957092,0.0,0.0,20.977003086954124,-2.2514625049420154
chicago_control_concrete_schedTrue_job162,85.97019731259432,57.273093127525144,1413.592415399141,195.28006167693698,0.0,0.0,29.22568899134378,-2.5211502364167657
chicago_control_concrete_schedTrue_job120,75.98899554851587,52.55934002268379,1413.1866682432988,193.84753971646214,0.0,0.0,23.209720244909406,-2.416311546470471
chicago_control_concrete_schedTrue_job37,87.6304717575767,58.14688826777577,1413.1433608638738,196.9036130668798,0.0,0.0,28.01949755057062,-2.670505113312206
chicago_control_concrete_schedTrue_job3,80.0447795699707,54.724519154412015,1412.537133285305,197.14566335701574,0.0,0.0,25.524170217664764,-2.524392154961614
chicago_control_concrete_schedTrue_job85,54.74672589544546,41.29842587366501,1411.382994602957,190.85642896245946,0.0,0.0,15.140460208023661,-1.895342996306777
chicago_control_concrete_schedTrue_job130,63.82649093881657,46.25929400755316,1412.43490578323,190.77399406814462,0.0,0.0,20.264452035905176,-2.1338586610898354
chicago_control_concrete_schedTrue_job81,70.33159825773478,49.76009700671497,1412.8361464623895,193.4135922426695,0.0,0.0,22.038378392143265,-2.091506563850981
chicago_control_concrete_schedTrue_job164,70.16463591932809,49.68277093914017,1412.362009485117,193.5181441543684,0.0,0.0,22.147629462552498,-2.4090764540397096
chicago_control_concrete_schedTrue_job103,76.7421740863022,53.018699261622345,1412.8219733974802,195.2049063704604,0.0,0.0,24.879170104883826,-2.1633338473259585
chicago_control_concrete_schedTrue_job32,72.90724924680174,51.01939040956578,1412.6493554509248,193.18280854985767,0.0,0.0,24.084149458145482,-2.2880356786477947
chicago_control_concrete_schedTrue_job87,86.52787784579806,57.82885946677374,1412.505578621652,198.90707709313526,0.0,0.0,28.340172745664567,-2.5601293373769707
chicago_control_concrete_schedTrue_job40,71.08245979441979,50.05513293241369,1412.5642669967033,192.23854070028978,0.0,0.0,21.94636693978288,-2.2375737662165314
chicago_control_concrete_schedTrue_job126,55.45517708568315,41.778657978715174,1411.2524154705993,192.51153363644428,0.0,0.0,16.872679645485086,-1.9936927194867273
chicago_control_concrete_schedTrue_job171,63.6197105960064,46.166979306319305,1412.1510807826728,191.05975849680559,0.0,0.0,19.50469586747066,-2.1687577087777683
chicago_control_concrete_schedTrue_job94,55.35499832236077,41.73405778877343,1411.277764875363,192.77287973029613,0.0,0.0,16.855278066135476,-1.9919342858245557
chicago_control_concrete_schedTrue_job7,78.11381470910628,53.96344222754279,1411.5283482577152,199.1722731780752,0.0,0.0,25.725091046095464,-2.555368309242013
chicago_control_concrete_schedTrue_job114,75.07428148770953,52.132771275873644,1412.9755676495154,194.02686898321568,0.0,0.0,23.120981884212277,-2.2433010297473963
chicago_control_concrete_schedTrue_job98,60.30212438470948,44.41352695334361,1412.0850250678106,191.41223188526686,0.0,0.0,17.975953477522978,-2.2178469012715922
chicago_control_concrete_schedTrue_job166,67.19922766485652,48.25944449956822,1411.831335564835,194.8592515605656,0.0,0.0,21.42089200826362,-2.33570384696786
chicago_control_concrete_schedTrue_job24,63.87858731159141,46.467661842682816,1411.9243889687823,193.89647970143935,0.0,0.0,19.42833771683128,-2.100391898002595
chicago_control_concrete_schedTrue_job91,57.62889342709804,43.01486596586064,1411.3648904925376,192.79576313112,0.0,0.0,17.893487433438235,-2.016297785148705
chicago_control_concrete_schedTrue_job46,74.33968544962619,51.788547361362994,1412.7872057921247,194.18597492133634,0.0,0.0,24.316377694879975,-2.274480806833484
chicago_control_concrete_schedTrue_job64,54.44784614966995,41.115792682509785,1411.3601691122906,190.59167428674652,0.0,0.0,16.487397229163758,-1.9994273589032048
chicago_control_concrete_schedTrue_job66,85.44690640420076,57.44017378814126,1412.2941005334314,200.07296984076703,0.0,0.0,27.537102333322665,-2.7022712530197275
chicago_control_concrete_schedTrue_job158,57.790538691329296,43.005917098604954,1411.8702641026032,190.822822257766,0.0,0.0,17.10867408842482,-2.1310322659261196
chicago_control_concrete_schedTrue_job102,60.341709812851754,44.50346935165752,1411.7435314131912,192.6956954498851,0.0,0.0,19.532815190448765,-2.10787989696135
chicago_control_concrete_schedTrue_job187,87.4603078524386,58.08290578277166,1413.4680938658475,197.02369259250244,0.0,0.0,27.82310318537038,-2.5925232978172303
chicago_control_concrete_schedTrue_job51,76.3553912621211,52.67544684031114,1413.4589237307516,193.04868683055517,0.0,0.0,24.39804753946141,-2.440127862833762
chicago_control_concrete_schedTrue_job172,70.6207974306717,49.94622929295506,1412.386971416622,194.04756982799094,0.0,0.0,22.020258263310343,-2.1819027624048495
chicago_control_concrete_schedTrue_job11,73.2616424257807,51.2872222366749,1412.66908902487,194.53563239251991,0.0,0.0,23.291990391648326,-2.499169700862602
chicago_control_concrete_schedTrue_job181,56.343678079773206,42.21605421824796,1411.5213475260416,191.16820613895527,0.0,0.0,16.858625234502448,-2.0335450220659084
chicago_control_concrete_schedTrue_job30,67.57417024157847,48.445346339377686,1411.8322714539472,194.743323927864,0.0,0.0,21.768404363764382,-2.1318667313288024
chicago_control_concrete_schedTrue_job148,73.67060092896384,51.57310227111427,1412.324707757381,195.77270871770853,0.0,0.0,23.137763392204793,-2.1104154617305646
chicago_control_concrete_schedTrue_job115,57.13380273876467,42.76517651764074,1411.2409889561648,193.3434920200499,0.0,0.0,17.799806052571597,-1.9130804241343462
chicago_control_concrete_schedTrue_job61,57.114149505653685,42.603428116468365,1411.6073707214985,190.29201966963115,0.0,0.0,17.47893844806682,-2.073997272454399
chicago_control_concrete_schedTrue_job41,69.58144273620906,49.48869347141874,1412.4873423837255,195.04519731445112,0.0,0.0,22.05925230478641,-2.051960023735699
chicago_control_concrete_schedTrue_job141,55.29210386506697,41.72845388292697,1411.1121976649465,193.42220099238685,0.0,0.0,15.872394344878437,-1.9878967466416064
chicago_control_concrete_schedTrue_job169,58.80531954443881,43.65508986618995,1411.761917295777,192.55811599831813,0.0,0.0,17.17312555390462,-2.045814793312097
chicago_control_concrete_schedTrue_job136,55.71711493261286,41.94371674506233,1411.289203760435,192.86050852098003,0.0,0.0,16.385702817101876,-1.952597073097131
chicago_control_concrete_schedTrue_job113,67.06513149121793,48.03133773955003,1412.1765186126215,192.28048121263103,0.0,0.0,21.0107194045182,-2.306952356171692
chicago_control_concrete_schedTrue_job6,64.66811202406053,46.76733123720538,1412.1878416672464,191.9107912783675,0.0,0.0,20.433789211728232,-2.2244472886301523
chicago_control_concrete_schedTrue_job89,76.57589912169394,52.77686740689135,1413.2329248028846,193.00701784987274,0.0,0.0,24.932601921825178,-2.2935543913696286
chicago_control_concrete_schedTrue_job79,82.37826422919552,55.74567615503774,1413.0250159156708,196.3947801280333,0.0,0.0,26.10553395672033,-2.5096911441297003
chicago_control_concrete_schedTrue_job188,85.00554886018836,57.06142350333533,1412.8660830282147,197.8922278904955,0.0,0.0,27.280510247138835,-2.3872793064345394
chicago_control_concrete_schedTrue_job135,62.302873621999495,45.49795472325405,1412.0516435795812,191.56366852798214,0.0,0.0,19.6586488329015,-2.1207801930500665
chicago_control_concrete_schedTrue_job52,64.3676556120379,46.70870427889669,1412.0100846167304,193.59875183905964,0.0,0.0,20.090186483932868,-2.096962648213534
chicago_control_concrete_schedTrue_job177,85.28807593166297,56.99270765788391,1413.435216285849,195.55542415664638,0.0,0.0,28.290845405263546,-2.5352101232930515
chicago_control_concrete_schedTrue_job75,74.51733928804998,51.80258183129825,1413.1670882804735,193.17208996799386,0.0,0.0,24.166876361389782,-2.2540439879809746
chicago_control_concrete_schedTrue_job124,59.497394052272575,44.024848369338315,1411.5992778779446,192.36059469073254,0.0,0.0,18.58389275510468,-2.110853837241354
chicago_control_concrete_schedTrue_job195,63.956311240238044,46.39097761652086,1412.22383041394,191.85980648158557,0.0,0.0,18.733973409365156,-2.1673057421281605
chicago_control_concrete_schedTrue_job176,70.61090651966401,49.96528049205141,1412.4446703927792,194.4092949167455,0.0,0.0,22.851116141021578,-2.1711682129573227
chicago_control_concrete_schedTrue_job190,65.22950167562419,47.24056677157301,1411.6098937382988,194.9564872199131,0.0,0.0,20.293886621534785,-2.251890403940674
chicago_control_concrete_schedTrue_job13,53.15365008149436,40.3943072835169,1411.2469677117829,191.05894030415433,0.0,0.0,14.607280789811426,-1.9332900570932452
chicago_control_concrete_schedTrue_job62,52.812989413676526,40.186664827806794,1411.2114209365195,190.82040985264072,0.0,0.0,15.729036589428542,-1.9697271290094065
chicago_control_concrete_schedTrue_job74,55.981489765118745,42.02841346040418,1411.3287611627054,191.5038234158106,0.0,0.0,16.33070973854243,-2.0496623290931417
chicago_control_concrete_schedTrue_job165,70.8052299267768,49.98856269599825,1412.5114017406393,193.29772733505538,0.0,0.0,22.35927293992465,-2.34101216362356
chicago_control_concrete_schedTrue_job145,64.25809462086103,46.57318665108991,1412.0753730569534,192.26469592391825,0.0,0.0,19.936102818888823,-2.2703152800407516
chicago_control_concrete_schedTrue_job174,83.56350369010559,56.298336815906865,1412.9605117860608,196.5473143317427,0.0,0.0,26.070075812338047,-2.6260483686168286
chicago_control_concrete_schedTrue_job157,81.52892538971383,55.12378595794967,1413.6868674266311,193.49720027926315,0.0,0.0,26.36568536943004,-2.3123861539625743
chicago_control_concrete_schedTrue_job73,91.09389551103632,59.744882888737074,1413.2641503274465,197.91910538527057,0.0,0.0,29.432335948619937,-2.831190092024677
chicago_control_concrete_schedTrue_job23,51.88462442755615,39.63848048550582,1411.0051234094058,190.6300303477246,0.0,0.0,14.759522851106697,-1.944470441227347
chicago_control_concrete_schedTrue_job163,87.08840823452275,57.96099150130826,1412.916440300744,197.52529956693908,0.0,0.0,28.717449737464552,-2.5300027519288086
chicago_control_concrete_schedTrue_job178,59.51645895556818,44.00143397905518,1411.7254008928344,191.7139643162819,0.0,0.0,17.306874721611425,-2.0906646913450118
chicago_control_concrete_schedTrue_job127,80.3962420077315,54.64267151935111,1413.646634872373,193.98893947121337,0.0,0.0,25.465535072795777,-2.279047198126417
chicago_control_concrete_schedTrue_job144,54.70651307528831,41.29415921820708,1411.3483080313135,191.2558448511809,0.0,0.0,16.19555866076967,-2.0091221128574297
chicago_control_concrete_schedTrue_job45,58.46312302687596,43.36857220658345,1411.675033677796,190.65798046161217,0.0,0.0,18.20612045123993,-2.098245585271293
chicago_control_concrete_schedTrue_job57,63.755171125514096,46.30250470398373,1412.220461662607,192.15999349015524,0.0,0.0,19.834205347017473,-2.127477544204936
chicago_control_concrete_schedTrue_job175,65.74826483626407,47.387343348153635,1411.8549832107328,192.86900385866238,0.0,0.0,19.6088952499346,-2.209961918412052
chicago_control_concrete_schedTrue_job193,72.48334390661735,50.89909801051844,1412.4402086541907,194.4599899252137,0.0,0.0,22.04015852027035,-2.420760908722926
chicago_control_concrete_schedTrue_job71,69.9603172426652,49.64283630799884,1412.5202353738364,194.472262630642,0.0,0.0,22.122692128083422,-2.2726009649869923
chicago_control_concrete_schedTrue_job196,84.83417333895737,56.77823256493408,1413.1609422208446,195.4251988618396,0.0,0.0,27.347813231089173,-2.516221380866586
chicago_control_concrete_schedTrue_job83,74.1974098241822,51.5814992499573,1412.8962119456344,192.25332746577786,0.0,0.0,23.62348349294578,-2.2774982022522536
chicago_control_concrete_schedTrue_job47,57.35072404917802,42.80880688237722,1411.4418800148344,191.7688048348382,0.0,0.0,16.47296094634403,-2.0908849500386495
chicago_control_concrete_schedTrue_job42,61.89461038584588,45.278700880982996,1411.9766709073142,191.5445820264646,0.0,0.0,18.67087303035701,-2.172586427464708
chicago_control_concrete_schedTrue_job179,91.84750406761816,60.13215586383455,1413.7034142258174,198.6072349799221,0.0,0.0,30.38376526301653,-2.576533952503137
chicago_control_concrete_schedTrue_job44,65.77537789765917,47.340494700032714,1412.3575569511554,191.85494229419172,0.0,0.0,21.0505231255995,-2.063315137677126
chicago_control_concrete_schedTrue_job9,69.74720438508795,49.58149850551574,1411.7032415116134,195.199757565522,0.0,0.0,20.9372820001024,-2.6790197750102998
chicago_control_concrete_schedTrue_job99,74.87731176490581,52.07726542979349,1412.951583825421,194.5783284064874,0.0,0.0,23.235430074231004,-2.199065984978578
chicago_control_concrete_schedTrue_job16,75.39692680711396,52.380586987723156,1412.7765610343372,195.30959340167308,0.0,0.0,23.93031100473695,-2.128965438457982
chicago_control_concrete_schedTrue_job65,61.21752254168983,45.06284351002872,1411.5727984507178,194.2649195037685,0.0,0.0,18.538393195511688,-2.1706979451832638
chicago_control_concrete_schedTrue_job22,76.9239235711425,53.196435807404214,1412.172524096841,196.45338008108033,0.0,0.0,23.62836582808633,-2.6976407454383846
chicago_control_concrete_schedTrue_job186,76.34432480858142,52.857596704611595,1412.6239313228436,195.6065437937223,0.0,0.0,23.77394310586861,-2.199038530442966
chicago_control_concrete_schedTrue_job170,73.34529016100946,51.25845776258366,1412.8961079066726,193.53332318303018,0.0,0.0,22.160822946506443,-2.1206015844880888
chicago_control_concrete_schedTrue_job5,54.684530384123015,41.313744142801895,1411.4112455417394,191.94587737341408,0.0,0.0,15.24106671517548,-1.917391550918195
chicago_control_concrete_schedTrue_job151,55.30419897456743,41.68172462915636,1411.3352331048252,192.27178212789818,0.0,0.0,16.74202512969019,-1.9237255548204146
chicago_control_concrete_schedTrue_job58,55.93415718749154,42.049472459240164,1411.282977628796,192.50120374311484,0.0,0.0,15.378682549710973,-1.742786481000703
chicago_control_concrete_schedTrue_job156,63.360241970243784,46.134805434926385,1411.7651757325116,192.8823403931791,0.0,0.0,20.40477083316131,-2.289273685258326
chicago_control_concrete_schedTrue_job192,81.89510775384716,55.52603442674593,1412.4589907992968,196.4311152320471,0.0,0.0,27.616392934478725,-2.5982414196628554
chicago_control_concrete_schedTrue_job96,64.85276943066795,46.93806981574381,1411.8774413689514,193.16768280319693,0.0,0.0,20.961682948180147,-2.2978249712256407
chicago_control_concrete_schedTrue_job69,60.884527125898025,44.76437872197632,1411.9242558640806,192.07117374919133,0.0,0.0,18.649109113433887,-2.3187468970125735
chicago_control_concrete_schedTrue_job59,65.20972852332228,47.24514024823094,1411.5430417326245,195.21266588706692,0.0,0.0,19.16927692769913,-2.4645540575803686
chicago_control_concrete_schedTrue_job147,77.64570996284931,53.52551632370931,1412.6732844064272,196.2404687498304,0.0,0.0,24.884587979613386,-2.1466298434701834
chicago_control_concrete_schedTrue_job154,69.82603824345298,49.61880341115211,1411.6228212880249,195.16230165552287,0.0,0.0,20.481363951273682,-2.543150616263656
chicago_control_concrete_schedTrue_job117,62.3060932856948,45.6430178266121,1411.989741098619,194.13174686363018,0.0,0.0,18.814869068592735,-2.1509167608675455
chicago_control_concrete_schedTrue_job184,75.03123755686269,52.15748823358004,1412.5920443873792,194.66608577187242,0.0,0.0,23.88720508480546,-2.2186910349116076
chicago_control_concrete_schedTrue_job106,82.15041704730137,55.64854850002881,1412.9839447735744,196.4865928674169,0.0,0.0,26.794752808569015,-2.5334436895847823
chicago_control_concrete_schedTrue_job191,70.8156582405373,50.14994288217537,1411.9422601261292,195.6645743870386,0.0,0.0,21.79906986319927,-2.4225601637939533
chicago_control_concrete_schedTrue_job137,66.34216975606938,47.64557911585882,1412.5959085033892,192.04840236030117,0.0,0.0,20.466280872302942,-2.2175855290600524
chicago_control_concrete_schedTrue_job86,62.39029097734943,45.54368985317713,1411.8517822169586,191.55201888454482,0.0,0.0,20.02619475114504,-2.1604806315788068
chicago_control_concrete_schedTrue_job146,56.81299559355434,42.45801697905983,1411.5850191048507,190.74331063800503,0.0,0.0,15.982029992854025,-1.9520206892737573
chicago_control_concrete_schedTrue_job33,73.89627659568609,51.59757529531688,1412.7369200691635,194.53632128505643,0.0,0.0,23.327909507228632,-2.247443572498554
chicago_control_concrete_schedTrue_job35,69.09016731766658,49.12412005165201,1412.2934224919504,193.2482549003616,0.0,0.0,21.548676686832497,-2.070540494605069
chicago_control_concrete_schedTrue_job197,60.157379623368655,44.34068812456686,1411.6912937247794,191.52630525675877,0.0,0.0,18.99843971022225,-2.1472583477733487
chicago_control_concrete_schedTrue_job8,58.246896058517635,43.35978914497918,1411.3443017241589,192.82678060006359,0.0,0.0,18.38207838990187,-2.105927610662455
chicago_control_concrete_schedTrue_job100,65.27595147234346,47.17502871676935,1411.8097232637301,193.43231272654705,0.0,0.0,19.56126670436678,-2.3198204658346633
chicago_control_concrete_schedTrue_job4,71.267940571131,50.07663355860763,1412.8131495589225,191.2034484327162,0.0,0.0,22.663044778077328,-2.137691186621872
chicago_control_concrete_schedTrue_job72,55.30415982367842,41.61930241487405,1411.1247302151558,190.95500360276932,0.0,0.0,17.089660881793126,-2.0691630153470406
chicago_control_concrete_schedTrue_job134,64.82228391009404,46.98507902030666,1412.0817058933585,194.23568626037883,0.0,0.0,20.323456686455696,-2.0895351248522687
chicago_control_concrete_schedTrue_job152,68.56455826586281,48.85062021628587,1412.4214453314146,193.13331575935746,0.0,0.0,22.208951161432942,-2.186101933752436
chicago_control_concrete_schedTrue_job133,66.57087065486567,47.92775289149878,1411.9584088315387,194.74513076615418,0.0,0.0,20.746888475343518,-1.9975589444750028
chicago_control_concrete_schedTrue_job21,78.03376914309425,53.83692218594565,1411.9519424885175,197.96456959095474,0.0,0.0,24.592692978430147,-2.6953766521772984
chicago_control_concrete_schedTrue_job118,71.28659783803444,50.39509646181287,1412.4016954484312,195.79800585182682,0.0,0.0,21.67995728216936,-2.1843716910356115
chicago_control_concrete_schedTrue_job153,60.855093563335764,44.84730414004185,1411.609529964137,193.91138050451698,0.0,0.0,18.649530725331708,-2.136609607741356
chicago_control_concrete_schedTrue_job149,72.78508527950095,50.89944994933863,1413.1798492548087,192.31230702065602,0.0,0.0,22.950163128775714,-2.201759289762194
chicago_control_concrete_schedTrue_job27,69.05809316476902,49.37268005068986,1411.5251131918494,197.42944288946083,0.0,0.0,21.911086175599998,-2.279104975404323
chicago_control_concrete_schedTrue_job128,74.5701318006283,51.79932997095664,1412.9424347944782,192.77735666871445,0.0,0.0,24.56077074570233,-2.2775561531618855
chicago_control_concrete_schedTrue_job189,59.85487068957632,44.33868377217919,1411.3620254380035,194.6261573323954,0.0,0.0,18.084138505098224,-2.0795182836440596
chicago_control_concrete_schedTrue_job129,84.85366002643259,56.79724324551616,1413.719703403691,195.53633392024463,0.0,0.0,27.87336963761693,-2.3345891143652757
chicago_control_concrete_schedTrue_job140,69.28725025282807,49.14649140225425,1412.2757526832147,192.06444601746037,0.0,0.0,22.217711582870354,-2.2210508834821425
chicago_control_concrete_schedTrue_job31,51.01645375432617,39.13105305878727,1411.293733556262,190.65548599454453,0.0,0.0,13.899420755807824,-1.8658134372852988
chicago_control_concrete_schedTrue_job131,60.104146239465585,44.469947086620955,1411.3141921478782,194.5241467000965,0.0,0.0,18.096936380034837,-2.069479923108478
chicago_control_concrete_schedTrue_job200,73.46122978778979,51.43706842374766,1412.5852795580895,195.28626327174086,0.0,0.0,24.341014504339,-2.144976876886794
chicago_control_concrete_schedTrue_job116,62.62471883962232,45.70490742615087,1411.9695714977142,192.1922861664169,0.0,0.0,18.805160495838788,-2.2352504451220696
chicago_control_concrete_schedTrue_job199,60.107731603656475,44.31864317137185,1411.7450407708004,191.6175148808826,0.0,0.0,17.5870458026603,-2.0767522964784746
chicago_control_concrete_schedTrue_job160,81.17775731077829,55.23947946827467,1412.5506207296146,196.98960182476281,0.0,0.0,26.544385484918543,-2.6558422700478204
chicago_control_concrete_schedTrue_job107,64.64994102281776,46.723334674439336,1412.3445175596023,191.32819445926097,0.0,0.0,19.648134896647804,-2.070512014245004
chicago_control_concrete_schedTrue_job67,67.18552896823465,48.162064774062785,1412.353432093067,193.3849293894369,0.0,0.0,21.555998094200778,-2.1420870248415724
chicago_control_concrete_schedTrue_job39,62.03624491481796,45.42310545766713,1411.8424921831652,192.77761091018996,0.0,0.0,19.223715529697003,-1.9780137938178868
chicago_control_concrete_schedTrue_job150,59.65450337062112,44.04370047732492,1411.9503442491634,191.08443674336982,0.0,0.0,17.680622819548915,-2.2652337095662105
chicago_control_concrete_schedTrue_job36,57.439919178531746,42.84198671996473,1411.630116225531,191.43548973524796,0.0,0.0,16.538385607631415,-2.0477609633240554
chicago_control_concrete_schedTrue_job76,67.45269286585481,48.31855399147942,1411.9574875105664,193.7030264049337,0.0,0.0,20.222424222668806,-2.2983287773641337
chicago_control_concrete_schedTrue_job10,57.1984096813301,42.70847518712214,1411.6353451275372,191.4551801953293,0.0,0.0,17.1900766446737,-2.021280206212591
chicago_control_concrete_schedTrue_job155,73.00063527527956,51.40750110487716,1411.830541451864,198.1923712948346,0.0,0.0,22.702647885357486,-2.3347236030293708
chicago_control_concrete_schedTrue_job119,64.74942315976465,46.78295651749742,1412.5693520183618,191.4526761920636,0.0,0.0,18.49826110985167,-2.162349936983368
chicago_control_concrete_schedTrue_job139,61.608385636989006,45.16877028479228,1411.572822332003,192.3371334536064,0.0,0.0,18.56881148420638,-2.318296070836581
chicago_control_concrete_schedTrue_job159,91.12425819989934,59.86802286524996,1413.1330945969535,199.1343971595148,0.0,0.0,30.350980566177896,-2.5585332876855347
chicago_control_concrete_schedTrue_job143,55.51319649577477,41.7272995871717,1411.463419166335,190.7338866293956,0.0,0.0,16.3504195850538,-2.0327036460970795
chicago_control_concrete_schedTrue_job63,56.05769249380419,42.09251221930601,1411.3610284351182,191.94249863858246,0.0,0.0,16.447845573847687,-2.135782343236368
chicago_control_concrete_schedTrue_job92,66.55451636239437,47.95296997727078,1411.7322564186309,195.30716969448218,0.0,0.0,20.25046376704224,-2.3831119240859593
chicago_control_concrete_schedTrue_job68,53.93124714131498,40.839645936261185,1411.3070453686075,191.01025103649897,0.0,0.0,15.430265350568265,-1.939086869242887
chicago_control_concrete_schedTrue_job111,72.27368621062237,50.71852304262875,1412.9480557224854,193.32532822544738,0.0,0.0,22.01370694792945,-2.2087974199858778
chicago_control_concrete_schedTrue_job110,59.22569622046479,43.9765286352903,1411.4960378579378,194.31165601855724,0.0,0.0,17.878964808206078,-2.1081730603086903
chicago_control_concrete_schedTrue_job182,60.46838325455828,44.59527624149176,1411.6214949240807,193.127501108736,0.0,0.0,18.999702997564366,-1.9769387940441625
chicago_control_concrete_schedTrue_job123,52.28860083958738,39.83636892869583,1411.196187094466,189.7733580153817,0.0,0.0,16.097279057027045,-2.0224163686198935
chicago_control_concrete_schedTrue_job55,67.1991124600534,48.17069935607885,1412.3217870019373,193.41219667800854,0.0,0.0,21.860802160417084,-2.0882891991617285
chicago_control_concrete_schedTrue_job101,76.91705528648936,53.17597098996655,1412.6037123656008,196.2109293745329,0.0,0.0,25.631647895182617,-2.2932381278166787
chicago_control_concrete_schedTrue_job56,61.33328516179152,45.187588384522904,1411.2251110498335,195.4267886609117,0.0,0.0,18.63635212870423,-2.1010688304785106
chicago_control_concrete_schedTrue_job168,64.99757772772661,47.00007711530183,1412.1371058534255,192.93005594446285,0.0,0.0,20.459986595374303,-2.224497720593277
chicago_control_concrete_schedTrue_job109,81.07514452879398,55.1478030701574,1412.6751901991775,196.4260131651769,0.0,0.0,25.56938009403316,-2.788905519967024
chicago_control_concrete_schedTrue_job125,66.78340282795884,47.88470693969024,1412.409735926662,192.24469203575728,0.0,0.0,20.691188157109348,-2.284109255299139
chicago_control_concrete_schedTrue_job54,54.07996845309845,40.889641295272824,1411.3055710430724,190.24525457825317,0.0,0.0,16.08698493557533,-1.998971103312094
chicago_control_concrete_schedTrue_job34,73.15896941098755,51.141924266347594,1413.0977044991712,193.16578726562312,0.0,0.0,22.351605887202734,-2.3513408567611798
chicago_control_concrete_schedTrue_job121,56.665820682234646,42.39333369095742,1411.5535027901578,191.10035105618184,0.0,0.0,16.316133397068526,-1.9980289947155008
chicago_control_concrete_schedTrue_job180,71.33539929256287,50.37408494714979,1412.3374368264624,195.11641017206162,0.0,0.0,21.618650304768124,-2.148682338906273
chicago_control_concrete_schedTrue_job138,73.52729115486612,51.49989378803587,1412.5364343662836,195.72623183982338,0.0,0.0,23.57736319188977,-2.175650711597342
chicago_control_concrete_schedTrue_job185,59.08468816493759,43.742269521880985,1411.9501778121835,191.27468619072724,0.0,0.0,17.095271473954657,-2.143785904340593
chicago_control_concrete_schedTrue_job20,64.50317855237307,46.65411782811591,1412.4864126048694,191.4516160105157,0.0,0.0,20.015817135502083,-2.2937001555152
chicago_control_concrete_schedTrue_job70,54.82195341736101,41.314768509325965,1411.3086673608384,190.29532484701562,0.0,0.0,16.960435943057295,-2.0970629357041553
chicago_control_concrete_schedTrue_job82,63.58551400676207,46.28630178164377,1411.566302500597,193.44684673722827,0.0,0.0,19.76180291296868,-2.3253864809058165
chicago_control_concrete_schedTrue_job112,70.79844134990525,49.97425487117829,1412.8368505836775,193.1283834695317,0.0,0.0,22.58852621461661,-2.1942990382885554
