fname,hlc_mat,hlc_tot,hlc_se,hlc_si,hlc_inf_standard,hlc_inf_current,hlc_tot_pred,pred_err
victoria_control_concrete_inf_schedFalse_job79,82.37826422919552,57.71773261677841,12671.393200818255,195.784540803754,90.12179430565158,91.04871350597466,108.09353376595593,-9.214710505200685
victoria_control_concrete_inf_schedFalse_job81,70.33159825773478,51.38649501973976,12671.072988187636,193.68262144613854,90.12179430565158,91.04653711358648,101.5062299183309,-8.751244872488854
victoria_control_concrete_inf_schedFalse_job156,63.360241970243784,47.53687494975454,12669.546540172962,193.2515269395004,90.12179430565158,91.0775679949429,98.5922234202587,-9.165913103353418
victoria_control_concrete_inf_schedFalse_job127,80.3962420077315,56.641054707402304,12672.243895242358,194.63835486736656,90.12179430565158,91.02867849890573,106.48778058483013,-8.731253996307444
victoria_control_concrete_inf_schedFalse_job23,51.88462442755615,40.68082585319525,12668.56788655263,191.23614185211488,90.12179430565158,91.09485123022785,91.98615068910112,-9.023067494863199
victoria_control_concrete_inf_schedFalse_job10,57.1984096813301,43.90937094632826,12669.336423885718,191.85581336990361,90.12179430565158,91.08130665450713,94.5292766053413,-8.920352107187256
victoria_control_concrete_inf_schedFalse_job101,76.91705528648936,54.98442647768551,12670.91741531707,195.80854991281063,90.12179430565158,91.04601260133343,105.13715581783914,-9.002554504850806
victoria_control_concrete_inf_schedFalse_job56,61.33328516179152,46.42649282048087,12668.787090186532,193.9438671951297,90.12179430565158,91.07295198144205,96.96912215229422,-9.003671109167314
victoria_control_concrete_inf_schedFalse_job165,70.8052299267768,51.640649840395675,12670.578058404826,193.70774238159757,90.12179430565158,91.06344440160913,102.63977226864026,-9.144065203329362
victoria_control_concrete_inf_schedFalse_job63,56.05769249380419,43.24743803077612,12669.022482417004,192.1207679644561,90.12179430565158,91.08592202809419,94.44443073060107,-9.036592625614674
victoria_control_concrete_inf_schedFalse_job6,64.66811202406053,48.23341178258434,12670.240171481924,192.67750788927304,90.12179430565158,91.0667999412983,99.15732389836211,-8.966805983090481
victoria_control_concrete_inf_schedFalse_job119,64.74942315976465,48.24788903438683,12670.67080147823,192.18868549043358,90.12179430565158,91.06022654434847,98.76054761099095,-8.800448482296517
victoria_control_concrete_inf_schedFalse_job121,56.665820682234646,43.58165187944192,12669.311643933072,191.600878896668,90.12179430565158,91.08429967931026,94.71739730260305,-9.009983665118355
victoria_control_concrete_inf_schedFalse_job2,69.98555762976065,51.10397916797103,12671.230053078427,192.29413516397432,90.12179430565158,91.05476053873898,100.27787247068017,-8.756960670677898
victoria_control_concrete_inf_schedFalse_job187,87.4603078524386,60.21981938889731,12671.989990001655,196.34190105179948,90.12179430565158,91.04377633584875,110.10802737286947,-9.252703353501786
victoria_control_concrete_inf_schedFalse_job51,76.3553912621211,54.54151507445214,12671.878910354944,193.83261553540248,90.12179430565158,91.03798435959678,104.95252599816865,-8.790220267902484
victoria_control_concrete_inf_schedFalse_job197,60.157379623368655,45.665664218766075,12669.54695070044,192.44473427798718,90.12179430565158,91.0787015084187,96.07390571689137,-8.985273527129067
victoria_control_concrete_inf_schedFalse_job114,75.07428148770953,53.893745284013285,12671.240339244265,193.94995601655125,90.12179430565158,91.04326334362383,102.81000727258017,-8.750721084606184
victoria_control_concrete_inf_schedFalse_job160,81.17775731077829,57.11662247352654,12670.579149127036,195.6767281746586,90.12179430565158,91.06180630417222,107.81395615854318,-9.519136461189433
victoria_control_concrete_inf_schedFalse_job44,65.77537789765917,48.86287545468633,12670.52273414817,192.9289890198521,90.12179430565158,91.05781980864518,99.29231018092807,-8.800036773374018
victoria_control_concrete_inf_schedFalse_job146,56.81299559355434,43.65929560678811,12669.427998251695,191.42079069941693,90.12179430565158,91.0842324051522,94.18523169607055,-8.9450516681394
victoria_control_concrete_inf_schedFalse_job4,71.267940571131,51.79999530911435,12671.254375407569,192.50954377904807,90.12179430565158,91.04954594341376,101.28617505473972,-8.769107960175745
victoria_control_concrete_inf_schedFalse_job30,67.57417024157847,49.94689751240652,12669.718851544123,194.40950820751632,90.12179430565158,91.06068077786382,99.94149899219607,-8.949632933477758
victoria_control_concrete_inf_schedFalse_job139,61.608385636989006,46.49048421192085,12669.22152044431,192.3339515986281,90.12179430565158,91.08454452190846,97.0685566544599,-9.17161599372281
victoria_control_concrete_inf_schedFalse_job73,91.09389551103632,61.94286055959179,12671.6085500744,196.5675391580945,90.12179430565158,91.05366643416295,111.99760646980464,-9.659595318424095
victoria_control_concrete_inf_schedFalse_job106,82.15041704730137,57.6130041858272,12671.241603256347,195.86793763123055,90.12179430565158,91.04947448689447,108.18924336235669,-9.252498472251034
victoria_control_concrete_inf_schedFalse_job191,70.8156582405373,51.687202572326164,12669.564042981114,194.2860935430238,90.12179430565158,91.07768955733407,102.36871536289956,-9.462370881977222
victoria_control_concrete_inf_schedFalse_job71,69.9603172426652,51.22454766553724,12670.656096146811,194.20679636543008,90.12179430565158,91.05444047205371,101.49382699684713,-8.893597161596276
victoria_control_concrete_inf_schedFalse_job76,67.45269286585481,49.79487028135846,12669.66005359812,193.1152043902621,90.12179430565158,91.07937322717758,100.3498516501949,-9.343525172828109
victoria_control_concrete_inf_schedFalse_job188,85.00554886018836,59.0673004213508,12671.213518089526,196.58013620750594,90.12179430565158,91.03879435206298,108.09067596635526,-9.021231413954311
victoria_control_concrete_inf_schedFalse_job37,87.6304717575767,60.2607850624726,12671.512297907871,195.92218940997108,90.12179430565158,91.05008472122158,110.19920284919937,-9.399539458788553
victoria_control_concrete_inf_schedFalse_job182,60.46838325455828,45.881941592477375,12669.49986688971,193.1035209803394,90.12179430565158,91.06883097182798,96.38588936598767,-8.849363952953084
victoria_control_concrete_inf_schedFalse_job186,76.34432480858142,54.6185097162077,12670.85652613114,194.88088151869368,90.12179430565158,91.04163336619524,103.17686628312953,-8.756546952358121
victoria_control_concrete_inf_schedFalse_job172,70.6207974306717,51.56916591663484,12670.534704132784,194.0852672624761,90.12179430565158,91.05602752517373,101.38917576237205,-8.906990225013487
victoria_control_concrete_inf_schedFalse_job133,66.57087065486567,49.368390118399184,12670.009189025252,193.97270282592405,90.12179430565158,91.0559420666824,99.32631968518949,-8.826821912777632
victoria_control_concrete_inf_schedFalse_job163,87.08840823452275,60.069727998401774,12671.238856172395,196.62524407313637,90.12179430565158,91.04911090714747,109.46252687296717,-9.320075133862247
victoria_control_concrete_inf_schedFalse_job158,57.790538691329296,44.24579216758366,12669.85743461834,191.63618396357518,90.12179430565158,91.07498726721451,95.39370462982424,-8.86658063110768
victoria_control_concrete_inf_schedFalse_job13,53.15365008149436,41.466375338473185,12668.845291059492,191.4385675474897,90.12179430565158,91.08917605796792,92.80612534717494,-8.964037864601039
victoria_control_concrete_inf_schedFalse_job148,73.67060092896384,53.25400793511806,12670.611554287696,195.11925240078753,90.12179430565158,91.0453119018242,102.1527191689674,-8.79300633213171
victoria_control_concrete_inf_schedFalse_job42,61.89461038584588,46.654801831771906,12669.96749146252,192.35953476887693,90.12179430565158,91.0723131525037,97.6679194430981,-8.973171925242468
victoria_control_concrete_inf_schedFalse_job82,63.58551400676207,47.65426377578127,12669.261471597849,193.09874913565613,90.12179430565158,91.08124616575398,98.55662505637665,-9.24093089866814
victoria_control_concrete_inf_schedFalse_job66,85.44690640420076,59.34532067927868,12670.263156075114,197.2997787483828,90.12179430565158,91.06149155003561,108.97926617578966,-9.646555158194474
victoria_control_concrete_inf_schedFalse_job34,73.15896941098755,52.87903020164578,12671.459504459599,193.6743381404041,90.12179430565158,91.04660015983795,103.4745561485729,-8.854676155682654
victoria_control_concrete_inf_schedFalse_job180,71.33539929256287,51.970416847847815,12670.413881679237,194.38210967446042,90.12179430565158,91.05523051047231,101.31886875695994,-8.892852517728414
victoria_control_concrete_inf_schedFalse_job140,69.28725025282807,50.78393434816526,12670.468776758498,193.06236659356958,90.12179430565158,91.06441426282063,100.64884331193505,-8.984893617781609
victoria_control_concrete_inf_schedFalse_job189,59.85487068957632,45.544349159094345,12668.863577009435,193.40081901187688,90.12179430565158,91.07940468223028,96.12202617130248,-9.062888684242068
victoria_control_concrete_inf_schedFalse_job169,58.80531954443881,44.874421273949636,12669.543446221665,192.29969605536687,90.12179430565158,91.07399618736457,95.75117234138963,-8.890349513162661
victoria_control_concrete_inf_schedFalse_job199,60.107731603656475,45.62260111675551,12669.535915816377,192.18807984741403,90.12179430565158,91.07949475996975,96.19768195509076,-8.996318385707411
victoria_control_concrete_inf_schedFalse_job178,59.51645895556818,45.27300329234929,12669.503259487616,192.0412656160125,90.12179430565158,91.08219312056808,95.93360276675567,-9.038395168252947
victoria_control_concrete_inf_schedFalse_job16,75.39692680711396,54.144102563908646,12671.125811568301,195.0392731281356,90.12179430565158,91.04205866594279,104.26415482752631,-8.857681238612841
victoria_control_concrete_inf_schedFalse_job7,78.11381470910628,55.63410454205568,12669.093732248755,196.31628371565108,90.12179430565158,91.07095683995888,105.45960790001594,-9.640157108205926
victoria_control_concrete_inf_schedFalse_job64,54.44784614966995,42.26122089207333,12669.167343056639,191.67283025563552,90.12179430565158,91.08544524879375,93.64036321756993,-8.957453620271181
victoria_control_concrete_inf_schedFalse_job136,55.71711493261286,43.04913479370369,12668.84803907407,192.2141633818821,90.12179430565158,91.08559188051477,94.19399092985739,-9.017633020187063
victoria_control_concrete_inf_schedFalse_job70,54.82195341736101,42.473795326120346,12668.936682682877,191.41952197066882,90.12179430565158,91.09385705796389,93.23034044570157,-9.084080300056641
victoria_control_concrete_inf_schedFalse_job24,63.87858731159141,47.832824771284265,12669.980175933551,193.32933420852444,90.12179430565158,91.0650170078652,97.74482491697765,-8.86143926433077
victoria_control_concrete_inf_schedFalse_job41,69.58144273620906,51.03457597102824,12670.729718564551,194.40166793998745,90.12179430565158,91.04761810970889,101.04935476348861,-8.76622209707918
victoria_control_concrete_inf_schedFalse_job153,60.855093563335764,46.118042559982655,12669.459976464826,193.34583585959192,90.12179430565158,91.06915717884289,96.94339486699252,-8.913889165313691
victoria_control_concrete_inf_schedFalse_job175,65.74826483626407,48.835926635973806,12669.71188681051,192.74236240888808,90.12179430565158,91.07654926151415,99.07009475812671,-9.150781830779593
victoria_control_concrete_inf_schedFalse_job33,73.89627659568609,53.33346875598117,12671.05614501302,194.60739725679818,90.12179430565158,91.04747582072407,103.8444929126478,-8.926611459607642
victoria_control_concrete_inf_schedFalse_job122,69.69300258228442,50.964918142993284,12671.059107567517,192.53809188161904,90.12179430565158,91.05403284941237,100.4437012208895,-8.781566122239738
victoria_control_concrete_inf_schedFalse_job111,72.27368621062237,52.42191537431003,12671.245385659542,193.76923306919116,90.12179430565158,91.04699975227138,102.8213778570622,-8.826797561890146
victoria_control_concrete_inf_schedFalse_job138,73.52729115486612,53.18908833746485,12670.77368985136,195.2539757449236,90.12179430565158,91.04148224724648,103.08718611156782,-8.804248983247703
victoria_control_concrete_inf_schedFalse_job115,57.13380273876467,43.928475576657554,12668.79902213787,192.95446518269443,90.12179430565158,91.07553625380581,94.6138916187526,-8.877948987703363
victoria_control_concrete_inf_schedFalse_job62,52.812989413676526,41.25207826800798,12668.858381709088,191.29480723062213,90.12179430565158,91.09134698968147,92.70004180400954,-9.001637277191705
victoria_control_concrete_inf_schedFalse_job168,64.99757772772661,48.44495322001165,12670.01494974217,193.12961415083214,90.12179430565158,91.07435327229157,99.34971502490478,-9.1360213325176
victoria_control_concrete_inf_schedFalse_job132,55.33386880849611,42.79466923795083,12669.454634062884,191.70484917228472,90.12179430565158,91.08312512192293,93.98404506603958,-8.917797936007005
victoria_control_concrete_inf_schedFalse_job57,63.755171125514096,47.73669330846177,12670.24177340094,192.8893720992104,90.12179430565158,91.06629675285508,98.59358810787731,-8.913688627761985
victoria_control_concrete_inf_schedFalse_job105,69.48706104558728,50.88389180212057,12671.280706400468,192.957150257753,90.12179430565158,91.04901528232503,101.38930642853445,-8.761249260062698
victoria_control_concrete_inf_schedFalse_job143,55.51319649577477,42.88782602671241,12669.257144504705,191.42514985286462,90.12179430565158,91.08194455396297,94.11036549507233,-8.912127649537908
victoria_control_concrete_inf_schedFalse_job198,62.44469611407029,47.01054211523786,12669.108572399788,193.09783445188697,90.12179430565158,91.08485891609692,98.01705146684853,-9.280289226960818
victoria_control_concrete_inf_schedFalse_job176,70.61090651966401,51.577884056296874,12670.771925046687,194.28359891625004,90.12179430565158,91.04983495181553,102.04125959619915,-8.867372930657027
victoria_control_concrete_inf_schedFalse_job128,74.5701318006283,53.626469761051865,12671.408371090834,193.8587545482082,90.12179430565158,91.05081387570215,104.32245743412793,-9.006474937410701
victoria_control_concrete_inf_schedFalse_job173,62.8120742122354,47.18540957526119,12669.941339745435,192.5461924691728,90.12179430565158,91.07252606908266,97.74580389091216,-8.967627357777673
victoria_control_concrete_inf_schedFalse_job9,69.74720438508795,51.06979584028443,12669.335338401226,193.6249893024627,90.12179430565158,91.08634426261139,101.64851910998081,-9.64162417497674
victoria_control_concrete_inf_schedFalse_job86,62.39029097734943,46.94424400053093,12669.786328453272,192.50007105514754,90.12179430565158,91.0738091459046,97.8817736572027,-9.013180368827946
victoria_control_concrete_inf_schedFalse_job55,67.1991124600534,49.70049133412251,12670.501700542678,193.78143595255352,90.12179430565158,91.05676789267864,100.06500502946662,-8.861559910225495
victoria_control_concrete_inf_schedFalse_job145,64.25809462086103,48.01076437153519,12670.097735518435,192.77128314602254,90.12179430565158,91.06952597789662,98.94876155271392,-9.007780332687346
victoria_control_concrete_inf_schedFalse_job118,71.28659783803444,51.97451103718667,12670.655217280679,194.80283623732555,90.12179430565158,91.04418694551288,102.01993359698929,-8.787526788355024
victoria_control_concrete_inf_schedFalse_job38,52.42414125859128,41.018620468227155,12668.850545299105,191.3854780486325,90.12179430565158,91.08900242901709,92.34209609120308,-8.930004565799791
victoria_control_concrete_inf_schedFalse_job107,64.64994102281776,48.19024162780474,12670.433772513452,192.15075537955374,90.12179430565158,91.067208340199,98.20928507517138,-8.88091512362314
victoria_control_concrete_inf_schedFalse_job52,64.3676556120379,48.11808604812814,12669.93782398736,193.51618292562168,90.12179430565158,91.0640897556592,98.75244963233646,-8.9155385987018
victoria_control_concrete_inf_schedFalse_job61,57.114149505653685,43.85283303408715,12669.50430985599,191.72448092197467,90.12179430565158,91.08100348964525,94.95179514762305,-8.953580672972521
victoria_control_concrete_inf_schedFalse_job124,59.497394052272575,45.305311074907884,12669.47848082219,192.82391524612427,90.12179430565158,91.07561936511851,96.18026346185871,-8.964122702983744
victoria_control_concrete_inf_schedFalse_job21,78.03376914309425,55.522296060823706,12669.619073525919,195.43125420407603,90.12179430565158,91.0740033676159,105.8150494766478,-9.69168254060827
victoria_control_concrete_inf_schedFalse_job102,60.341709812851754,45.80128860301824,12669.548034891,192.96702226851144,90.12179430565158,91.07240869442712,96.6972503395024,-8.935607616534227
victoria_control_concrete_inf_schedFalse_job27,69.05809316476902,50.811073390744845,12669.102613555271,195.26463102225583,90.12179430565158,91.07158358253338,100.80075881456222,-9.256080836580963
victoria_control_concrete_inf_schedFalse_job123,52.28860083958738,40.92453287626295,12668.933412701184,191.14390564485905,90.12179430565158,91.08951954643595,92.25878815418434,-8.930325888985521
victoria_control_concrete_inf_schedFalse_job87,86.52787784579806,59.834859413193456,12670.674867032589,196.97546985219208,90.12179430565158,91.05719964324987,109.16157248969361,-9.520098202759868
victoria_control_concrete_inf_schedFalse_job83,74.1974098241822,53.4044547113068,12671.30014049362,193.4777952145306,90.12179430565158,91.05208588560193,102.88632629539262,-8.895054108890662
victoria_control_concrete_inf_schedFalse_job11,73.2616424257807,52.98417053430349,12670.877476418691,194.3660016798046,90.12179430565158,91.05879018415014,103.73233975966463,-9.116730488774323
victoria_control_concrete_inf_schedFalse_job110,59.22569622046479,45.16991132464938,12669.279693647766,193.2316025375316,90.12179430565158,91.07126309555557,95.86322945397811,-8.885459129573135
victoria_control_concrete_inf_schedFalse_job65,61.21752254168983,46.33479105864023,12669.35790464238,193.50099983575356,90.12179430565158,91.07293729219789,97.09829181706894,-8.99507312654471
victoria_control_concrete_inf_schedFalse_job116,62.62471883962232,47.07373522749335,12669.894418571133,192.4481146362626,90.12179430565158,91.0730641762478,98.00542170833734,-9.012052798210021
victoria_control_concrete_inf_schedFalse_job179,91.84750406761816,62.39107260513261,12672.331856224353,197.5734078977388,90.12179430565158,91.02938248342186,112.53763046288063,-9.14805471386758
victoria_control_concrete_inf_schedFalse_job192,81.89510775384716,57.472791586802536,12670.742221045271,195.69953997307582,90.12179430565158,91.06567043041123,107.79830627010573,-9.607506385736187
victoria_control_concrete_inf_schedFalse_job177,85.28807593166297,59.139975182888875,12671.93448885597,195.88049560697837,90.12179430565158,91.03898292250975,109.715456827603,-9.12225513368216
victoria_control_concrete_inf_schedFalse_job99,74.87731176490581,53.83449267582899,12671.48896802518,194.50130347510174,90.12179430565158,91.03986303999586,103.97478555528454,-8.787762681702063
victoria_control_concrete_inf_schedFalse_job47,57.35072404917802,44.011732715726595,12669.204197289462,192.09671810268281,90.12179430565158,91.08699586586543,95.01799322831545,-9.071783018701595
victoria_control_concrete_inf_schedFalse_job161,80.79247776513917,56.92274323030925,12671.62703096902,195.642487474225,90.12179430565158,91.03542848813598,107.01268356191451,-8.901555717212148
victoria_control_concrete_inf_schedFalse_job113,67.06513149121793,49.5723657819651,12670.123645758751,192.94867694146205,90.12179430565158,91.07073574949933,99.72789256061304,-9.050403929905528
victoria_control_concrete_inf_schedFalse_job120,75.98899554851587,54.37213629721644,12671.566154696962,194.05959680396973,90.12179430565158,91.04628914874415,104.73716558990168,-8.944387963904248
victoria_control_concrete_inf_schedFalse_job125,66.78340282795884,49.42495698547265,12670.527312486902,193.050573533175,90.12179430565158,91.06099922713402,100.3780768730324,-8.92906109377347
victoria_control_concrete_inf_schedFalse_job135,62.302873621999495,46.88874503315006,12669.980664375784,192.3991222571277,90.12179430565158,91.07127730256911,97.74169789163004,-8.947065256965047
victoria_control_concrete_inf_schedFalse_job170,73.34529016100946,53.00335560862539,12671.348346077466,194.0364379167924,90.12179430565158,91.04380817623314,102.84231577813466,-8.768315941335288
victoria_control_concrete_inf_schedFalse_job183,77.40472281933916,55.141713452662664,12671.642314149629,194.6636294943416,90.12179430565158,91.03454492347525,104.8474358401766,-8.747371195350595
victoria_control_concrete_inf_schedFalse_job39,62.03624491481796,46.77104321098119,12669.765763733212,192.96773415024305,90.12179430565158,91.06758084515998,96.9382155714986,-8.861498604071599
victoria_control_concrete_inf_schedFalse_job18,65.33364347894315,48.644608005038194,12670.274439704655,193.33802349933444,90.12179430565158,91.06460641926019,99.3482252661521,-8.948077448155033
victoria_control_concrete_inf_schedFalse_job159,91.12425819989934,62.07049079012772,12671.589740098765,197.71550493625645,90.12179430565158,91.04392152085792,111.69285563483086,-9.401787914291091
victoria_control_concrete_inf_schedFalse_job166,67.19922766485652,49.71714469586451,12669.634353089004,194.03409073837744,90.12179430565158,91.07494098511573,100.28417695911897,-9.231525574805303
victoria_control_concrete_inf_schedFalse_job74,55.981489765118745,43.18498198583016,12668.827137598066,191.78335152046157,90.12179430565158,91.08988194248533,94.04230518182203,-9.06979873091646
victoria_control_concrete_inf_schedFalse_job89,76.57589912169394,54.67905445346496,12671.737570414718,194.1489787304953,90.12179430565158,91.04313328834269,104.94672597476622,-8.886977810093171
victoria_control_concrete_inf_schedFalse_job67,67.18552896823465,49.68439004944298,12670.507705077272,193.6496505901772,90.12179430565158,91.05464325976091,99.98243989750999,-8.828940189326147
victoria_control_concrete_inf_schedFalse_job185,59.08468816493759,45.00013372950955,12669.911802001976,191.63070853502842,90.12179430565158,91.07642299062445,95.44636642220732,-8.870602676123553
victoria_control_concrete_inf_schedFalse_job92,66.55451636239437,49.35315217857938,12669.503535639167,193.87644106860816,90.12179430565158,91.07941050383565,100.19950154152275,-9.342648554144304
victoria_control_concrete_inf_schedFalse_job117,62.3060932856948,46.949293151296516,12669.902066303037,193.391675583993,90.12179430565158,91.06510030595437,97.63077047984092,-8.877312655608748
victoria_control_concrete_inf_schedFalse_job131,60.104146239465585,45.69131691076313,12668.98290841977,193.45067934762287,90.12179430565158,91.07411323107561,96.28589072314826,-8.95459727067113
victoria_control_concrete_inf_schedFalse_job12,57.89988146623585,44.335004466576954,12669.19402645404,192.10758242422267,90.12179430565158,91.08570625699899,95.4860204227426,-9.086534914602083
victoria_control_concrete_inf_schedFalse_job152,68.56455826586281,50.450064085807874,12670.5629649159,193.87875648141514,90.12179430565158,91.06177493533414,101.05985281253281,-8.997490992235143
victoria_control_concrete_inf_schedFalse_job108,71.76371493676737,52.1808252801866,12671.040139940364,194.15255397958495,90.12179430565158,91.0443376594733,101.95801917114945,-8.756144693907089
victoria_control_concrete_inf_schedFalse_job194,55.136802376216316,42.66930477978069,12668.998061893977,191.55577592836693,90.12179430565158,91.09043603310309,93.89545401630626,-9.077276710908492
victoria_control_concrete_inf_schedFalse_job147,77.64570996284931,55.3374204328706,12671.126593922296,195.57900743681168,90.12179430565158,91.03572014962974,104.04742501936744,-8.739381419554817
victoria_control_concrete_inf_schedFalse_job100,65.27595147234346,48.59293499229858,12669.54593408677,193.02722655363854,90.12179430565158,91.08154768214462,98.84144117682857,-9.240550579226863
victoria_control_concrete_inf_schedFalse_job45,58.46312302687596,44.65982066959083,12669.560461824041,192.02103684156668,90.12179430565158,91.07676997373657,95.88880372448676,-8.934749484602122
victoria_control_concrete_inf_schedFalse_job129,84.85366002643259,58.924394553995796,12672.322623600412,195.80996982775318,90.12179430565158,91.0246306083891,108.25241204975325,-8.774868232535411
victoria_control_concrete_inf_schedFalse_job91,57.62889342709804,44.211354827566744,12669.17010299838,192.77906633165082,90.12179430565158,91.07907544552418,95.07981564554633,-8.971658047092916
victoria_control_concrete_inf_schedFalse_job112,70.79844134990525,51.636954724156205,12671.252740487264,193.70640276662442,90.12179430565158,91.04730374272981,101.995484925429,-8.795301517919413
victoria_control_concrete_inf_schedFalse_job200,73.46122978778979,53.14386273320516,12671.0409094121,195.11032136872902,90.12179430565158,91.04088570912096,103.08487320987552,-8.786321600478644
victoria_control_concrete_inf_schedFalse_job58,55.93415718749154,43.16588759426335,12668.83686360998,191.96274771012241,90.12179430565158,91.08624567456648,93.88021627057083,-9.011879509055902
victoria_control_concrete_inf_schedFalse_job142,60.500679959086625,45.94153669517803,12668.580567667399,193.83152641151722,90.12179430565158,91.07495477240064,96.26808614664125,-9.017628181050085
victoria_control_concrete_inf_schedFalse_job35,69.09016731766658,50.71631718782362,12670.524465298235,193.61994799431002,90.12179430565158,91.05462730158726,100.11058334191068,-8.807829318592468
victoria_control_concrete_inf_schedFalse_job164,70.16463591932809,51.28002006743586,12670.321122435236,193.43654910989784,90.12179430565158,91.0679776145151,101.2136033216346,-9.116712551357097
victoria_control_concrete_inf_schedFalse_job90,64.90233690894759,48.366849973742575,12670.34473671926,192.72918448910062,90.12179430565158,91.06673078473925,99.28008740365553,-8.967756104528164
victoria_control_concrete_inf_schedFalse_job174,83.56350369010559,58.28444599161586,12671.235136645542,195.6422482197171,90.12179430565158,91.05112549561768,108.55796843729962,-9.301627100256823
victoria_control_concrete_inf_schedFalse_job85,54.74672589544546,42.4298211399744,12669.087754566384,191.44381713472174,90.12179430565158,91.0854083844314,93.6891256934462,-8.952079831010153
victoria_control_concrete_inf_schedFalse_job144,54.70651307528831,42.41076794311183,12668.974488596356,191.54793195017726,90.12179430565158,91.09248499337615,93.67055197763267,-9.104479805766601
victoria_control_concrete_inf_schedFalse_job60,77.93613931301012,55.44620905245944,12671.215037794263,195.10058770389378,90.12179430565158,91.04496273432646,105.47044518575679,-8.971665506903136
victoria_control_concrete_inf_schedFalse_job72,55.30415982367842,42.76676101115635,12668.731269836999,191.50160881395985,90.12179430565158,91.09212954532467,93.48447996971939,-9.062436588390199
victoria_control_concrete_inf_schedFalse_job54,54.07996845309845,42.02715196912618,12669.0121818453,191.4214961149876,90.12179430565158,91.08565354707075,93.34897924923399,-8.92850826633024
victoria_control_concrete_inf_schedFalse_job22,76.9239235711425,54.902677788684024,12669.991043196382,194.73194505261367,90.12179430565158,91.07781391782281,105.01644593836362,-9.70958200609509
victoria_control_concrete_inf_schedFalse_job8,58.246896058517635,44.561764057381296,12668.88647535234,192.5471556696816,90.12179430565158,91.08335070623772,94.8930388421399,-8.999209185333768
victoria_control_concrete_inf_schedFalse_job5,54.684530384123015,42.40915163180051,12669.059483659525,191.78484093980236,90.12179430565158,91.08374460573245,93.59604953969557,-8.928703074339296
victoria_control_concrete_inf_schedFalse_job162,85.97019731259432,59.45092822370584,12672.302659397581,195.70448092269606,90.12179430565158,91.04010502100982,109.80190937353929,-9.167065814044975
victoria_control_concrete_inf_schedFalse_job134,64.82228391009404,48.387347468460526,12670.18471597417,193.76688883869804,90.12179430565158,91.05844982190054,98.69793178771457,-8.818084724721459
victoria_control_concrete_inf_schedFalse_job137,66.34216975606938,49.161446169147155,12670.805447275588,192.72084281694458,90.12179430565158,91.0566168714099,100.04791147764007,-8.816411694845513
victoria_control_concrete_inf_schedFalse_job190,65.22950167562419,48.62469888324982,12669.241776534667,193.93893679871175,90.12179430565158,91.07507540721552,99.38063857033823,-9.192178325710955
victoria_control_concrete_inf_schedFalse_job103,76.7421740863022,54.83800887021364,12671.176256655692,195.08528515584203,90.12179430565158,91.03938453804584,103.95853223853165,-8.78766064731417
victoria_control_concrete_inf_schedFalse_job46,74.33968544962619,53.565255362613186,12671.014524056403,194.62324590329223,90.12179430565158,91.05453851445266,104.30860888773317,-9.074083807989098
victoria_control_concrete_inf_schedFalse_job154,69.82603824345298,51.10434290053111,12669.105070253689,193.51450524234392,90.12179430565158,91.08770440656038,101.1627951280979,-9.620834301483484
victoria_control_concrete_inf_schedFalse_job75,74.51733928804998,53.620296087078415,12671.55681453569,194.13547007993884,90.12179430565158,91.04270230890977,104.07672034870342,-8.827967718319258
victoria_control_concrete_inf_schedFalse_job151,55.30419897456743,42.798262913383915,12668.920689872966,192.13435393057998,90.12179430565158,91.0853478074557,93.9746497344141,-9.003138664629688
victoria_control_concrete_inf_schedFalse_job155,73.00063527527956,52.961942172531025,12669.574892386909,195.9231287582164,90.12179430565158,91.06523376457943,103.13823643768995,-9.29322927948138
victoria_control_concrete_inf_schedFalse_job68,53.93124714131498,41.94181958710453,12668.974207582414,191.51613065600344,90.12179430565158,91.08906793488507,93.2787987350423,-8.999563290222284
victoria_control_concrete_inf_schedFalse_job94,55.35499832236077,42.830640983164095,12668.899188496893,192.17384958209044,90.12179430565158,91.08300329475352,94.01535419616681,-8.963050586730432
victoria_control_concrete_inf_schedFalse_job31,51.01645375432617,40.13071981654386,12668.858303530358,190.90843315683554,90.12179430565158,91.09460762460905,91.67539721998696,-9.003554361733194
victoria_control_concrete_inf_schedFalse_job167,74.36459930285736,53.51555609004909,12671.074163687972,193.7993169250016,90.12179430565158,91.05638253376132,103.18957331146191,-9.011834754694632
victoria_control_concrete_inf_schedFalse_job126,55.45517708568315,42.89133051587149,12668.870533136567,192.18869198989938,90.12179430565158,91.08436426911868,93.97652564230944,-8.976625121511049
victoria_control_concrete_inf_schedFalse_job36,57.439919178531746,44.06145138976571,12669.563807510702,192.04359498847424,90.12179430565158,91.07973139690077,95.07154431337823,-8.930456742294126
victoria_control_concrete_inf_schedFalse_job149,72.78508527950095,52.65824100618659,12671.541700607575,193.33443279288673,90.12179430565158,91.04341854690792,102.99599268256675,-8.764422268760825
victoria_control_concrete_inf_schedFalse_job141,55.29210386506697,42.80733151786736,12668.660697971867,192.46372124063882,90.12179430565158,91.07953769994432,93.78205643746023,-8.901412054564688
victoria_control_concrete_inf_schedFalse_job184,75.03123755686269,53.92060907330167,12670.9325346676,194.58730189355668,90.12179430565158,91.04834785808018,103.48476058199142,-8.909560561013578
victoria_control_concrete_inf_schedFalse_job104,59.471630372908926,45.262703516871056,12669.488941957125,192.3234001767664,90.12179430565158,91.08032860564914,96.37269811954926,-9.037966594088587
victoria_control_concrete_inf_schedFalse_job150,59.65450337062112,45.32823568718219,12669.798129957157,191.60088246128268,90.12179430565158,91.07374013186362,95.53145573106539,-8.827013190941955
victoria_control_concrete_inf_schedFalse_job98,60.30212438470948,45.721233588192284,12670.02712542642,191.95384341686733,90.12179430565158,91.07207427636382,96.36662346072283,-8.860914233799065
victoria_control_concrete_inf_schedFalse_job3,80.0447795699707,56.54068369343832,12670.474609549086,195.52448572142708,90.12179430565158,91.06299090627606,106.19213978014977,-9.392636390956966
victoria_control_concrete_inf_schedFalse_job69,60.884527125898025,46.08996917852685,12669.751798214942,192.55829433028245,90.12179430565158,91.07886838786041,97.17595296355196,-9.069282771365494
victoria_control_concrete_inf_schedFalse_job20,64.50317855237307,48.13364357835885,12670.586604798456,192.55006700475346,90.12179430565158,91.05981263941882,98.84976816159568,-8.796412689838988
victoria_control_concrete_inf_schedFalse_job43,57.56126694737847,44.11468377079883,12669.534238276154,191.7006532053222,90.12179430565158,91.08305112330477,95.22284978342992,-9.021102070060394
victoria_control_concrete_inf_schedFalse_job59,65.20972852332228,48.58011243666639,12669.121619551079,193.4053474520456,90.12179430565158,91.086583797397,98.82115517599836,-9.380910059700398
victoria_control_concrete_inf_schedFalse_job96,64.85276943066795,48.37918618444766,12669.603387667376,193.36469503213937,90.12179430565158,91.07736441188081,99.31833245666652,-9.204078874534474
victoria_control_concrete_inf_schedFalse_job1,,,,,90.12179430565158,91.05480963614626,102.5267666157452,-8.961407319671594
victoria_control_concrete_inf_schedFalse_job181,56.343678079773206,43.40235186258871,12669.258049009042,191.82537058808674,90.12179430565158,91.08563577941132,94.4480308045483,-9.004663161212576
victoria_control_concrete_inf_schedFalse_job196,84.83417333895737,58.864834202925415,12671.565069285283,195.2571298106543,90.12179430565158,91.04971694553127,108.49258423844151,-9.247037469668584
victoria_control_concrete_inf_schedFalse_job40,71.08245979441979,51.748938807307525,12670.813292924586,193.16288256850117,90.12179430565158,91.05663311744028,101.21993225983917,-8.846619194517714
victoria_control_concrete_inf_schedFalse_job14,60.34399039804627,45.76119322484121,12669.655164182266,192.23413286929093,90.12179430565158,91.07688984063371,96.88803337234994,-9.011831928863472
victoria_control_concrete_inf_schedFalse_job195,63.956311240238044,47.82062448826094,12670.329711639652,192.4230985348566,90.12179430565158,91.0687883322744,98.08759310987139,-8.90959655846919
victoria_control_concrete_inf_schedFalse_job193,72.48334390661735,52.552814863057975,12670.388197310227,194.0511946525655,90.12179430565158,91.06584080539379,102.36428856734192,-9.137491282289417
victoria_control_concrete_inf_schedFalse_job109,81.07514452879398,57.01171242690861,12670.629448917363,195.042169858963,90.12179430565158,91.06799816173282,107.06944259891394,-9.629857322830262
victoria_control_concrete_inf_schedFalse_job171,63.6197105960064,47.61112106362813,12670.191023185926,192.0797190770189,90.12179430565158,91.07087545670993,97.67756986596046,-8.917294540458286
victoria_control_concrete_inf_schedFalse_job157,81.52892538971383,57.17688550456499,12672.244644887793,194.36017459279168,90.12179430565158,91.03080710581013,107.18733214723288,-8.82214910639199
victoria_control_concrete_inf_schedFalse_job130,63.82649093881657,47.72930855738841,12670.64591260612,192.1196767561789,90.12179430565158,91.06115004464219,98.267883452664,-8.78238443138234
victoria_control_concrete_inf_schedFalse_job32,72.90724924680174,52.79237440805692,12670.975438632493,194.28219986052503,90.12179430565158,91.0522781169034,103.21716279819651,-8.95528521733813
