fname,hlc_mat,hlc_tot,hlc_se,hlc_si,hlc_inf_standard,hlc_inf_current,hlc_tot_pred,pred_err
chicago_control_wood_inf_schedFalse_job71,69.78610606202669,49.693674059759765,1408.5541581456832,196.70178576721932,89.97395697914656,90.71990529285449,66.49428377937357,-3.0348644709835497
chicago_control_wood_inf_schedFalse_job61,57.021676208281136,42.63358300220687,1407.943047047826,192.00340494041103,89.97395697914656,90.76773583677198,63.08320779927815,-3.0286241071590396
chicago_control_wood_inf_schedFalse_job156,62.93588940427698,46.04101827077846,1407.8804875766407,195.3014316946109,89.97395697914656,90.74786638610145,64.67532876575135,-3.032984545592086
chicago_control_wood_inf_schedFalse_job200,73.36130264834961,51.49599294831466,1408.7241157177825,196.929485530101,89.97395697914656,90.7123817690622,68.71299262711099,-3.0751715527964762
chicago_control_wood_inf_schedFalse_job38,52.44683933968753,40.009275554982224,1407.5649881215804,191.68723611823188,89.97395697914656,90.77053741952083,61.128564876017386,-2.9891469002771274
chicago_control_wood_inf_schedFalse_job135,62.47985623225848,45.72542695869607,1408.2354862640248,194.00888667584724,89.97395697914656,90.74780738611817,64.16550939827775,-2.994675663458594
chicago_control_wood_inf_schedFalse_job33,74.11476692239317,51.86853394441749,1408.8674284667002,196.9615229415139,89.97395697914656,90.71775127839442,68.73881818219313,-3.07614878265872
chicago_control_wood_inf_schedFalse_job103,76.76578246333105,53.18050966035656,1408.89289756757,197.33724666357352,89.97395697914656,90.70794224960028,68.9605734592256,-3.0599520309733492
chicago_control_wood_inf_schedFalse_job187,86.1386509300404,57.76996955696565,1409.0365184922916,200.3551734365713,89.97395697914656,90.70450319489414,71.56494971801474,-3.1684326166002847
chicago_control_wood_inf_schedFalse_job169,58.83214894294998,43.6711163540566,1407.9311986550454,192.6537770133239,89.97395697914656,90.75749176721214,63.623979343385614,-2.968646810599438
chicago_control_wood_inf_schedFalse_job121,56.62296270503529,42.421761798321896,1407.809388311253,192.24100224784087,89.97395697914656,90.7678949314418,62.46918204787109,-2.9850628580129666
chicago_control_wood_inf_schedFalse_job192,79.9168009223179,54.857861709490265,1408.404137634106,199.76464014984313,89.97395697914656,90.7257218445817,69.77357462749677,-3.193219967286808
chicago_control_wood_inf_schedFalse_job159,90.99384717317879,60.1951096668121,1408.7268597278905,203.54036715738388,89.97395697914656,90.68688860145413,72.25773973733628,-3.2220534402188576
chicago_control_wood_inf_schedFalse_job57,63.66580767096748,46.38675234579768,1408.338624153032,194.522086236715,89.97395697914656,90.7409126014565,64.89206702880587,-3.01155184990526
chicago_control_wood_inf_schedFalse_job185,59.0626276466218,43.742292993672734,1408.06121811917,191.57846543657456,89.97395697914656,90.76722831183442,63.79436837840666,-3.0178290984141825
chicago_control_wood_inf_schedFalse_job12,57.93666856214458,43.23701618911569,1407.7605249780756,193.8827553753092,89.97395697914656,90.75840401770472,62.323525105065336,-2.974109104757538
chicago_control_wood_inf_schedFalse_job79,82.22221108032981,55.929563673775064,1408.8855136787408,199.69299134865474,89.97395697914656,90.7109571871061,70.6214571871967,-3.1529643368478872
chicago_control_wood_inf_schedFalse_job109,79.06316076855471,54.40422190199143,1408.1485583152387,199.09775094802654,89.97395697914656,90.72863850335487,68.97250484021991,-3.167295501337364
chicago_control_wood_inf_schedFalse_job98,60.18037798215064,44.41384136179441,1408.1537353551985,192.728659828609,89.97395697914656,90.75587720050083,63.7270999647032,-3.009824536327585
chicago_control_wood_inf_schedFalse_job110,59.2866040630704,44.031315111817804,1407.7268754223505,194.79783541031125,89.97395697914656,90.73834658607333,63.0527668028945,-2.9769808175311496
chicago_control_wood_inf_schedFalse_job189,59.72897812747824,44.32968007401684,1407.5073435011263,195.8678969757882,89.97395697914656,90.73918255129699,62.80347182769546,-2.9920908181851047
chicago_control_wood_inf_schedFalse_job198,62.26019936426223,45.69959453928735,1407.6769006174789,195.69408358160354,89.97395697914656,90.75155021632482,64.02371152870353,-3.0339795630306696
chicago_control_wood_inf_schedFalse_job172,70.28179505045956,49.92858741616042,1408.5149336967456,196.45583491384133,89.97395697914656,90.72348408482026,66.7536235213415,-3.055708562850242
chicago_control_wood_inf_schedFalse_job75,74.55015985493183,51.99364710468852,1409.1608152139324,195.70661643338616,89.97395697914656,90.72272952849947,69.61130712200566,-3.0906309977856097
chicago_control_wood_inf_schedFalse_job139,61.748100125918924,45.358812004636185,1407.76840820459,194.50490885123736,89.97395697914656,90.75632693724016,63.519632417309914,-2.9965470627446464
chicago_control_wood_inf_schedFalse_job82,63.1636283581123,46.18084186810764,1407.8024223759098,195.6266465693315,89.97395697914656,90.74966658787058,64.29911522519266,-3.0341320614180916
chicago_control_wood_inf_schedFalse_job35,69.12591962757139,49.25629574912499,1408.4958496859058,195.0974972425084,89.97395697914656,90.72927097284779,66.67418192887914,-3.025068346537708
chicago_control_wood_inf_schedFalse_job188,84.7023552427959,57.09653334634667,1408.937743596693,200.06416253969726,89.97395697914656,90.70001009753358,71.2935658002256,-3.1306771486636933
chicago_control_wood_inf_schedFalse_job8,58.339555864767725,43.50973636609599,1407.6826963241429,194.85787724132962,89.97395697914656,90.74446857926215,61.886055751761425,-2.9602507746096123
chicago_control_wood_inf_schedFalse_job45,58.59105569709176,43.537583005503905,1408.039262656846,192.64102035542808,89.97395697914656,90.76073727392907,63.610925612319605,-3.002929185343504
chicago_control_wood_inf_schedFalse_job157,81.45825937983362,55.31006941812852,1409.6887014224708,196.29828267107018,89.97395697914656,90.71535259154327,71.67560133968766,-3.1243036178413917
chicago_control_wood_inf_schedFalse_job21,77.96136686722178,54.001889022460865,1407.746094000425,200.77702986542167,89.97395697914656,90.7202896344871,68.06723690185487,-3.157033941701613
chicago_control_wood_inf_schedFalse_job190,65.12594741961476,47.32718213696796,1407.727469026775,197.46148721694962,89.97395697914656,90.72995540523307,64.21216983212634,-3.0244848896026184
chicago_control_wood_inf_schedFalse_job66,87.58312769312239,58.74615323914385,1407.956997928199,204.314385792651,89.97395697914656,90.69377050157891,70.35540236719186,-3.224000507036749
chicago_control_wood_inf_schedFalse_job134,64.77426231530721,47.017069199209935,1408.1770574061295,195.29332007130512,89.97395697914656,90.72827550033493,65.28272793183916,-3.0118357418171087
chicago_control_wood_inf_schedFalse_job89,76.66007547293219,53.086883249720245,1409.2705980430524,196.7397015923983,89.97395697914656,90.71744483743927,69.32457784278759,-3.096186623399319
chicago_control_wood_inf_schedFalse_job68,53.98308653363056,40.89531157161768,1407.6499548655793,191.64591146604147,89.97395697914656,90.77461883764911,62.06581091653751,-3.009778374653628
chicago_control_wood_inf_schedFalse_job142,60.329225427972716,44.658981631784116,1407.4440046859795,195.8599041707944,89.97395697914656,90.74036902919522,63.266325596088336,-2.989487544783259
chicago_control_wood_inf_schedFalse_job141,55.33318401002408,41.74457835731539,1407.4741410356564,193.33474333121484,89.97395697914656,90.75333569597684,61.84783022269217,-2.944634678556625
chicago_control_wood_inf_schedFalse_job46,73.68598891117564,51.66875190832094,1408.66725781126,197.11946536860364,89.97395697914656,90.72551809140569,68.7369215787295,-3.109020246456069
chicago_control_wood_inf_schedFalse_job193,72.97616811428506,51.360880998145355,1408.3703674403744,197.7485615560302,89.97395697914656,90.72515370296804,66.87236822825841,-3.076001914519537
chicago_control_wood_inf_schedFalse_job178,59.307882405223275,43.94838081941905,1407.867965783902,192.956776174075,89.97395697914656,90.763372616834,63.187794103052006,-2.974268532132662
chicago_control_wood_inf_schedFalse_job36,57.41716306366375,42.87832235399415,1407.9238499090025,192.48732968786538,89.97395697914656,90.76206758464443,63.253555540722154,-3.0330303700799064
chicago_control_wood_inf_schedFalse_job54,54.012135986242285,40.916677439217025,1407.7711671102966,191.74676714690602,89.97395697914656,90.77060112239818,61.735185092752985,-3.0031973690873457
chicago_control_wood_inf_schedFalse_job154,68.89302076467833,49.28049066496855,1407.507562999413,197.38381291171103,89.97395697914656,90.74779389299846,65.32606081912813,-3.089938251304602
chicago_control_wood_inf_schedFalse_job69,60.719857346456166,44.772472771471136,1407.9942166815745,193.95461878196502,89.97395697914656,90.75503162857437,63.901489203169156,-2.9982927630757885
chicago_control_wood_inf_schedFalse_job124,59.47696740612953,44.11200118756878,1407.8510370358633,194.32439806249948,89.97395697914656,90.74563693447338,63.301374034984526,-2.9862396070942125
chicago_control_wood_inf_schedFalse_job179,91.45750313765095,60.28266424280768,1409.3729650094199,202.2268586125669,89.97395697914656,90.68425643155055,73.6581799731053,-3.2109318344634943
chicago_control_wood_inf_schedFalse_job161,81.05092081738569,55.30159819401284,1409.232314406539,198.60456133958766,89.97395697914656,90.70170321555707,70.90088613104496,-3.1201719004237276
chicago_control_wood_inf_schedFalse_job56,61.44640313263915,45.32798257027005,1407.545814378548,196.98124536219746,89.97395697914656,90.72725437345663,62.92226925742298,-2.978523991895372
chicago_control_wood_inf_schedFalse_job173,62.59798232055181,45.783689774964316,1408.1499130017041,193.92126761940384,89.97395697914656,90.75080897543896,64.34072877267144,-2.996983697159891
chicago_control_wood_inf_schedFalse_job11,73.04439956443106,51.3734430604446,1408.5895265384736,197.43038204161982,89.97395697914656,90.72540671449093,67.94015422921386,-3.101047126683511
chicago_control_wood_inf_schedFalse_job6,64.83452524061848,46.99810987139336,1408.404653810694,194.4183561507334,89.97395697914656,90.74483591995818,65.2127252429612,-3.018315403054274
chicago_control_wood_inf_schedFalse_job30,67.765332605015,48.714836011791604,1408.085894556597,197.60364344415353,89.97395697914656,90.7169831217707,65.132764374461,-3.0149987246499705
chicago_control_wood_inf_schedFalse_job20,64.56925879243322,46.79433781683942,1408.6296989528664,193.3132554281646,89.97395697914656,90.74576530370331,65.77331346603154,-3.0025565748975254
chicago_control_wood_inf_schedFalse_job73,93.00335235540636,60.97221387192297,1408.68497529485,202.48116784010526,89.97395697914656,90.70480056392717,72.83379213652972,-3.2416791605625406
chicago_control_wood_inf_schedFalse_job144,54.86127656192868,41.45147905169837,1407.5703326167536,192.8136681176295,89.97395697914656,90.76847500119032,61.2802846844088,-2.9469726785173407
chicago_control_wood_inf_schedFalse_job59,64.69412740190066,47.07235081806858,1407.5254342051846,197.00268097285962,89.97395697914656,90.7436510369152,63.88343251022499,-3.0462935521208863
chicago_control_wood_inf_schedFalse_job10,57.11614945591919,42.678985721867875,1407.7519395304419,191.8575863573121,89.97395697914656,90.76814875668403,63.22596869337246,-3.015808692862244
chicago_control_wood_inf_schedFalse_job118,71.29432556885978,50.44263258096028,1408.5931728574012,196.5327426277055,89.97395697914656,90.71634191697767,67.94535449258771,-3.058257130198271
chicago_control_wood_inf_schedFalse_job119,64.77658050880153,46.863242819654296,1408.6044063290603,192.63796098166839,89.97395697914656,90.75189121392071,66.17556478306071,-3.066842626663842
chicago_control_wood_inf_schedFalse_job42,61.71419864007565,45.3070697403588,1408.1891973185493,193.8829101295749,89.97395697914656,90.75026550097338,63.94170997285983,-2.995252512993112
chicago_control_wood_inf_schedFalse_job137,66.3347033882348,47.71385305985506,1408.7087005744067,193.298780383574,89.97395697914656,90.74683176606831,66.99910398205341,-3.0504857044214475
chicago_control_wood_inf_schedFalse_job140,69.32365742297232,49.37095787207519,1408.5252862767948,195.32126298134816,89.97395697914656,90.73827118570404,66.20619575788405,-3.032359889284848
chicago_control_wood_inf_schedFalse_job171,63.54375548637818,46.221117278982426,1408.2945785186996,192.75747425254073,89.97395697914656,90.75721631657638,64.82549910316123,-2.985667148048151
chicago_control_wood_inf_schedFalse_job194,55.20979182666281,41.62826830147271,1407.6436017751846,192.34461800323803,89.97395697914656,90.77091685621329,61.710581556757916,-2.9512042137606755
chicago_control_wood_inf_schedFalse_job18,65.31813718203675,47.255683223698384,1408.3466897729465,194.48668994596383,89.97395697914656,90.74227507297596,66.1232191835653,-3.034933856416586
chicago_control_wood_inf_schedFalse_job184,74.96318641549783,52.26260655557097,1408.7844893338558,196.67901770427434,89.97395697914656,90.72082694560977,68.61889791516552,-3.0651928449853614
chicago_control_wood_inf_schedFalse_job136,55.51640203640771,41.85099008556804,1407.5526011215811,193.3805974404816,89.97395697914656,90.75950887162497,61.908388710070795,-2.960217799662189
chicago_control_wood_inf_schedFalse_job24,63.821986131222125,46.47957973031549,1408.074761288448,194.70202993303704,89.97395697914656,90.73677245900481,64.71371697039748,-2.9970029853037374
chicago_control_wood_inf_schedFalse_job91,57.50048179500153,42.982595946780094,1407.6475057042392,193.66083410777387,89.97395697914656,90.7531160718832,62.842232645034926,-2.972622331189555
chicago_control_wood_inf_schedFalse_job176,70.68908846572529,50.11257875873394,1408.6781405004172,196.12729323531585,89.97395697914656,90.72246193756872,67.89879271904309,-3.0679469713124945
chicago_control_wood_inf_schedFalse_job102,60.331442727541635,44.57654822634659,1407.9312617260625,194.25194232051052,89.97395697914656,90.74443730729254,63.86192129321703,-2.9937930699156325
chicago_control_wood_inf_schedFalse_job162,84.74808899612654,57.01260224610952,1409.2851830982281,198.7784660344726,89.97395697914656,90.71209159943949,72.20254555749706,-3.181171310806377
chicago_control_wood_inf_schedFalse_job70,54.84799385786098,41.411509411429755,1407.5703359409995,192.1146666267917,89.97395697914656,90.77427129829262,61.579170788363484,-2.963971361859109
chicago_control_wood_inf_schedFalse_job31,50.96927567037729,39.088043161897694,1407.4718248009876,190.36326293205468,89.97395697914656,90.785995485405,61.00295728000539,-2.979329908444491
chicago_control_wood_inf_schedFalse_job126,55.49419035929297,41.81196025208983,1407.5790072046393,192.8172599538464,89.97395697914656,90.76153253422196,62.135978378305644,-2.955072938795844
chicago_control_wood_inf_schedFalse_job87,87.51878131039697,58.628517219282784,1408.2268988534258,203.23905078334633,89.97395697914656,90.69574267128829,70.51071539490842,-3.1995563928029043
chicago_control_wood_inf_schedFalse_job149,72.7881761425935,51.047535751738984,1409.162758952303,194.49774111426663,89.97395697914656,90.73140029271408,68.8607629136443,-3.059086180248258
chicago_control_wood_inf_schedFalse_job14,60.323659094396945,44.54412213342822,1408.043719301858,193.7157776100029,89.97395697914656,90.75433298112632,63.48514021531714,-2.9886635996184268
chicago_control_wood_inf_schedFalse_job128,74.21993314873397,51.84814756186577,1408.9760886678214,195.92908439575191,89.97395697914656,90.73135279846989,68.92463806038029,-3.0963465755720847
chicago_control_wood_inf_schedFalse_job130,63.873021118284676,46.395876504600146,1408.579588538641,192.76579992786216,89.97395697914656,90.74980734039585,65.4259067359337,-3.0292518036657725
chicago_control_wood_inf_schedFalse_job166,67.6516657718647,48.677417541716544,1407.8791223759451,197.96034666112504,89.97395697914656,90.7277198239579,65.08263755632879,-3.068106400838829
chicago_control_wood_inf_schedFalse_job153,60.80759536334421,44.83604399973065,1407.8148299552706,194.25587235764,89.97395697914656,90.74428923836089,64.34808391327513,-2.9961111159283433
chicago_control_wood_inf_schedFalse_job152,68.66437371604083,49.10713495493454,1408.5588953772512,196.45975340563285,89.97395697914656,90.72768580345198,66.39964988563503,-3.05757439981997
chicago_control_wood_inf_schedFalse_job150,59.61977483561039,44.06712719726441,1408.0851030801766,191.9566438146273,89.97395697914656,90.7619034393119,63.55602714962399,-3.016752687820123
chicago_control_wood_inf_schedFalse_job182,60.508244205110756,44.7009134735921,1407.8818930616314,194.78190685274419,89.97395697914656,90.73529034468926,63.32632317694362,-2.980303095077815
chicago_control_wood_inf_schedFalse_job106,81.36383240573565,55.538568168912455,1408.7823584543537,199.7922334858431,89.97395697914656,90.70934259131556,70.44533681344919,-3.152919512107175
chicago_control_wood_inf_schedFalse_job22,76.9252300569283,53.39273712336152,1407.8351507333148,199.23523461015012,89.97395697914656,90.73437165387287,68.12299602120632,-3.1686421615403617
chicago_control_wood_inf_schedFalse_job167,74.44454583712344,52.00841635154514,1408.7517107573972,196.6571680503381,89.97395697914656,90.72728951638166,67.78598752372572,-3.0743948023689427
chicago_control_wood_inf_schedFalse_job3,80.5409119464164,55.209195502608104,1408.2381493128546,200.53070885829342,89.97395697914656,90.71152080519305,68.79851101738916,-3.133013409387644
chicago_control_wood_inf_schedFalse_job111,72.25856237676149,50.84441985538406,1408.9743819992216,195.3538903940254,89.97395697914656,90.72682979680033,68.49190656832495,-3.068732481427787
chicago_control_wood_inf_schedFalse_job81,70.28667397224406,49.84098922327175,1408.8080696529044,195.06336294324512,89.97395697914656,90.72544040539354,67.63749458808424,-3.0429329237091025
chicago_control_wood_inf_schedFalse_job131,59.86836691788968,44.38995399431272,1407.6885555783474,195.5445778433005,89.97395697914656,90.7361677387278,62.948438383082916,-2.98960237590083
chicago_control_wood_inf_schedFalse_job160,80.65219523815811,55.22947285735095,1408.2791945352187,200.10927773424632,89.97395697914656,90.71834554907797,69.87537059919006,-3.1675554014748144
chicago_control_wood_inf_schedFalse_job113,66.86698167664183,48.07988596712152,1408.2697908023404,194.79648482127087,89.97395697914656,90.74699550320688,65.7298629196957,-3.0261295803714887
chicago_control_wood_inf_schedFalse_job146,56.71533697711372,42.43161444758627,1407.8384964871,191.38354671743502,89.97395697914656,90.77355223356236,62.80215519841268,-3.0075004793982174
chicago_control_wood_inf_schedFalse_job44,65.8321316756482,47.48722489558673,1408.5341407926417,193.8665819852761,89.97395697914656,90.74052309234754,66.11396929748695,-3.0127044962296594
chicago_control_wood_inf_schedFalse_job196,84.91886052090382,57.11716936579016,1408.9437640818685,199.11703963607937,89.97395697914656,90.7166124558798,71.31145766973734,-3.16877658967816
chicago_control_wood_inf_schedFalse_job186,76.24943872643978,52.90417611694683,1408.7426181310097,196.95135183794238,89.97395697914656,90.71101060699797,68.8761154926736,-3.0637003414427113
chicago_control_wood_inf_schedFalse_job64,54.37098805683126,41.116489697160254,1407.7335451857166,191.62157468739562,89.97395697914656,90.77283895866502,62.418946412568346,-3.0107616194931808
chicago_control_wood_inf_schedFalse_job164,69.75871034607951,49.644051469844285,1408.277899099793,196.14820807221557,89.97395697914656,90.73706850800765,66.04268139515793,-3.0506784743557773
chicago_control_wood_inf_schedFalse_job145,64.3298672455342,46.754235714545395,1408.296300013963,194.79964208634,89.97395697914656,90.74371287385422,64.79644596472522,-3.0188862083439005
chicago_control_wood_inf_schedFalse_job133,66.61021890232826,47.974793350942825,1408.1896319262387,195.25772385955742,89.97395697914656,90.7305216851129,66.07589934068838,-3.01849086960398
chicago_control_wood_inf_schedFalse_job47,57.20513003302461,42.814952420295185,1407.7351733427386,193.61025192375715,89.97395697914656,90.7604767236516,62.117564260114804,-2.967602341876457
chicago_control_wood_inf_schedFalse_job60,78.05228917158671,53.85854354362853,1408.9107264823278,198.1978207214333,89.97395697914656,90.7105665510823,69.41788820267656,-3.096039437671436
chicago_control_wood_inf_schedFalse_job86,62.22949688883725,45.614731591224675,1408.1317969958593,194.43785001432556,89.97395697914656,90.7479030920151,63.81940224676951,-3.0020790182577883
chicago_control_wood_inf_schedFalse_job43,57.70606519013247,43.02946279792754,1407.9235891234464,192.29202639101132,89.97395697914656,90.76678204742197,62.884225236619315,-2.9640160968357776
chicago_control_wood_inf_schedFalse_job165,71.05796898840597,50.33078718229636,1408.475958829228,196.6355444364089,89.97395697914656,90.73312173404153,67.20322952542469,-3.0821394946915177
chicago_control_wood_inf_schedFalse_job138,73.52602875996561,51.643079774541086,1408.6654009266308,197.89592741578358,89.97395697914656,90.70535925767915,67.93220023251507,-3.0530602036650123
chicago_control_wood_inf_schedFalse_job170,73.38545761799594,51.42986438497756,1408.9827868733344,195.78875076212228,89.97395697914656,90.7194825128546,68.52144527736912,-3.06638024958977
chicago_control_wood_inf_schedFalse_job112,70.7626166017851,50.05381302507417,1408.8780855290488,194.6677483317291,89.97395697914656,90.73082783338839,68.33990442175136,-3.054080213784488
chicago_control_wood_inf_schedFalse_job151,55.4163809551489,41.782692069073505,1407.6774317711331,193.13374351551627,89.97395697914656,90.75957563772727,61.99093808124647,-2.9546991214892984
chicago_control_wood_inf_schedFalse_job94,55.267190605605705,41.67716919900718,1407.5772206311703,192.6933109307934,89.97395697914656,90.7624004823581,62.18509737572474,-2.9541063546371333
chicago_control_wood_inf_schedFalse_job32,72.94934531460233,51.29605221798389,1408.835287797092,196.9772191601933,89.97395697914656,90.72027084409278,68.04090924626114,-3.0871771924919074
chicago_control_wood_inf_schedFalse_job127,80.37571841134809,54.78431001428314,1409.612997732217,195.985496289326,89.97395697914656,90.71340424884318,71.76328954802841,-3.11501237794225
chicago_control_wood_inf_schedFalse_job4,71.34979293718469,50.24639391018692,1409.006087128822,193.17146745438802,89.97395697914656,90.74270485031256,67.81220283735506,-3.0253079756667773
chicago_control_wood_inf_schedFalse_job191,71.18511174891337,50.53528356829155,1407.7873160091076,198.80958183688048,89.97395697914656,90.72873710513343,66.22500252330065,-3.1106385223604036
chicago_control_wood_inf_schedFalse_job27,68.14072400647521,49.042712721430604,1407.4700585135865,199.82484535496738,89.97395697914656,90.71528069201082,64.54705983641193,-3.047019538403461
chicago_control_wood_inf_schedFalse_job52,64.32006466125772,46.78447300079441,1408.1600159907196,195.41867190576954,89.97395697914656,90.73264968965115,65.07581841940434,-3.02154811511285
chicago_control_wood_inf_schedFalse_job13,53.27126397514686,40.50630438346445,1407.6096743516234,192.11394642136705,89.97395697914656,90.76873082309278,61.09056891794937,-2.9577566147823973
chicago_control_wood_inf_schedFalse_job132,55.38699326512291,41.72194726631797,1407.8709652832852,192.1920885885804,89.97395697914656,90.7642249926277,62.24323937207779,-3.013545336900087
chicago_control_wood_inf_schedFalse_job107,64.62152320489986,46.786621658466935,1408.419544828018,192.71925088093644,89.97395697914656,90.7553607003886,65.49196853387296,-3.0190459223145467
chicago_control_wood_inf_schedFalse_job175,65.68361945311939,47.49686552726764,1408.0489523096537,195.33835354602002,89.97395697914656,90.74618537468092,64.53664485086243,-3.02217003544402
chicago_control_wood_inf_schedFalse_job16,75.28600745463056,52.492253708513225,1408.9280942244434,197.70700385432656,89.97395697914656,90.70828597871302,68.7294152318251,-3.0764784002926007
chicago_control_wood_inf_schedFalse_job125,66.61820314989642,47.9295730090126,1408.5728389622168,194.4354571863353,89.97395697914656,90.74317373516833,66.48824970955188,-3.0379734191616308
chicago_control_wood_inf_schedFalse_job101,76.79016127742993,53.356545115350364,1408.6613926751565,199.62280371628933,89.97395697914656,90.70128733587173,68.59714454369873,-3.0976014343727627
chicago_control_wood_inf_schedFalse_job104,59.22354009735025,43.95615589495504,1407.872932738765,194.0062556370608,89.97395697914656,90.75351458591226,62.916237220463806,-2.981948361325273
chicago_control_wood_inf_schedFalse_job34,73.15877769998612,51.29534549215048,1409.1009042869823,195.45091792250446,89.97395697914656,90.72732658540288,68.751129413733,-3.0743865552675516
chicago_control_wood_inf_schedFalse_job39,62.09770796452121,45.514236363283786,1408.0899666961295,193.8994709621616,89.97395697914656,90.74379617811795,64.37119993011171,-2.985743595750307
chicago_control_wood_inf_schedFalse_job99,74.81957831603907,52.139848705270076,1409.0530901291806,195.92450990093846,89.97395697914656,90.71917140048137,69.371797396299,-3.067317750453469
chicago_control_wood_inf_schedFalse_job92,67.23991528312587,48.43142091880912,1407.7597017452274,197.42223909413534,89.97395697914656,90.73736525666743,65.52007537703255,-3.078287875301541
chicago_control_wood_inf_schedFalse_job183,77.36326599609977,53.39869260515564,1409.2932743269519,196.4079572497414,89.97395697914656,90.71142132865205,70.23636557169388,-3.0955025988436233
chicago_control_wood_inf_schedFalse_job5,54.65903911276495,41.293729231247944,1407.6318804570597,191.89794002298507,89.97395697914656,90.76796313192948,62.117147994729734,-2.9665745751975123
chicago_control_wood_inf_schedFalse_job122,69.60429607119251,49.38865217147438,1408.7896630582172,193.39338609306668,89.97395697914656,90.74316468878614,66.96854313167478,-3.012947640736897
chicago_control_wood_inf_schedFalse_job197,60.254122280919,44.499429202867404,1407.9691837425785,193.58907749343342,89.97395697914656,90.75383207664986,63.56994321194227,-2.977881746076214
chicago_control_wood_inf_schedFalse_job9,69.74487619995496,49.72433405378916,1407.590230955268,197.53192433841477,89.97395697914656,90.74728915529678,66.00658473452572,-3.1113085885075265
chicago_control_wood_inf_schedFalse_job116,62.6192858426193,45.81177259911628,1408.1737634234692,194.22040315520755,89.97395697914656,90.74897565641862,64.08544990722152,-3.0029442601486522
chicago_control_wood_inf_schedFalse_job117,62.31801473667723,45.67406868730375,1408.0910105962155,194.6526664057934,89.97395697914656,90.73737194907585,64.63532763717782,-3.001783874483877
chicago_control_wood_inf_schedFalse_job143,55.61675348169826,41.833944422738504,1407.860557795289,191.80818029977573,89.97395697914656,90.76719670557003,62.30223753123916,-3.012107077437875
chicago_control_wood_inf_schedFalse_job62,52.655688091531324,40.10923554503109,1407.6310276085155,191.19728843179416,89.97395697914656,90.78002457426332,61.58059049051066,-2.997203233380205
chicago_control_wood_inf_schedFalse_job108,71.77153808707865,50.628243134186974,1408.7780200248776,195.7373769064816,89.97395697914656,90.71988907466,68.00368667097956,-3.0524422583851134
chicago_control_wood_inf_schedFalse_job58,55.91224031481927,42.029228420029305,1407.5658690476514,192.40581067543636,89.97395697914656,90.76819555367071,62.40454539166873,-2.9535384622627348
chicago_control_wood_inf_schedFalse_job37,86.42648517119675,57.88753433249032,1408.9121924940825,200.21696636462397,89.97395697914656,90.71256723233087,71.75339946708425,-3.201914771090884
chicago_control_wood_inf_schedFalse_job158,57.74552090541341,43.02880382998939,1408.1023168062243,191.8387864528037,89.97395697914656,90.76418321269645,63.38892204452069,-3.0253224025302856
chicago_control_wood_inf_schedFalse_job168,64.33800731843667,46.780109532767746,1408.058322888774,195.17920759434404,89.97395697914656,90.74698882841074,64.87609668934974,-3.032150230795253
chicago_control_wood_inf_schedFalse_job76,67.60934712800837,48.551756516465375,1407.8562677503066,196.2545551625969,89.97395697914656,90.74544793306491,65.29188607710418,-3.0593577701944668
chicago_control_wood_inf_schedFalse_job90,64.89907360036905,47.014859465908096,1408.4204285818066,194.1251748538664,89.97395697914656,90.74695634859762,65.53911699259264,-3.02151982850701
chicago_control_wood_inf_schedFalse_job96,64.55197923938913,46.95787943814621,1407.9100148275245,196.30876250335828,89.97395697914656,90.74014901599293,64.50907319083379,-3.0394587976570335
chicago_control_wood_inf_schedFalse_job74,55.99187366368551,42.10160847722242,1407.5864644903713,192.97973767279797,89.97395697914656,90.7658515793324,61.806014091645,-2.9503444088135637
chicago_control_wood_inf_schedFalse_job83,74.29683109335012,51.85625005527152,1408.9771314222442,195.51031740931,89.97395697914656,90.73011562925984,68.26465274643905,-3.0585748543665545
chicago_control_wood_inf_schedFalse_job180,71.32435180855833,50.47713859410724,1408.426313864053,196.8318168324085,89.97395697914656,90.71960893805482,66.70615787567687,-3.027892529600379
chicago_control_wood_inf_schedFalse_job129,84.84580193525099,57.02404335601589,1409.6729414280428,198.37368610823955,89.97395697914656,90.69421786005982,72.16411423028818,-3.127244255125163
chicago_control_wood_inf_schedFalse_job181,56.42813370396736,42.346280731958146,1407.7818391518133,192.94474396956215,89.97395697914656,90.76152932894809,61.866761367048085,-2.9523736187986174
chicago_control_wood_inf_schedFalse_job115,57.12011100157294,42.80250896749942,1407.4838387638406,194.33853346586048,89.97395697914656,90.74256203803562,62.15593673513492,-2.9557546103207173
chicago_control_wood_inf_schedFalse_job7,79.8896078513843,55.071989529696076,1407.3907834810182,202.82972689814926,89.97395697914656,90.70855022779367,68.16343102668091,-3.1636098407809925
chicago_control_wood_inf_schedFalse_job23,51.936548827556976,39.72331675635945,1407.4293409925754,191.96242953068818,89.97395697914656,90.77386137563715,60.477037605339504,-2.947274321590541
chicago_control_wood_inf_schedFalse_job72,54.919489300226076,41.48970191523322,1407.5563439495295,192.92196239656087,89.97395697914656,90.76736935480714,60.787272666486196,-2.9361014605383104
chicago_control_wood_inf_schedFalse_job123,52.35510082268221,39.933934986515396,1407.6108933481964,191.18266808499598,89.97395697914656,90.77571015803998,61.12659064909469,-2.9839829418760146
chicago_control_wood_inf_schedFalse_job163,86.46469387242539,57.969765408275514,1408.6330158348444,201.00303082970728,89.97395697914656,90.70431563596881,71.50946633576106,-3.1742619073339426
chicago_control_wood_inf_schedFalse_job40,70.94228145468476,50.12485537507081,1408.771743892023,194.38696477069547,89.97395697914656,90.73965532148996,67.5863510237071,-3.0354151047306743
chicago_control_wood_inf_schedFalse_job67,67.10037296115499,48.19635016440694,1408.3933468184605,194.7274292708481,89.97395697914656,90.73371011841907,66.66980095587968,-3.029766617019348
chicago_control_wood_inf_schedFalse_job63,55.948324762980405,42.05894727615983,1407.6781199616894,192.5992580239499,89.97395697914656,90.76721572741569,62.71748371816361,-2.9954220273141487
chicago_control_wood_inf_schedFalse_job105,69.4904709180967,49.36936628628158,1408.9597498488206,193.97626258358102,89.97395697914656,90.73645924104981,67.60666652359512,-3.035070222141769
chicago_control_wood_inf_schedFalse_job65,61.22770257985639,45.118250205229394,1407.7940709127645,195.26777664051653,89.97395697914656,90.73949321193973,63.964339962230326,-3.0064457821093526
chicago_control_wood_inf_schedFalse_job148,73.63007521526028,51.65930334034843,1408.4955576984219,197.38608149530103,89.97395697914656,90.71120539783173,67.55249050825987,-3.02978678837907
chicago_control_wood_inf_schedFalse_job100,64.90808308848389,47.112864542094414,1407.797409620923,195.73708342871623,89.97395697914656,90.74770846633076,64.27312102503203,-3.0259369432585856
chicago_control_wood_inf_schedFalse_job177,85.56182087757034,57.437088518100204,1409.321229378248,199.46797925418855,89.97395697914656,90.70670863313471,72.33323312083567,-3.1703833157086336
chicago_control_wood_inf_schedFalse_job85,54.72261258079405,41.32457169258015,1407.7771220421432,191.77820476407788,89.97395697914656,90.77093619164116,62.06990166724341,-3.009452125103813
chicago_control_wood_inf_schedFalse_job147,77.49823806094503,53.566630829216045,1408.8894461215311,197.8223517742957,89.97395697914656,90.70319304546216,68.99315463511093,-3.054843220118812
chicago_control_wood_inf_schedFalse_job195,63.74183632373186,46.355785563501954,1408.346919078069,193.2761369706084,89.97395697914656,90.75337599067481,64.99216540993936,-2.9967675431644665
chicago_control_wood_inf_schedFalse_job174,83.59949305484669,56.57788065270343,1408.809637495704,199.87457049013042,89.97395697914656,90.71263769228723,70.81025171326505,-3.161343900619997
chicago_control_wood_inf_schedFalse_job155,73.22386057461391,51.69400735490353,1407.7577561559692,200.9039885740445,89.97395697914656,90.70770522940585,66.53974922794309,-3.0930446447636513
chicago_control_wood_inf_schedFalse_job41,69.57756731434961,49.572811653103095,1408.5388502964736,196.4658229512049,89.97395697914656,90.714661681144,66.90257870954125,-3.044852772212323
chicago_control_wood_inf_schedFalse_job199,59.9946569574495,44.335761745807666,1407.9617292094006,193.1710951835484,89.97395697914656,90.75954205573281,63.455065551853636,-2.977322156506773
chicago_control_wood_inf_schedFalse_job114,75.11073645372775,52.241154550089675,1408.9574264317353,195.36683575282703,89.97395697914656,90.72256324173614,68.94589265338698,-3.056041308805547
chicago_control_wood_inf_schedFalse_job55,67.1637483385954,48.27261878840494,1408.4593197756155,195.43856544342438,89.97395697914656,90.72821808715597,66.33637372014863,-3.03790576640084
chicago_control_wood_inf_schedFalse_job120,76.16520123170419,52.85964683836977,1409.1407914788924,196.88857094264907,89.97395697914656,90.71927512878536,69.01230434375424,-3.0973910674903067
chicago_control_wood_inf_schedFalse_job51,76.48696283907296,52.90145551637568,1409.4638609742606,195.33316193612,89.97395697914656,90.72336723999702,70.25145618312025,-3.0915626604571287
