fname,hlc_mat,hlc_tot,hlc_se,hlc_si,c_tot,hlc_inf_standard,hlc_inf_current,hlc_tot_pred,c_tot_pred,estimates,probt,names,loglik,err
chicago_control_wood_schedTrue_job129,84.84580193525099,56.95478817025286,1410.284219383308,197.52608765400714,262153.3931260001,0.0,0.0,49.9714424767004,0.5090957149069939,"[ 18.0093378    2.59673409   0.50909571 -23.98017451  -0.72867676
  20.01142954]",[0.         0.         0.         0.80352479 0.         0.        ],['Ti0' 'Aw' 'Ci' 'e11' 'p11' 'Ria'],1727.05688858307,1.6222327053610996
chicago_control_wood_schedTrue_job79,82.22221108032981,55.927670284367785,1409.5386933831696,199.65574438429041,229575.92105907065,0.0,0.0,49.3751356142128,0.58740563587355,"[ 17.87792058   2.68257476   0.58740564 -23.94123478  -0.71082814
  20.25310893]",[0.         0.         0.         0.86522181 0.         0.        ],['Ti0' 'Aw' 'Ci' 'e11' 'p11' 'Ria'],1634.8339819721803,1.947236685206093
chicago_control_wood_schedTrue_job175,65.68361945311939,47.4685307505572,1408.63735200083,194.84872514540825,258221.6826719609,0.0,0.0,39.8350414588369,0.638729365052083,"[ 17.88979488   2.35511202   0.63872937 -23.88402707  -0.68060044
  25.10352603]",[0.         0.         0.         0.01089327 0.         0.        ],['Ti0' 'Aw' 'Ci' 'e11' 'p11' 'Ria'],1515.69659760221,2.310536959108809
chicago_control_wood_schedTrue_job74,55.99187366368551,42.01233396369113,1408.1548339001902,191.10775244457597,283890.3338678676,0.0,0.0,32.560878615760195,0.537130540737859,"[ 19.86769144   1.94992517   0.53713054 -24.00142024  -0.74135645
  30.71170197]",[0.         0.         0.         0.02390911 0.         0.        ],['Ti0' 'Aw' 'Ci' 'e11' 'p11' 'Ria'],1711.1210334762,1.749554102759106
chicago_control_wood_schedTrue_job54,54.012135986242285,40.80345942376976,1408.3632745037341,189.27477344562374,264498.5811150835,0.0,0.0,32.3608325865477,0.488720456788336,"[ 18.21603039   1.87798445   0.48872046 -24.01475289  -0.74717045
  30.90155352]",[0.         0.         0.         0.93003519 0.         0.        ],['Ti0' 'Aw' 'Ci' 'e11' 'p11' 'Ria'],1701.7728302261498,1.5920834107322932
chicago_control_wood_schedTrue_job168,64.33800731843667,46.71692149275838,1408.6340880210894,194.0730000626252,282678.8441375868,0.0,0.0,38.940630928442104,0.589851198238708,"[ 17.87155876   2.259784     0.5898512  -23.98904421  -0.7349832
  25.68011807]",[0.        0.        0.        0.9486471 0.        0.       ],['Ti0' 'Aw' 'Ci' 'e11' 'p11' 'Ria'],1715.32368868696,2.009855835897497
chicago_control_wood_schedTrue_job145,64.3298672455342,46.6712835267903,1408.9038906858646,193.35623839082817,264138.1346247722,0.0,0.0,39.8066682226777,0.545113273383863,"[ 17.12867632   2.23536324   0.54511327 -23.98263459  -0.72141319
  25.12141922]",[0.         0.         0.         0.80724422 0.         0.        ],['Ti0' 'Aw' 'Ci' 'e11' 'p11' 'Ria'],1636.13391966624,1.8406350768452029
chicago_control_wood_schedTrue_job55,67.1637483385954,48.162439771544584,1408.973395224838,193.63533211281066,253763.5068053687,0.0,0.0,42.588998300957996,0.48107632067194894,"[ 17.43660342   2.27808688   0.48107632 -24.05095702  -0.76275913
  23.48024231]",[0.        0.        0.        0.6486553 0.        0.       ],['Ti0' 'Aw' 'Ci' 'e11' 'p11' 'Ria'],1795.31356920958,1.5745305621063963
chicago_control_wood_schedTrue_job40,70.94228145468476,50.02179526442994,1409.3986850130277,192.83438716680766,289665.2993621428,0.0,0.0,40.4381775155627,0.5248379771241161,"[ 18.00787252   2.20223134   0.52483798 -24.0423916   -0.75712113
  24.72910654]",[0.         0.         0.         0.79005016 0.         0.        ],['Ti0' 'Aw' 'Ci' 'e11' 'p11' 'Ria'],1790.1913329072302,1.6569636153545986
chicago_control_wood_schedTrue_job156,62.93588940427698,45.94746059565758,1408.4034658778285,193.6191103472845,283677.70724305866,0.0,0.0,40.199364241103396,0.535346199886674,"[ 17.87040355   2.30313875   0.5353462  -24.08701987  -0.77961836
  24.8760153 ]",[0.         0.         0.         0.34253985 0.         0.        ],['Ti0' 'Aw' 'Ci' 'e11' 'p11' 'Ria'],1876.0547239389102,1.6928954422992035
chicago_control_wood_schedTrue_job188,84.7023552427959,57.127482691165056,1409.5106279274582,200.43307794253636,263062.90105452854,0.0,0.0,49.989057276659295,0.548074270421328,"[ 17.88769408   2.71298065   0.54807427 -23.96898703  -0.73120666
  20.00437805]",[0.         0.         0.         0.95067545 0.         0.        ],['Ti0' 'Aw' 'Ci' 'e11' 'p11' 'Ria'],1749.5582891497102,1.7545363273326018
chicago_control_wood_schedTrue_job42,61.71419864007565,45.21191847706465,1408.7449877803836,192.1420290319059,255712.09712897032,0.0,0.0,37.4780915791188,0.564120928281293,"[ 17.88576283   2.13109894   0.56412093 -23.98985908  -0.73400297
  26.6822551 ]",[0.         0.         0.         0.28936655 0.         0.        ],['Ti0' 'Aw' 'Ci' 'e11' 'p11' 'Ria'],1672.08932809075,2.2999170754095033
chicago_control_wood_schedTrue_job192,79.9168009223179,54.80275957718559,1408.9418210840918,199.02515897188655,206809.88978826813,0.0,0.0,51.211526556954404,0.488260671964311,"[ 17.51757506   2.65488623   0.48826067 -24.08274043  -0.76492429
  19.52685396]",[0.         0.         0.         0.15108724 0.         0.        ],['Ti0' 'Aw' 'Ci' 'e11' 'p11' 'Ria'],1827.36997887025,1.6266616259828908
chicago_control_wood_schedTrue_job10,57.11614945591919,42.581149594377244,1408.3996357136407,189.88442107618908,323814.1134607914,0.0,0.0,32.6520711429448,0.47969374299814,"[ 19.01821425   1.8861168    0.47969374 -24.05174971  -0.76529614
  30.62592862]",[0.         0.         0.         0.90147822 0.         0.        ],['Ti0' 'Aw' 'Ci' 'e11' 'p11' 'Ria'],1807.8374742294102,1.4887723750843023
chicago_control_wood_schedTrue_job8,58.339555864767725,43.44564997770198,1408.1564792162278,193.57010121641827,227767.04951446212,0.0,0.0,38.4017833414924,0.544350243505423,"[ 17.8003972    2.21335958   0.54435024 -24.01369117  -0.73246298
  26.04045732]",[0.         0.         0.         0.81375815 0.         0.        ],['Ti0' 'Aw' 'Ci' 'e11' 'p11' 'Ria'],1629.7780834287303,1.9432786699108036
chicago_control_wood_schedTrue_job43,57.70606519013247,42.92946318921494,1408.5402139347955,190.2996856801276,274652.8760955609,0.0,0.0,32.2632884133106,0.587544878610924,"[ 18.5358533    1.98799188   0.58754488 -24.02787133  -0.75797366
  30.99498065]",[0.         0.         0.         0.13923704 0.         0.        ],['Ti0' 'Aw' 'Ci' 'e11' 'p11' 'Ria'],1805.7439481874399,1.8097792572710034
chicago_control_wood_schedTrue_job167,74.44454583712344,51.89900643900477,1409.2523010709838,195.09233786928604,225861.60697909354,0.0,0.0,46.4875649412525,0.47364075524783,"[ 16.78294384   2.43149165   0.47364076 -24.11869616  -0.78872227
  21.51112886]",[0.         0.         0.         0.30698933 0.         0.        ],['Ti0' 'Aw' 'Ci' 'e11' 'p11' 'Ria'],1920.42907787534,1.4907530489296974
chicago_control_wood_schedTrue_job144,54.86127656192868,41.36606864609802,1408.1728234117802,190.96836414352853,228664.31344143918,0.0,0.0,32.7255004890953,0.61187913355689,"[ 18.30167251   2.05358851   0.61187913 -23.98101696  -0.73696506
  30.55721028]",[0.         0.         0.         0.11127149 0.         0.        ],['Ti0' 'Aw' 'Ci' 'e11' 'p11' 'Ria'],1682.1393895675303,2.0594780327828985
chicago_control_wood_schedTrue_job83,74.29683109335012,51.73008440028549,1409.5244162421616,193.71857734106885,241888.57421818003,0.0,0.0,43.6852625806575,0.444527993219039,"[ 17.71082638   2.27712512   0.44452799 -24.0936296   -0.78723127
  22.89101498]",[0.         0.         0.         0.90401674 0.         0.        ],['Ti0' 'Aw' 'Ci' 'e11' 'p11' 'Ria'],1914.1194446785603,1.354431940771505
chicago_control_wood_schedTrue_job157,81.45825937983362,55.181468310357104,1410.3476496609162,194.6754351804472,292555.3937647274,0.0,0.0,47.3189486198314,0.46009835525122394,"[ 16.93734882   2.41042586   0.46009836 -24.09462683  -0.78577055
  21.13318299]",[0.         0.         0.         0.62558559 0.         0.        ],['Ti0' 'Aw' 'Ci' 'e11' 'p11' 'Ria'],1950.3675349796802,1.3785558043365924
chicago_control_wood_schedTrue_job6,64.83452524061848,46.892256018503474,1409.0308479370515,192.60793182974163,254519.56944623176,0.0,0.0,40.1260917728615,0.53586935510594,"[ 17.63603141   2.28053057   0.53586936 -24.03345136  -0.74364154
  24.92144029]",[0.         0.         0.         0.42933133 0.         0.        ],['Ti0' 'Aw' 'Ci' 'e11' 'p11' 'Ria'],1776.6458045773602,1.730599805152103
chicago_control_wood_schedTrue_job124,59.47696740612953,44.00718465032295,1408.373304999459,192.2968902946729,265827.2252686622,0.0,0.0,38.6551932728896,0.563069908855428,"[ 17.91021816   2.25462078   0.56306991 -24.03339285  -0.75890223
  25.86974518]",[0.        0.        0.        0.9421323 0.        0.       ],['Ti0' 'Aw' 'Ci' 'e11' 'p11' 'Ria'],1763.4050353676998,1.8852935660470038
chicago_control_wood_schedTrue_job36,57.41716306366375,42.80030950055884,1408.507055413993,190.91437397283886,269201.42871644447,0.0,0.0,32.242415387175605,0.5708408439927,"[ 20.31908275   1.87197805   0.57084084 -23.97735409  -0.72930883
  31.01504611]",[0.         0.         0.         0.74923282 0.         0.        ],['Ti0' 'Aw' 'Ci' 'e11' 'p11' 'Ria'],1624.5064160266102,1.798608185904996
chicago_control_wood_schedTrue_job37,86.42648517119675,57.885528506910475,1409.5455352780966,200.18019274680907,223827.3764947324,0.0,0.0,52.2096971073261,0.551232696812325,"[ 16.97323915   2.73156078   0.5512327  -23.97488241  -0.72425336
  19.15353   ]",[0.         0.         0.         0.04347067 0.         0.        ],['Ti0' 'Aw' 'Ci' 'e11' 'p11' 'Ria'],1687.8748701838,1.865122391144304
chicago_control_wood_schedTrue_job60,78.05228917158671,53.827187937350445,1409.4894313865752,197.76246108522082,277902.5220649961,0.0,0.0,47.35140852040179,0.60930554269676,"[ 17.56552466   2.62080743   0.60930554 -24.07796271  -0.77522104
  21.11869596]",[0.         0.         0.         0.94951459 0.         0.        ],['Ti0' 'Aw' 'Ci' 'e11' 'p11' 'Ria'],1877.3651537187,2.01508654251181
chicago_control_wood_schedTrue_job11,73.04439956443106,51.34179676158129,1409.1722465141802,196.95242715916768,228210.25941079395,0.0,0.0,43.6151974903621,0.599994936033569,"[ 18.69744464   2.45139084   0.59999494 -23.95857594  -0.71677994
  22.92778796]",[0.         0.         0.         0.23781218 0.         0.        ],['Ti0' 'Aw' 'Ci' 'e11' 'p11' 'Ria'],1648.12527054165,1.9869846641094
chicago_control_wood_schedTrue_job98,60.18037798215064,44.33395994478857,1408.8259593738214,191.2210627040085,244260.2398373398,0.0,0.0,33.1327644539917,0.571582640243114,"[ 18.86383319   1.9044284    0.57158264 -23.99323505  -0.74287208
  30.18160472]",[0.         0.         0.         0.94376486 0.         0.        ],['Ti0' 'Aw' 'Ci' 'e11' 'p11' 'Ria'],1720.09251182104,1.7895984938119014
chicago_control_wood_schedTrue_job21,77.96136686722178,54.04695585817734,1408.3374318141928,201.38931852576138,226300.33738967014,0.0,0.0,48.2719115186885,0.611196927882778,"[ 17.65389366   2.66785304   0.61119693 -23.91668307  -0.69185929
  20.71598096]",[0.         0.         0.         0.65105908 0.         0.        ],['Ti0' 'Aw' 'Ci' 'e11' 'p11' 'Ria'],1588.1061561979002,2.1673192027980974
chicago_control_wood_schedTrue_job185,59.0626276466218,43.68204980112348,1408.7336995405685,190.41595075979112,283535.53830915625,0.0,0.0,31.6927891605485,0.523396878800019,"[ 19.02124706   1.83275728   0.52339688 -23.97640883  -0.73951852
  31.55291871]",[0.         0.         0.         0.17018681 0.         0.        ],['Ti0' 'Aw' 'Ci' 'e11' 'p11' 'Ria'],1707.8291019056398,1.5483575789662964
chicago_control_wood_schedTrue_job117,62.31801473667723,45.64201120527557,1408.7413967264574,194.0593964301381,248155.48394578916,0.0,0.0,36.5893918420515,0.6635495071316739,"[ 18.53716925   2.19438513   0.66354951 -23.98307533  -0.73333075
  27.3303258 ]",[0.         0.         0.         0.10112541 0.         0.        ],['Ti0' 'Aw' 'Ci' 'e11' 'p11' 'Ria'],1690.62430869859,2.2045355427825015
chicago_control_wood_schedTrue_job131,59.86836691788968,44.35401541627591,1408.3036760317693,194.83731387592752,261393.0802738635,0.0,0.0,37.9526247708884,0.60275984458191,"[ 18.46852577   2.23150789   0.60275984 -23.9007843   -0.67708947
  26.34863876]",[0.         0.         0.         0.93430806 0.         0.        ],['Ti0' 'Aw' 'Ci' 'e11' 'p11' 'Ria'],1493.6263431906198,2.1689871926585056
chicago_control_wood_schedTrue_job191,71.18511174891337,50.54992357541008,1408.3035582747593,199.0260423235295,229882.28586473368,0.0,0.0,45.481291411059196,0.6443023141533161,"[ 18.00293899   2.63339715   0.64430231 -23.86306449  -0.66505808
  21.98706257]",[0.       0.       0.       0.669332 0.       0.      ],['Ti0' 'Aw' 'Ci' 'e11' 'p11' 'Ria'],1468.8420072241001,2.3783125294799063
chicago_control_wood_schedTrue_job187,86.1386509300404,57.78365193698931,1409.642226462954,200.50758181915,211852.2616234669,0.0,0.0,50.9345360288339,0.5915197353917641,"[ 17.72963711   2.75269866   0.59151974 -23.94604116  -0.70833714
  19.63304426]",[0.         0.         0.         0.94836275 0.         0.        ],['Ti0' 'Aw' 'Ci' 'e11' 'p11' 'Ria'],1676.3895775791,1.9818641620651007
chicago_control_wood_schedTrue_job183,77.36326599609977,53.33399132493822,1409.9750241825463,195.5223456031769,269852.692080902,0.0,0.0,44.1643963148544,0.558924408995277,"[ 17.8934498    2.38596979   0.55892441 -23.96757094  -0.71946262
  22.64267336]",[0.         0.         0.         0.56652437 0.         0.        ],['Ti0' 'Aw' 'Ci' 'e11' 'p11' 'Ria'],1641.84623879703,1.7069538984408013
chicago_control_wood_schedTrue_job59,64.69412740190066,47.086858488024525,1408.104656618647,197.24566299373632,215470.32958605187,0.0,0.0,39.285966180380704,0.6783615538266661,"[ 18.13514197   2.33199321   0.67836155 -23.90907495  -0.68639265
  25.45438224]",[0.         0.         0.         0.94764896 0.         0.        ],['Ti0' 'Aw' 'Ci' 'e11' 'p11' 'Ria'],1504.13326895625,2.3496293741861933
chicago_control_wood_schedTrue_job87,87.51878131039697,58.69412847856965,1408.7123400314606,204.0194984097491,196123.91724658586,0.0,0.0,57.0513801034948,0.524922234922604,"[ 16.65255291   2.95338567   0.52492223 -23.93781095  -0.69381903
  17.52805976]",[0.         0.         0.         0.91359214 0.         0.        ],['Ti0' 'Aw' 'Ci' 'e11' 'p11' 'Ria'],1549.6529576064902,1.7636437731502
chicago_control_wood_schedTrue_job141,55.33318401002408,41.71679955089364,1408.1002243114265,192.7285999661184,270037.96017325064,0.0,0.0,31.943063190401002,0.7356172234563091,"[ 18.37112277   2.04059433   0.73561722 -24.03151796  -0.7600502
  31.30570146]",[0.         0.         0.         0.05595088 0.         0.        ],['Ti0' 'Aw' 'Ci' 'e11' 'p11' 'Ria'],1782.89336314428,2.3498077426720023
chicago_control_wood_schedTrue_job173,62.59798232055181,45.66346499191797,1408.6818021802148,191.77271046911542,279298.0198086922,0.0,0.0,38.7577801609351,0.515560662352389,"[ 17.37593212   2.18086289   0.51556066 -24.06927369  -0.76633118
  25.80127128]",[0.         0.         0.         0.76851662 0.         0.        ],['Ti0' 'Aw' 'Ci' 'e11' 'p11' 'Ria'],1796.6896925345397,1.553581964620399
chicago_control_wood_schedTrue_job160,80.65219523815811,55.221521609502695,1408.8317515473111,199.99379454868682,241365.23623691802,0.0,0.0,50.237390795551605,0.544390325587219,"[ 17.42535876   2.67604533   0.54439033 -24.02922485  -0.75386877
  19.90549239]",[0.         0.         0.         0.51948785 0.         0.        ],['Ti0' 'Aw' 'Ci' 'e11' 'p11' 'Ria'],1798.41225666304,1.7410307898351007
chicago_control_wood_schedTrue_job152,68.66437371604083,49.028716445512146,1409.0597708154453,195.20102742847115,240093.3334324857,0.0,0.0,44.17768230452379,0.5339245548886811,"[ 17.82206375   2.44717369   0.53392455 -24.04177618  -0.75544305
  22.63586381]",[0.         0.         0.         0.93191245 0.         0.        ],['Ti0' 'Aw' 'Ci' 'e11' 'p11' 'Ria'],1763.99906905328,1.7132761719221037
chicago_control_wood_schedTrue_job137,66.3347033882348,47.63254810656366,1409.393103940954,191.95857886801957,295549.9778596241,0.0,0.0,37.571629542334705,0.5586333566659549,"[ 19.19407018   2.08458864   0.55863336 -24.00485524  -0.74311984
  26.61582721]",[0.         0.         0.         0.18488541 0.         0.        ],['Ti0' 'Aw' 'Ci' 'e11' 'p11' 'Ria'],1737.1883473491,1.7560098657693928
chicago_control_wood_schedTrue_job140,69.32365742297232,49.25126857831608,1409.0336835550247,193.4516889890784,249115.60559456813,0.0,0.0,43.017168171836396,0.5001970981641021,"[ 18.00064353   2.31247096   0.5001971  -24.08192842  -0.76713176
  23.24653255]",[0.         0.         0.         0.54944762 0.         0.        ],['Ti0' 'Aw' 'Ci' 'e11' 'p11' 'Ria'],1804.48837504722,1.6544342843042088
chicago_control_wood_schedTrue_job31,50.96927567037729,39.02573847920716,1408.1519726208862,188.88233522153567,311302.98309585993,0.0,0.0,27.5293410268003,0.560140017708202,"[ 18.45482907   1.74223772   0.56014002 -23.45673269  -0.75610645
  36.32487966]",[0 0 0 0 0 0],['Ti0' 'Aw' 'Ci' 'e11' 'p11' 'Ria'],1826.11860082715,1.7011745296313023
chicago_control_wood_schedTrue_job34,73.15877769998612,51.22010120998095,1409.7518648431715,194.35059583315763,263645.3736070549,0.0,0.0,41.2164673756967,0.6086959870749621,"[ 18.08909951   2.31394896   0.60869599 -24.00426732  -0.74471456
  24.26214724]",[0.         0.         0.         0.91185161 0.         0.        ],['Ti0' 'Aw' 'Ci' 'e11' 'p11' 'Ria'],1782.8205104899698,1.8771423972911947
chicago_control_wood_schedTrue_job7,79.8896078513843,55.17862416824743,1407.858918732919,204.27385968424468,215741.54247670044,0.0,0.0,52.651825368769906,0.571997600910777,"[ 16.80340219   2.9133134    0.5719976  -23.9874358   -0.71895552
  18.99269385]",[0.        0.        0.        0.7868739 0.        0.       ],['Ti0' 'Aw' 'Ci' 'e11' 'p11' 'Ria'],1696.92765458139,2.0209015990270984
chicago_control_wood_schedTrue_job96,64.55197923938913,46.88892359353658,1408.4060667224405,195.09971330553384,259244.68469623796,0.0,0.0,42.15500292195,0.512444453092778,"[ 16.94314913   2.35178855   0.51244445 -24.05862512  -0.75767345
  23.72197677]",[0.        0.        0.        0.9500968 0.        0.       ],['Ti0' 'Aw' 'Ci' 'e11' 'p11' 'Ria'],1764.01266946958,1.6560282509102038
chicago_control_wood_schedTrue_job195,63.74183632373186,46.26582708004613,1409.040268444054,191.7090204389557,286513.3533145952,0.0,0.0,35.573279692315396,0.598634177944104,"[ 20.37345447   2.08963248   0.59863418 -23.9508155   -0.7179105
  28.11098692]",[0.         0.         0.         0.88231715 0.         0.        ],['Ti0' 'Aw' 'Ci' 'e11' 'p11' 'Ria'],1641.35139624955,1.9803527768869031
chicago_control_wood_schedTrue_job33,74.11476692239317,51.801626954429295,1409.407713115007,195.98976387996916,269101.2849522916,0.0,0.0,44.223815174988204,0.547446189068716,"[ 18.27688011   2.45577427   0.54744619 -24.02170602  -0.75022758
  22.6122508 ]",[0.         0.         0.         0.94938174 0.         0.        ],['Ti0' 'Aw' 'Ci' 'e11' 'p11' 'Ria'],1809.17713080715,1.777281420618003
chicago_control_wood_schedTrue_job5,54.65903911276495,41.22215526405431,1408.279551851005,190.35010288414668,299944.25680695346,0.0,0.0,30.8636074907456,0.616973321608037,"[ 18.24127513   1.8832516    0.61697332 -23.28823241  -0.7464347
  32.40061941]",[0 0 0 0 0 0],['Ti0' 'Aw' 'Ci' 'e11' 'p11' 'Ria'],1715.41366095689,1.9562163575576008
chicago_control_wood_schedTrue_job16,75.28600745463056,52.44083070620251,1409.5528139767944,196.96729448851033,271577.1221996301,0.0,0.0,45.819725103017795,0.540130235660569,"[ 17.54822954   2.49358376   0.54013024 -23.95695226  -0.70497784
  21.82466171]",[0.         0.         0.         0.95218169 0.         0.        ],['Ti0' 'Aw' 'Ci' 'e11' 'p11' 'Ria'],1643.35100881215,1.8080562617026033
chicago_control_wood_schedTrue_job76,67.60934712800837,48.525376552197486,1408.4521741029578,195.81271659619003,266136.5622788975,0.0,0.0,39.2696258903546,0.6096046773970639,"[ 17.92248199   2.3360385    0.60960468 -23.891372    -0.68451472
  25.46497394]",[0.         0.         0.         0.76635524 0.         0.        ],['Ti0' 'Aw' 'Ci' 'e11' 'p11' 'Ria'],1553.7390930288097,3.253641986348903
chicago_control_wood_schedTrue_job39,62.09770796452121,45.44395251638805,1408.617681819858,192.6203895444956,237554.65945899882,0.0,0.0,37.5659390725887,0.485555116276827,"[ 18.35462051   2.06616625   0.48555512 -24.08518297  -0.78486387
  26.61985896]",[0.         0.         0.         0.27894837 0.         0.        ],['Ti0' 'Aw' 'Ci' 'e11' 'p11' 'Ria'],1846.62572200822,1.5328708868385945
chicago_control_wood_schedTrue_job41,69.57756731434961,49.51741881457186,1409.1751098721347,195.58638833152736,236965.38144570257,0.0,0.0,44.1724193131428,0.5706892794192161,"[ 17.91568564   2.45531528   0.57068928 -23.92805732  -0.69157562
  22.63856079]",[0.         0.         0.         0.93458238 0.         0.        ],['Ti0' 'Aw' 'Ci' 'e11' 'p11' 'Ria'],1543.5491966371699,2.0270672869304107
chicago_control_wood_schedTrue_job38,52.44683933968753,39.94064628819408,1408.1896542874933,190.11068313705783,248810.82265651727,0.0,0.0,29.1006498316743,0.588975421223636,"[ 18.60351159   1.78278075   0.58897542 -23.96108602  -0.71701345
  34.3634938 ]",[0.        0.        0.        0.9406342 0.        0.       ],['Ti0' 'Aw' 'Ci' 'e11' 'p11' 'Ria'],1605.0224488801,1.8323046045571978
chicago_control_wood_schedTrue_job44,65.8321316756482,47.3614202691446,1409.1255908616786,191.7758448555309,259378.34493516764,0.0,0.0,39.4831528668245,0.429310269534036,"[ 17.73122519   2.09796322   0.42931027 -24.08890753  -0.77982232
  25.32725802]",[0.         0.         0.         0.61243414 0.         0.        ],['Ti0' 'Aw' 'Ci' 'e11' 'p11' 'Ria'],1875.0510867945602,1.2988111598830017
chicago_control_wood_schedTrue_job45,58.59105569709176,43.41980383379382,1408.6242208037124,190.34561741242703,243457.6349894525,0.0,0.0,35.0657511045477,0.49537846058873897,"[ 18.08563496   2.01841556   0.49537846 -24.04129817  -0.76557645
  28.51785484]",[0.         0.         0.         0.85811604 0.         0.        ],['Ti0' 'Aw' 'Ci' 'e11' 'p11' 'Ria'],1802.0254035887601,1.527923171327501
chicago_control_wood_schedTrue_job169,58.83214894294998,43.596874351162626,1408.6175236927093,191.20462747141244,289173.52769668266,0.0,0.0,31.8672656699228,0.573082102193191,"[ 18.55876109   1.88566246   0.5730821  -24.01744287  -0.752315
  31.38016328]",[0.        0.        0.        0.9383848 0.        0.       ],['Ti0' 'Aw' 'Ci' 'e11' 'p11' 'Ria'],1774.1478461959,1.7644851483585953
chicago_control_wood_schedTrue_job119,64.77658050880153,46.77608696914268,1409.2862155085238,191.16117557710044,293410.41624123853,0.0,0.0,35.0962805834312,0.58364675189014,"[ 19.51499003   2.00530813   0.58364675 -24.0101953   -0.7529167
  28.49304779]",[0.         0.         0.         0.75609693 0.         0.        ],['Ti0' 'Aw' 'Ci' 'e11' 'p11' 'Ria'],1759.0817836108802,1.7597894906109985
chicago_control_wood_schedTrue_job130,63.873021118284676,46.274355578382405,1409.146510931541,190.67486404698602,267738.659287173,0.0,0.0,37.5428612727489,0.41837940213054603,"[ 17.90722142   1.96307033   0.4183794  -24.10926914  -0.79747506
  26.63622234]",[0.         0.         0.         0.44423578 0.         0.        ],['Ti0' 'Aw' 'Ci' 'e11' 'p11' 'Ria'],1924.0375917741897,1.237761800931601
chicago_control_wood_schedTrue_job178,59.307882405223275,43.86702250245763,1408.5020436607135,191.38651973937527,285255.0342986356,0.0,0.0,34.5079901506806,0.632600766105603,"[ 18.11828968   2.09839431   0.63260077 -23.97031456  -0.72284946
  28.9787958 ]",[0.         0.         0.         0.09257617 0.         0.        ],['Ti0' 'Aw' 'Ci' 'e11' 'p11' 'Ria'],1640.29913227768,2.118501375579804
chicago_control_wood_schedTrue_job104,59.22354009735025,43.8863740367553,1408.423997642091,192.64390803242085,269560.0733205458,0.0,0.0,35.5459516804534,0.6020404269430021,"[ 20.06639111   2.09855362   0.60204043 -23.93299142  -0.71022738
  28.13259887]",[0.         0.         0.         0.42946321 0.         0.        ],['Ti0' 'Aw' 'Ci' 'e11' 'p11' 'Ria'],1552.15166205273,2.0391728032023977
chicago_control_wood_schedTrue_job100,64.90808308848389,47.092739911347884,1408.3317531273622,195.37989000061245,258404.66270317743,0.0,0.0,38.549408220378204,0.623666000563978,"[ 18.2434211    2.22005711   0.623666   -23.95473305  -0.71686874
  25.94073544]",[0.         0.         0.         0.03836276 0.         0.        ],['Ti0' 'Aw' 'Ci' 'e11' 'p11' 'Ria'],1620.9677695852697,2.7806176871325903
chicago_control_wood_schedTrue_job72,54.919489300226076,41.383260117221276,1408.0930482293882,190.6320562001324,250688.04294357554,0.0,0.0,34.7227164456251,0.5186502939350021,"[ 17.93093339   2.0305043    0.51865029 -24.04856412  -0.75215664
  28.79959008]",[0.         0.         0.         0.65244247 0.         0.        ],['Ti0' 'Aw' 'Ci' 'e11' 'p11' 'Ria'],1713.6476370735998,1.7122455674056951
chicago_control_wood_schedTrue_job151,55.4163809551489,41.69730893700605,1408.2091020110095,191.3130340398849,247819.82810394542,0.0,0.0,34.0911804504816,0.630459346562251,"[ 18.0932224    2.0769872    0.63045935 -24.0149355   -0.74617193
  29.33309985]",[0.         0.         0.         0.47160113 0.         0.        ],['Ti0' 'Aw' 'Ci' 'e11' 'p11' 'Ria'],1730.15973006323,1.9723004383308975
chicago_control_wood_schedTrue_job170,73.38545761799594,51.35011883932448,1409.59581664307,194.62635034918728,262727.94496292225,0.0,0.0,41.7969404233745,0.54281799355515,"[ 17.90437509   2.29407125   0.54281799 -23.9783967   -0.72539246
  23.9251962 ]",[0.         0.         0.         0.91377787 0.         0.        ],['Ti0' 'Aw' 'Ci' 'e11' 'p11' 'Ria'],1686.10555804265,1.7456495083907981
chicago_control_wood_schedTrue_job138,73.52602875996561,51.60992411422329,1409.2713514988238,197.39805310457882,261026.07760330517,0.0,0.0,46.610991850308196,0.553576434852416,"[ 17.62454563   2.55794729   0.55357643 -23.9659468   -0.71073303
  21.45416693]",[0.         0.         0.         0.15211673 0.         0.        ],['Ti0' 'Aw' 'Ci' 'e11' 'p11' 'Ria'],1622.1175229560401,1.9337524470381027
chicago_control_wood_schedTrue_job81,70.28667397224406,49.75221818935112,1409.5049255092981,193.6974957260053,261893.67001951206,0.0,0.0,41.202369251007,0.5131204815434129,"[ 18.00481242   2.26147269   0.51312048 -23.99712251  -0.73221707
  24.27044896]",[0.         0.         0.         0.71540443 0.         0.        ],['Ti0' 'Aw' 'Ci' 'e11' 'p11' 'Ria'],1709.89977313333,1.6123764554937026
chicago_control_wood_schedTrue_job86,62.22949688883725,45.51530341203703,1408.6678243347187,192.63398369982562,263142.02392636193,0.0,0.0,40.2578862090262,0.5714153323564771,"[ 17.5139938    2.29491428   0.57141533 -24.05988842  -0.75147596
  24.83985361]",[0.         0.         0.         0.95446777 0.         0.        ],['Ti0' 'Aw' 'Ci' 'e11' 'p11' 'Ria'],1746.80149888605,1.9509358587595003
chicago_control_wood_schedTrue_job51,76.48696283907296,52.79357611462552,1410.1387054176869,193.857626826649,257091.7067627699,0.0,0.0,44.4430036953915,0.519091511591003,"[ 18.09002046   2.38579352   0.51909151 -24.06086723  -0.7783119
  22.5007294 ]",[0.         0.         0.         0.05587336 0.         0.        ],['Ti0' 'Aw' 'Ci' 'e11' 'p11' 'Ria'],1887.5983191960001,1.5557707839071995
chicago_control_wood_schedTrue_job181,56.42813370396736,42.256686201357184,1408.3611390987646,191.0879486599633,236210.3402426339,0.0,0.0,33.8464918417769,0.57498135227185,"[ 19.16610429   2.02641931   0.57498135 -23.92984748  -0.7103611
  29.5451595 ]",[0.         0.         0.         0.79374393 0.         0.        ],['Ti0' 'Aw' 'Ci' 'e11' 'p11' 'Ria'],1608.2879872517199,1.957818307539391
chicago_control_wood_schedTrue_job190,65.12594741961476,47.27608504411905,1408.2550129065949,196.564753710904,246958.92178907729,0.0,0.0,43.1604776069342,0.61860420988675,"[ 18.46124678   2.52168836   0.61860421 -23.91753356  -0.68842561
  23.16934509]",[0.         0.         0.         0.00423907 0.         0.        ],['Ti0' 'Aw' 'Ci' 'e11' 'p11' 'Ria'],1486.78453854735,2.215174605411903
chicago_control_wood_schedTrue_job177,85.56182087757034,57.33966055228977,1409.9302922091747,198.28581538774486,249616.98018615023,0.0,0.0,51.8778077391769,0.502665843479044,"[ 17.37166138   2.68982565   0.50266584 -24.03546651  -0.74548346
  19.27606511]",[0.         0.         0.         0.94942801 0.         0.        ],['Ti0' 'Aw' 'Ci' 'e11' 'p11' 'Ria'],1816.58672456357,1.6126307877637984
chicago_control_wood_schedTrue_job58,55.91224031481927,41.952306256380254,1408.2218984659032,190.79217568958612,294835.4499517197,0.0,0.0,31.4730222272857,0.6787921638599689,"[ 18.532681     2.01177133   0.67879216 -24.03675572  -0.76125741
  31.77324353]",[0.         0.         0.         0.08969381 0.         0.        ],['Ti0' 'Aw' 'Ci' 'e11' 'p11' 'Ria'],1802.4758704546698,2.0904323961051965
chicago_control_wood_schedTrue_job116,62.6192858426193,45.7515356025375,1408.7927945980434,193.1306789909937,275208.4415765128,0.0,0.0,38.8657992893816,0.7567225430020219,"[ 18.19916599   2.35416477   0.75672254 -23.99363822  -0.73105847
  25.72956219]",[0.         0.         0.         0.24318333 0.         0.        ],['Ti0' 'Aw' 'Ci' 'e11' 'p11' 'Ria'],1670.6747469195498,2.6659515285886073
chicago_control_wood_schedTrue_job114,75.11073645372775,52.16373843941549,1409.6614431106693,194.2751359545332,270254.8115785893,0.0,0.0,41.9587749541056,0.548233682843621,"[ 17.78383622   2.28888423   0.54823368 -24.00753041  -0.74844748
  23.83291698]",[0.         0.         0.         0.27046166 0.         0.        ],['Ti0' 'Aw' 'Ci' 'e11' 'p11' 'Ria'],1757.90393045484,1.6365722222791916
chicago_control_wood_schedTrue_job163,86.46469387242539,57.92162269468502,1409.1414837522389,200.41511937960655,237159.5810688004,0.0,0.0,53.7188425805196,0.501444475616999,"[ 17.70736537   2.80055366   0.50144448 -24.03675498  -0.75039063
  18.61544203]",[0.         0.         0.         0.58920676 0.         0.        ],['Ti0' 'Aw' 'Ci' 'e11' 'p11' 'Ria'],1835.52040777754,1.3790895946765076
chicago_control_wood_schedTrue_job63,55.948324762980405,41.96188391087701,1408.3016907353092,190.56911844527832,289860.3378293205,0.0,0.0,33.503579390176505,0.609959716627926,"[ 18.0767815    2.0620576    0.60995972 -23.98271948  -0.73891097
  29.84755713]",[0.         0.         0.         0.41779185 0.         0.        ],['Ti0' 'Aw' 'Ci' 'e11' 'p11' 'Ria'],1714.13988834702,1.9313606487304966
chicago_control_wood_schedTrue_job147,77.49823806094503,53.56148293486095,1409.498749545761,197.74016313839886,276512.8672678568,0.0,0.0,46.7567502151668,0.492274907847433,"[ 17.37357791   2.49060759   0.49227491 -23.93689939  -0.70809685
  21.38728623]",[0.         0.         0.         0.84623208 0.         0.        ],['Ti0' 'Aw' 'Ci' 'e11' 'p11' 'Ria'],1639.9207494459602,1.6612789115471003
chicago_control_wood_schedTrue_job18,65.31813718203675,47.12998488716399,1408.9179383604599,192.36441092168565,289128.1454251739,0.0,0.0,40.3259405746058,0.513604473932641,"[ 18.0037274    2.24661953   0.51360447 -24.13933014  -0.80331041
  24.79793368]",[0.         0.         0.         0.44610751 0.         0.        ],['Ti0' 'Aw' 'Ci' 'e11' 'p11' 'Ria'],1965.9593455404602,1.602258919335597
chicago_control_wood_schedTrue_job32,72.94934531460233,51.16843532503581,1409.3774501059902,195.09823309825288,243714.07588356407,0.0,0.0,46.8148252182971,0.48764911860123106,"[ 17.59698991   2.47347391   0.48764912 -24.07925525  -0.76558245
  21.36075475]",[0.         0.         0.         0.91848724 0.         0.        ],['Ti0' 'Aw' 'Ci' 'e11' 'p11' 'Ria'],1825.4695814451502,1.5968364455759954
chicago_control_wood_schedTrue_job30,67.765332605015,48.66327116338794,1408.5851164872995,196.7481956734757,258806.77428674948,0.0,0.0,45.277447705775394,0.5317770830847101,"[ 17.29446465   2.47887294   0.53177708 -24.01584958  -0.75042681
  22.08605058]",[0.         0.         0.         0.93966951 0.         0.        ],['Ti0' 'Aw' 'Ci' 'e11' 'p11' 'Ria'],1712.16627173971,1.8524597732980084
chicago_control_wood_schedTrue_job52,64.32006466125772,46.72000473780504,1408.739869618179,194.28774201767587,274952.9526754249,0.0,0.0,38.82619313273,0.529253885623622,"[ 18.7262549    2.18745506   0.52925389 -23.97582974  -0.72943548
  25.75580863]",[0.         0.         0.         0.06749236 0.         0.        ],['Ti0' 'Aw' 'Ci' 'e11' 'p11' 'Ria'],1702.4590153983,1.7250472789725038
chicago_control_wood_schedTrue_job139,61.748100125918924,45.29292573605212,1408.3201353339755,193.28874446638088,275899.7984419513,0.0,0.0,36.171797233002295,0.5897525252518211,"[ 17.87879886   2.13905759   0.58975253 -23.94988976  -0.71612013
  27.64584777]",[0.         0.         0.         0.22912418 0.         0.        ],['Ti0' 'Aw' 'Ci' 'e11' 'p11' 'Ria'],1630.33406100602,1.9692515057379083
chicago_control_wood_schedTrue_job105,69.4904709180967,49.2551900950035,1409.6075009200895,192.21345614308467,283681.7855025417,0.0,0.0,40.5575796357074,0.47537083222665505,"[ 18.10298642   2.16753934   0.47537083 -24.01742234  -0.75373932
  24.65630368]",[0.         0.         0.         0.93591429 0.         0.        ],['Ti0' 'Aw' 'Ci' 'e11' 'p11' 'Ria'],1773.8647593100602,1.4905706515512023
chicago_control_wood_schedTrue_job57,63.66580767096748,46.29459913459082,1408.9324006262839,192.900624539116,236353.04983408528,0.0,0.0,38.6395947561525,0.544035071275638,"[ 18.46503645   2.17891327   0.54403507 -23.99791893  -0.72899072
  25.88018861]",[0.         0.         0.         0.18753971 0.         0.        ],['Ti0' 'Aw' 'Ci' 'e11' 'p11' 'Ria'],1662.69435060316,1.8363103370272995
chicago_control_wood_schedTrue_job198,62.26019936426223,45.63461118269045,1408.2657181447187,194.4967759243549,249094.6642444252,0.0,0.0,38.8809425425612,0.567304188797011,"[ 17.72489558   2.29741732   0.56730419 -23.93699349  -0.70254088
  25.71954111]",[0.        0.        0.        0.7995571 0.        0.       ],['Ti0' 'Aw' 'Ci' 'e11' 'p11' 'Ria'],1610.59982264099,2.026657518117595
chicago_control_wood_schedTrue_job99,74.81957831603907,52.06362879125474,1409.7207262584354,194.8398373082832,303180.06566556887,0.0,0.0,43.2081719700124,0.535705121262794,"[ 17.87891969   2.36382123   0.53570512 -24.04273948  -0.77268512
  23.14377013]",[0.         0.         0.         0.36450275 0.         0.        ],['Ti0' 'Aw' 'Ci' 'e11' 'p11' 'Ria'],1877.99147393547,1.569000061702603
chicago_control_wood_schedTrue_job91,57.50048179500153,42.90027968033736,1408.1836664230514,191.9909781249247,280825.50590645603,0.0,0.0,35.749800301936205,0.5343081565662271,"[ 17.88174616   2.07553511   0.53430816 -24.07568056  -0.77575886
  27.97218422]",[0.         0.         0.         0.83779171 0.         0.        ],['Ti0' 'Aw' 'Ci' 'e11' 'p11' 'Ria'],1819.8524236192397,1.7024407177106937
chicago_control_wood_schedTrue_job71,69.78610606202669,49.65831062555995,1409.1200550742205,196.1379055111699,249127.67309421807,0.0,0.0,43.3915269873485,0.661736615830869,"[ 18.15164766   2.50093363   0.66173662 -23.96531207  -0.71807561
  23.04597394]",[0.         0.         0.         0.88665385 0.         0.        ],['Ti0' 'Aw' 'Ci' 'e11' 'p11' 'Ria'],1625.71139071103,2.131612770730598
chicago_control_wood_schedTrue_job101,76.79016127742993,53.33021953048808,1409.1648279318133,199.24474514804126,244036.25266867637,0.0,0.0,51.147357195628004,0.52159022868131,"[ 17.73070623   2.73615336   0.52159023 -24.02103845  -0.73457514
  19.5513523 ]",[0.         0.         0.         0.27095668 0.         0.        ],['Ti0' 'Aw' 'Ci' 'e11' 'p11' 'Ria'],1717.46818606811,1.81192935593279
chicago_control_wood_schedTrue_job20,64.56925879243322,46.69186480141595,1409.2336420866782,191.56517528657642,256454.1505690356,0.0,0.0,37.8302096461181,0.47789787804864203,"[ 17.72711811   2.03027121   0.47789788 -24.12759133  -0.79253836
  26.43390056]",[0.         0.         0.         0.94574288 0.         0.        ],['Ti0' 'Aw' 'Ci' 'e11' 'p11' 'Ria'],1905.81646937258,1.446551781703505
chicago_control_wood_schedTrue_job112,70.7626166017851,49.949413545080944,1409.5458312877274,193.0855617115045,294426.1794196398,0.0,0.0,41.1683889734947,0.5020151265659699,"[ 18.00281895   2.22663073   0.50201513 -24.06030579  -0.77406005
  24.29048172]",[0.         0.         0.         0.86348283 0.         0.        ],['Ti0' 'Aw' 'Ci' 'e11' 'p11' 'Ria'],1864.77498025775,1.5294590810560962
chicago_control_wood_schedTrue_job128,74.21993314873397,51.71234999306305,1409.557793291313,193.99287004485757,287035.725195649,0.0,0.0,45.2086042590871,0.484538275634857,"[ 17.40549762   2.40750197   0.48453828 -24.10737311  -0.79731627
  22.11968311]",[0.         0.         0.         0.64890318 0.         0.        ],['Ti0' 'Aw' 'Ci' 'e11' 'p11' 'Ria'],1995.0193046167103,1.5436622014214976
chicago_control_wood_schedTrue_job103,76.76578246333105,53.12245708035996,1409.4183628117232,196.53003793588837,274239.11249195336,0.0,0.0,46.4567179921528,0.46122281786197,"[ 16.99044501   2.428969     0.46122282 -24.05446489  -0.76958526
  21.52541211]",[0.         0.         0.         0.61996182 0.         0.        ],['Ti0' 'Aw' 'Ci' 'e11' 'p11' 'Ria'],1857.6093591485198,1.458617710371506
chicago_control_wood_schedTrue_job64,54.37098805683126,41.00670551518075,1408.3123593292562,189.2497017122427,286863.7257288096,0.0,0.0,32.113585776085,0.497898127895808,"[ 18.49502676   1.85810094   0.49789813 -24.12100928  -0.79879031
  31.13946873]",[0.         0.         0.         0.50041319 0.         0.        ],['Ti0' 'Aw' 'Ci' 'e11' 'p11' 'Ria'],1917.64997890352,1.2138716704465011
chicago_control_wood_schedTrue_job136,55.51640203640771,41.78750334170405,1408.1841688599688,192.0207590187575,282009.6598479644,0.0,0.0,32.7130988158927,0.6482291683259711,"[ 18.74387509   2.04116219   0.64822917 -23.9466928   -0.70340602
  30.56879465]",[0.         0.         0.         0.98229728 0.         0.        ],['Ti0' 'Aw' 'Ci' 'e11' 'p11' 'Ria'],1576.1824171096,2.2001663489170014
chicago_control_wood_schedTrue_job92,67.23991528312587,48.445956324469904,1408.3155021256161,197.6530361430546,222151.9451075325,0.0,0.0,39.6280647977044,0.688479859497633,"[ 20.04210023   2.45564531   0.68847986 -23.93526636  -0.71388988
  25.23464129]",[0.         0.         0.         0.94259652 0.         0.        ],['Ti0' 'Aw' 'Ci' 'e11' 'p11' 'Ria'],1642.28191423566,2.193033664561902
chicago_control_wood_schedTrue_job122,69.60429607119251,49.29479792412939,1409.4888260912576,191.9492688953699,290581.3848519407,0.0,0.0,37.6976948131932,0.550952210442576,"[ 18.31538074   2.08877491   0.55095221 -24.02105319  -0.75396922
  26.52682094]",[0.       0.       0.       0.240174 0.       0.      ],['Ti0' 'Aw' 'Ci' 'e11' 'p11' 'Ria'],1782.1791804514603,1.7142666970001983
chicago_control_wood_schedTrue_job13,53.27126397514686,40.42266101681392,1408.2619512947413,190.23496825536574,209783.8404398638,0.0,0.0,31.167471137735,0.604795857032645,"[ 18.63587658   1.94961614   0.60479586 -22.78531823  -0.72445144
  32.08473333]",[0 0 0 0 0 0],['Ti0' 'Aw' 'Ci' 'e11' 'p11' 'Ria'],1641.87099882676,1.986830029205997
chicago_control_wood_schedTrue_job3,80.5409119464164,55.27798324720071,1408.7961414492218,201.429789579582,223173.11725342195,0.0,0.0,49.806613752511204,0.584024411560643,"[ 17.4607153    2.70700446   0.58402441 -23.92541284  -0.70241958
  20.07765485]",[0.         0.         0.         0.68639858 0.         0.        ],['Ti0' 'Aw' 'Ci' 'e11' 'p11' 'Ria'],1600.5953023071,2.012336161210598
chicago_control_wood_schedTrue_job109,79.06316076855471,54.43441190262614,1408.8234290458386,199.48913468202085,246742.3266759867,0.0,0.0,47.0186215267789,0.5857115051572429,"[ 18.00827907   2.59780477   0.58571151 -23.9104177   -0.69836803
  21.26816924]",[0.         0.         0.         0.44678961 0.         0.        ],['Ti0' 'Aw' 'Ci' 'e11' 'p11' 'Ria'],1595.40643473589,1.9804559978902958
chicago_control_wood_schedTrue_job12,57.93666856214458,43.150807082147686,1408.3572365117902,192.15011692627846,249144.51466792164,0.0,0.0,34.952869863561205,0.498826841584327,"[ 18.11866929   2.04618002   0.49882684 -23.95669196  -0.71318681
  28.60995403]",[0.         0.         0.         0.05855542 0.         0.        ],['Ti0' 'Aw' 'Ci' 'e11' 'p11' 'Ria'],1628.4846455365698,1.6264340756818996
chicago_control_wood_schedTrue_job196,84.91886052090382,57.04485573953779,1409.5709143897345,198.2285602204436,232164.35540691382,0.0,0.0,50.429083802083504,0.480945557252213,"[ 17.16789717   2.60117375   0.48094556 -25.33530072  -0.74430809
  19.82982685]",[0.         0.         0.         0.81211748 0.         0.        ],['Ti0' 'Aw' 'Ci' 'e11' 'p11' 'Ria'],1782.0472036659698,1.5763239114776013
chicago_control_wood_schedTrue_job176,70.68908846572529,50.0421844138315,1409.2462750706436,195.04254867731086,260433.91008659598,0.0,0.0,42.4520050746191,0.522397443851098,"[ 18.25185548   2.36598667   0.52239744 -24.00083066  -0.73597129
  23.55601339]",[0.         0.         0.         0.56994626 0.         0.        ],['Ti0' 'Aw' 'Ci' 'e11' 'p11' 'Ria'],1737.5279453674,1.587813887189796
chicago_control_wood_schedTrue_job134,64.77426231530721,46.973879680960785,1408.7467359455136,194.5394566124596,257623.14165358653,0.0,0.0,40.859932561462706,0.535800147916986,"[ 18.27780472   2.26615326   0.53580015 -24.00221978  -0.73752262
  24.47385341]",[0.         0.         0.         0.92383184 0.         0.        ],['Ti0' 'Aw' 'Ci' 'e11' 'p11' 'Ria'],1674.8474572597102,1.7784470746465857
chicago_control_wood_schedTrue_job133,66.61021890232826,47.9657871051883,1408.817777348771,195.0965694388557,272684.9681967693,0.0,0.0,38.1174710559102,0.55721750753783,"[ 18.11143657   2.15340521   0.55721751 -23.95841219  -0.72671125
  26.23468904]",[0.         0.         0.         0.81157534 0.         0.        ],['Ti0' 'Aw' 'Ci' 'e11' 'p11' 'Ria'],1674.07307937818,1.769459054939297
chicago_control_wood_schedTrue_job4,71.34979293718469,50.1122885013642,1409.629438046481,191.1928426717348,277578.6892276338,0.0,0.0,40.8292657132377,0.428354172676318,"[ 18.09345348   2.11354427   0.42835417 -24.21357551  -0.84363313
  24.49223572]",[0.         0.         0.         0.94281691 0.         0.        ],['Ti0' 'Aw' 'Ci' 'e11' 'p11' 'Ria'],2121.6139679124103,1.2287444806474
chicago_control_wood_schedTrue_job107,64.62152320489986,46.68315021801941,1409.0465949362685,190.96414796566367,281416.9676840737,0.0,0.0,36.7838067571919,0.538011080751401,"[ 17.88620935   2.10282299   0.53801108 -24.0059211   -0.74978369
  27.18587575]",[0.        0.        0.        0.1714581 0.        0.       ],['Ti0' 'Aw' 'Ci' 'e11' 'p11' 'Ria'],1779.9927077562802,1.6529002238991026
chicago_control_wood_schedTrue_job94,55.267190605605705,41.6135345706095,1408.1961681929004,191.32907728325057,305710.19753326254,0.0,0.0,31.249696112040898,0.5903177405308511,"[ 19.13325795   1.88508564   0.59031774 -23.96498124  -0.73015072
  32.00031118]",[0.         0.         0.         0.31083856 0.         0.        ],['Ti0' 'Aw' 'Ci' 'e11' 'p11' 'Ria'],1677.2486931476199,1.896480534233806
chicago_control_wood_schedTrue_job179,91.45750313765095,60.342542227544314,1409.9053922952662,202.8912527725012,218630.35555819835,0.0,0.0,55.970532804605895,0.57343373098784,"[ 16.73914045   2.98084771   0.57343373 -23.9317351   -0.69958542
  17.86654423]",[0.         0.         0.         0.88431587 0.         0.        ],['Ti0' 'Aw' 'Ci' 'e11' 'p11' 'Ria'],1653.0239445737302,1.9156253264663974
chicago_control_wood_schedTrue_job186,76.24943872643978,52.856197194032035,1409.3948516263306,196.27538442784012,283973.6686748302,0.0,0.0,44.879942943601705,0.508237311982457,"[ 18.16880809   2.41555686   0.50823731 -23.91092426  -0.69117451
  22.28166826]",[0.        0.        0.        0.0596022 0.        0.       ],['Ti0' 'Aw' 'Ci' 'e11' 'p11' 'Ria'],1578.3106587846698,1.737220896785793
chicago_control_wood_schedTrue_job46,73.68598891117564,51.584889282976086,1409.2433074087407,195.89328613114662,284959.793746525,0.0,0.0,44.9997988368316,0.542754770378438,"[ 18.59311871   2.47455178   0.54275477 -24.04727931  -0.75871018
  22.22232156]",[0.         0.         0.         0.91207103 0.         0.        ],['Ti0' 'Aw' 'Ci' 'e11' 'p11' 'Ria'],1818.0995356230499,1.7456059377496018
chicago_control_wood_schedTrue_job153,60.80759536334421,44.800858614320916,1408.3814817286807,193.58640981749997,318963.31284209975,0.0,0.0,37.135126196827,0.5700703523683729,"[ 18.17602947   2.12144846   0.57007035 -24.10908444  -0.79304234
  26.92868188]",[0.         0.         0.         0.23924974 0.         0.        ],['Ti0' 'Aw' 'Ci' 'e11' 'p11' 'Ria'],1889.68473512893,1.7942641017305974
chicago_control_wood_schedTrue_job193,72.97616811428506,51.36655657334825,1408.9513481175427,197.82126378613071,216469.45659902907,0.0,0.0,42.2719851986975,0.600803695641411,"[ 19.27314024   2.37400509   0.6008037  -23.89856013  -0.68939947
  23.65632925]",[0.         0.         0.         0.92016618 0.         0.        ],['Ti0' 'Aw' 'Ci' 'e11' 'p11' 'Ria'],1533.03812062664,2.0629033731972015
chicago_control_wood_schedTrue_job184,74.96318641549783,52.185694356566046,1409.3550592505426,195.58318193866143,300689.9974031915,0.0,0.0,43.424531744556894,0.521137779848432,"[ 18.79283108   2.40761209   0.52113778 -23.98969865  -0.73966302
  23.02845787]",[0.         0.         0.         0.07087196 0.         0.        ],['Ti0' 'Aw' 'Ci' 'e11' 'p11' 'Ria'],1793.2061894137198,1.6427090692217092
chicago_control_wood_schedTrue_job197,60.254122280919,44.38257522871268,1408.486663289515,191.38725861933383,255757.26672086318,0.0,0.0,36.817644162495604,0.512535072157034,"[ 18.00532381   2.07057475   0.51253507 -24.10058877  -0.79374353
  27.16089046]",[0.         0.         0.         0.93948153 0.         0.        ],['Ti0' 'Aw' 'Ci' 'e11' 'p11' 'Ria'],1894.37896224207,1.6422489105563969
chicago_control_wood_schedTrue_job155,73.22386057461391,51.809809038069425,1408.2567551429886,202.654121728185,243949.4975337509,0.0,0.0,47.46508342869289,0.6852612216283299,"[ 17.63458735   2.7576837    0.68526122 -23.90071969  -0.68624777
  21.06811845]",[0.       0.       0.       0.060127 0.       0.      ],['Ti0' 'Aw' 'Ci' 'e11' 'p11' 'Ria'],1497.6575733833301,2.520957119897311
chicago_control_wood_schedTrue_job75,74.55015985493183,51.89387015005867,1409.78940669332,194.28848445880038,288995.0816878021,0.0,0.0,42.5629743676574,0.47458813219898904,"[ 19.16017951   2.26759379   0.47458813 -24.00967306  -0.74309499
  23.49459865]",[0.        0.        0.        0.6527264 0.        0.       ],['Ti0' 'Aw' 'Ci' 'e11' 'p11' 'Ria'],1792.8421062182897,1.3517429228760065
chicago_control_wood_schedTrue_job123,52.35510082268221,39.82238640377522,1408.1570293887555,188.64294523928365,222396.16335011288,0.0,0.0,31.6999433279498,0.5009692221837739,"[ 18.00211721   1.84525864   0.50096922 -22.06312431  -0.78019716
  31.54579772]",[0 0 0 0 0 0],['Ti0' 'Aw' 'Ci' 'e11' 'p11' 'Ria'],1828.35909881273,1.6070698103600982
chicago_control_wood_schedTrue_job22,76.9252300569283,53.421742089134426,1408.5196164259505,199.6259472841321,227510.39560579223,0.0,0.0,44.4936631276554,0.6280338705865319,"[ 18.00494047   2.53031644   0.62803387 -23.8693028   -0.67739356
  22.4751106 ]",[0.         0.         0.         0.42490688 0.         0.        ],['Ti0' 'Aw' 'Ci' 'e11' 'p11' 'Ria'],1528.44018925345,2.1504169547158867
chicago_control_wood_schedTrue_job35,69.12591962757139,49.15881869398327,1409.046343637444,193.56674893974468,250932.86603036924,0.0,0.0,41.619788825501296,0.5021798566846021,"[ 17.94885024   2.25499933   0.50217986 -24.10981329  -0.79308313
  24.02703205]",[0.         0.         0.         0.45554447 0.         0.        ],['Ti0' 'Aw' 'Ci' 'e11' 'p11' 'Ria'],1869.39687500119,1.5497257227991028
chicago_control_wood_schedTrue_job148,73.63007521526028,51.66535020508076,1409.0672135640618,197.46315977554352,265558.44979319215,0.0,0.0,44.230972029382706,0.483487601597052,"[ 17.3990286    2.36222804   0.4834876  -23.95127417  -0.71320353
  22.60859199]",[0.         0.         0.         0.94162734 0.         0.        ],['Ti0' 'Aw' 'Ci' 'e11' 'p11' 'Ria'],1641.9712424516902,1.6300965130347933
chicago_control_wood_schedTrue_job166,67.6516657718647,48.66269497674307,1408.3631242577328,197.70753833709358,217325.4138269827,0.0,0.0,44.8893545545599,0.6285585149437499,"[ 17.91161091   2.57609683   0.62855851 -23.90877273  -0.68077911
  22.27699663]",[0.         0.         0.         0.02953005 0.         0.        ],['Ti0' 'Aw' 'Ci' 'e11' 'p11' 'Ria'],1483.33729768214,2.5346301724348024
chicago_control_wood_schedTrue_job73,93.00335235540636,61.03285700738235,1409.2379899028886,203.1400047376001,205547.12268545278,0.0,0.0,55.405681220685395,0.503552001064052,"[ 17.39465746   2.84161286   0.503552   -23.94262915  -0.71254919
  18.04869064]",[0.         0.         0.         0.02613651 0.         0.        ],['Ti0' 'Aw' 'Ci' 'e11' 'p11' 'Ria'],1673.88179991595,1.6488265161041085
chicago_control_wood_schedTrue_job47,57.20513003302461,42.73858283501243,1408.292605318638,192.04797147416758,260909.55284685094,0.0,0.0,34.4516612415251,0.6023177599497621,"[ 17.93130122   2.08841302   0.60231776 -23.90898127  -0.68992705
  29.0261765 ]",[0.         0.         0.         0.21947779 0.         0.        ],['Ti0' 'Aw' 'Ci' 'e11' 'p11' 'Ria'],1524.24961796762,2.0075070563241937
chicago_control_wood_schedTrue_job14,60.323659094396945,44.464826262577695,1408.6972407765838,192.2128074458456,263561.57295470557,0.0,0.0,34.516391608738104,0.5745341833351401,"[ 18.4399474    2.04539268   0.57453418 -23.91600418  -0.69804272
  28.97174222]",[0.         0.         0.         0.61831953 0.         0.        ],['Ti0' 'Aw' 'Ci' 'e11' 'p11' 'Ria'],1586.06022241672,1.985410172170397
chicago_control_wood_schedTrue_job162,84.74808899612654,56.91474387004954,1409.797336556156,197.58387412455392,240386.57136650803,0.0,0.0,51.941684364687795,0.43553078160692893,"[ 17.81939307   2.6036036    0.43553078 -24.08745001  -0.77735848
  19.25235988]",[0.         0.         0.         0.65122877 0.         0.        ],['Ti0' 'Aw' 'Ci' 'e11' 'p11' 'Ria'],1934.86581543505,1.3843198759863071
chicago_control_wood_schedTrue_job61,57.021676208281136,42.51386618297715,1408.474387892501,189.5893134129429,301865.82823340176,0.0,0.0,34.7151859016184,0.521674621499298,"[ 18.06842866   1.98389175   0.52167462 -24.09729167  -0.78396018
  28.80583739]",[0.         0.         0.         0.88545151 0.         0.        ],['Ti0' 'Aw' 'Ci' 'e11' 'p11' 'Ria'],1851.8134936296103,1.6445219864848042
chicago_control_wood_schedTrue_job180,71.32435180855833,50.45767753070795,1409.0552070536771,196.52399199097957,259308.24044887058,0.0,0.0,41.351353841313795,0.606434140448244,"[ 18.01245633   2.37437643   0.60643414 -23.89195332  -0.68642372
  24.18300508]",[0.         0.         0.         0.86408717 0.         0.        ],['Ti0' 'Aw' 'Ci' 'e11' 'p11' 'Ria'],1533.1800072346803,1.8321504275536
chicago_control_wood_schedTrue_job182,60.508244205110756,44.62524350081011,1408.385389631309,193.3437613947349,228248.31177717797,0.0,0.0,38.461831349070295,0.48688624243598,"[ 17.13664885   2.13045732   0.48688624 -23.96904124  -0.71408385
  25.99980201]",[0.         0.         0.         0.53711391 0.         0.        ],['Ti0' 'Aw' 'Ci' 'e11' 'p11' 'Ria'],1597.0931818860502,1.6781631458034099
chicago_control_wood_schedTrue_job9,69.74487619995496,49.74811686039794,1408.1740621640936,197.8962410104004,243009.7152872071,0.0,0.0,41.774340087206795,0.709383812729131,"[ 19.47202095   2.46886527   0.70938381 -23.9369912   -0.71195418
  23.93813997]",[0.         0.         0.         0.79103052 0.         0.        ],['Ti0' 'Aw' 'Ci' 'e11' 'p11' 'Ria'],1606.80575240887,2.248196584307408
chicago_control_wood_schedTrue_job120,76.16520123170419,52.80026024116637,1409.7892123828465,196.05462645454625,242249.83959595807,0.0,0.0,44.5177712203646,0.517143238623746,"[ 17.86768075   2.37884525   0.51714324 -23.99067624  -0.73488438
  22.46293946]",[0.         0.         0.         0.92700065 0.         0.        ],['Ti0' 'Aw' 'Ci' 'e11' 'p11' 'Ria'],1748.5059425873,1.6016026088158952
chicago_control_wood_schedTrue_job106,81.36383240573565,55.508991899770024,1409.3275212374049,199.39909772277625,234904.40861275292,0.0,0.0,50.7230347569954,0.566583151206926,"[ 17.033105     2.71131727   0.56658315 -23.97423928  -0.71909469
  19.71490872]",[0.         0.         0.         0.92818554 0.         0.        ],['Ti0' 'Aw' 'Ci' 'e11' 'p11' 'Ria'],1672.35472450023,1.9441858493915944
chicago_control_wood_schedTrue_job23,51.936548827556976,39.640172012809195,1407.9822441000492,190.0261317573843,263886.40670232126,0.0,0.0,31.2919629005652,0.556370264019678,"[ 18.82211958   1.9089126    0.55637026 -23.97987845  -0.72750313
  31.95708761]",[0.        0.        0.        0.9033185 0.        0.       ],['Ti0' 'Aw' 'Ci' 'e11' 'p11' 'Ria'],1669.09639356929,1.8829653534814987
chicago_control_wood_schedTrue_job165,71.05796898840597,50.26784026781104,1409.012294504342,195.66788158811852,253031.77760267124,0.0,0.0,42.7899564967357,0.5427616722888351,"[ 19.61629788   2.39210763   0.54276167 -23.93898454  -0.71645719
  23.36997001]",[0.         0.         0.         0.05789154 0.         0.        ],['Ti0' 'Aw' 'Ci' 'e11' 'p11' 'Ria'],1655.6890877748099,1.7741800881518088
chicago_control_wood_schedTrue_job159,90.99384717317879,60.232985846633746,1409.2087413434576,203.9639750889941,207950.90661783563,0.0,0.0,58.22111123305321,0.5006361139362,"[ 16.89022463   2.94746875   0.50063611 -23.97732353  -0.71716798
  17.17590027]",[0.        0.        0.        0.5897815 0.        0.       ],['Ti0' 'Aw' 'Ci' 'e11' 'p11' 'Ria'],1639.84098238204,1.653815091981592
chicago_control_wood_schedTrue_job125,66.61820314989642,47.83090057832178,1409.2126134947046,192.809802402982,303352.8824678015,0.0,0.0,39.880755276022,0.559092085363347,"[ 18.00346685   2.22890599   0.55909209 -24.08469267  -0.78202913
  25.07475079]",[0.        0.        0.        0.0530962 0.        0.       ],['Ti0' 'Aw' 'Ci' 'e11' 'p11' 'Ria'],1871.01040867005,1.7458198829425982
chicago_control_wood_schedTrue_job200,73.36130264834961,51.45176349416376,1409.286610675592,196.2733111880792,295084.10934783646,0.0,0.0,44.866971161826804,0.45558008994247495,"[ 17.63703147   2.37003925   0.45558009 -24.04520692  -0.76548014
  22.28811025]",[0.         0.         0.         0.14959785 0.         0.        ],['Ti0' 'Aw' 'Ci' 'e11' 'p11' 'Ria'],1847.8830295942898,1.434787855299696
chicago_control_wood_schedTrue_job68,53.98308653363056,40.81713393763705,1408.2466519082436,189.93020727915942,263037.71737628884,0.0,0.0,31.444160394871997,0.6183953867570029,"[ 18.24103135   1.8806858    0.61839539 -23.49068014  -0.77785803
  31.80240742]",[0 0 0 0 0 0],['Ti0' 'Aw' 'Ci' 'e11' 'p11' 'Ria'],1832.36245816376,2.124608004260704
chicago_control_wood_schedTrue_job89,76.66007547293219,52.963986373075016,1409.7982585929215,195.0521904196724,237288.75168790855,0.0,0.0,47.489559432745,0.48572181342691206,"[ 17.28236253   2.46913744   0.48572181 -24.0663111   -0.7625941
  21.05725999]",[0.         0.         0.         0.13470071 0.         0.        ],['Ti0' 'Aw' 'Ci' 'e11' 'p11' 'Ria'],1804.00461534432,1.6053809524347074
chicago_control_wood_schedTrue_job27,68.14072400647521,49.09756358607342,1407.9877393937434,200.7280736494091,234287.26841408206,0.0,0.0,45.892946703095895,0.5900262852832989,"[ 18.07273092   2.62895555   0.59002629 -23.92278317  -0.68746347
  21.78984075]",[0.         0.         0.         0.63423579 0.         0.        ],['Ti0' 'Aw' 'Ci' 'e11' 'p11' 'Ria'],1528.4339011221698,2.0740200005683107
chicago_control_wood_schedTrue_job102,60.331442727541635,44.47986365633136,1408.4724940904655,192.4191009874147,280662.0477309779,0.0,0.0,37.9137792188977,0.500792984496327,"[ 17.8833278    2.14667535   0.50079298 -24.1073887   -0.79165777
  26.37563494]",[0.         0.         0.         0.89907442 0.         0.        ],['Ti0' 'Aw' 'Ci' 'e11' 'p11' 'Ria'],1895.91461698477,1.5886079937806983
chicago_control_wood_schedTrue_job62,52.655688091531324,40.03013268673897,1408.2553192534301,189.40175379044067,303714.40385436954,0.0,0.0,30.6043046244171,0.596017208615949,"[ 18.48297687   1.8563818    0.59601721 -23.00966575  -0.77455749
  32.67514202]",[0 0 0 0 0 0],['Ti0' 'Aw' 'Ci' 'e11' 'p11' 'Ria'],1808.7279541955302,2.090950391941501
chicago_control_wood_schedTrue_job161,81.05092081738569,55.24111093468843,1409.8351062572476,197.8147632159707,251686.92089828505,0.0,0.0,48.3239637275065,0.525710546321453,"[ 18.26642958   2.61753424   0.52571055 -23.98011534  -0.72357834
  20.69366672]",[0.        0.        0.        0.4954319 0.        0.       ],['Ti0' 'Aw' 'Ci' 'e11' 'p11' 'Ria'],1730.50745677346,1.6929692718912932
chicago_control_wood_schedTrue_job111,72.25856237676149,50.76652074992607,1409.6347219086933,194.19635790603627,272470.27891531604,0.0,0.0,40.9060030912318,0.542373835377947,"[ 18.5706503    2.2437777    0.54237384 -24.0268489   -0.75589172
  24.44628965]",[0.         0.         0.         0.91842496 0.         0.        ],['Ti0' 'Aw' 'Ci' 'e11' 'p11' 'Ria'],1815.55073542383,1.684483940410594
chicago_control_wood_schedTrue_job164,69.75871034607951,49.60996634019949,1408.8879696871315,195.60541145427018,269027.7039109558,0.0,0.0,42.3195030605396,0.584835776827796,"[ 18.00663848   2.38408675   0.58483578 -23.9322204   -0.70183957
  23.62976707]",[0.         0.         0.         0.94983848 0.         0.        ],['Ti0' 'Aw' 'Ci' 'e11' 'p11' 'Ria'],1588.0718843599402,2.0144061078779956
chicago_control_wood_schedTrue_job56,61.44640313263915,45.33717903329552,1408.1043344934326,197.14408553222603,259750.06995999807,0.0,0.0,39.218328722637104,0.6449572869321251,"[ 18.1353537    2.38611873   0.64495729 -23.89275607  -0.67344345
  25.49828186]",[0.        0.        0.        0.8575683 0.        0.       ],['Ti0' 'Aw' 'Ci' 'e11' 'p11' 'Ria'],1501.0060426460502,2.370586880931995
chicago_control_wood_schedTrue_job149,72.7881761425935,50.932072505226664,1409.8653910084106,192.818987889104,290750.0595709698,0.0,0.0,40.9574218010641,0.4921202230165979,"[ 19.08642683   2.19061488   0.49212022 -24.04158761  -0.76304046
  24.41559932]",[0.         0.         0.         0.06592221 0.         0.        ],['Ti0' 'Aw' 'Ci' 'e11' 'p11' 'Ria'],1827.7865156469602,1.5003130272590042
chicago_control_wood_schedTrue_job199,59.9946569574495,44.23644333785767,1408.6301884345035,191.28742493148675,281717.4728104697,0.0,0.0,34.930928938734304,0.569247472183641,"[ 18.31928897   2.0823202    0.56924747 -23.96466224  -0.72396523
  28.6279246 ]",[0.         0.         0.         0.90033914 0.         0.        ],['Ti0' 'Aw' 'Ci' 'e11' 'p11' 'Ria'],1657.6798777557801,1.8292340278541985
chicago_control_wood_schedTrue_job154,68.89302076467833,49.29187895772382,1408.1171633903173,197.5546321351811,245866.9164492961,0.0,0.0,42.20360201786,0.7052046445096379,"[ 18.08643028   2.54342312   0.70520464 -23.89996365  -0.69286544
  23.69465999]",[0.         0.         0.         0.37630246 0.         0.        ],['Ti0' 'Aw' 'Ci' 'e11' 'p11' 'Ria'],1557.2949048184303,2.528248543869495
chicago_control_wood_schedTrue_job135,62.47985623225848,45.61818324443643,1408.8449183853436,192.08149372305667,242045.17054158635,0.0,0.0,37.4813911873982,0.561488120148042,"[ 20.38320417   2.1935651    0.56148812 -23.95852235  -0.71755761
  26.67990617]",[0.         0.         0.         0.89387281 0.         0.        ],['Ti0' 'Aw' 'Ci' 'e11' 'p11' 'Ria'],1631.27833947136,1.8824810810476933
chicago_control_wood_schedTrue_job142,60.329225427972716,44.658854181231455,1408.0793114718513,195.84515638308326,277827.2500299064,0.0,0.0,36.0088137101853,0.623839163190386,"[ 20.47396724   2.24249089   0.62383916 -23.93994497  -0.70997456
  27.77097874]",[0.        0.        0.        0.8605233 0.        0.       ],['Ti0' 'Aw' 'Ci' 'e11' 'p11' 'Ria'],1610.67208909271,2.101016277863593
chicago_control_wood_schedTrue_job127,80.37571841134809,54.70017236055864,1410.3166658474915,194.89951821721638,274944.87956010544,0.0,0.0,44.4384486659511,0.47947973498212104,"[ 17.98798311   2.32835741   0.47947973 -23.98545851  -0.73840091
  22.50303577]",[0.        0.        0.        0.9422577 0.        0.       ],['Ti0' 'Aw' 'Ci' 'e11' 'p11' 'Ria'],1805.9659504625,1.4753219064595058
chicago_control_wood_schedTrue_job194,55.20979182666281,41.53409411141487,1408.216168458352,190.33993476719525,278824.52688325173,0.0,0.0,32.4695110825363,0.601060611836796,"[ 18.75657813   1.99545751   0.60106061 -24.00201495  -0.74783593
  30.79812312]",[0.         0.         0.         0.93757761 0.         0.        ],['Ti0' 'Aw' 'Ci' 'e11' 'p11' 'Ria'],1761.3944396022302,1.9203329826477002
chicago_control_wood_schedTrue_job121,56.62296270503529,42.342808412428376,1408.4231068458566,190.61896038733062,287097.16539416264,0.0,0.0,32.1120301587959,0.6868684439277679,"[ 18.55141368   2.0441441    0.68686844 -24.01108941  -0.75293063
  31.14097723]",[0.         0.         0.         0.36639588 0.         0.        ],['Ti0' 'Aw' 'Ci' 'e11' 'p11' 'Ria'],1770.7209001124802,2.212880006491595
chicago_control_wood_schedTrue_job171,63.54375548637818,46.11286258625826,1408.9131466568713,190.87726072001539,302105.5946079662,0.0,0.0,36.4186994119524,0.530070966154902,"[ 18.11390738   2.04834489   0.53007097 -24.07169283  -0.77274367
  27.45842153]",[0.         0.         0.         0.30662539 0.         0.        ],['Ti0' 'Aw' 'Ci' 'e11' 'p11' 'Ria'],1850.8093075113397,1.5889550156525942
chicago_control_wood_schedTrue_job108,71.77153808707865,50.567209041090436,1409.4088069395684,194.81616720540168,258712.23940671288,0.0,0.0,40.7933049968692,0.548413193530251,"[ 19.13654404   2.27615689   0.54841319 -23.97192449  -0.72726309
  24.51382647]",[0.         0.         0.         0.92265175 0.         0.        ],['Ti0' 'Aw' 'Ci' 'e11' 'p11' 'Ria'],1709.75503285421,1.7433871010124022
chicago_control_wood_schedTrue_job158,57.74552090541341,42.957333236570165,1408.7174768152092,190.4150232089206,270416.6431469606,0.0,0.0,32.8476460122033,0.527423800121486,"[ 20.40448022   1.8523922    0.5274238  -23.98908095  -0.74149273
  30.44358185]",[0.         0.         0.         0.07462719 0.         0.        ],['Ti0' 'Aw' 'Ci' 'e11' 'p11' 'Ria'],1720.37215801721,1.6971345339266009
chicago_control_wood_schedTrue_job150,59.61977483561039,43.997349521182656,1408.7500467114432,190.62744417434368,274127.87409096054,0.0,0.0,32.2245075105257,0.544972867146031,"[ 19.47293117   1.80532692   0.54497287 -24.05526218  -0.76851524
  31.03228186]",[0.         0.         0.         0.91445508 0.         0.        ],['Ti0' 'Aw' 'Ci' 'e11' 'p11' 'Ria'],1792.08199920893,1.5858012971640036
chicago_control_wood_schedTrue_job126,55.49419035929297,41.731995266746154,1408.1486737422147,191.1178719406569,264811.93903913966,0.0,0.0,33.1847754266692,0.5433172117060749,"[ 20.46638987   1.94277647   0.54331721 -24.02182059  -0.7505872
  30.13430066]",[0.         0.         0.         0.41326167 0.         0.        ],['Ti0' 'Aw' 'Ci' 'e11' 'p11' 'Ria'],1708.57428038121,1.7420220509099025
chicago_control_wood_schedTrue_job82,63.1636283581123,46.107287213065206,1408.3459975467752,194.30315921090096,259966.13033519237,0.0,0.0,38.614010913579705,0.581743123728682,"[ 19.07786304   2.27836845   0.58174312 -23.93139669  -0.71967061
  25.89733561]",[0.         0.         0.         0.02333511 0.         0.        ],['Ti0' 'Aw' 'Ci' 'e11' 'p11' 'Ria'],1624.1614672569,2.0436888372458952
chicago_control_wood_schedTrue_job113,66.86698167664183,47.97336016109171,1408.8887340683536,193.04800230475757,281686.3709758578,0.0,0.0,39.1201324127019,0.48100537676592997,"[ 18.00698112   2.17279422   0.48100538 -23.98463746  -0.72916284
  25.56228567]",[0.        0.        0.        0.2196276 0.        0.       ],['Ti0' 'Aw' 'Ci' 'e11' 'p11' 'Ria'],1717.10421914164,1.5371205066513056
chicago_control_wood_schedTrue_job174,83.59949305484669,56.582225185540864,1409.4561552144628,199.9157880534559,235832.5570654521,0.0,0.0,49.456646915647404,0.596314999274038,"[ 17.84722188   2.67811921   0.596315   -23.9781968   -0.72997715
  20.21972904]",[0.         0.         0.         0.94861752 0.         0.        ],['Ti0' 'Aw' 'Ci' 'e11' 'p11' 'Ria'],1735.92428974789,1.9607649192366026
chicago_control_wood_schedTrue_job118,71.29432556885978,50.46367329146264,1409.228844246794,196.84012029584682,277291.6085829232,0.0,0.0,40.835826492376704,0.6023239975414089,"[ 19.05280826   2.28218671   0.602324   -23.92245016  -0.71058308
  24.48830074]",[0.         0.         0.         0.95278525 0.         0.        ],['Ti0' 'Aw' 'Ci' 'e11' 'p11' 'Ria'],1647.7674124444102,1.9330527831640936
chicago_control_wood_schedTrue_job90,64.89907360036905,46.918233500961925,1409.1179370235675,192.47532455972402,284200.10673782864,0.0,0.0,36.905851904546104,0.61985465236392,"[ 19.40937002   2.15844503   0.61985465 -23.99346152  -0.74338932
  27.0959739 ]",[0.         0.         0.         0.94616488 0.         0.        ],['Ti0' 'Aw' 'Ci' 'e11' 'p11' 'Ria'],1728.9880354515499,1.8726885946362941
chicago_control_wood_schedTrue_job70,54.84799385786098,41.28859272751071,1408.1113347271564,189.48774453156787,275431.6148716593,0.0,0.0,33.6451389179427,0.526241458543649,"[ 17.90801719   1.99468082   0.52624146 -24.06521504  -0.77508017
  29.72197566]",[0.         0.         0.         0.93040337 0.         0.        ],['Ti0' 'Aw' 'Ci' 'e11' 'p11' 'Ria'],1805.5389483332501,1.6825840370936973
chicago_control_wood_schedTrue_job85,54.72261258079405,41.252306948162584,1408.4285807538506,190.21980805449408,281437.7303908725,0.0,0.0,30.8861560840435,0.6188094982218729,"[ 19.11448893   1.89877166   0.6188095  -23.95370746  -0.72640587
  32.37696518]",[0.         0.         0.         0.35873534 0.         0.        ],['Ti0' 'Aw' 'Ci' 'e11' 'p11' 'Ria'],1624.81912312227,1.9757469676526043
chicago_control_wood_schedTrue_job110,59.2866040630704,44.01835751874931,1408.3349635818295,194.53287109633965,221567.72084114203,0.0,0.0,34.6464493483059,0.5631775363353609,"[ 18.77312283   2.03047348   0.56317754 -23.97503707  -0.72588722
  28.86298651]",[0.         0.         0.         0.50611156 0.         0.        ],['Ti0' 'Aw' 'Ci' 'e11' 'p11' 'Ria'],1676.57296974297,1.7756352924095964
chicago_control_wood_schedTrue_job172,70.28179505045956,49.85019802050058,1409.1189921602577,195.23616321278962,258834.3977067438,0.0,0.0,43.8519849439292,0.6304459414176689,"[ 17.70790549   2.46657407   0.63044594 -23.9729413   -0.72737174
  22.80398484]",[0.         0.         0.         0.94790548 0.         0.        ],['Ti0' 'Aw' 'Ci' 'e11' 'p11' 'Ria'],1662.34446257987,2.162166951473999
chicago_control_wood_schedTrue_job132,55.38699326512291,41.6422784882316,1408.4634951642593,190.50224852475347,225715.96802019537,0.0,0.0,30.7822950731979,0.559731487486546,"[ 19.95396673   1.81537307   0.55973149 -23.93474421  -0.70831957
  32.48620669]",[0.         0.         0.         0.03715066 0.         0.        ],['Ti0' 'Aw' 'Ci' 'e11' 'p11' 'Ria'],1562.60029382254,1.7620840466938006
chicago_control_wood_schedTrue_job65,61.22770257985639,45.078916292424566,1408.4125108122546,194.52134883050888,258876.27121089987,0.0,0.0,38.1418262110411,0.598184961138723,"[ 19.49261238   2.28320551   0.59818496 -23.96868715  -0.72720425
  26.21793709]","[0.00000000e+00 0.00000000e+00 0.00000000e+00 7.71040085e-06
 0.00000000e+00 0.00000000e+00]",['Ti0' 'Aw' 'Ci' 'e11' 'p11' 'Ria'],1633.7171941349802,2.012051953836199
chicago_control_wood_schedTrue_job143,55.61675348169826,41.764614203957834,1408.45185549176,190.3485147861964,245279.28800127603,0.0,0.0,32.135443012827395,0.545839249741341,"[ 18.08269865   1.86888094   0.54583925 -23.96240628  -0.72385414
  31.11828891]",[0.         0.         0.         0.90083667 0.         0.        ],['Ti0' 'Aw' 'Ci' 'e11' 'p11' 'Ria'],1676.3865303352,1.7613320438303077
chicago_control_wood_schedTrue_job24,63.821986131222125,46.42821852213992,1408.7025707446967,193.7920439578433,254154.0739605687,0.0,0.0,38.410508701472295,0.5976625301757271,"[ 19.68770125   2.20807513   0.59766253 -23.96588974  -0.72696161
  26.03454195]",[0.        0.        0.        0.2915808 0.        0.       ],['Ti0' 'Aw' 'Ci' 'e11' 'p11' 'Ria'],1648.0556807698902,1.914114347817005
chicago_control_wood_schedTrue_job189,59.72897812747824,44.3172301671343,1408.0801176110465,195.61401637542576,269721.32825014956,0.0,0.0,38.91414138287921,0.660406465849856,"[ 17.91946795   2.46556953   0.66040647 -23.90741495  -0.69477964
  25.69759898]",[0.         0.         0.         0.28388162 0.         0.        ],['Ti0' 'Aw' 'Ci' 'e11' 'p11' 'Ria'],1562.58361819077,2.386680168914495
chicago_control_wood_schedTrue_job66,87.58312769312239,58.88890803511101,1408.4855593736054,206.0402816178141,194079.73083301296,0.0,0.0,57.8353853225674,0.6056712942095009,"[ 16.50757808   3.07910056   0.60567129 -23.85041067  -0.64912233
  17.2904528 ]",[0.         0.         0.         0.29796757 0.         0.        ],['Ti0' 'Aw' 'Ci' 'e11' 'p11' 'Ria'],1371.7034291505001,2.3726951266947083
chicago_control_wood_schedTrue_job67,67.10037296115499,48.09489743697409,1408.9664081465226,193.07108317262572,290747.08164013195,0.0,0.0,41.408699806430995,0.48501363408738896,"[ 17.86229326   2.24267329   0.48501363 -24.11453821  -0.79396099
  24.14951459]",[0.         0.         0.         0.87778708 0.         0.        ],['Ti0' 'Aw' 'Ci' 'e11' 'p11' 'Ria'],1930.30796376504,1.509035570510207
chicago_control_wood_schedTrue_job146,56.71533697711372,42.34697657381729,1408.4774414698857,189.66207972389137,315088.54788432526,0.0,0.0,29.990949204440497,0.522899415010996,"[ 20.07635776   1.76700751   0.52289942 -24.00459391  -0.74286666
  33.34339281]",[0.         0.         0.         0.57753064 0.         0.        ],['Ti0' 'Aw' 'Ci' 'e11' 'p11' 'Ria'],1707.9169943036,1.569482284836603
chicago_control_wood_schedTrue_job69,60.719857346456166,44.68168286895219,1408.5704066975989,192.25152644958146,267876.8497195413,0.0,0.0,36.2499681956834,0.613156854260254,"[ 18.25377568   2.1657897    0.61315685 -24.02311496  -0.74415774
  27.5862311 ]",[0.         0.         0.         0.94656026 0.         0.        ],['Ti0' 'Aw' 'Ci' 'e11' 'p11' 'Ria'],1750.50401479992,1.9640340284786006
chicago_control_wood_schedTrue_job115,57.12011100157294,42.73361039489131,1408.0035239957501,192.9164906164703,265781.5523813165,0.0,0.0,36.6450174800972,0.50231332540769,"[ 18.17449787   2.09439292   0.50231333 -24.00272563  -0.72933301
  27.28883949]",[0.         0.         0.         0.44563517 0.         0.        ],['Ti0' 'Aw' 'Ci' 'e11' 'p11' 'Ria'],1655.0311543352802,2.6598891517259986
