fname,hlc_mat,hlc_tot,hlc_se,hlc_si,c_tot,hlc_inf_standard,hlc_inf_current,hlc_tot_pred,c_tot_pred,estimates,probt,names,loglik,err
victoria_control_concrete_schedTrue_job162,85.97019731259432,58.94911328067949,12673.30637254872,190.3695968324028,2530036.4083500896,0.0,0.0,38.405861286041606,0.9018162066444941,"[ 20.52366768   1.70655428   0.90181621 -24.40395589  -1.38320391
  26.03769233]",[0.         0.         0.         0.95789187 0.         0.        ],['Ti0' 'Aw' 'Ci' 'e11' 'p11' 'Ria'],1777.8959963222896,2.1534437086771874
victoria_control_concrete_schedTrue_job136,55.71711493261286,42.850669379476976,12670.046252584616,188.31946767002933,2579332.4363100305,0.0,0.0,17.0464360412096,0.7070441763864941,"[ 20.88121313   1.07786618   0.70704418 -24.06862513  -1.19671131
  58.66328877]",[0.         0.         0.         0.91838217 0.         0.        ],['Ti0' 'Aw' 'Ci' 'e11' 'p11' 'Ria'],1577.71023578216,1.8500081180270982
victoria_control_concrete_schedTrue_job135,62.302873621999495,46.54432839169225,12671.154176863502,186.72911023728932,2571928.1162866945,0.0,0.0,21.1361933345073,0.6746765659842521,"[ 20.97144349   1.2142935    0.67467657 -24.14049617  -1.25687614
  47.31220917]",[0.         0.         0.         0.88445848 0.         0.        ],['Ti0' 'Aw' 'Ci' 'e11' 'p11' 'Ria'],1625.94471618219,1.9621036698047014
victoria_control_concrete_schedTrue_job94,55.35499832236077,42.64708468829262,12670.051729157207,188.53270948482086,2617287.7706010104,0.0,0.0,17.038781890599598,0.621999179168544,"[ 20.92184991   0.86319138   0.62199918 -24.14230999  -1.25144516
  58.68964146]",[0.         0.         0.         0.95406302 0.         0.        ],['Ti0' 'Aw' 'Ci' 'e11' 'p11' 'Ria'],1638.75660915602,1.7267675410596013
victoria_control_concrete_schedTrue_job56,61.33328516179152,46.282515467801154,12669.90247881358,191.45558020614067,2568161.6501213117,0.0,0.0,22.332521149671603,0.6631590829199621,"[ 20.59345541   1.282296     0.66315908 -24.10326047  -1.22434453
  44.77774781]",[0.         0.         0.         0.76215912 0.         0.        ],['Ti0' 'Aw' 'Ci' 'e11' 'p11' 'Ria'],1552.91441694963,1.8766081189767974
victoria_control_concrete_schedTrue_job200,73.46122978778979,52.92094030854449,12672.073467282558,192.13863301732428,2608912.2529187924,0.0,0.0,32.0066964259752,0.939938148756851,"[ 20.05296778   1.77501871   0.93993815 -24.26047829  -1.31506018
  31.24346189]",[0.         0.         0.         0.84931276 0.         0.        ],['Ti0' 'Aw' 'Ci' 'e11' 'p11' 'Ria'],1675.2407737056399,2.3921013649326994
victoria_control_concrete_schedTrue_job126,55.45517708568315,42.69025277380739,12669.989762762336,188.21606445138508,2609219.3522845698,0.0,0.0,18.8807718711482,0.690989553982286,"[ 21.08381033   1.13829743   0.69098955 -24.18678428  -1.27383621
  52.96393637]",[0.         0.         0.         0.13274656 0.         0.        ],['Ti0' 'Aw' 'Ci' 'e11' 'p11' 'Ria'],1654.9823630145002,1.8238303817004962
victoria_control_concrete_schedTrue_job188,85.00554886018836,58.82080241827001,12672.278614141056,193.87593208722038,2563740.7052267804,0.0,0.0,33.8029105639668,0.943930162308325,"[ 20.08528416   1.72996276   0.94393016 -24.26648107  -1.32061038
  29.58325136]",[0.         0.         0.         0.84514859 0.         0.        ],['Ti0' 'Aw' 'Ci' 'e11' 'p11' 'Ria'],1676.14149004809,2.650748120372306
victoria_control_concrete_schedTrue_job2,69.98555762976065,50.74941530299432,12672.334574440561,187.36815805651375,2597906.2874265476,0.0,0.0,25.4990912266824,0.7780697093011129,"[ 20.86772318   1.28414859   0.77806971 -24.12155037  -1.24622429
  39.2170839 ]","[0.00000000e+00 0.00000000e+00 8.88178420e-14 9.61461133e-01
 0.00000000e+00 0.00000000e+00]",['Ti0' 'Aw' 'Ci' 'e11' 'p11' 'Ria'],1591.4476395243898,4.013577374578503
victoria_control_concrete_schedTrue_job13,53.15365008149436,41.220906961452336,12670.05263142037,186.31603933348825,2531990.6087987544,0.0,0.0,16.3927913797129,0.554208015018441,"[ 20.97089245   1.0236378    0.55420802 -24.0525334   -1.19942621
  61.00242337]",[0.        0.        0.        0.9123012 0.        0.       ],['Ti0' 'Aw' 'Ci' 'e11' 'p11' 'Ria'],1583.95460675375,1.6631980628839003
victoria_control_concrete_schedTrue_job58,55.93415718749154,42.96385447254612,12670.015218808532,188.03039075392144,2621401.523058013,0.0,0.0,15.774467404428599,0.6179445703033779,"[ 20.91177529   0.87167387   0.61794457 -24.06582352  -1.20485736
  63.39358245]",[0.         0.         0.         0.97352654 0.         0.        ],['Ti0' 'Aw' 'Ci' 'e11' 'p11' 'Ria'],1584.72664902257,1.727394418778303
victoria_control_concrete_schedTrue_job7,78.11381470910628,55.5248079898728,12670.129724468694,194.96183230613212,2514356.3257742934,0.0,0.0,33.5226193499455,0.810629772422573,"[ 20.26602442   1.59226026   0.81062977 -24.47183674  -1.41002927
  29.83060451]",[0.         0.         0.         0.82923055 0.         0.        ],['Ti0' 'Aw' 'Ci' 'e11' 'p11' 'Ria'],1820.5380337976899,2.065499977092294
victoria_control_concrete_schedTrue_job34,73.15896941098755,52.50209414820557,12672.557318884768,188.71183653241454,2579977.0810101097,0.0,0.0,27.5016661707655,0.970327550176879,"[ 20.21694098   1.53608883   0.97032755 -24.09678017  -1.22085308
  36.3614333 ]",[0.        0.        0.        0.9552469 0.        0.       ],['Ti0' 'Aw' 'Ci' 'e11' 'p11' 'Ria'],1575.02921323735,2.6369332985091027
victoria_control_concrete_schedTrue_job52,64.3676556120379,47.856205099234394,12671.047625141697,189.34879867940091,2578457.4034618153,0.0,0.0,24.663553948455895,0.721577022256565,"[ 20.94547338   1.44348595   0.72157702 -24.03372999  -1.20742487
  40.54565705]",[0.        0.        0.        0.9235698 0.        0.       ],['Ti0' 'Aw' 'Ci' 'e11' 'p11' 'Ria'],1525.74072136333,2.2103631327421063
victoria_control_concrete_schedTrue_job51,76.3553912621211,54.15437432566766,12672.97928924598,189.02988549361226,2616536.031489216,0.0,0.0,31.3103506341004,0.9067905930422551,"[ 19.99811785   1.59373842   0.90679059 -24.27238154  -1.32679658
  31.93832007]",[0.         0.         0.         0.94428484 0.         0.        ],['Ti0' 'Aw' 'Ci' 'e11' 'p11' 'Ria'],1721.25589024445,2.439880035955202
victoria_control_concrete_schedTrue_job122,69.69300258228442,50.608917547776386,12672.207734067437,187.55364441132232,2591922.7152037816,0.0,0.0,23.9580409400438,0.863534856790881,"[ 20.31314241   1.37353307   0.86353486 -24.14118551  -1.2448802
  41.73963984]",[0.         0.         0.         0.56382022 0.         0.        ],['Ti0' 'Aw' 'Ci' 'e11' 'p11' 'Ria'],1590.3547521677801,2.503584474880199
victoria_control_concrete_schedTrue_job165,70.8052299267768,51.24652345501477,12671.67950630637,188.27597342151938,2562016.686216115,0.0,0.0,26.3391710899727,0.7358572308749529,"[ 20.83369327   1.36698512   0.73585723 -24.30291757  -1.32804726
  37.96626692]",[0.         0.         0.         0.90770224 0.         0.        ],['Ti0' 'Aw' 'Ci' 'e11' 'p11' 'Ria'],1706.6685257669299,1.8269171201031966
victoria_control_concrete_schedTrue_job145,64.25809462086103,47.66240579078292,12671.23704211324,187.2751816791734,2570190.5005153683,0.0,0.0,24.8023321070092,0.8144962698812629,"[ 20.27054451   1.44051804   0.81449627 -24.3315374   -1.34679238
  40.3187892 ]",[0.         0.         0.         0.60204658 0.         0.        ],['Ti0' 'Aw' 'Ci' 'e11' 'p11' 'Ria'],1743.02239188875,2.0766360003029973
victoria_control_concrete_schedTrue_job148,73.67060092896384,53.06698477520002,12671.67199981964,192.6316001140873,2580848.5559886275,0.0,0.0,30.2911143213544,0.7477709608016591,"[ 20.15293728   1.5867773    0.74777096 -24.3175087   -1.33399868
  33.01298161]",[0.         0.         0.         0.60719074 0.         0.        ],['Ti0' 'Aw' 'Ci' 'e11' 'p11' 'Ria'],1725.4384396399898,1.990938675280205
victoria_control_concrete_schedTrue_job71,69.9603172426652,50.94017805601946,12671.742378669092,190.18144206221515,2545158.4527377905,0.0,0.0,26.4722288827899,0.8488308987823109,"[ 20.35848081   1.39506744   0.8488309  -24.21390083  -1.28696692
  37.77543646]",[0.         0.         0.         0.68177345 0.         0.        ],['Ti0' 'Aw' 'Ci' 'e11' 'p11' 'Ria'],1654.82980947453,2.2869884318687994
victoria_control_concrete_schedTrue_job167,74.36459930285736,53.07348562878826,12672.11515441288,188.1245294551158,2532332.070928897,0.0,0.0,32.830079699022605,0.78440503878969,"[ 19.99797402   1.61871397   0.78440504 -24.42931362  -1.40088449
  30.45987123]",[0.         0.         0.         0.94317629 0.         0.        ],['Ti0' 'Aw' 'Ci' 'e11' 'p11' 'Ria'],1837.95802828607,1.9185597505643983
victoria_control_concrete_schedTrue_job166,67.19922766485652,49.47890522447247,12670.754667224264,190.45486685572803,2523127.0638319044,0.0,0.0,26.461546694504598,0.8610915815835041,"[ 20.45895357   1.48017217   0.86109158 -24.28229251  -1.31509263
  37.79068592]",[0.         0.         0.         0.89933522 0.         0.        ],['Ti0' 'Aw' 'Ci' 'e11' 'p11' 'Ria'],1690.5564302200303,2.3083829534645055
victoria_control_concrete_schedTrue_job100,65.27595147234346,48.294040562194844,12670.70293379834,188.39527195954616,2553410.5481190532,0.0,0.0,23.062164549757103,0.718372145020461,"[ 20.68594046   1.27040402   0.71837215 -23.42410112  -1.26741411
  43.3610643 ]",[0.         0.         0.         0.91517446 0.         0.        ],['Ti0' 'Aw' 'Ci' 'e11' 'p11' 'Ria'],1627.6126730496899,1.939005746313498
victoria_control_concrete_schedTrue_job111,72.27368621062237,52.07061822284078,12672.351834695586,189.0544259500992,2589961.7618514644,0.0,0.0,26.074368635981898,0.818760141666435,"[ 20.2990643    1.39742572   0.81876014 -24.20043557  -1.28280336
  38.35183946]",[0.        0.        0.        0.3870182 0.        0.       ],['Ti0' 'Aw' 'Ci' 'e11' 'p11' 'Ria'],1669.82484457694,2.0829688243465014
victoria_control_concrete_schedTrue_job18,65.33364347894315,48.32349473471754,12671.34907637933,188.36295282377642,2623214.0694151004,0.0,0.0,27.080672102343197,0.812933036989335,"[ 20.41674616   1.57600338   0.81293304 -24.41220797  -1.39812958
  36.92670537]",[0.         0.         0.         0.87123922 0.         0.        ],['Ti0' 'Aw' 'Ci' 'e11' 'p11' 'Ria'],1825.6337688983103,2.013976348948102
victoria_control_concrete_schedTrue_job183,77.40472281933916,54.83537835514926,12672.71142305164,190.89857133069336,2566711.1633309824,0.0,0.0,30.7110202032282,0.989216223515403,"[ 20.04108681   1.75660907   0.98921622 -24.25710059  -1.30843086
  32.56160145]",[0.         0.         0.         0.88918929 0.         0.        ],['Ti0' 'Aw' 'Ci' 'e11' 'p11' 'Ria'],1700.74287925928,2.3750066171031
victoria_control_concrete_schedTrue_job14,60.34399039804627,45.44539149405885,12670.852851331136,186.78141756425092,2572500.947943663,0.0,0.0,19.375610602071898,0.663760880551575,"[ 20.70354872   1.10188273   0.66376088 -24.12851535  -1.26610098
  51.6112767 ]",[0.         0.         0.         0.77334832 0.         0.        ],['Ti0' 'Aw' 'Ci' 'e11' 'p11' 'Ria'],1629.68364501521,1.7590713071619035
victoria_control_concrete_schedTrue_job72,55.30415982367842,42.49213650241066,12669.871510525256,186.1152031571981,2540255.4073160635,0.0,0.0,21.5961119699141,0.663656791152838,"[ 20.79903785   1.22256063   0.66365679 -24.40395843  -1.3588098
  46.30463119]",[0.         0.         0.         0.84599831 0.         0.        ],['Ti0' 'Aw' 'Ci' 'e11' 'p11' 'Ria'],1804.9440290723103,1.7310728254993961
victoria_control_concrete_schedTrue_job164,70.16463591932809,50.92744251676895,12671.513061513946,188.51322040484982,2559731.6593829836,0.0,0.0,27.4879469810672,0.7551419915093871,"[ 20.4770098    1.56932181   0.75514199 -24.21706726  -1.27105113
  36.37958123]","[0.00000000e+00 1.77635684e-15 0.00000000e+00 8.61492614e-01
 0.00000000e+00 0.00000000e+00]",['Ti0' 'Aw' 'Ci' 'e11' 'p11' 'Ria'],1648.6253826968698,2.566223342898301
victoria_control_concrete_schedTrue_job187,87.4603078524386,59.790068318425035,12673.084854159266,191.84577472423481,2495994.089443441,0.0,0.0,32.5624411924432,1.04810620838988,"[ 19.95559555   1.74220841   1.04810621 -24.18339515  -1.29510438
  30.71022821]",[0.         0.         0.         0.91921591 0.         0.        ],['Ti0' 'Aw' 'Ci' 'e11' 'p11' 'Ria'],1627.4914350285,2.558262621664994
victoria_control_concrete_schedTrue_job178,59.51645895556818,44.95921680139123,12670.68015909753,186.51903459697758,2595948.6919521224,0.0,0.0,19.3313908564273,0.738712679133898,"[ 20.69058229   1.06037256   0.73871268 -24.18842372  -1.2806125
  51.72933533]",[0.         0.         0.         0.94302345 0.         0.        ],['Ti0' 'Aw' 'Ci' 'e11' 'p11' 'Ria'],1666.95260280282,2.0264162519585014
victoria_control_concrete_schedTrue_job11,73.2616424257807,52.62382407149351,12672.007171237748,189.6029985832779,2527340.8031802457,0.0,0.0,26.9108584050995,0.901611861778621,"[ 20.56994002   1.4886254    0.90161186 -24.14305747  -1.25786601
  37.15972136]",[0.         0.         0.         0.90581739 0.         0.        ],['Ti0' 'Aw' 'Ci' 'e11' 'p11' 'Ria'],1620.82554485007,2.482752846960498
victoria_control_concrete_schedTrue_job85,54.74672589544546,42.1580567718826,12670.250746796555,186.0326377924363,2593252.0031897286,0.0,0.0,17.130455276928302,0.666713609083702,"[ 20.78866947   0.93744675   0.66671361 -24.15861862  -1.25350717
  58.37556468]",[0.         0.         0.         0.89687615 0.         0.        ],['Ti0' 'Aw' 'Ci' 'e11' 'p11' 'Ria'],1670.0666741672799,1.852522394948
victoria_control_concrete_schedTrue_job168,64.99757772772661,48.106639770113766,12671.174782994056,187.862458088547,2573890.9810464843,0.0,0.0,22.3332786531628,0.7203800691159371,"[ 20.54762808   1.2155487    0.72038007 -24.1240132   -1.23298013
  44.77622903]",[0.         0.         0.         0.52294208 0.         0.        ],['Ti0' 'Aw' 'Ci' 'e11' 'p11' 'Ria'],1583.34863291898,2.010147277658298
victoria_control_concrete_schedTrue_job158,57.790538691329296,43.963327158510175,12670.962197002324,186.44750501012606,2578306.072866703,0.0,0.0,20.0325022639795,0.6920478679192039,"[ 21.03516885   1.08263525   0.69204787 -24.1907041   -1.26302468
  49.91887618]",[0.         0.         0.         0.91637222 0.         0.        ],['Ti0' 'Aw' 'Ci' 'e11' 'p11' 'Ria'],1637.12451556845,1.8977832590090031
victoria_control_concrete_schedTrue_job103,76.7421740863022,54.5775327359222,12672.199793464537,191.82811135439403,2597623.514262208,0.0,0.0,34.8489535774192,0.8389783731111041,"[ 19.9055969    1.72503433   0.83897837 -24.58646202  -1.43444072
  28.69526621]",[0.         0.         0.         0.94492617 0.         0.        ],['Ti0' 'Aw' 'Ci' 'e11' 'p11' 'Ria'],1894.36877052644,1.9699903601280937
victoria_control_concrete_schedTrue_job114,75.07428148770953,53.60599270913092,12672.386718155403,190.27402104665816,2602228.312301653,0.0,0.0,28.825437292328402,0.8851130834974491,"[ 20.09208741   1.54920051   0.88511308 -24.25892796  -1.31050146
  34.69158125]",[0.         0.         0.         0.94254842 0.         0.        ],['Ti0' 'Aw' 'Ci' 'e11' 'p11' 'Ria'],1681.40356805722,2.3252466248175985
victoria_control_concrete_schedTrue_job197,60.157379623368655,45.35408053149911,12670.616650125552,187.02966120136776,2597539.473395058,0.0,0.0,24.3312022309446,0.7167231475344041,"[ 20.69096164   1.3582629    0.71672315 -24.38869088  -1.35997184
  41.09948989]",[0.         0.         0.         0.89550868 0.         0.        ],['Ti0' 'Aw' 'Ci' 'e11' 'p11' 'Ria'],1809.6376347408102,1.8578818560966006
victoria_control_concrete_schedTrue_job9,69.74720438508795,50.803923609646105,12670.508783595717,189.8576725064512,2534650.7655049968,0.0,0.0,24.073376381599697,0.8000340618227171,"[ 20.9453908    1.29098274   0.80003406 -24.1564463   -1.25023249
  41.5396654 ]",[0.         0.         0.         0.78607377 0.         0.        ],['Ti0' 'Aw' 'Ci' 'e11' 'p11' 'Ria'],1605.0054046716598,2.156012615012905
victoria_control_concrete_schedTrue_job194,55.136802376216316,42.379257543867936,12670.170460119529,185.8453749518252,2620576.5504714227,0.0,0.0,20.88428394736,0.7169589976203009,"[ 20.929281     1.22586838   0.716959   -24.24521561  -1.28477351
  47.88289618]",[0.         0.         0.         0.95216952 0.         0.        ],['Ti0' 'Aw' 'Ci' 'e11' 'p11' 'Ria'],1698.89362158965,2.0178490154481032
victoria_control_concrete_schedTrue_job169,58.80531954443881,44.65628065772958,12670.729523509895,188.3565405444125,2634185.6595059307,0.0,0.0,18.2718780633725,0.6443613186285849,"[ 20.71996947   0.98294999   0.64436132 -24.17821443  -1.26290561
  54.72891164]",[0.         0.         0.         0.46443012 0.         0.        ],['Ti0' 'Aw' 'Ci' 'e11' 'p11' 'Ria'],1655.99763949453,1.8292606794306998
victoria_control_concrete_schedTrue_job102,60.341709812851754,45.545026033374526,12670.65498240109,188.4983193929395,2598853.8189760903,0.0,0.0,25.387138448218103,0.697631578630677,"[ 20.9779482    1.44528676   0.69763158 -24.38896453  -1.39134052
  39.39002428]",[0.         0.         0.         0.31081396 0.         0.        ],['Ti0' 'Aw' 'Ci' 'e11' 'p11' 'Ria'],1817.6844342893698,1.804284032641295
victoria_control_concrete_schedTrue_job20,64.50317855237307,47.79882349139745,12671.668384686422,187.30138420236702,2601441.3898418616,0.0,0.0,25.8472136145337,0.71881974249963,"[ 20.41573629   1.46097861   0.71881974 -24.17413883  -1.29978042
  38.68888983]",[0.         0.         0.         0.90199425 0.         0.        ],['Ti0' 'Aw' 'Ci' 'e11' 'p11' 'Ria'],1678.21569259646,1.9311375087465024
victoria_control_concrete_schedTrue_job86,62.39029097734943,46.594070441114184,12670.902695379322,186.7447634556429,2556815.4091334813,0.0,0.0,24.940771298390604,0.689909039248121,"[ 20.45867637   1.40402218   0.68990904 -24.31651914  -1.35005746
  40.09499097]",[0.         0.         0.         0.95033972 0.         0.        ],['Ti0' 'Aw' 'Ci' 'e11' 'p11' 'Ria'],1757.31683922228,1.7080476141454959
victoria_control_concrete_schedTrue_job47,57.35072404917802,43.72410170108085,12670.328669433047,186.73489920614404,2557460.2280922164,0.0,0.0,19.766294904486397,0.6787963950383601,"[ 20.7258627    1.11051684   0.6787964  -24.18600235  -1.26806956
  50.59117072]",[0.         0.         0.         0.92992408 0.         0.        ],['Ti0' 'Aw' 'Ci' 'e11' 'p11' 'Ria'],1672.27635124694,1.8663413711421022
victoria_control_concrete_schedTrue_job176,70.61090651966401,51.326458012442686,12671.813430051972,190.76340720040054,2612077.0338125792,0.0,0.0,28.7396628652176,0.8016779557429771,"[ 20.77488494   1.53512607   0.80167796 -24.16655938  -1.25369712
  34.79511937]",[0.         0.         0.         0.81814156 0.         0.        ],['Ti0' 'Aw' 'Ci' 'e11' 'p11' 'Ria'],1579.48081869531,2.2676138399605037
victoria_control_concrete_schedTrue_job141,55.29210386506697,42.655232705099266,12669.825305140448,189.4265938491509,2603274.677640708,0.0,0.0,17.6923357511676,0.718912565684634,"[ 20.8380963    1.06850983   0.71891257 -24.0763341   -1.20816608
  56.52164949]",[0.         0.         0.         0.71086702 0.         0.        ],['Ti0' 'Aw' 'Ci' 'e11' 'p11' 'Ria'],1602.36672111148,2.2819909998418986
victoria_control_concrete_schedTrue_job36,57.439919178531746,43.778698976224454,12670.656669331265,186.78527155262108,2580734.434447834,0.0,0.0,19.0628497242221,0.591323779499106,"[ 21.08150716   1.05394309   0.59132378 -24.20465738  -1.27431889
  52.45805399]",[0.         0.         0.         0.54559227 0.         0.        ],['Ti0' 'Aw' 'Ci' 'e11' 'p11' 'Ria'],1682.41330784584,1.5762268318874
victoria_control_concrete_schedTrue_job193,72.48334390661735,52.21332020334392,12671.565836909695,189.50121229169946,2526192.0383603815,0.0,0.0,24.6785512126576,0.7664269939145569,"[ 20.88137841   1.31062171   0.76642699 -24.09434018  -1.22923311
  40.52101727]",[0.         0.         0.         0.47831411 0.         0.        ],['Ti0' 'Aw' 'Ci' 'e11' 'p11' 'Ria'],1580.4663031378698,2.0373964652306
victoria_control_concrete_schedTrue_job55,67.1991124600534,49.423760338265915,12671.521054284023,189.6411478896843,2562297.737754357,0.0,0.0,30.0440901086646,0.774988733261763,"[ 20.23312552   1.61302266   0.77498873 -24.35320097  -1.36358395
  33.28441622]",[0.         0.         0.         0.87973088 0.         0.        ],['Ti0' 'Aw' 'Ci' 'e11' 'p11' 'Ria'],1782.64590816047,3.4324756676115946
victoria_control_concrete_schedTrue_job180,71.33539929256287,51.725178044244096,12671.550415897495,190.9948948441147,2575652.361601498,0.0,0.0,25.6092020047034,0.7866506442853219,"[ 20.35256431   1.39289      0.78665064 -24.17285321  -1.25530498
  39.0484639 ]",[0.         0.         0.         0.78649036 0.         0.        ],['Ti0' 'Aw' 'Ci' 'e11' 'p11' 'Ria'],1638.4335693064402,2.3726033920625014
victoria_control_concrete_schedTrue_job81,70.33159825773478,51.09171213514232,12672.216931435833,189.56005329741438,2565340.4683280373,0.0,0.0,28.626632656317398,0.7717577276166341,"[ 20.11645167   1.51936464   0.77175773 -24.1924343   -1.28528818
  34.93250541]",[0.         0.         0.         0.22541073 0.         0.        ],['Ti0' 'Aw' 'Ci' 'e11' 'p11' 'Ria'],1658.77503622452,2.1435187334290013
victoria_control_concrete_schedTrue_job142,60.500679959086625,45.800723408298296,12669.719942944404,191.34917729583168,2591252.8443129305,0.0,0.0,19.9268480550107,0.695157728385292,"[ 21.03670225   1.23095436   0.69515773 -24.16917937  -1.2570984
  50.18355122]",[0.         0.         0.         0.36138376 0.         0.        ],['Ti0' 'Aw' 'Ci' 'e11' 'p11' 'Ria'],1639.86940863669,1.9461466933949971
victoria_control_concrete_schedTrue_job120,75.98899554851587,53.97550820204888,12672.700608893587,189.099851765679,2546918.595159868,0.0,0.0,31.678641264584602,0.849451002458639,"[ 20.11256864   1.57859731   0.849451   -24.29417117  -1.34277539
  31.56701046]",[0.         0.         0.         0.80816892 0.         0.        ],['Ti0' 'Aw' 'Ci' 'e11' 'p11' 'Ria'],1756.90262407789,2.3235731680276963
victoria_control_concrete_schedTrue_job75,74.51733928804998,53.21867819022063,12672.632741274918,188.9719869547995,2619723.275440233,0.0,0.0,27.327054069538697,0.769381930960529,"[ 20.72126745   1.29592852   0.76938193 -24.21465838  -1.28701964
  36.59377251]",[0.         0.         0.         0.92768806 0.         0.        ],['Ti0' 'Aw' 'Ci' 'e11' 'p11' 'Ria'],1621.70316670504,2.0186317596979997
victoria_control_concrete_schedTrue_job12,57.89988146623585,44.040091217528676,12670.40161924602,186.6902305413509,2558708.2447662572,0.0,0.0,20.5715412589879,0.7276487693189229,"[ 20.68464982   1.22904487   0.72764877 -24.26859849  -1.31019212
  48.61084483]",[0.        0.        0.        0.2970244 0.        0.       ],['Ti0' 'Aw' 'Ci' 'e11' 'p11' 'Ria'],1703.7534375356602,1.9546484884560016
victoria_control_concrete_schedTrue_job117,62.3060932856948,46.75628233202568,12671.075772438691,190.15796585810162,2575654.1983984793,0.0,0.0,19.396567783547003,0.804280901114918,"[ 20.5277342    1.10733649   0.8042809  -24.16536173  -1.27934574
  51.55551287]",[0.         0.         0.         0.60171943 0.         0.        ],['Ti0' 'Aw' 'Ci' 'e11' 'p11' 'Ria'],1647.9157645474402,2.195552997976396
victoria_control_concrete_schedTrue_job127,80.3962420077315,56.25227393545642,12673.318724531433,190.1227117839172,2600549.361200413,0.0,0.0,33.1684920755094,0.9032343672656808,"[ 19.94218685   1.69924862   0.90323437 -24.24998732  -1.30396564
  30.14909444]",[0.         0.         0.         0.56625964 0.         0.        ],['Ti0' 'Aw' 'Ci' 'e11' 'p11' 'Ria'],1689.03816042229,2.5101871613613085
victoria_control_concrete_schedTrue_job174,83.56350369010559,57.89604993392797,12672.379604270225,191.33347436460704,2528475.555764104,0.0,0.0,33.6283374959153,0.932192486612636,"[ 20.03771942   1.61942875   0.93219249 -24.23360001  -1.3016178
  29.73682538]",[0.         0.         0.         0.93142266 0.         0.        ],['Ti0' 'Aw' 'Ci' 'e11' 'p11' 'Ria'],1679.20888489405,2.671692541360599
victoria_control_concrete_schedTrue_job8,58.246896058517635,44.34811099062355,12669.960431577736,188.62048506034043,2531543.3238876304,0.0,0.0,23.1476438990203,0.7447826131739921,"[ 20.7423687    1.41897753   0.74478261 -24.45520647  -1.38308632
  43.20094107]",[0.         0.         0.         0.71377255 0.         0.        ],['Ti0' 'Aw' 'Ci' 'e11' 'p11' 'Ria'],1843.54632638305,1.8371343393984993
victoria_control_concrete_schedTrue_job30,67.57417024157847,49.70286435592926,12670.79400959944,190.76363483165835,2566983.3965714434,0.0,0.0,29.6493425403023,0.794302195552648,"[ 20.30055353   1.5781424    0.7943022  -24.43812049  -1.39932044
  33.72756069]",[0.         0.         0.         0.92748289 0.         0.        ],['Ti0' 'Aw' 'Ci' 'e11' 'p11' 'Ria'],1840.91388170548,1.9905617822525024
victoria_control_concrete_schedTrue_job150,59.65450337062112,45.03510633351061,12670.960546493077,186.47028041411832,2575657.516397197,0.0,0.0,20.426477830836802,0.672004016142537,"[ 21.04652314   1.16562749   0.67200402 -24.19565343  -1.25786074
  48.95606615]",[0.         0.         0.         0.39498752 0.         0.        ],['Ti0' 'Aw' 'Ci' 'e11' 'p11' 'Ria'],1639.4069411557998,2.027590387774694
victoria_control_concrete_schedTrue_job60,77.93613931301012,55.10900107720095,12672.30070486017,190.98818972456885,2590811.3543123947,0.0,0.0,32.4229452604407,0.9898474525677231,"[ 20.06881754   1.78606352   0.98984745 -24.27224464  -1.33316738
  30.84235537]",[0.         0.         0.         0.95597677 0.         0.        ],['Ti0' 'Aw' 'Ci' 'e11' 'p11' 'Ria'],1752.41762397651,2.482635063498499
victoria_control_concrete_schedTrue_job112,70.79844134990525,51.3329014815441,12672.318834292146,189.49563274353903,2623603.221828503,0.0,0.0,27.5754577773277,0.860614977818269,"[ 20.19454926   1.51273309   0.86061498 -24.24582747  -1.29936914
  36.26413052]",[0.         0.         0.         0.89965514 0.         0.        ],['Ti0' 'Aw' 'Ci' 'e11' 'p11' 'Ria'],1684.3730404786402,2.187582457696301
victoria_control_concrete_schedTrue_job177,85.28807593166297,58.64890546953541,12673.041723958184,190.59452357169152,2559709.924058708,0.0,0.0,36.0091719788855,0.9438774425786499,"[ 19.82565705   1.71256696   0.94387744 -24.35052017  -1.36529697
  27.77070244]",[0.         0.         0.         0.73825559 0.         0.        ],['Ti0' 'Aw' 'Ci' 'e11' 'p11' 'Ria'],1777.8672984759398,2.4711872460823017
victoria_control_concrete_schedTrue_job59,65.20972852332228,48.38856707912553,12670.308252338691,190.40442164242063,2505345.9029670306,0.0,0.0,21.1499437614543,0.709467743019072,"[ 20.66675771   1.14510124   0.70946774 -24.0994199   -1.22373772
  47.2814496 ]",[0.        0.        0.        0.8912217 0.        0.       ],['Ti0' 'Aw' 'Ci' 'e11' 'p11' 'Ria'],1559.2416565607098,2.1069577837893974
victoria_control_concrete_schedTrue_job157,81.52892538971383,56.73138266202772,12673.321642105922,189.3065753322686,2600894.827104799,0.0,0.0,35.759070844739206,0.892583990106542,"[ 19.66979944   1.76897387   0.89258399 -24.21407941  -1.28762608
  27.96493243]",[0.         0.         0.         0.24264276 0.         0.        ],['Ti0' 'Aw' 'Ci' 'e11' 'p11' 'Ria'],1684.9833627422101,2.370089993870195
victoria_control_concrete_schedTrue_job115,57.13380273876467,43.74737337213277,12669.870264408484,189.50827384729544,2562521.5600256664,0.0,0.0,23.8351167587153,0.702813229877321,"[ 20.6185394    1.37360787   0.70281323 -23.6901843   -1.33117427
  41.95490251]",[0.         0.         0.         0.89284957 0.         0.        ],['Ti0' 'Aw' 'Ci' 'e11' 'p11' 'Ria'],1761.2285201011498,1.7857342618154988
victoria_control_concrete_schedTrue_job173,62.8120742122354,46.814481157080394,12671.027294661528,186.51546852911088,2575950.3685615063,0.0,0.0,25.8826547113993,0.711704624980226,"[ 20.41378847   1.46219704   0.71170462 -24.33499454  -1.34915242
  38.63591317]",[0.         0.         0.         0.94537169 0.         0.        ],['Ti0' 'Aw' 'Ci' 'e11' 'p11' 'Ria'],1738.82773387197,1.7582679933376006
victoria_control_concrete_schedTrue_job159,91.12425819989934,61.77121004450345,12672.621902470813,194.71030810567055,2494065.2692891397,0.0,0.0,40.05983140768279,0.9672786447553811,"[ 19.85904494   1.85519962   0.96727864 -24.38456459  -1.36985501
  24.96266122]",[0.         0.         0.         0.90672382 0.         0.        ],['Ti0' 'Aw' 'Ci' 'e11' 'p11' 'Ria'],1755.53027303716,2.5837045168343096
victoria_control_concrete_schedTrue_job40,71.08245979441979,51.35539671711,12671.88966981256,187.79105707749557,2595946.4891254273,0.0,0.0,28.0275366884172,0.8607103530645749,"[ 20.25611902   1.58170879   0.86071035 -24.39081238  -1.37854356
  35.6791969 ]",[0.         0.         0.         0.90939629 0.         0.        ],['Ti0' 'Aw' 'Ci' 'e11' 'p11' 'Ria'],1813.7772423684198,3.1076428650321013
victoria_control_concrete_schedTrue_job175,65.74826483626407,48.50623949465739,12670.883491620007,187.7068345180012,2549452.775586227,0.0,0.0,21.589578199217602,0.683001790136355,"[ 20.51728176   1.14779356   0.68300179 -24.23782307  -1.30154344
  46.31864462]",[0.         0.         0.         0.75347509 0.         0.        ],['Ti0' 'Aw' 'Ci' 'e11' 'p11' 'Ria'],1688.64968183719,1.852799848748596
victoria_control_concrete_schedTrue_job27,69.05809316476902,50.69387911789082,12670.187361561468,193.5448929910195,2519135.1898884377,0.0,0.0,27.9612457457868,0.8727986443286758,"[ 20.66888468   1.55944458   0.87279864 -24.34530792  -1.34222866
  35.76378567]",[0.         0.         0.         0.75200209 0.         0.        ],['Ti0' 'Aw' 'Ci' 'e11' 'p11' 'Ria'],1743.5580938532098,2.1278327352663986
victoria_control_concrete_schedTrue_job21,78.03376914309425,55.31695065309101,12670.77851374386,192.9103530754977,2511841.179127334,0.0,0.0,29.7983248635564,0.9606256623764909,"[ 20.3003404    1.54069634   0.96062566 -24.136176    -1.24327426
  33.55893342]",[0.         0.         0.         0.79210091 0.         0.        ],['Ti0' 'Aw' 'Ci' 'e11' 'p11' 'Ria'],1567.32836948547,2.721294645694204
victoria_control_concrete_schedTrue_job69,60.884527125898025,45.76587016495731,12670.910587510552,187.02465236993416,2578043.4250418902,0.0,0.0,21.065243586476,0.654449910394031,"[ 20.700778     1.10699297   0.65444991 -24.28957306  -1.31785114
  47.47156119]",[0.        0.        0.        0.9590463 0.        0.       ],['Ti0' 'Aw' 'Ci' 'e11' 'p11' 'Ria'],1709.13717842557,1.6815450525598976
victoria_control_concrete_schedTrue_job87,86.52787784579806,59.59287455764379,12671.74595757772,194.37687244460255,2484288.675805437,0.0,0.0,37.9016612367652,0.9060288714951301,"[ 20.00214005   1.88228746   0.90602887 -24.44960274  -1.39474609
  26.38406781]",[0.         0.         0.         0.60055786 0.         0.        ],['Ti0' 'Aw' 'Ci' 'e11' 'p11' 'Ria'],1822.04448903941,2.213925048855799
victoria_control_concrete_schedTrue_job132,55.33386880849611,42.52325328068985,12670.579065078666,186.3756507944677,2548798.1632038034,0.0,0.0,17.110629854794,0.577922930362589,"[ 21.11447998   0.8932476    0.57792293 -24.18496864  -1.2748397
  58.44320218]",[0.         0.         0.         0.29180091 0.         0.        ],['Ti0' 'Aw' 'Ci' 'e11' 'p11' 'Ria'],1686.38556598884,1.5945320726661016
victoria_control_concrete_schedTrue_job128,74.5701318006283,53.16762555889996,12672.489566794882,187.99352185016872,2592460.822704104,0.0,0.0,33.4739747553657,0.8270655815228329,"[ 20.098369     1.69070096   0.82706558 -24.25946264  -1.32354852
  29.87395454]",[0.         0.         0.         0.89314257 0.         0.        ],['Ti0' 'Aw' 'Ci' 'e11' 'p11' 'Ria'],1728.0678061916901,2.2216567312379
victoria_control_concrete_schedTrue_job31,51.01645375432617,39.90050093960577,12670.101673028106,185.80809724558608,2634950.22582816,0.0,0.0,15.205095942776598,0.599840078176082,"[ 20.92750286   0.86350973   0.59984008 -24.27152164  -1.29328339
  65.76742454]",[0.         0.         0.         0.81829995 0.         0.        ],['Ti0' 'Aw' 'Ci' 'e11' 'p11' 'Ria'],1733.2562683258402,1.4515752561530988
victoria_control_concrete_schedTrue_job146,56.81299559355434,43.369296793901206,12670.583961300305,185.9684143203791,2627950.9882056336,0.0,0.0,17.049594993415802,0.599866125052871,"[ 21.1011023    0.91212941   0.59986613 -24.15211859  -1.25550447
  58.65241963]",[0.         0.         0.         0.93500592 0.         0.        ],['Ti0' 'Aw' 'Ci' 'e11' 'p11' 'Ria'],1637.19095930591,2.051059347752801
victoria_control_concrete_schedTrue_job45,58.46312302687596,44.329455696552834,12670.685734519524,186.05889755594697,2610065.2230192698,0.0,0.0,23.054990477708696,0.655978278585231,"[ 20.68256043   1.36135735   0.65597828 -24.31304636  -1.32019126
  43.37455706]",[0.         0.         0.         0.72382674 0.         0.        ],['Ti0' 'Aw' 'Ci' 'e11' 'p11' 'Ria'],1741.3484843603699,1.7449486474747005
victoria_control_concrete_schedTrue_job43,57.56126694737847,43.80774148207679,12670.720802179674,186.03612452205255,2638598.8950033826,0.0,0.0,18.3696283491273,0.643202425803252,"[ 20.80766995   1.09123427   0.64320243 -24.14352251  -1.23439575
  54.43768273]",[0.         0.         0.         0.94289967 0.         0.        ],['Ti0' 'Aw' 'Ci' 'e11' 'p11' 'Ria'],1618.0917606840399,1.8478764602383002
victoria_control_concrete_schedTrue_job96,64.85276943066795,48.06676937285865,12670.722559839352,188.46838256315843,2549862.8035598537,0.0,0.0,26.932554789982902,0.749901071174466,"[ 20.51239027   1.50281523   0.74990107 -24.30457176  -1.34862639
  37.12978616]",[0.         0.         0.         0.84607505 0.         0.        ],['Ti0' 'Aw' 'Ci' 'e11' 'p11' 'Ria'],1739.55141177422,1.9050597207406987
victoria_control_concrete_schedTrue_job191,70.8156582405373,51.43632611060848,12670.728363344706,190.78798672452658,2521172.2736736895,0.0,0.0,24.853859001356103,0.800186230661491,"[ 20.51070351   1.42988569   0.80018623 -24.05323432  -1.20609704
  40.2352005 ]",[0.         0.         0.         0.80580124 0.         0.        ],['Ti0' 'Aw' 'Ci' 'e11' 'p11' 'Ria'],1527.1700730939801,2.203657508308094
victoria_control_concrete_schedTrue_job153,60.855093563335764,45.93090536990029,12670.524395808003,190.09847697925946,2643843.778653419,0.0,0.0,24.064120458501396,0.639695565662281,"[ 20.65593318   1.36093863   0.63969557 -24.40358639  -1.37055208
  41.55564305]",[0.         0.         0.         0.65319012 0.         0.        ],['Ti0' 'Aw' 'Ci' 'e11' 'p11' 'Ria'],1797.0209793146398,1.5247264900169029
victoria_control_concrete_schedTrue_job70,54.82195341736101,42.163837442144306,12670.068084031318,185.28082936539602,2610746.3325116285,0.0,0.0,21.0981620247059,0.7072790017024471,"[ 20.87182813   1.19239139   0.707279   -24.07412445  -1.23011717
  47.39749362]",[0.         0.         0.         0.94385873 0.         0.        ],['Ti0' 'Aw' 'Ci' 'e11' 'p11' 'Ria'],1549.0738721447303,1.9324939473901992
victoria_control_concrete_schedTrue_job35,69.09016731766658,50.43619004959724,12671.557106888891,189.59946785342672,2581715.888286074,0.0,0.0,28.196453032459697,0.77132868158318,"[ 20.2859912    1.50027142   0.77132868 -24.39877333  -1.37579442
  35.46545372]",[0.         0.         0.         0.90096222 0.         0.        ],['Ti0' 'Aw' 'Ci' 'e11' 'p11' 'Ria'],1768.5350532792602,2.052420976877503
victoria_control_concrete_schedTrue_job62,52.812989413676526,40.997228260298826,12670.02781434068,185.93475435241643,2616393.0765327746,0.0,0.0,16.2309280177479,0.5528301054839201,"[ 20.99773036   0.95805891   0.55283011 -24.20470013  -1.28587242
  61.61077166]",[0.         0.         0.         0.61078883 0.         0.        ],['Ti0' 'Aw' 'Ci' 'e11' 'p11' 'Ria'],1728.69640332884,1.6991776257582032
victoria_control_concrete_schedTrue_job199,60.107731603656475,45.30357956887563,12670.741099654851,186.65094350210202,2594510.869616249,0.0,0.0,20.745078534650602,0.6953566865676689,"[ 20.79757698   1.2358513    0.69535669 -24.13240049  -1.23586791
  48.20420411]",[0.         0.         0.         0.29742881 0.         0.        ],['Ti0' 'Aw' 'Ci' 'e11' 'p11' 'Ria'],1627.6955131650598,1.9656063543151987
victoria_control_concrete_schedTrue_job54,54.07996845309845,41.73146093332223,12670.154027674163,185.4367004046412,2565515.0151732382,0.0,0.0,19.853647552572802,0.594053077040077,"[ 20.85910793   1.19952631   0.59405308 -24.31238035  -1.31733781
  50.36857823]",[0.        0.        0.        0.7756285 0.        0.       ],['Ti0' 'Aw' 'Ci' 'e11' 'p11' 'Ria'],1763.8274097473002,1.5786107401823948
victoria_control_concrete_schedTrue_job79,82.37826422919552,57.33320342926436,12672.535236297495,191.42915237473488,2526786.599109346,0.0,0.0,32.7270505339143,0.931447077570415,"[ 20.07604857   1.71469408   0.93144708 -24.14145476  -1.26676087
  30.55576301]",[0.         0.         0.         0.90892804 0.         0.        ],['Ti0' 'Aw' 'Ci' 'e11' 'p11' 'Ria'],1644.17906060928,2.529326572878098
victoria_control_concrete_schedTrue_job156,63.360241970243784,47.23519982544437,12670.658501986942,188.3607390786487,2581749.2128771334,0.0,0.0,25.503370387347196,0.788949773769614,"[ 20.557065     1.44603363   0.78894977 -24.4998185   -1.43911089
  39.21050374]",[0.         0.         0.         0.86784534 0.         0.        ],['Ti0' 'Aw' 'Ci' 'e11' 'p11' 'Ria'],1891.96348808258,1.9880542544812023
victoria_control_concrete_schedTrue_job179,91.84750406761816,62.06046958674476,12673.367278163536,194.29552535881686,2508349.3490126673,0.0,0.0,37.708113959219,1.0685242691764498,"[ 19.57515224   1.75681224   1.06852427 -24.27833196  -1.34144441
  26.5194913 ]",[0.         0.         0.         0.77613887 0.         0.        ],['Ti0' 'Aw' 'Ci' 'e11' 'p11' 'Ria'],1720.00539896034,2.818374853758705
victoria_control_concrete_schedTrue_job133,66.57087065486567,49.20234530303064,12671.118867179863,191.434102191383,2636043.2602171977,0.0,0.0,25.0445820329473,0.877742414780823,"[ 20.4120178    1.47117454   0.87774241 -24.12851792  -1.24208992
  39.92879572]",[0.         0.         0.         0.47019186 0.         0.        ],['Ti0' 'Aw' 'Ci' 'e11' 'p11' 'Ria'],1585.77489108698,2.498733616698601
victoria_control_concrete_schedTrue_job83,74.1974098241822,52.94968073126605,12672.35146210657,187.638954970225,2564781.4202515106,0.0,0.0,31.7526730388326,0.867448552850558,"[ 20.15845855   1.70078661   0.86744855 -24.22072619  -1.33230349
  31.49341156]",[0.         0.         0.         0.92039505 0.         0.        ],['Ti0' 'Aw' 'Ci' 'e11' 'p11' 'Ria'],1732.48961750345,2.3206706175323966
victoria_control_concrete_schedTrue_job91,57.62889342709804,43.99436252160915,12670.252781337298,188.72007877851746,2591427.1646053963,0.0,0.0,21.7273515379946,0.697303864300626,"[ 20.71519379   1.24872046   0.69730386 -24.37905553  -1.36106647
  46.02493766]",[0.         0.         0.         0.89907881 0.         0.        ],['Ti0' 'Aw' 'Ci' 'e11' 'p11' 'Ria'],1813.6458413556302,1.750025232439203
victoria_control_concrete_schedTrue_job105,69.48706104558728,50.50261450502938,12672.371416204194,187.5864731783365,2594917.802663649,0.0,0.0,27.6975214522144,0.7240308514128001,"[ 20.23036087   1.43063393   0.72403085 -24.31519121  -1.34008659
  36.10431358]",[0.         0.         0.         0.81467802 0.         0.        ],['Ti0' 'Aw' 'Ci' 'e11' 'p11' 'Ria'],1753.2922379115398,1.8075830006679006
victoria_control_concrete_schedTrue_job163,87.08840823452275,59.72143739718079,12672.290987823797,192.94182773426868,2529170.430627834,0.0,0.0,38.012191135314005,0.935899974062214,"[ 20.08555215   1.6781761    0.93589997 -24.46885337  -1.43559919
  26.30734957]",[0.         0.         0.         0.34534703 0.         0.        ],['Ti0' 'Aw' 'Ci' 'e11' 'p11' 'Ria'],1880.1506915571802,2.2408175082887
victoria_control_concrete_schedTrue_job185,59.08468816493759,44.72878101407752,12671.043063891846,186.804474430127,2613557.631348228,0.0,0.0,19.301831403089302,0.6665465058500071,"[ 21.03725201   1.15545355   0.66654651 -24.05677297  -1.19978401
  51.80855532]",[0.         0.         0.         0.65760864 0.         0.        ],['Ti0' 'Aw' 'Ci' 'e11' 'p11' 'Ria'],1559.31836293596,2.006680675257197
victoria_control_concrete_schedTrue_job186,76.34432480858142,54.4024398834771,12671.938449660931,192.15753559694684,2575547.755628296,0.0,0.0,30.2054025130652,0.788491724715313,"[ 20.15151206   1.55129801   0.78849172 -24.21991623  -1.29324849
  33.10666029]",[0.         0.         0.         0.94546995 0.         0.        ],['Ti0' 'Aw' 'Ci' 'e11' 'p11' 'Ria'],1666.5870861406197,2.2164636633555013
victoria_control_concrete_schedTrue_job161,80.79247776513917,56.59593271875757,12672.704392369844,191.83494640871868,2594888.286998732,0.0,0.0,31.4816403057799,0.965708212781353,"[ 20.28866057   1.60770248   0.96570821 -24.29369131  -1.33129176
  31.76454563]",[0.         0.         0.         0.94456797 0.         0.        ],['Ti0' 'Aw' 'Ci' 'e11' 'p11' 'Ria'],1704.50206160247,2.3157032378646996
victoria_control_concrete_schedTrue_job39,62.03624491481796,46.54047178120282,12670.818507852324,189.1022322330486,2592733.3774850494,0.0,0.0,25.1946290272473,0.697052004191091,"[ 20.87017087   1.37896134   0.697052   -24.38189282  -1.37228882
  39.69099918]",[0.         0.         0.         0.91825344 0.         0.        ],['Ti0' 'Aw' 'Ci' 'e11' 'p11' 'Ria'],1803.52615990105,1.6604821053108978
victoria_control_concrete_schedTrue_job144,54.70651307528831,42.138972736194006,12670.217440083647,186.1255842064447,2573913.5054746238,0.0,0.0,18.1689418186959,0.6926584033329239,"[ 20.83494523   1.04736148   0.6926584  -24.23781958  -1.27074708
  55.0389786 ]",[0.         0.         0.         0.95939391 0.         0.        ],['Ti0' 'Aw' 'Ci' 'e11' 'p11' 'Ria'],1661.8508673907502,1.7986058783424994
victoria_control_concrete_schedTrue_job198,62.44469611407029,46.770776619216626,12670.258513374325,189.11539068950017,2554001.9743869165,0.0,0.0,22.868986937247,0.635203968377034,"[ 20.6621881    1.22483882   0.63520397 -24.24573592  -1.3164131
  43.72734143]",[0.         0.         0.         0.80694079 0.         0.        ],['Ti0' 'Aw' 'Ci' 'e11' 'p11' 'Ria'],1724.38916318559,1.614749436653799
victoria_control_concrete_schedTrue_job101,76.91705528648936,54.70343243034073,12671.965993631155,192.29081274696307,2539124.9576308136,0.0,0.0,35.1211929999917,0.847694733364376,"[ 20.09732964   1.77529662   0.84769473 -25.15838682  -1.36967289
  28.4728369 ]",[0.         0.         0.         0.88253101 0.         0.        ],['Ti0' 'Aw' 'Ci' 'e11' 'p11' 'Ria'],1787.0855942877,2.151424185427402
victoria_control_concrete_schedTrue_job181,56.343678079773206,43.110959124602445,12670.429935362356,186.26087479892956,2562577.865615584,0.0,0.0,18.267529702942102,0.65711666011811,"[ 20.85169578   1.07889285   0.65711666 -24.10762176  -1.22392865
  54.74193918]",[0.         0.         0.         0.90708746 0.         0.        ],['Ti0' 'Aw' 'Ci' 'e11' 'p11' 'Ria'],1609.5363312341199,1.9138740217270005
victoria_control_concrete_schedTrue_job65,61.21752254168983,46.13515144091252,12670.540966183506,190.06597849499667,2595231.7186778397,0.0,0.0,23.3106775007172,0.806873934624809,"[ 21.01135563   1.39734849   0.80687393 -24.1486692   -1.24289288
  42.89879605]",[0.         0.         0.         0.91395173 0.         0.        ],['Ti0' 'Aw' 'Ci' 'e11' 'p11' 'Ria'],1588.4836037973498,2.192100006304404
victoria_control_concrete_schedTrue_job74,55.981489765118745,42.922460559191954,12669.983079192058,186.71167137976826,2596641.44842878,0.0,0.0,17.534489297861,0.601741296836359,"[ 21.14191287   1.0507732    0.6017413  -24.23444099  -1.281171
  57.03046054]",[0.         0.         0.         0.22003864 0.         0.        ],['Ti0' 'Aw' 'Ci' 'e11' 'p11' 'Ria'],1703.37843877232,1.5044465459476974
victoria_control_concrete_schedTrue_job123,52.28860083958738,40.64253446968797,12670.04446612647,185.14365811531783,2564273.183482834,0.0,0.0,19.812281234222397,0.6173861668775489,"[ 20.8228878    1.18738259   0.61738617 -24.426237    -1.36874863
  50.47374344]",[0.        0.        0.        0.9437104 0.        0.       ],['Ti0' 'Aw' 'Ci' 'e11' 'p11' 'Ria'],1845.07084476881,1.5365122026604041
victoria_control_concrete_schedTrue_job190,65.22950167562419,48.40397476102786,12670.371475309614,190.47439307934792,2540445.5347138653,0.0,0.0,26.142494812839303,0.843448393856246,"[ 20.48789937   1.52202044   0.84344839 -24.34956658  -1.35205393
  38.25189628]",[0.         0.         0.         0.89384364 0.         0.        ],['Ti0' 'Aw' 'Ci' 'e11' 'p11' 'Ria'],1762.8092754063198,2.1387109660835932
victoria_control_concrete_schedTrue_job73,91.09389551103632,61.5192304288585,12672.705984523818,192.3636979284329,2498062.503058318,0.0,0.0,36.160097471285,0.9936216426518159,"[ 19.91418208   1.53967338   0.99362164 -24.37921662  -1.4013609
  27.65479271]",[0.         0.         0.         0.77770472 0.         0.        ],['Ti0' 'Aw' 'Ci' 'e11' 'p11' 'Ria'],1779.6587162984301,2.4683392152256047
victoria_control_concrete_schedTrue_job152,68.56455826586281,50.08988245959587,12671.617499813241,188.66499235054118,2554720.6315504597,0.0,0.0,28.6190534302253,0.8283080176265949,"[ 20.33915003   1.54660074   0.82830802 -24.40585497  -1.37913222
  34.94175663]",[0.         0.         0.         0.90961261 0.         0.        ],['Ti0' 'Aw' 'Ci' 'e11' 'p11' 'Ria'],1778.6531937481898,1.980086752550502
victoria_control_concrete_schedTrue_job149,72.78508527950095,52.2703181578637,12672.685365481244,188.20595609985574,2611178.0228091674,0.0,0.0,29.207196171630102,0.77296864892374,"[ 20.76638278   1.58614009   0.77296865 -24.04697542  -1.30362223
  34.23813755]",[0.         0.         0.         0.91043561 0.         0.        ],['Ti0' 'Aw' 'Ci' 'e11' 'p11' 'Ria'],1693.92608456238,2.0071429184138943
victoria_control_concrete_schedTrue_job170,73.34529016100946,52.66586812274326,12672.40343811678,189.5886477965947,2583302.180818829,0.0,0.0,27.538443333649603,0.85524669191537,"[ 20.12847234   1.50443791   0.85524669 -24.25452321  -1.29601237
  36.31287317]",[0.         0.         0.         0.85224855 0.         0.        ],['Ti0' 'Aw' 'Ci' 'e11' 'p11' 'Ria'],1680.3907347296,2.3328155677540003
victoria_control_concrete_schedTrue_job37,87.6304717575767,59.831425919252226,12672.634749324641,191.4550197082276,2506791.4071636293,0.0,0.0,36.4006378860962,0.911895725176702,"[ 19.82716691   1.73188137   0.91189573 -24.24920299  -1.31588382
  27.47204604]",[0.         0.         0.         0.34805314 0.         0.        ],['Ti0' 'Aw' 'Ci' 'e11' 'p11' 'Ria'],1674.7376408932198,2.3055694534210005
victoria_control_concrete_schedTrue_job184,75.03123755686269,53.61874282388065,12671.973851198904,190.71237521959142,2623600.7100732997,0.0,0.0,30.012588014945898,0.8949467223982671,"[ 20.47008812   1.65899787   0.89494672 -24.2312431   -1.30465976
  33.31935252]",[0.         0.         0.         0.92467489 0.         0.        ],['Ti0' 'Aw' 'Ci' 'e11' 'p11' 'Ria'],1681.9757734747598,2.3431833876732
victoria_control_concrete_schedTrue_job124,59.497394052272575,45.041623883704084,12670.55488794673,188.13598457101483,2577478.598222495,0.0,0.0,23.7300743298124,0.71704945388089,"[ 20.64173343   1.30787809   0.71704945 -24.27868512  -1.41201067
  42.14061811]",[0.         0.         0.         0.91084763 0.         0.        ],['Ti0' 'Aw' 'Ci' 'e11' 'p11' 'Ria'],1853.4882657747198,1.6782548575469
victoria_control_concrete_schedTrue_job5,54.684530384123015,42.20543732236034,12670.226954696509,187.68778785623212,2620954.5666534025,0.0,0.0,17.0830037365968,0.6111899224543841,"[ 20.81857921   0.92552614   0.61118992 -24.14676483  -1.25197345
  58.53771476]",[0.         0.         0.         0.94052832 0.         0.        ],['Ti0' 'Aw' 'Ci' 'e11' 'p11' 'Ria'],1655.6115005314903,1.6033821721736992
victoria_control_concrete_schedTrue_job108,71.76371493676737,51.953210945022555,12672.123895374498,191.03815388318924,2575006.910193786,0.0,0.0,27.792776797198602,0.878528525671356,"[ 20.8040257    1.63418608   0.87852853 -24.24111174  -1.27868366
  35.98057176]",[0.         0.         0.         0.95246101 0.         0.        ],['Ti0' 'Aw' 'Ci' 'e11' 'p11' 'Ria'],1635.80426586475,2.336997413772597
victoria_control_concrete_schedTrue_job24,63.87858731159141,47.612693271056386,12671.098824381204,189.78267835286016,2565817.451220548,0.0,0.0,22.9092173706596,0.7194167379817149,"[ 20.96769665   1.29470851   0.71941674 -24.16482589  -1.26042082
  43.65055269]",[0.        0.        0.        0.9440198 0.        0.       ],['Ti0' 'Aw' 'Ci' 'e11' 'p11' 'Ria'],1585.8826100771698,2.0362886177431996
victoria_control_concrete_schedTrue_job10,57.1984096813301,43.65555444618617,12670.504052522958,187.10244566046384,2636687.6756487205,0.0,0.0,21.4392498821862,0.6763196554706961,"[ 20.79913326   1.27250669   0.67631966 -24.39337964  -1.3556109
  46.64342295]",[0.         0.         0.         0.68816361 0.         0.        ],['Ti0' 'Aw' 'Ci' 'e11' 'p11' 'Ria'],1808.47783916358,1.5287114556982964
victoria_control_concrete_schedTrue_job192,81.89510775384716,57.06910854629653,12671.809083058262,191.096516970814,2490221.62678818,0.0,0.0,36.7201412053681,0.860019700310034,"[ 20.10575902   1.67429603   0.8600197  -24.40345063  -1.38412975
  27.23301074]",[0.         0.         0.         0.51541855 0.         0.        ],['Ti0' 'Aw' 'Ci' 'e11' 'p11' 'Ria'],1797.45486597107,2.1182577561281946
victoria_control_concrete_schedTrue_job16,75.39692680711396,53.85264410339644,12672.228991973803,191.30929348197796,2567814.668896182,0.0,0.0,30.531810796208898,0.999113497243537,"[ 19.95296555   1.73033452   0.9991135  -24.21115248  -1.28231096
  32.75272491]",[0.         0.         0.         0.89341757 0.         0.        ],['Ti0' 'Aw' 'Ci' 'e11' 'p11' 'Ria'],1671.0540003542,2.764941439625101
victoria_control_concrete_schedTrue_job98,60.30212438470948,45.413795855115225,12671.207276910261,186.64872803320068,2533915.8517902503,0.0,0.0,19.592931937104897,0.69612554745673,"[ 20.60651842   1.11418009   0.69612555 -24.11940331  -1.22328603
  51.03881355]",[0.         0.         0.         0.84978487 0.         0.        ],['Ti0' 'Aw' 'Ci' 'e11' 'p11' 'Ria'],1579.05614650485,2.095963182834602
victoria_control_concrete_schedTrue_job67,67.18552896823465,49.43967302603353,12671.5596335485,189.9841666970978,2603559.120362618,0.0,0.0,30.3392236145051,0.8087178014292009,"[ 20.18915916   1.65643372   0.8087178  -24.3397002   -1.35361293
  32.9606325 ]",[0.         0.         0.         0.65354456 0.         0.        ],['Ti0' 'Aw' 'Ci' 'e11' 'p11' 'Ria'],1773.6784247103799,2.0369984228017017
victoria_control_concrete_schedTrue_job160,81.17775731077829,56.786949407388114,12671.674448227994,191.86056914883298,2529024.6449131635,0.0,0.0,33.1643100701486,0.9203704998445129,"[ 20.10975184   1.55691759   0.9203705  -24.42156427  -1.39342214
  30.15289623]",[0.         0.         0.         0.79731307 0.         0.        ],['Ti0' 'Aw' 'Ci' 'e11' 'p11' 'Ria'],1808.6218344164101,2.218230788552802
victoria_control_concrete_schedTrue_job44,65.77537789765917,48.52957204508244,12671.604896970444,187.8351016038237,2602896.055709727,0.0,0.0,27.2039744403932,0.692436236439811,"[ 20.31902384   1.44714218   0.69243624 -24.32645761  -1.3400736
  36.75933464]",[0.         0.         0.         0.91727097 0.         0.        ],['Ti0' 'Aw' 'Ci' 'e11' 'p11' 'Ria'],1761.8325794690302,1.8510804295056964
victoria_control_concrete_schedTrue_job57,63.755171125514096,47.39596481947004,12671.364628043497,187.44415600777225,2533553.1369353374,0.0,0.0,23.6425735312745,0.6762646884970339,"[ 20.7268192    1.31834016   0.67626469 -24.2653168   -1.31440206
  42.29657988]",[0.         0.         0.         0.88239142 0.         0.        ],['Ti0' 'Aw' 'Ci' 'e11' 'p11' 'Ria'],1682.7723216187899,1.851538140481896
victoria_control_concrete_schedTrue_job104,59.471630372908926,44.96218931496029,12670.619460752217,187.01211473535747,2559436.3877416584,0.0,0.0,20.136826594901,0.640785439052839,"[ 21.02824521   1.11622735   0.64078544 -24.283752    -1.29917323
  49.6602578 ]",[0.         0.         0.         0.81696919 0.         0.        ],['Ti0' 'Aw' 'Ci' 'e11' 'p11' 'Ria'],1711.4984088374,1.7410936145577018
victoria_control_concrete_schedTrue_job42,61.89461038584588,46.30794613681573,12671.076659171362,186.59673656706508,2552370.3696660916,0.0,0.0,24.887283607864,0.6581901183710329,"[ 20.51938861   1.32106      0.65819012 -24.256657    -1.30495466
  40.18116303]",[0.         0.         0.         0.76904581 0.         0.        ],['Ti0' 'Aw' 'Ci' 'e11' 'p11' 'Ria'],1714.70208025465,1.8555847559269978
victoria_control_concrete_schedTrue_job90,64.90233690894759,48.013067937828765,12671.575488831553,187.23153743086633,2600056.70808017,0.0,0.0,22.1682195422679,0.705991492696391,"[ 20.94233715   1.10820197   0.70599149 -24.15856319  -1.25793649
  45.10962182]",[0.         0.         0.         0.67181179 0.         0.        ],['Ti0' 'Aw' 'Ci' 'e11' 'p11' 'Ria'],1624.1150368021201,1.9170917333188022
victoria_control_concrete_schedTrue_job89,76.57589912169394,54.22256930223745,12672.772530386628,188.51361972249506,2545743.421624439,0.0,0.0,33.1902555267116,0.824025126419216,"[ 19.91574279   1.52568569   0.82402513 -24.36751249  -1.36256282
  30.12932513]",[0.         0.         0.         0.73667218 0.         0.        ],['Ti0' 'Aw' 'Ci' 'e11' 'p11' 'Ria'],1793.02686458221,1.9717675610812009
victoria_control_concrete_schedTrue_job143,55.51319649577477,42.618425984443235,12670.377659523723,186.17223105041333,2590540.440886881,0.0,0.0,18.621242906892604,0.688374616693907,"[ 20.77556951   1.15676673   0.68837462 -24.04299237  -1.19832334
  53.70210812]",[0.         0.         0.         0.95258408 0.         0.        ],['Ti0' 'Aw' 'Ci' 'e11' 'p11' 'Ria'],1542.09063033788,1.8321621831650958
victoria_control_concrete_schedTrue_job110,59.22569622046479,45.000788042108226,12670.435876291058,190.1738620914962,2560265.5926420395,0.0,0.0,20.381358037751102,0.698932750489625,"[ 20.70094361   1.21063655   0.69893275 -24.20198193  -1.27110051
  49.064444  ]",[0.         0.         0.         0.95916007 0.         0.        ],['Ti0' 'Aw' 'Ci' 'e11' 'p11' 'Ria'],1659.78549137645,1.9807756896537967
victoria_control_concrete_schedTrue_job118,71.28659783803444,51.80981400602997,12671.736877525143,192.5089213757732,2614500.9098652494,0.0,0.0,26.6226084758314,0.809990024581175,"[ 20.81686675   1.39980655   0.80999002 -23.56412912  -1.1433276
  37.56205936]",[0.        0.        0.        0.9202894 0.        0.       ],['Ti0' 'Aw' 'Ci' 'e11' 'p11' 'Ria'],1446.68132339939,2.611621444253103
victoria_control_concrete_schedTrue_job131,60.104146239465585,45.519433212483236,12670.125720065984,190.40633873160306,2552243.794255691,0.0,0.0,23.4814698712392,0.666806339441814,"[ 20.98971941   1.27618076   0.66680634 -24.22241632  -1.28302528
  42.58677185]",[0.         0.         0.         0.65987687 0.         0.        ],['Ti0' 'Aw' 'Ci' 'e11' 'p11' 'Ria'],1677.93705052767,1.984687924245403
victoria_control_concrete_schedTrue_job92,66.55451636239437,49.13726011149241,12670.672312423496,190.58668301638008,2548653.3209161116,0.0,0.0,21.094919202651,0.7123941756827501,"[ 20.96024612   1.19798177   0.71239418 -24.21547824  -1.28343991
  47.40477981]",[0.         0.         0.         0.68188299 0.         0.        ],['Ti0' 'Aw' 'Ci' 'e11' 'p11' 'Ria'],1648.72992018715,2.137184488841502
victoria_control_concrete_schedTrue_job134,64.82228391009404,48.191611256746086,12671.268912911772,190.66551181757652,2561380.827879749,0.0,0.0,27.744678837277302,0.7285415102534399,"[ 20.60823877   1.4836558    0.72854151 -24.39162798  -1.38973774
  36.0429474 ]",[0.         0.         0.         0.69126028 0.         0.        ],['Ti0' 'Aw' 'Ci' 'e11' 'p11' 'Ria'],1822.3073282734,1.9208128895614962
victoria_control_concrete_schedTrue_job113,67.06513149121793,49.18652801511323,12671.276366180342,187.23178466210842,2582055.847536604,0.0,0.0,24.0381264845806,0.774137642011622,"[ 20.42558876   1.26354774   0.77413764 -24.23844098  -1.28928152
  41.60057984]",[0.        0.        0.        0.4556802 0.        0.       ],['Ti0' 'Aw' 'Ci' 'e11' 'p11' 'Ria'],1654.0283952107998,2.118702341788797
victoria_control_concrete_schedTrue_job182,60.46838325455828,45.659376469126045,12670.561892205596,189.2213669937447,2536458.4369654404,0.0,0.0,24.642133029987804,0.7713639090816701,"[ 20.4652891    1.50172835   0.77136391 -24.2837536   -1.31956173
  40.58090259]",[0.         0.         0.         0.38406708 0.         0.        ],['Ti0' 'Aw' 'Ci' 'e11' 'p11' 'Ria'],1719.06731836311,2.006684154505301
victoria_control_concrete_schedTrue_job66,85.44690640420076,59.187602874921765,12671.371324992286,195.56696320216255,2487390.4762330125,0.0,0.0,33.9775926872833,0.822716807411458,"[ 20.06295905   1.58369639   0.82271681 -24.21356336  -1.27575761
  29.43116098]",[0.         0.         0.         0.79202634 0.         0.        ],['Ti0' 'Aw' 'Ci' 'e11' 'p11' 'Ria'],1599.79946752755,2.254694677727599
victoria_control_concrete_schedTrue_job76,67.45269286585481,49.47279876558445,12670.871571462561,188.35933502161618,2562961.6485762615,0.0,0.0,25.4308909133475,0.8251577020035191,"[ 20.56631708   1.54143295   0.8251577  -24.02395488  -1.18233691
  39.32225589]",[0.         0.         0.         0.82581353 0.         0.        ],['Ti0' 'Aw' 'Ci' 'e11' 'p11' 'Ria'],1511.37323451862,2.591493058941399
victoria_control_concrete_schedTrue_job63,56.05769249380419,43.016329103439425,12670.182509726155,187.64205984815288,2607406.1740453993,0.0,0.0,20.975091933109802,0.71082946426469,"[ 20.70633876   1.20795411   0.71082946 -24.27612498  -1.29546136
  47.67559557]",[0.         0.         0.         0.23740912 0.         0.        ],['Ti0' 'Aw' 'Ci' 'e11' 'p11' 'Ria'],1698.4079684291698,1.8432139613736993
victoria_control_concrete_schedTrue_job32,72.90724924680174,52.35497968826711,12672.02114748194,188.48689366199133,2543202.2567002582,0.0,0.0,32.1393839089681,0.7911823246463778,"[ 20.20889648   1.57252314   0.79118232 -24.40161634  -1.39285769
  31.11447322]",[0.         0.         0.         0.91056353 0.         0.        ],['Ti0' 'Aw' 'Ci' 'e11' 'p11' 'Ria'],1814.83057983435,1.9631812252325034
victoria_control_concrete_schedTrue_job189,59.85487068957632,45.377441056648,12670.040137126447,190.42622701882462,2577902.6182665545,0.0,0.0,21.7109437965982,0.7035003975043349,"[ 20.66220607   1.21568586   0.7035004  -24.22379419  -1.28259122
  46.05972036]",[0.         0.         0.         0.65092947 0.         0.        ],['Ti0' 'Aw' 'Ci' 'e11' 'p11' 'Ria'],1691.6757853453798,1.924855666413297
victoria_control_concrete_schedTrue_job61,57.114149505653685,43.52292280840937,12670.566051121179,185.5742424904236,2610249.0140007734,0.0,0.0,21.3807856434737,0.618686713603314,"[ 21.04499037   1.15427675   0.61868671 -24.36336566  -1.34637302
  46.77096608]",[0.         0.         0.         0.65874172 0.         0.        ],['Ti0' 'Aw' 'Ci' 'e11' 'p11' 'Ria'],1782.1140029792398,1.6619742207335015
victoria_control_concrete_schedTrue_job147,77.64570996284931,55.12799756152265,12672.189943687214,192.98765406994926,2569620.8058046694,0.0,0.0,32.5317246661445,0.883383158467489,"[ 19.94786818   1.62175562   0.88338316 -24.37807896  -1.38197827
  30.73922487]",[0.        0.        0.        0.9380294 0.        0.       ],['Ti0' 'Aw' 'Ci' 'e11' 'p11' 'Ria'],1809.5217479252103,2.074001854166198
victoria_control_concrete_schedTrue_job172,70.6207974306717,51.24317555161019,12671.624597507544,189.5467761281552,2546395.609341374,0.0,0.0,27.9388910557379,0.769391669192764,"[ 20.30107678   1.35826743   0.76939167 -24.22231949  -1.30470258
  35.79240128]",[0.        0.        0.        0.8929251 0.        0.       ],['Ti0' 'Aw' 'Ci' 'e11' 'p11' 'Ria'],1706.44178019626,2.0842038392542968
victoria_control_concrete_schedTrue_job41,69.58144273620906,50.840853746802985,12671.837428932966,191.62014036379463,2542971.3115902618,0.0,0.0,26.873887213502,0.8792236627462501,"[ 20.15633184   1.5649001    0.87922366 -24.2314722   -1.30152712
  37.21084308]",[0.         0.         0.         0.95112515 0.         0.        ],['Ti0' 'Aw' 'Ci' 'e11' 'p11' 'Ria'],1686.8928469424802,2.3000317410544966
victoria_control_concrete_schedTrue_job6,64.66811202406053,47.86968329054574,12671.400554035725,187.00122308703456,2579005.7190123736,0.0,0.0,25.2264656247618,0.748603353937341,"[ 20.33033432   1.35931186   0.74860335 -24.31692325  -1.34819419
  39.64090788]",[0.         0.         0.         0.87465098 0.         0.        ],['Ti0' 'Aw' 'Ci' 'e11' 'p11' 'Ria'],1740.17654025935,1.873918300201396
victoria_control_concrete_schedTrue_job154,69.82603824345298,50.84228163400843,12670.293667822989,189.8095458573901,2532270.8366996762,0.0,0.0,23.246384504075,0.766691480054532,"[ 20.63722517   1.36884215   0.76669148 -24.01082197  -1.19361366
  43.01744212]","[0.00000000e+00 0.00000000e+00 4.44089210e-16 8.73381706e-01
 0.00000000e+00 0.00000000e+00]",['Ti0' 'Aw' 'Ci' 'e11' 'p11' 'Ria'],1510.77434138794,2.6149432912418007
victoria_control_concrete_schedTrue_job138,73.52729115486612,52.971333263544274,12671.865601142355,192.35103969371121,2561111.3106231266,0.0,0.0,30.987919822555398,0.892993580917691,"[ 19.98989788   1.6079992    0.89299358 -24.31725394  -1.35281142
  32.27063984]",[0.         0.         0.         0.92632845 0.         0.        ],['Ti0' 'Aw' 'Ci' 'e11' 'p11' 'Ria'],1771.6613448252697,2.3934123511377052
victoria_control_concrete_schedTrue_job109,81.07514452879398,56.64917710761129,12671.885830479221,190.86315869077075,2529452.832002448,0.0,0.0,30.083107351354602,0.9300105991549159,"[ 20.24056875   1.40722771   0.9300106  -24.23728752  -1.31575434
  33.24124693]",[0.         0.         0.         0.91939359 0.         0.        ],['Ti0' 'Aw' 'Ci' 'e11' 'p11' 'Ria'],1677.5526252659802,2.3755831973445005
victoria_control_concrete_schedTrue_job3,80.0447795699707,56.27229817571767,12671.643043438136,192.35171958869472,2514692.4985719044,0.0,0.0,32.6074647291847,0.887472885668669,"[ 20.23232651   1.71457147   0.88747289 -24.14172176  -1.24520603
  30.66782433]",[0.        0.        0.        0.0544789 0.        0.       ],['Ti0' 'Aw' 'Ci' 'e11' 'p11' 'Ria'],1577.99267781221,2.4593256598638007
victoria_control_concrete_schedTrue_job130,63.82649093881657,47.38106608627386,12671.697789824851,186.5990113462696,2599004.3575737095,0.0,0.0,25.5090324371223,0.7295421640811129,"[ 20.36062908   1.36383917   0.72954216 -24.36158436  -1.36304575
  39.20180048]",[0.         0.         0.         0.58685791 0.         0.        ],['Ti0' 'Aw' 'Ci' 'e11' 'p11' 'Ria'],1767.9740390131399,1.9911794153225948
victoria_control_concrete_schedTrue_job106,82.15041704730137,57.240250191555226,12672.313180256504,191.62524113189662,2522529.3697179323,0.0,0.0,34.055153434156196,1.01234039325842,"[ 19.95744843   1.67511235   1.01234039 -24.30511064  -1.35564237
  29.36413139]","[0.00000000e+00 3.99176248e-11 1.62108993e-10 9.41013746e-01
 0.00000000e+00 0.00000000e+00]",['Ti0' 'Aw' 'Ci' 'e11' 'p11' 'Ria'],1754.28560985091,3.043066410696902
victoria_control_concrete_schedTrue_job155,73.00063527527956,52.831716183568155,12670.689895389238,194.15247967122852,2543727.714501265,0.0,0.0,27.583798825752,0.9351937261604292,"[ 20.2933668    1.57149805   0.93519373 -24.22574981  -1.28996866
  36.25316463]",[0.         0.         0.         0.79103933 0.         0.        ],['Ti0' 'Aw' 'Ci' 'e11' 'p11' 'Ria'],1652.9397939784199,2.3373764182396037
victoria_control_concrete_schedTrue_job64,54.44784614966995,41.99702553750504,12670.25529777076,186.35557720020972,2606471.775051821,0.0,0.0,20.1235321027446,0.63588147977573,"[ 20.84962571   1.16163721   0.63588148 -24.39148591  -1.36679099
  49.69306556]",[0.         0.         0.         0.57708711 0.         0.        ],['Ti0' 'Aw' 'Ci' 'e11' 'p11' 'Ria'],1814.9756640209,1.5705082046052006
victoria_control_concrete_schedTrue_job195,63.956311240238044,47.478133797958,12671.502521866709,186.99499522501065,2588393.194682978,0.0,0.0,21.5639972275491,0.704816428987376,"[ 20.98491668   1.18392887   0.70481643 -24.16355508  -1.26457365
  46.37359157]",[0.         0.         0.         0.38961052 0.         0.        ],['Ti0' 'Aw' 'Ci' 'e11' 'p11' 'Ria'],1636.92779825929,1.9034454459447012
victoria_control_concrete_schedTrue_job137,66.34216975606938,48.83839875262502,12671.92947732232,187.84957830929463,2635317.654652835,0.0,0.0,23.908709893917305,0.725977749862269,"[ 20.90346201   1.29753651   0.72597775 -24.10050705  -1.23264792
  41.82576159]",[0.         0.         0.         0.94335745 0.         0.        ],['Ti0' 'Aw' 'Ci' 'e11' 'p11' 'Ria'],1565.4426125070402,2.141035822985895
victoria_control_concrete_schedTrue_job4,71.267940571131,51.41147331690375,12672.298984696223,187.2503390202454,2657266.4117457354,0.0,0.0,30.5711654021987,0.782981477338411,"[ 20.5497071    1.55125019   0.78298148 -24.40882758  -1.38879052
  32.71056196]",[0.        0.        0.        0.9427408 0.        0.       ],['Ti0' 'Aw' 'Ci' 'e11' 'p11' 'Ria'],1824.90603752353,1.830483068975397
victoria_control_concrete_schedTrue_job99,74.87731176490581,53.56403014990015,12672.540370227207,191.0163530019505,2637139.474722359,0.0,0.0,29.794047228396,0.9000581989874379,"[ 20.29998014   1.71901042   0.9000582  -24.20997937  -1.28512609
  33.56375159]",[0.         0.         0.         0.63772751 0.         0.        ],['Ti0' 'Aw' 'Ci' 'e11' 'p11' 'Ria'],1675.51924104349,2.4220781579664
victoria_control_concrete_schedTrue_job23,51.88462442755615,40.42290163064609,12669.694113100459,185.66686645784984,2579057.2109390534,0.0,0.0,17.6437998469223,0.638950364942477,"[ 20.89419425   1.03134687   0.63895036 -24.26216385  -1.30160695
  56.67713354]",[0.         0.         0.         0.69490982 0.         0.        ],['Ti0' 'Aw' 'Ci' 'e11' 'p11' 'Ria'],1716.62615868151,1.694732984697204
victoria_control_concrete_schedTrue_job171,63.6197105960064,47.25089661000905,12671.314684961377,186.34806320663952,2617065.3929778957,0.0,0.0,23.4347767707171,0.695104269427016,"[ 20.52814829   1.28647614   0.69510427 -24.29306123  -1.32897137
  42.67162473]",[0.         0.         0.         0.75271545 0.         0.        ],['Ti0' 'Aw' 'Ci' 'e11' 'p11' 'Ria'],1717.8047575045998,1.799370458871003
victoria_control_concrete_schedTrue_job33,73.89627659568609,53.012811175640714,12672.087633171954,190.40475352550456,2621448.327414606,0.0,0.0,28.837766900218202,0.7733166828133079,"[ 20.7497509    1.48927141   0.77331668 -24.28031381  -1.32675587
  34.67674884]",[0.         0.         0.         0.86394101 0.         0.        ],['Ti0' 'Aw' 'Ci' 'e11' 'p11' 'Ria'],1696.9490052653302,2.022563329276398
victoria_control_concrete_schedTrue_job140,69.28725025282807,50.366076858997154,12671.514893151436,187.15913662125573,2546539.5337939477,0.0,0.0,28.875281394176604,0.6753821990576478,"[ 20.35779493   1.49462998   0.6753822  -24.35005923  -1.34859723
  34.63169714]",[0.         0.         0.         0.95061267 0.         0.        ],['Ti0' 'Aw' 'Ci' 'e11' 'p11' 'Ria'],1762.5277044571899,1.581591286872996
victoria_control_concrete_schedTrue_job125,66.78340282795884,49.05617973696125,12671.647869935348,187.54354606702,2607629.9539618734,0.0,0.0,25.984951595949102,0.7578520860002349,"[ 20.34359023   1.41240746   0.75785209 -24.36365808  -1.35359101
  38.48381231]",[0.         0.         0.         0.55947423 0.         0.        ],['Ti0' 'Aw' 'Ci' 'e11' 'p11' 'Ria'],1757.93958026522,1.855366374150794
victoria_control_concrete_schedTrue_job82,63.58551400676207,47.376914194651555,12670.401987417328,188.6240823805073,2553995.6813968443,0.0,0.0,23.1684848551782,0.6880420734974019,"[ 20.97119415   1.27565659   0.68804207 -24.35157288  -1.3635466
  43.16208014]",[0.         0.         0.         0.79542555 0.         0.        ],['Ti0' 'Aw' 'Ci' 'e11' 'p11' 'Ria'],1771.84013206007,1.7267095431931025
victoria_control_concrete_schedTrue_job116,62.62471883962232,46.741041277011895,12671.068997444361,187.00611701492562,2579649.0730634495,0.0,0.0,19.6896311364109,0.7891556683575341,"[ 20.60396413   1.12464849   0.78915567 -24.08689651  -1.22793395
  50.78815307]","[0.00000000e+00 2.22044605e-16 0.00000000e+00 9.73516609e-01
 0.00000000e+00 0.00000000e+00]",['Ti0' 'Aw' 'Ci' 'e11' 'p11' 'Ria'],1594.75190164585,2.276727967603403
victoria_control_concrete_schedTrue_job196,84.83417333895737,58.398037503817456,12672.713880362317,190.2134828823323,2530635.271867392,0.0,0.0,36.192005021856296,0.916788090727784,"[ 19.9411429    1.70508854   0.91678809 -24.37553691  -1.35428137
  27.63041173]",[0.         0.         0.         0.94657596 0.         0.        ],['Ti0' 'Aw' 'Ci' 'e11' 'p11' 'Ria'],1750.89166025166,2.2018500199162006
victoria_control_concrete_schedTrue_job107,64.64994102281776,47.850245337242775,12671.548757210689,186.85653817094877,2602660.168912279,0.0,0.0,23.3255265282768,0.746482631470242,"[ 20.49001397   1.24918831   0.74648263 -24.03913566  -1.19194097
  42.87148669]",[0.         0.         0.         0.90904347 0.         0.        ],['Ti0' 'Aw' 'Ci' 'e11' 'p11' 'Ria'],1499.40513950588,2.1343212845253987
victoria_control_concrete_schedTrue_job129,84.85366002643259,58.5457471888717,12673.34832295385,191.6899076010648,2560318.51970573,0.0,0.0,35.1031025486946,0.970413856482088,"[ 19.71834486   1.77483112   0.97041386 -24.17366474  -1.28995029
  28.48751043]",[0.         0.         0.         0.93477221 0.         0.        ],['Ti0' 'Aw' 'Ci' 'e11' 'p11' 'Ria'],1672.89876129861,2.5734426566081012
victoria_control_concrete_schedTrue_job68,53.93124714131498,41.686265799066284,12670.120274009276,186.30078240872714,2610459.208260022,0.0,0.0,17.9403296890327,0.580687348057501,"[ 20.93501409   1.05674752   0.58068735 -24.17419598  -1.2453567
  55.74033573]",[0.       0.       0.       0.903941 0.       0.      ],['Ti0' 'Aw' 'Ci' 'e11' 'p11' 'Ria'],1665.40111704995,1.532245654360299
victoria_control_concrete_schedTrue_job119,64.74942315976465,47.92696912416153,12671.818465796941,187.1954298038443,2628818.692932354,0.0,0.0,22.1374684169357,0.802016279157618,"[ 20.94329767   1.29047819   0.80201628 -24.03944003  -1.21548084
  45.17228353]",[0.         0.         0.         0.24002502 0.         0.        ],['Ti0' 'Aw' 'Ci' 'e11' 'p11' 'Ria'],1536.50594122367,2.210980495015903
victoria_control_concrete_schedTrue_job46,74.33968544962619,53.161315202819644,12672.102644681723,189.39422559532798,2580231.1152603207,0.0,0.0,29.404346286103202,0.8285964061271791,"[ 20.76518228   1.63237655   0.82859641 -24.32108476  -1.3260919
  34.00857786]",[0.         0.         0.         0.68060553 0.         0.        ],['Ti0' 'Aw' 'Ci' 'e11' 'p11' 'Ria'],1695.82310993699,2.145795762955899
victoria_control_concrete_schedTrue_job121,56.665820682234646,43.28876765231979,12670.46646942498,186.06607928046157,2603280.6587064075,0.0,0.0,17.373617568803898,0.672904990131849,"[ 20.87455095   1.13172353   0.67290499 -24.03676053  -1.17165927
  57.55853644]",[0.         0.         0.         0.94977038 0.         0.        ],['Ti0' 'Aw' 'Ci' 'e11' 'p11' 'Ria'],1521.26165172615,2.028593811393602
victoria_control_concrete_schedTrue_job1,71.19600347969994,51.47277976422444,12671.899209636966,188.56904838584407,2575973.3703618953,0.0,0.0,31.5498387307123,0.826025342661265,"[ 20.32929568   1.7171411    0.82602534 -24.37984974  -1.36868211
  31.69588309]",[0.         0.         0.         0.70420976 0.         0.        ],['Ti0' 'Aw' 'Ci' 'e11' 'p11' 'Ria'],1798.54800937981,1.8339755855783046
victoria_control_concrete_schedTrue_job151,55.30419897456743,42.584216978953336,12670.015975255306,187.89425554497456,2598285.226179951,0.0,0.0,20.0023929328472,0.6527198620437901,"[ 20.84853947   1.14826295   0.65271986 -23.99960145  -1.17561527
  49.99401838]",[0.         0.         0.         0.93694271 0.         0.        ],['Ti0' 'Aw' 'Ci' 'e11' 'p11' 'Ria'],1525.1976645287803,1.9797217433451983
victoria_control_concrete_schedTrue_job139,61.608385636989006,46.17949780719699,12670.381730134806,187.1204792661717,2584197.4186468325,0.0,0.0,20.3814137409404,0.7403570923335508,"[ 20.70708049   1.1725225    0.74035709 -23.74254932  -1.34282395
  49.0643099 ]",[0.         0.         0.         0.87612222 0.         0.        ],['Ti0' 'Aw' 'Ci' 'e11' 'p11' 'Ria'],1761.8981579163699,1.872423920398301
victoria_control_concrete_schedTrue_job38,52.42414125859128,40.80225198109932,12670.045073854899,186.764258799106,2561266.3961253646,0.0,0.0,14.7428176119771,0.591442783916439,"[ 20.87641808   0.85048965   0.59144278 -24.11139819  -1.22655042
  67.82963924]",[0.         0.         0.         0.36027571 0.         0.        ],['Ti0' 'Aw' 'Ci' 'e11' 'p11' 'Ria'],1627.8494560961099,1.5951611143897022
victoria_control_concrete_schedTrue_job22,76.9239235711425,54.59233446209833,12671.223425322287,190.88289438907802,2517431.57716193,0.0,0.0,27.335028957608102,0.8879961428237679,"[ 20.35915032   1.49751282   0.88799614 -24.10879614  -1.22645013
  36.58309642]",[0.         0.         0.         0.72796252 0.         0.        ],['Ti0' 'Aw' 'Ci' 'e11' 'p11' 'Ria'],1547.68407528018,2.464502542092397
