fname,hlc_mat,hlc_tot,hlc_se,hlc_si,c_tot,hlc_inf_standard,hlc_inf_current,hlc_tot_pred,c_tot_pred,estimates,probt,names,loglik,err
chicago_control_concrete_inf_schedTrue_job8,58.246896058517635,43.403340579052056,1410.640626390041,193.70435066741945,2531543.3238876304,89.97395697914656,90.92540769522905,127.876265928416,"(0.361288972498349, 0.8021825943802059)","[ 17.15989051  14.18017631   4.15566999   0.80218259   0.36128897
 -24.91343637 -11.6911294   -0.43499677   6.95180209   0.86825734]","[0.00000000e+00 0.00000000e+00 1.99840144e-15 1.56550700e-06
 1.08957288e-11 9.27400863e-01 9.67027864e-01 8.88860201e-05
 0.00000000e+00 1.42774681e-13]",['Ti0' 'Te0' 'Aw' 'Ce' 'Ci' 'e11' 'p11' 'p22' 'Rea' 'Rie'],3357.16460503116,7.567196602144023
chicago_control_concrete_inf_schedTrue_job115,57.13380273876467,42.78906940095981,1410.556678086656,193.84573908277318,2562521.5600256664,89.97395697914656,90.92234283517368,124.680801178904,"(0.33748071401461793, 0.690706704463813)","[ 17.18099477  13.74439865   3.77414592   0.6907067    0.33748071
 -28.32420162 -10.83748504  -0.2822741    7.00243488   1.01804614]","[0.00000000e+00 0.00000000e+00 0.00000000e+00 1.92308766e-06
 1.15933929e-10 6.59230315e-01 7.90096204e-01 1.99157004e-02
 0.00000000e+00 1.04471987e-12]",['Ti0' 'Te0' 'Aw' 'Ce' 'Ci' 'e11' 'p11' 'p22' 'Rea' 'Rie'],3239.9530498617896,6.869864274815001
chicago_control_concrete_inf_schedTrue_job44,,,,,,,,,,,,,,
chicago_control_concrete_inf_schedTrue_job6,64.66811202406053,46.856330762694625,1411.3731611468115,193.43364145607308,2579005.7190123736,89.97395697914656,90.95569160173933,126.358094938305,"(0.425647978242094, 0.585695257748593)","[ 1.69505082e+01  1.32273445e+01  3.60526348e+00  5.85695258e-01
  4.25647978e-01 -3.14572425e+01 -1.06033184e+01  7.56223664e-03
  6.92854419e+00  9.85471933e-01]","[0.00000000e+00 0.00000000e+00 1.86517468e-14 8.17165813e-04
 2.38325685e-07 7.47125132e-01 8.44379737e-01 9.71063749e-01
 0.00000000e+00 4.72120121e-10]",['Ti0' 'Te0' 'Aw' 'Ce' 'Ci' 'e11' 'p11' 'p22' 'Rea' 'Rie'],3088.31401666911,7.148162115769011
chicago_control_concrete_inf_schedTrue_job86,62.39029097734943,45.635586624797924,1411.058662423422,193.20307588948174,2556815.4091334813,89.97395697914656,90.92723890690112,129.26527502928002,"(0.433319967124694, 0.6894303811606189)","[ 17.00849366  13.29803885   4.06893328   0.68943038   0.43331997
 -25.72879786 -11.23840786  -0.17873507   6.74174493   0.99428471]","[0.00000000e+00 0.00000000e+00 0.00000000e+00 1.52744465e-05
 1.01274544e-12 8.30289496e-01 8.74900041e-01 2.12426528e-01
 0.00000000e+00 3.24185123e-14]",['Ti0' 'Te0' 'Aw' 'Ce' 'Ci' 'e11' 'p11' 'p22' 'Rea' 'Rie'],3429.5918868759004,7.636963456837975
chicago_control_concrete_inf_schedTrue_job69,,,,,,,,,,,,,,
chicago_control_concrete_inf_schedTrue_job14,60.34399039804627,44.536034675687,1411.0667804540378,193.29701450800061,2572500.947943663,89.97395697914656,90.99544565550065,122.952716981159,"(0.275886102273653, 0.889992953546128)","[ 17.48557067  14.80119904   3.81363617   0.88999295   0.2758861
 -24.98519815 -11.69315651  -0.2745105    7.3033622    0.82984562]","[0.00000000e+00 0.00000000e+00 6.27782271e-11 2.25993664e-05
 3.83399978e-11 8.58948705e-01 9.49326791e-01 2.97062015e-03
 0.00000000e+00 3.58095775e-11]",['Ti0' 'Te0' 'Aw' 'Ce' 'Ci' 'e11' 'p11' 'p22' 'Rea' 'Rie'],2620.3283480215,8.599733672935997
chicago_control_concrete_inf_schedTrue_job143,55.51319649577477,41.799607081102124,1410.7274625054004,192.26772606451738,2590540.440886881,89.97395697914656,90.96080162403908,120.62974004702,"(0.564803013421168, 0.466434794840765)","[ 17.2555325   14.13467629   3.71007325   0.46643479   0.56480301
 -32.01160548  -9.53629911   0.29482692   7.55712968   0.73270001]","[0.00000000e+00 5.60707036e-12 1.13537774e-04 3.32025424e-01
 1.30142956e-02 8.80881121e-01 9.22530585e-01 7.19483192e-01
 0.00000000e+00 4.09710587e-02]",['Ti0' 'Te0' 'Aw' 'Ce' 'Ci' 'e11' 'p11' 'p22' 'Rea' 'Rie'],2632.38585938957,13.17412954072799
chicago_control_concrete_inf_schedTrue_job194,55.136802376216316,41.600215207083195,1410.5816557274084,192.57791952727652,2620576.5504714227,89.97395697914656,90.9764297594956,124.149029506546,"(0.36873187346467207, 0.8820058644142729)","[ 17.52859389  14.42801599   4.21913484   0.88200586   0.36873187
 -29.50003004 -10.66327263  -0.27497203   7.15050676   0.90432866]","[0.00000000e+00 0.00000000e+00 1.42115431e-10 7.95586650e-06
 7.94644883e-09 8.08771396e-01 8.84264817e-01 7.82236468e-03
 0.00000000e+00 2.63265365e-09]",['Ti0' 'Te0' 'Aw' 'Ce' 'Ci' 'e11' 'p11' 'p22' 'Rea' 'Rie'],3171.33322431948,9.077178931983
chicago_control_concrete_inf_schedTrue_job130,63.82649093881657,46.353962082776874,1411.6189834659738,192.40956947880298,2599004.3575737095,89.97395697914656,90.90387542305855,130.586148162353,"(0.328309222278099, 0.8196839065585799)","[ 17.03340783  14.114881     4.04608808   0.81968391   0.32830922
 -32.33226909 -10.48729699  -0.42444134   6.8102188    0.84756125]","[0.00000000e+00 0.00000000e+00 8.54871729e-14 2.29971250e-06
 1.10644827e-12 3.34921086e-01 5.60664371e-01 1.44732303e-05
 0.00000000e+00 1.04227738e-12]",['Ti0' 'Te0' 'Aw' 'Ce' 'Ci' 'e11' 'p11' 'p22' 'Rea' 'Rie'],3132.5792597994605,7.701775664862993
chicago_control_concrete_inf_schedTrue_job119,64.74942315976465,46.863938123122345,1411.7657838171426,192.83118891952046,2628818.692932354,89.97395697914656,90.96651264205283,130.163207965262,"(0.45696935562327506, 0.792496522025197)","[ 1.78736167e+01  1.34068946e+01  4.38284409e+00  7.92496522e-01
  4.56969356e-01 -3.23094755e+01 -1.02922080e+01 -2.32952129e-02
  6.86442708e+00  8.18235447e-01]","[0.00000000e+00 0.00000000e+00 1.08812140e-07 1.45463988e-03
 1.87009810e-08 8.89368642e-01 9.31885447e-01 8.75953937e-01
 0.00000000e+00 1.52206507e-07]",['Ti0' 'Te0' 'Aw' 'Ce' 'Ci' 'e11' 'p11' 'p22' 'Rea' 'Rie'],2945.1955615710303,11.949853884578005
chicago_control_concrete_inf_schedTrue_job179,91.84750406761816,60.17581153120821,1412.8916193556686,199.10037273533155,2508349.3490126673,89.97395697914656,90.88945092275061,142.197929382651,"(0.326952515997019, 0.709015365303881)","[ 16.79701618  13.4053087    3.81257282   0.70901537   0.32695252
 -25.46958199 -11.9438638   -0.17812285   6.11872905   0.91372215]","[0.00000000e+00 0.00000000e+00 0.00000000e+00 4.74211407e-07
 1.25049047e-08 7.63188737e-01 9.78805787e-01 1.35899976e-01
 0.00000000e+00 6.51767529e-12]",['Ti0' 'Te0' 'Aw' 'Ce' 'Ci' 'e11' 'p11' 'p22' 'Rea' 'Rie'],2851.0272404394,6.818633800664998
chicago_control_concrete_inf_schedTrue_job180,71.33539929256287,50.40273802765633,1411.5821264056854,195.5614794941922,2575652.361601498,89.97395697914656,90.95411176272576,131.19410711588,"(0.26213216810809004, 0.901673079936868)","[ 17.22863688  14.38428707   4.10382036   0.90167308   0.26213217
 -29.99324451 -10.17418931  -0.29872861   6.75225965   0.87003393]","[0.00000000e+00 0.00000000e+00 2.22044605e-14 6.38855506e-07
 1.11466392e-11 9.14370449e-01 9.45354649e-01 1.54705336e-04
 0.00000000e+00 1.25410793e-12]",['Ti0' 'Te0' 'Aw' 'Ce' 'Ci' 'e11' 'p11' 'p22' 'Rea' 'Rie'],2673.6699957396,8.333273610189991
chicago_control_concrete_inf_schedTrue_job199,,,,,,,,,,,,,,
chicago_control_concrete_inf_schedTrue_job134,64.82228391009404,47.007663090134265,1411.3456389718458,194.6362175219064,2561380.827879749,89.97395697914656,90.9220950164732,133.903239925731,"(0.42914004612730705, 0.8096500794514291)","[ 17.18917061  13.38629685   4.47332383   0.80965008   0.42914005
 -25.88229439 -12.16589077  -0.17355531   6.48698027   0.98109892]","[0.00000000e+00 0.00000000e+00 2.02744488e-11 2.78642589e-05
 8.05844280e-10 7.13198314e-01 6.36115275e-01 1.80283728e-01
 0.00000000e+00 1.22270261e-09]",['Ti0' 'Te0' 'Aw' 'Ce' 'Ci' 'e11' 'p11' 'p22' 'Rea' 'Rie'],3339.9754547790803,9.329356921322017
chicago_control_concrete_inf_schedTrue_job146,56.81299559355434,42.53271266671056,1410.8294418520707,192.27421650209118,2627950.9882056336,89.97395697914656,90.97567212732937,123.85821604032,"(0.401916415021765, 0.7959172297324929)","[ 17.81696252  13.88340024   4.24173495   0.79591723   0.40191642
 -30.14449773 -10.35872244  -0.10922432   7.33612584   0.73762197]","[0.00000000e+00 0.00000000e+00 1.49638768e-09 3.60009867e-04
 2.20336661e-07 6.36555410e-01 7.64442627e-01 4.46875129e-01
 0.00000000e+00 3.07697912e-09]",['Ti0' 'Te0' 'Aw' 'Ce' 'Ci' 'e11' 'p11' 'p22' 'Rea' 'Rie'],2770.9042841631704,10.52149591162501
chicago_control_concrete_inf_schedTrue_job13,53.15365008149436,40.46243009977876,1410.5299376084865,192.6059560752301,2531990.6087987544,89.97395697914656,91.00238816827182,123.187455102377,"(0.411998371082948, 0.8900799513284059)","[ 17.4433495   14.70283718   4.54306572   0.89007995   0.41199837
 -25.32628593 -11.89460641  -0.09454826   7.35837024   0.75933946]","[0.00000000e+00 0.00000000e+00 2.22853922e-07 1.19758870e-03
 3.72704461e-07 9.04009503e-01 9.83410322e-01 4.93629908e-01
 0.00000000e+00 1.32202208e-07]",['Ti0' 'Te0' 'Aw' 'Ce' 'Ci' 'e11' 'p11' 'p22' 'Rea' 'Rie'],2819.38674653717,12.294077803576002
chicago_control_concrete_inf_schedTrue_job141,55.29210386506697,41.74639339251914,1410.4338263089726,193.82104938249952,2603274.677640708,89.97395697914656,90.98962727321586,123.048301230439,"(0.338966112309199, 0.943044120367009)","[ 17.37583185  14.63060485   4.39706268   0.94304412   0.33896611
 -30.57434046 -10.37765716  -0.21337439   7.3061167    0.82077323]","[0.00000000e+00 0.00000000e+00 1.66915992e-09 2.02268876e-05
 1.44712984e-07 7.12195152e-01 8.21299581e-01 4.46876076e-02
 0.00000000e+00 1.52596464e-08]",['Ti0' 'Te0' 'Aw' 'Ce' 'Ci' 'e11' 'p11' 'p22' 'Rea' 'Rie'],2837.9739067502196,10.717652221799995
chicago_control_concrete_inf_schedTrue_job61,57.114149505653685,42.70237811340582,1410.8427656409067,192.29633267864762,2610249.0140007734,89.97395697914656,90.92000043946676,120.86034012100201,"(0.36635182693060203, 0.581840804426661)","[ 17.43944284  12.89042334   3.47865208   0.5818408    0.36635183
 -25.94378413 -12.1926171   -0.04092236   6.99563024   1.27838255]","[0.00000000e+00 0.00000000e+00 2.66453526e-15 4.01654827e-05
 3.22979621e-09 9.19975147e-01 9.84718834e-01 8.00525276e-01
 0.00000000e+00 2.32370345e-10]",['Ti0' 'Te0' 'Aw' 'Ce' 'Ci' 'e11' 'p11' 'p22' 'Rea' 'Rie'],3306.18833538353,6.53132723374199
chicago_control_concrete_inf_schedTrue_job32,72.90724924680174,51.14383322121186,1411.8469495899665,194.99448387411275,2543202.2567002582,89.97395697914656,90.89628392665439,135.74531832848302,"(0.47575871500321204, 0.5884127432781421)","[ 16.94534962  12.90052814   3.91723933   0.58841274   0.47575872
 -25.89992978 -12.16663422  -0.09360544   6.3722884    0.99444817]","[0.00000000e+00 0.00000000e+00 0.00000000e+00 1.66900452e-04
 5.65734548e-09 9.27956681e-01 9.53689823e-01 6.36215763e-01
 0.00000000e+00 1.25537358e-10]",['Ti0' 'Te0' 'Aw' 'Ce' 'Ci' 'e11' 'p11' 'p22' 'Rea' 'Rie'],3461.1114221147805,6.776932434267991
chicago_control_concrete_inf_schedTrue_job100,65.27595147234346,47.23467296727264,1411.0464354755725,194.45351776791512,2553410.5481190532,89.97395697914656,90.96769449917153,124.503859924267,"(0.32089064831591996, 0.669926227721419)","[ 17.42012232  14.12492674   3.56793562   0.66992623   0.32089065
 -33.25153694 -10.35532098  -0.15651527   7.06593381   0.96594569]","[0.00000000e+00 0.00000000e+00 2.44249065e-15 1.41361034e-05
 1.23815155e-07 8.85197874e-01 9.30023928e-01 2.30537059e-01
 0.00000000e+00 6.67290667e-11]",['Ti0' 'Te0' 'Aw' 'Ce' 'Ci' 'e11' 'p11' 'p22' 'Rea' 'Rie'],2898.98478314688,6.912074638985985
chicago_control_concrete_inf_schedTrue_job33,73.89627659568609,51.66051894633232,1411.9472355947028,195.4492128429127,2621448.327414606,89.97395697914656,90.90176765551159,135.599421399102,"(0.5009812643524221, 0.7297599596837829)","[ 17.57133951  13.16211495   4.30162764   0.72975996   0.50098126
 -31.75236854 -10.41682364  -0.07420252   6.63896078   0.73570196]","[0.00000000e+00 0.00000000e+00 1.22124533e-14 8.04722064e-05
 9.14366064e-07 8.60348694e-01 9.14175870e-01 6.59774936e-01
 0.00000000e+00 4.12980761e-12]",['Ti0' 'Te0' 'Aw' 'Ce' 'Ci' 'e11' 'p11' 'p22' 'Rea' 'Rie'],3062.5469068926695,7.860303323656012
chicago_control_concrete_inf_schedTrue_job91,57.62889342709804,43.05690243111536,1410.6473446500308,193.6566314708675,2591427.1646053963,89.97395697914656,90.92779346272715,128.26566016545,"(0.40459568213054603, 0.8567514831172259)","[ 17.17012161  14.30299774   4.41042972   0.85675148   0.40459568
 -30.16005504 -10.50658675  -0.29807385   6.99968373   0.79663525]","[0.00000000e+00 0.00000000e+00 1.33582034e-12 1.24156900e-05
 1.19377797e-09 9.12209381e-01 9.46364177e-01 1.37467452e-02
 0.00000000e+00 1.25666144e-11]",['Ti0' 'Te0' 'Aw' 'Ce' 'Ci' 'e11' 'p11' 'p22' 'Rea' 'Rie'],3184.6701443381203,9.00167578832
chicago_control_concrete_inf_schedTrue_job187,87.4603078524386,58.16812234910417,1412.6496151488045,198.0237562471788,2495994.089443441,89.97395697914656,90.93028314284868,137.584550005935,"(0.458797839460431, 0.630125475264788)","[ 17.0721338   13.65461582   3.90007734   0.63012548   0.45879784
 -25.22926812 -11.84492989   0.09566495   6.45167025   0.8165877 ]","[0.00000000e+00 0.00000000e+00 7.41389172e-11 2.19425539e-03
 1.32783912e-05 9.40886816e-01 9.53437105e-01 6.66864828e-01
 0.00000000e+00 9.32793087e-09]",['Ti0' 'Te0' 'Aw' 'Ce' 'Ci' 'e11' 'p11' 'p22' 'Rea' 'Rie'],2823.35923555485,9.083304967635002
chicago_control_concrete_inf_schedTrue_job193,72.48334390661735,50.96855954298308,1411.6446463020636,195.49303101341062,2526192.0383603815,89.97395697914656,90.96785100710619,133.492509871077,"(0.421315012993532, 0.913947873203495)","[ 17.82827284  14.1520478    4.55538598   0.91394787   0.42131501
 -29.11346202 -10.25126712  -0.12721515   6.82905219   0.66200481]","[0.00000000e+00 0.00000000e+00 1.00136877e-07 8.41805311e-04
 4.80438940e-06 8.03483028e-01 8.69141196e-01 3.71656783e-01
 0.00000000e+00 5.24990683e-07]",['Ti0' 'Te0' 'Aw' 'Ce' 'Ci' 'e11' 'p11' 'p22' 'Rea' 'Rie'],2713.1375867717397,12.523661044117006
chicago_control_concrete_inf_schedTrue_job31,51.01645375432617,39.19303035864273,1410.5534204001801,192.14955023860838,2634950.22582816,89.97395697914656,91.02574048720139,122.950348638585,"(0.328491353248022, 1.18536786868943)","[ 17.30801786  14.63446498   4.76549575   1.18536787   0.32849135
 -30.50468041 -10.20742404  -0.24628013   7.31757767   0.81578682]","[0.00000000e+00 0.00000000e+00 2.73582002e-07 9.93851520e-05
 9.62505948e-08 9.03492143e-01 9.39270656e-01 2.15349606e-03
 0.00000000e+00 3.36013628e-07]",['Ti0' 'Te0' 'Aw' 'Ce' 'Ci' 'e11' 'p11' 'p22' 'Rea' 'Rie'],2806.4032420260805,12.960722550428997
chicago_control_concrete_inf_schedTrue_job145,64.25809462086103,46.65794399863407,1411.2919569518995,193.732176275432,2570190.5005153683,89.97395697914656,90.95924473430657,126.127600588984,"(0.31100855212026, 0.681492986686437)","[ 16.85094189  13.24566729   3.53104464   0.68149299   0.31100855
 -25.7944648  -12.09799341  -0.18362139   6.86226588   1.06621286]","[0.00000000e+00 0.00000000e+00 4.44089210e-16 1.62583202e-06
 1.07754472e-09 8.17183680e-01 9.64351230e-01 1.21209489e-01
 0.00000000e+00 2.27351471e-12]",['Ti0' 'Te0' 'Aw' 'Ce' 'Ci' 'e11' 'p11' 'p22' 'Rea' 'Rie'],2948.8751953498104,6.47428902355
chicago_control_concrete_inf_schedTrue_job34,73.15896941098755,51.23226616818845,1412.2982066756877,194.4761207897017,2579977.0810101097,89.97395697914656,90.9438232228581,129.436708848785,"(0.386348536563441, 0.7128089585230879)","[ 17.20590582  13.80099868   3.70281367   0.71280896   0.38634854
 -30.85728394 -10.32438203  -0.03443858   6.85211048   0.8736731 ]","[0.00000000e+00 0.00000000e+00 2.18392078e-08 7.59166662e-03
 4.52069787e-05 5.64405074e-01 7.15641658e-01 8.85398613e-01
 0.00000000e+00 2.42469987e-07]",['Ti0' 'Te0' 'Aw' 'Ce' 'Ci' 'e11' 'p11' 'p22' 'Rea' 'Rie'],2822.4893732486103,9.252817181966009
chicago_control_concrete_inf_schedTrue_job18,65.33364347894315,47.234749496348186,1411.3579287816585,193.9387532210248,2623214.0694151004,89.97395697914656,90.91574143838969,130.540344387517,"(0.459881511183341, 0.599710550029418)","[ 17.03866167  13.56639372   3.8957302    0.59971055   0.45988151
 -25.56356021 -11.98944208  -0.17816006   6.77215327   0.88831373]","[0.00000000e+00 0.00000000e+00 0.00000000e+00 1.39306323e-04
 5.37197420e-09 9.31157915e-01 9.78921324e-01 3.52682649e-01
 0.00000000e+00 1.06581410e-14]",['Ti0' 'Te0' 'Aw' 'Ce' 'Ci' 'e11' 'p11' 'p22' 'Rea' 'Rie'],3354.6368012638204,6.384455767186012
chicago_control_concrete_inf_schedTrue_job11,73.2616424257807,51.36612660322441,1411.8799497775813,195.6909044768644,2527340.8031802457,89.97395697914656,90.94999239866932,131.393601466779,"(0.318193235040903, 0.8103913959680179)","[ 17.492627    14.12783503   4.01337237   0.8103914    0.31819324
 -32.54629942 -10.26109149  -0.16304666   6.67245179   0.93826889]","[0.00000000e+00 0.00000000e+00 1.73194570e-10 3.74331085e-05
 6.41503539e-09 8.87712091e-01 9.30697097e-01 1.29924561e-01
 0.00000000e+00 1.95793248e-09]",['Ti0' 'Te0' 'Aw' 'Ce' 'Ci' 'e11' 'p11' 'p22' 'Rea' 'Rie'],2857.726436091,9.157690605330004
chicago_control_concrete_inf_schedTrue_job65,61.21752254168983,45.082525691336414,1410.8517684310175,194.64494923358782,2595231.7186778397,89.97395697914656,90.97538440700389,133.092181378525,"(0.43457449551520705, 1.1804722824396299)","[ 17.83310258  13.89980981   5.25110666   1.18047228   0.4345745
 -31.58656174 -10.60793605  -0.31056092   6.78352913   0.73006025]","[0.00000000e+00 0.00000000e+00 1.88217260e-07 1.12089401e-04
 1.46466093e-08 8.43442601e-01 9.05059134e-01 5.73530833e-04
 0.00000000e+00 8.42074939e-08]",['Ti0' 'Te0' 'Aw' 'Ce' 'Ci' 'e11' 'p11' 'p22' 'Rea' 'Rie'],3127.74486110543,13.146089230747009
chicago_control_concrete_inf_schedTrue_job57,63.755171125514096,46.391175307927554,1411.4343324018023,193.71126302277102,2533553.1369353374,89.97395697914656,90.94398460746547,127.638144602708,"(0.46155862109677204, 0.6504261109803969)","[ 1.73511480e+01  1.43550129e+01  3.95625710e+00  6.50426111e-01
  4.61558621e-01 -2.52483564e+01 -1.18650554e+01 -7.37365818e-04
  6.90166088e+00  9.32987633e-01]","[0.00000000e+00 0.00000000e+00 1.46549439e-14 7.27167799e-04
 1.58958132e-06 9.12534972e-01 9.61187383e-01 9.97246585e-01
 0.00000000e+00 1.19849708e-09]",['Ti0' 'Te0' 'Aw' 'Ce' 'Ci' 'e11' 'p11' 'p22' 'Rea' 'Rie'],3135.9837912564503,7.439263263443991
chicago_control_concrete_inf_schedTrue_job158,57.790538691329296,43.076264319336296,1411.1064075532965,192.22982422402725,2578306.072866703,89.97395697914656,90.95199082231248,148.594475773952,"(0.564206590748406, 1.96959744389355)","[ 17.57939437  15.51834479   7.61171447   1.96959744   0.56420659
 -28.3179867   -8.78709901  -0.33009971   6.31968827   0.41003701]","[0.00000000e+00 0.00000000e+00 8.20547297e-02 1.78327758e-01
 1.17279685e-02 9.39550889e-01 9.59363041e-01 8.76501264e-03
 5.63962113e-08 3.51393227e-02]",['Ti0' 'Te0' 'Aw' 'Ce' 'Ci' 'e11' 'p11' 'p22' 'Rea' 'Rie'],2700.97330497435,58.13207484953699
chicago_control_concrete_inf_schedTrue_job196,,,,,,,,,,,,,,
chicago_control_concrete_inf_schedTrue_job198,62.44469611407029,45.7351665677865,1410.7262554186068,194.47732364231652,2554001.9743869165,89.97395697914656,90.97052209003928,125.32658194458901,"(0.462285448444839, 0.569215662743066)","[ 1.71157414e+01  1.41968574e+01  3.80621321e+00  5.69215663e-01
  4.62285448e-01 -2.50549948e+01 -1.17622510e+01  7.47794032e-03
  7.16539490e+00  8.13758323e-01]","[0.00000000e+00 0.00000000e+00 0.00000000e+00 8.67343679e-04
 1.14805257e-07 9.18339250e-01 9.88485272e-01 9.72530045e-01
 0.00000000e+00 1.54731783e-11]",['Ti0' 'Te0' 'Aw' 'Ce' 'Ci' 'e11' 'p11' 'p22' 'Rea' 'Rie'],2921.06653425865,7.070246779868995
chicago_control_concrete_inf_schedTrue_job183,77.40472281933916,53.35138855244668,1412.3842052465884,195.4452031934871,2566711.1633309824,89.97395697914656,90.9228957912874,137.31874192187598,"(0.39517515155667, 0.836552502540967)","[ 17.16543482  14.58540776   4.30082828   0.8365525    0.39517515
 -30.69335323 -10.55402178  -0.12884972   6.45738514   0.82494199]","[0.00000000e+00 0.00000000e+00 4.46463244e-09 2.54426496e-04
 1.67830455e-07 1.55502787e-01 3.70241092e-01 3.38112581e-01
 0.00000000e+00 1.54799147e-08]",['Ti0' 'Te0' 'Aw' 'Ce' 'Ci' 'e11' 'p11' 'p22' 'Rea' 'Rie'],2937.36914148261,10.489510483085013
chicago_control_concrete_inf_schedTrue_job200,73.46122978778979,51.458020577420136,1411.7965862320739,195.60374664274445,2608912.2529187924,89.97395697914656,90.88010488015053,134.276564062304,"(0.336808414585971, 0.686609918964414)","[ 16.90156435  13.33740828   3.67158115   0.68660992   0.33680841
 -26.67094695 -10.82929472  -0.31410492   6.44942663   0.99788934]","[0.00000000e+00 0.00000000e+00 2.22044605e-16 1.86355596e-06
 3.65745212e-11 8.74736920e-01 9.25771341e-01 5.97864972e-03
 0.00000000e+00 1.07469589e-13]",['Ti0' 'Te0' 'Aw' 'Ce' 'Ci' 'e11' 'p11' 'p22' 'Rea' 'Rie'],3285.19018076682,6.412915739438006
chicago_control_concrete_inf_schedTrue_job7,78.11381470910628,53.90361486120742,1410.8153752777969,198.3737839729574,2514356.3257742934,89.97395697914656,90.9117623678739,138.891515754427,"(0.401241517343344, 0.8341836595120121)","[ 16.93736369  13.73440983   4.21266457   0.83418366   0.40124152
 -25.97782253 -12.20508658  -0.45188458   6.29943547   0.90042835]","[0.00000000e+00 0.00000000e+00 0.00000000e+00 4.02800747e-07
 2.64246403e-11 9.25459170e-01 9.20915444e-01 1.51264401e-04
 0.00000000e+00 9.63673585e-14]",['Ti0' 'Te0' 'Aw' 'Ce' 'Ci' 'e11' 'p11' 'p22' 'Rea' 'Rie'],3594.30149817897,6.943227570851008
chicago_control_concrete_inf_schedTrue_job58,55.93415718749154,42.090380056307204,1410.5814444841108,193.37470849376228,2621401.523058013,89.97395697914656,91.00310387129508,123.15712235394699,"(0.368780850382149, 0.973810519387427)","[ 17.5295742   15.05543074   4.52434131   0.97381052   0.36878085
 -29.53510509 -10.15773694  -0.14515783   7.40959903   0.71011002]","[0.00000000e+00 0.00000000e+00 2.22924824e-06 1.70514238e-03
 7.10985123e-07 7.93722225e-01 8.72441780e-01 2.36592064e-01
 0.00000000e+00 3.73958710e-07]",['Ti0' 'Te0' 'Aw' 'Ce' 'Ci' 'e11' 'p11' 'p22' 'Rea' 'Rie'],2639.2721242131,13.529217352557026
chicago_control_concrete_inf_schedTrue_job181,56.343678079773206,42.29273160777582,1410.7635118651194,192.7648165097154,2562577.865615584,89.97395697914656,90.97313241997509,117.470446054245,"(0.38670804970953004, 0.46120756307065397)","[ 17.52769157  13.82494169   3.28447947   0.46120756   0.38670805
 -32.28386056 -10.29678382   0.17319347   7.45440807   1.05837139]","[0.00000000e+00 0.00000000e+00 9.10382880e-15 3.48337071e-03
 2.96060841e-05 8.64266129e-01 9.16093226e-01 5.22077042e-01
 0.00000000e+00 2.03480344e-09]",['Ti0' 'Te0' 'Aw' 'Ce' 'Ci' 'e11' 'p11' 'p22' 'Rea' 'Rie'],2800.7722131024498,6.335073574147998
chicago_control_concrete_inf_schedTrue_job82,63.58551400676207,46.33782731100571,1410.8234403831962,194.36413059751962,2553995.6813968443,89.97395697914656,90.95125937511652,128.834997317432,"(0.35401115974790104, 0.778159481325711)","[ 17.69353791  13.65240006   4.17984184   0.77815948   0.35401116
 -32.14777354 -10.30446259  -0.2607253    6.92713747   0.83472864]","[0.00000000e+00 0.00000000e+00 5.00073498e-07 1.83783875e-03
 9.66116076e-13 8.35440330e-01 8.99263354e-01 1.54255278e-01
 0.00000000e+00 6.68407739e-07]",['Ti0' 'Te0' 'Aw' 'Ce' 'Ci' 'e11' 'p11' 'p22' 'Rea' 'Rie'],3006.7789011989503,12.468055885488013
chicago_control_concrete_inf_schedTrue_job96,64.85276943066795,47.01053994608065,1411.1143130044031,194.41546736032697,2549862.8035598537,89.97395697914656,90.9327692159297,131.094566091789,"(0.42415301127804494, 0.7163078313735749)","[ 16.99073214  13.38900697   4.14447046   0.71630783   0.42415301
 -25.78547156 -12.11076881  -0.19714165   6.65938959   0.96869165]","[0.00000000e+00 0.00000000e+00 1.53210777e-14 3.28757685e-05
 1.20050192e-10 2.71999532e-02 6.77777453e-01 1.68307314e-01
 0.00000000e+00 3.44391182e-12]",['Ti0' 'Te0' 'Aw' 'Ce' 'Ci' 'e11' 'p11' 'p22' 'Rea' 'Rie'],3367.4860324001,7.744747189809999
chicago_control_concrete_inf_schedTrue_job118,71.28659783803444,50.38455909745014,1411.6564302110226,195.6533453202507,2614500.9098652494,89.97395697914656,90.92869942990964,129.08479856174,"(0.34292955906773803, 0.729900651250494)","[ 17.77455727  13.33871556   3.83668951   0.72990065   0.34292956
 -30.09231668 -10.25352918  -0.0389801    6.87402264   0.87282293]","[0.00000000e+00 0.00000000e+00 1.09094733e-10 7.75676561e-05
 7.30083296e-07 2.45235773e-01 4.69383651e-01 7.71967949e-01
 0.00000000e+00 4.84432272e-09]",['Ti0' 'Te0' 'Aw' 'Ce' 'Ci' 'e11' 'p11' 'p22' 'Rea' 'Rie'],2654.31296609885,8.721648381525
chicago_control_concrete_inf_schedTrue_job161,80.79247776513917,55.017981900698054,1412.3821274412974,196.44582020785757,2594888.286998732,89.97395697914656,90.91048141104648,137.30560267648198,"(0.282450719013772, 0.8343880160136681)","[ 17.23040523  14.35572113   3.82419249   0.83438802   0.28245072
 -31.3096594  -10.33603644  -0.36442513   6.48768054   0.79534346]","[0.00000000e+00 0.00000000e+00 2.20889973e-12 6.74066020e-06
 5.38107336e-11 7.91400653e-01 8.67975764e-01 2.04992416e-04
 0.00000000e+00 1.55853108e-12]",['Ti0' 'Te0' 'Aw' 'Ce' 'Ci' 'e11' 'p11' 'p22' 'Rea' 'Rie'],2752.07900932707,8.047186191633017
chicago_control_concrete_inf_schedTrue_job170,73.34529016100946,51.34330076594355,1412.1064123915226,194.7633921047959,2583302.180818829,89.97395697914656,90.91494044605301,129.780597629287,"(0.487188873832576, 0.521998904045323)","[ 17.09993745  13.51199821   3.67052521   0.5219989    0.48718887
 -30.35912718 -10.28455968   0.18482955   6.83618346   0.86912857]","[0.00000000e+00 0.00000000e+00 6.95443703e-12 1.56854088e-02
 7.38474348e-05 8.19250528e-01 8.85596275e-01 5.69551002e-01
 0.00000000e+00 5.65348374e-07]",['Ti0' 'Te0' 'Aw' 'Ce' 'Ci' 'e11' 'p11' 'p22' 'Rea' 'Rie'],2845.68554057657,8.025157158016015
chicago_control_concrete_inf_schedTrue_job30,67.57417024157847,48.476103218268506,1411.0928378845285,195.25543584860554,2566983.3965714434,89.97395697914656,90.90203591485043,132.322024278025,"(0.3428144036310589, 0.689913818742574)","[ 16.93000097  13.31496096   3.87640425   0.68991382   0.3428144
 -25.75206284 -11.8466249   -0.34748595   6.52121565   1.03610525]","[0.00000000e+00 0.00000000e+00 0.00000000e+00 1.12120832e-07
 2.02238226e-12 9.28646570e-01 9.45908434e-01 2.18409363e-03
 0.00000000e+00 1.55431223e-15]",['Ti0' 'Te0' 'Aw' 'Ce' 'Ci' 'e11' 'p11' 'p22' 'Rea' 'Rie'],3396.5323974429903,6.229348034598019
chicago_control_concrete_inf_schedTrue_job76,,,,,,,,,,,,,,
chicago_control_concrete_inf_schedTrue_job90,64.90233690894759,46.99269325268465,1411.5604155898748,193.65949383867468,2600056.70808017,89.97395697914656,90.99806085651636,124.376452456527,"(0.6137027588198021, 0.43862789368347704)","[ 17.85647692  11.60138619   3.49310407   0.43862789   0.61370276
 -25.5565894  -11.99448221   0.41805403   7.13160662   0.90850049]","[0.00000000e+00 1.03378882e-04 3.07398551e-12 9.53588390e-02
 1.00768760e-03 9.49783892e-01 7.85794588e-01 4.50383060e-01
 0.00000000e+00 2.42617803e-03]",['Ti0' 'Te0' 'Aw' 'Ce' 'Ci' 'e11' 'p11' 'p22' 'Rea' 'Rie'],2901.85401350181,7.890848882147992
chicago_control_concrete_inf_schedTrue_job188,85.00554886018836,57.0504621457987,1412.058253420976,197.77629082904812,2563740.7052267804,89.97395697914656,90.89634460610974,135.96857515098802,"(0.453214147649585, 0.47787200960070697)","[ 17.07513008  13.44223389   3.5196201    0.47787201   0.45321415
 -31.32119304 -10.30840855   0.06789757   6.47881271   0.87582787]","[0.00000000e+00 0.00000000e+00 0.00000000e+00 1.92650402e-02
 3.88959202e-04 6.43604906e-01 7.70921715e-01 8.46423522e-01
 0.00000000e+00 1.36969325e-09]",['Ti0' 'Te0' 'Aw' 'Ce' 'Ci' 'e11' 'p11' 'p22' 'Rea' 'Rie'],2965.1676575242304,6.356097522460999
chicago_control_concrete_inf_schedTrue_job42,61.89461038584588,45.36421427284307,1411.2001239863473,193.09883913048512,2552370.3696660916,89.97395697914656,90.93966791230925,128.923089734934,"(0.286905677719078, 0.8002157973451971)","[ 17.13242244  14.07460849   4.06326253   0.8002158    0.28690568
 -32.19370169 -10.29381628  -0.30345423   6.81941954   0.93714293]","[0.00000000e+00 0.00000000e+00 1.55431223e-15 6.83976132e-07
 2.44249065e-14 6.59147662e-01 7.88356964e-01 7.17590443e-04
 0.00000000e+00 2.15383267e-14]",['Ti0' 'Te0' 'Aw' 'Ce' 'Ci' 'e11' 'p11' 'p22' 'Rea' 'Rie'],2850.44139498858,7.8600184554420025
chicago_control_concrete_inf_schedTrue_job70,54.82195341736101,41.40938854632581,1410.5709515548624,192.33312395285301,2610746.3325116285,89.97395697914656,90.9574288719506,121.740397611145,"(0.323239952223285, 0.665567900136671)","[ 17.1979865   14.26288356   3.67276754   0.6655679    0.32323995
 -25.41860793 -11.88589599  -0.21121971   7.32407914   0.89012108]","[0.00000000e+00 0.00000000e+00 6.88338275e-15 2.79027401e-05
 4.09868390e-08 7.80717742e-01 9.42590931e-01 9.10568720e-02
 0.00000000e+00 1.65827352e-11]",['Ti0' 'Te0' 'Aw' 'Ce' 'Ci' 'e11' 'p11' 'p22' 'Rea' 'Rie'],2669.79395233957,7.104938724123997
chicago_control_concrete_inf_schedTrue_job139,61.608385636989006,45.233254466112015,1410.8188281567386,193.52601442022566,2584197.4186468325,89.97395697914656,90.96924994180206,127.22998346580499,"(0.345905205062776, 0.946876984515972)","[ 17.33119024  14.39368081   4.34204371   0.94687698   0.34590521
 -31.88960567 -10.33276196  -0.24237866   7.00127753   0.85850499]","[0.00000000e+00 0.00000000e+00 1.21125554e-10 1.67324599e-05
 2.11589346e-09 8.14790240e-01 8.86045849e-01 2.00948511e-02
 0.00000000e+00 8.53511262e-10]",['Ti0' 'Te0' 'Aw' 'Ce' 'Ci' 'e11' 'p11' 'p22' 'Rea' 'Rie'],2955.0652209402697,9.726423443232989
chicago_control_concrete_inf_schedTrue_job153,60.855093563335764,44.86601467461315,1410.9062113265336,194.27499383288352,2643843.778653419,89.97395697914656,90.92863168465281,127.63616628084299,"(0.545967490704096, 0.48765196113983206)","[ 17.31550307  13.31000029   3.83972902   0.48765196   0.54596749
 -25.43942865 -11.89456967   0.06186203   6.86894572   0.96582423]","[0.00000000e+00 0.00000000e+00 0.00000000e+00 8.59746277e-03
 4.05270165e-07 9.38060995e-01 9.84108900e-01 8.47747914e-01
 0.00000000e+00 1.40292012e-06]",['Ti0' 'Te0' 'Aw' 'Ce' 'Ci' 'e11' 'p11' 'p22' 'Rea' 'Rie'],3349.44353011919,6.837331949980012
chicago_control_concrete_inf_schedTrue_job3,80.0447795699707,54.7321443281555,1411.7336752709216,197.26033612653697,2514692.4985719044,89.97395697914656,90.95104177504706,134.02566514397898,"(0.41077527814495207, 0.556857760470756)","[ 17.04945468  13.60158781   3.70535311   0.55685776   0.41077528
 -25.44486538 -11.94062774  -0.0646149    6.56755358   0.89370393]","[0.00000000e+00 0.00000000e+00 4.44089210e-16 5.81433664e-04
 3.22471533e-07 9.06173285e-01 9.73226861e-01 7.47381817e-01
 0.00000000e+00 2.07249773e-11]",['Ti0' 'Te0' 'Aw' 'Ce' 'Ci' 'e11' 'p11' 'p22' 'Rea' 'Rie'],3039.75833782094,6.840773050732025
chicago_control_concrete_inf_schedTrue_job37,87.6304717575767,58.211237830199174,1412.3062012576581,197.65985798362564,2506791.4071636293,89.97395697914656,90.93119269527489,136.246415031982,"(0.44157104563093796, 0.477581812428248)","[ 16.86599912  13.13915319   3.4985309    0.47758181   0.44157105
 -31.48748714 -10.52730734   0.03868066   6.41620918   0.92343347]","[0.00000000e+00 0.00000000e+00 4.69335681e-12 5.83513521e-03
 1.13338595e-05 7.31795014e-01 8.32713505e-01 8.87953952e-01
 0.00000000e+00 7.54926249e-07]",['Ti0' 'Te0' 'Aw' 'Ce' 'Ci' 'e11' 'p11' 'p22' 'Rea' 'Rie'],3051.92380164354,5.8668863713379835
chicago_control_concrete_inf_schedTrue_job111,72.27368621062237,50.807867036607206,1412.1508522415506,194.64503050037013,2589961.7618514644,89.97395697914656,90.94527616366942,133.597299895181,"(0.492020057407564, 0.828582499413292)","[ 17.43307969  14.38868438   4.37143195   0.8285825    0.49202006
 -31.14628785 -10.45390795  -0.05581938   6.76957964   0.71560158]","[0.00000000e+00 0.00000000e+00 8.74742885e-08 3.19201634e-03
 6.16391510e-06 3.69589292e-01 5.83482886e-01 7.64237635e-01
 0.00000000e+00 4.53157236e-07]",['Ti0' 'Te0' 'Aw' 'Ce' 'Ci' 'e11' 'p11' 'p22' 'Rea' 'Rie'],2941.74633266615,11.413278025345988
chicago_control_concrete_inf_schedTrue_job106,82.15041704730137,55.709951543566206,1412.174930393598,197.2700183859468,2522529.3697179323,89.97395697914656,90.9125914816913,135.588067889501,"(0.313343329412136, 0.6299372199591079)","[ 16.83497416  13.26486676   3.38941752   0.62993722   0.31334333
 -25.46975099 -11.93499883  -0.24915149   6.37824278   0.99703747]","[0.00000000e+00 0.00000000e+00 0.00000000e+00 8.14891502e-07
 3.23597393e-09 9.34056878e-01 9.72837522e-01 4.18006545e-02
 0.00000000e+00 4.35651515e-13]",['Ti0' 'Te0' 'Aw' 'Ce' 'Ci' 'e11' 'p11' 'p22' 'Rea' 'Rie'],3070.9772541325106,5.950598853724017
chicago_control_concrete_inf_schedTrue_job89,76.57589912169394,52.89375849985533,1412.3969923909751,194.59542247399432,2545743.421624439,89.97395697914656,90.88393769788311,138.313338694193,"(0.31205546791811895, 0.830952678026322)","[ 16.84747576  13.25135539   4.03096513   0.83095268   0.31205547
 -25.54559565 -11.99261931  -0.4445368    6.20233696   1.02762372]","[0.00000000e+00 0.00000000e+00 1.11022302e-15 7.46672926e-08
 1.37889700e-13 8.77395141e-01 9.40748151e-01 3.32191703e-06
 0.00000000e+00 1.52100554e-13]",['Ti0' 'Te0' 'Aw' 'Ce' 'Ci' 'e11' 'p11' 'p22' 'Rea' 'Rie'],3390.4399830801194,7.469146190529017
chicago_control_concrete_inf_schedTrue_job167,74.36459930285736,51.82450071848007,1411.8410635403436,194.53970075783923,2532332.070928897,89.97395697914656,90.88918874780033,133.326626238827,"(0.38640283167403294, 0.646773926379519)","[ 16.79834006  12.13898561   3.59558656   0.64677393   0.38640283
 -26.18711091 -12.33073399  -0.2130158    6.23585042   1.26452687]","[0.00000000e+00 0.00000000e+00 0.00000000e+00 2.38350259e-06
 3.95683486e-12 8.91391591e-01 9.57986180e-01 1.20807619e-01
 0.00000000e+00 3.65774078e-12]",['Ti0' 'Te0' 'Aw' 'Ce' 'Ci' 'e11' 'p11' 'p22' 'Rea' 'Rie'],3634.9302320514794,6.257573810554987
chicago_control_concrete_inf_schedTrue_job156,,,,,,,,,,,,,,
chicago_control_concrete_inf_schedTrue_job176,70.61090651966401,50.006793007883395,1411.677118929052,195.05391086515988,2612077.0338125792,89.97395697914656,90.9070445560013,133.904165418872,"(0.394400413049192, 0.7397788092209292)","[ 17.4701054   13.65633718   4.14914714   0.73977881   0.39440041
 -30.8821406  -10.22891318  -0.24180413   6.7242411    0.74378648]","[0.00000000e+00 0.00000000e+00 9.79216708e-14 5.01192495e-05
 1.73607833e-08 8.99562096e-01 9.37551325e-01 8.65970067e-02
 0.00000000e+00 4.16222612e-12]",['Ti0' 'Te0' 'Aw' 'Ce' 'Ci' 'e11' 'p11' 'p22' 'Rea' 'Rie'],3013.0967820835,8.17364730418501
chicago_control_concrete_inf_schedTrue_job67,67.18552896823465,48.21319243544315,1411.571494127247,194.2266820990457,2603559.120362618,89.97395697914656,90.89797820852202,131.205317016845,"(0.45714956927898104, 0.595245806212679)","[ 16.94574648  12.65286655   3.69942386   0.59524581   0.45714957
 -26.11806112 -12.28789594  -0.13402141   6.51688695   1.10475539]","[0.00000000e+00 0.00000000e+00 4.28057589e-12 6.07205393e-04
 1.68409198e-09 9.66398722e-01 9.85341092e-01 5.09998435e-01
 0.00000000e+00 1.10786544e-08]",['Ti0' 'Te0' 'Aw' 'Ce' 'Ci' 'e11' 'p11' 'p22' 'Rea' 'Rie'],3560.7076173531605,7.154453898225
chicago_control_concrete_inf_schedTrue_job191,70.8156582405373,50.17593782593992,1411.188435397866,196.0754201767912,2521172.2736736895,89.97395697914656,90.96239947468906,128.809054040856,"(0.274797735400141, 0.83265088156315)","[ 17.24474068  14.34170028   4.00668395   0.83265088   0.27479774
 -30.15599712 -10.11707175  -0.26632958   6.89523298   0.86819644]","[0.00000000e+00 0.00000000e+00 1.66533454e-14 1.14333239e-06
 6.41793330e-09 8.38570347e-01 8.96940137e-01 5.86642596e-03
 0.00000000e+00 1.07402975e-11]",['Ti0' 'Te0' 'Aw' 'Ce' 'Ci' 'e11' 'p11' 'p22' 'Rea' 'Rie'],2685.54207354291,7.948355240331978
chicago_control_concrete_inf_schedTrue_job101,76.91705528648936,53.210631572972666,1411.8144587630534,196.6989702222176,2539124.9576308136,89.97395697914656,90.8857735274414,138.336684584262,"(0.38313952334922097, 0.7102551984610121)","[ 17.01383319  13.04531184   4.04072326   0.7102552    0.38313952
 -25.86031426 -12.14049136  -0.24559691   6.18427107   1.04446947]","[0.00000000e+00 0.00000000e+00 0.00000000e+00 5.18530227e-07
 8.19233570e-12 8.45650130e-01 9.55998340e-01 4.49284207e-02
 0.00000000e+00 1.54987134e-13]",['Ti0' 'Te0' 'Aw' 'Ce' 'Ci' 'e11' 'p11' 'p22' 'Rea' 'Rie'],3418.1860737999,6.657937538287001
chicago_control_concrete_inf_schedTrue_job142,60.500679959086625,44.72884273651038,1410.3899533714364,195.34396924092312,2591252.8443129305,89.97395697914656,90.98958700625673,122.905137456915,"(0.915077687122679, 11.473520241467)","[ 1.74536592e+01  1.81499072e+01  3.80300331e+00  1.14735202e+01
  9.15077687e-01 -3.06599726e+01 -9.74664605e+00  3.18943689e+00
  1.55456564e-02  8.12081073e+00]","[0.00000000e+00 4.54730342e-03 0.00000000e+00 9.76666170e-01
 5.55111512e-15 8.95784752e-01 9.22292396e-01 0.00000000e+00
 9.76749701e-01 0.00000000e+00]",['Ti0' 'Te0' 'Aw' 'Ce' 'Ci' 'e11' 'p11' 'p22' 'Rea' 'Rie'],2585.3637658594603,6.380625674092997
chicago_control_concrete_inf_schedTrue_job66,85.44690640420076,57.388513386677594,1411.538739706465,199.4626777403404,2487390.4762330125,89.97395697914656,90.92197358048129,138.407940488769,"(0.33194928480699604, 0.751549079565434)","[ 16.95903157  14.20555815   4.02724228   0.75154908   0.33194928
 -24.91203201 -11.64979774  -0.29249322   6.42317179   0.80184722]","[0.00000000e+00 0.00000000e+00 0.00000000e+00 4.42480944e-06
 1.25387456e-09 8.89260175e-01 9.79310226e-01 1.39778840e-02
 0.00000000e+00 4.84057239e-14]",['Ti0' 'Te0' 'Aw' 'Ce' 'Ci' 'e11' 'p11' 'p22' 'Rea' 'Rie'],2900.32065617056,7.02482316190202
chicago_control_concrete_inf_schedTrue_job154,69.82603824345298,49.63824172696721,1410.8910529054106,195.47740315595038,2532270.8366996762,89.97395697914656,90.99120730152272,130.046271993097,"(0.456518957808321, 0.8466657462514301)","[ 17.42876655  14.95246111   4.64453632   0.84666575   0.45651896
 -29.67350451 -10.21444004  -0.06228014   7.06233819   0.62723249]","[0.00000000e+00 0.00000000e+00 9.58255905e-06 2.10914182e-02
 3.53874080e-06 7.53455822e-01 8.31674144e-01 7.69586897e-01
 0.00000000e+00 4.40449606e-07]",['Ti0' 'Te0' 'Aw' 'Ce' 'Ci' 'e11' 'p11' 'p22' 'Rea' 'Rie'],2649.70557388412,14.164460151637002
chicago_control_concrete_inf_schedTrue_job168,64.99757772772661,47.08084896629124,1411.3610641614935,194.3130722012637,2573890.9810464843,89.97395697914656,90.96660634056303,131.332664819609,"(0.329308426752503, 1.05196584882206)","[ 17.20097349  14.42145845   4.66307623   1.05196585   0.32930843
 -29.981794   -10.28878992  -0.24404605   6.80442731   0.80982465]","[0.00000000e+00 0.00000000e+00 1.24952314e-05 1.95416015e-03
 4.80581268e-08 8.69287487e-01 9.17289964e-01 1.41052662e-02
 0.00000000e+00 7.37657350e-07]",['Ti0' 'Te0' 'Aw' 'Ce' 'Ci' 'e11' 'p11' 'p22' 'Rea' 'Rie'],2808.31807331375,14.524242909153003
chicago_control_concrete_inf_schedTrue_job132,55.33386880849611,41.72179423665806,1410.9044364902381,192.77446664327343,2548798.1632038034,89.97395697914656,90.9713289343199,120.72545219064502,"(0.38584652886615, 0.728086990291743)","[ 17.85191426  13.81619271   3.95219325   0.72808699   0.38584653
 -25.15683016 -11.80277785  -0.03400418   7.46338308   0.81987436]","[0.00000000e+00 0.00000000e+00 9.15310272e-10 6.87797460e-04
 1.14092448e-06 9.39332047e-01 9.80854305e-01 8.32911827e-01
 0.00000000e+00 3.03446912e-09]",['Ti0' 'Te0' 'Aw' 'Ce' 'Ci' 'e11' 'p11' 'p22' 'Rea' 'Rie'],2747.0465453287698,9.43654861383699
chicago_control_concrete_inf_schedTrue_job190,65.22950167562419,47.26292303540733,1410.8856512145544,195.35168196169215,2540445.5347138653,89.97395697914656,90.95121717400188,128.267010177354,"(0.353176359823211, 0.620882199067903)","[ 17.37640636  14.0126928    3.72505565   0.6208822    0.35317636
 -30.58070753 -10.47402357  -0.23663559   6.85460875   0.94162817]","[0.00000000e+00 0.00000000e+00 0.00000000e+00 4.69656707e-06
 6.09616757e-09 9.08507611e-01 9.41241768e-01 1.02956351e-01
 0.00000000e+00 4.28546088e-14]",['Ti0' 'Te0' 'Aw' 'Ce' 'Ci' 'e11' 'p11' 'p22' 'Rea' 'Rie'],3137.3342945994605,5.913628072126983
chicago_control_concrete_inf_schedTrue_job116,62.62471883962232,45.77878172608496,1411.1876963748864,193.52007283987976,2579649.0730634495,89.97395697914656,90.97511741181457,124.261688258039,"(0.34056419019200196, 0.863360836384204)","[ 17.35500329  14.34744999   4.03753504   0.86336084   0.34056419
 -29.40276943 -10.4170256   -0.09745819   7.18050367   0.86702903]","[0.00000000e+00 0.00000000e+00 3.18106297e-09 5.90185380e-05
 3.81939350e-07 4.16184050e-01 6.09491985e-01 3.80628753e-01
 0.00000000e+00 9.64756726e-08]",['Ti0' 'Te0' 'Aw' 'Ce' 'Ci' 'e11' 'p11' 'p22' 'Rea' 'Rie'],2740.13162970493,10.154250111827011
chicago_control_concrete_inf_schedTrue_job184,75.03123755686269,52.213728915630966,1411.8014407270725,195.46697186447463,2623600.7100732997,89.97395697914656,90.90098447536026,132.84802712099702,"(0.35887487467036405, 0.7128223532629979)","[ 17.36113302  14.14901011   3.84555582   0.71282235   0.35887487
 -33.72774425 -10.24813251  -0.19065262   6.68078712   0.84661108]","[0.00000000e+00 0.00000000e+00 4.75841588e-13 1.11419925e-05
 5.00342656e-09 8.81493194e-01 9.28205201e-01 1.19324437e-01
 0.00000000e+00 2.58866262e-11]",['Ti0' 'Te0' 'Aw' 'Ce' 'Ci' 'e11' 'p11' 'p22' 'Rea' 'Rie'],2931.59722101425,7.6380819905959925
chicago_control_concrete_inf_schedTrue_job74,55.981489765118745,42.09780487464941,1410.6096684962472,192.9664856704328,2596641.44842878,89.97395697914656,90.97497696614268,120.182797423108,"(0.342978366017254, 0.7097336300104331)","[ 17.86222508  14.44370753   3.85942378   0.70973363   0.34297837
 -25.11150873 -11.76681642  -0.21639178   7.51180877   0.8088496 ]","[0.00000000e+00 0.00000000e+00 6.39266418e-12 2.03591271e-04
 2.71180278e-08 4.61070469e-01 9.19576115e-01 1.31143137e-01
 0.00000000e+00 1.90973903e-11]",['Ti0' 'Te0' 'Aw' 'Ce' 'Ci' 'e11' 'p11' 'p22' 'Rea' 'Rie'],2846.15058330737,8.063177226755997
chicago_control_concrete_inf_schedTrue_job169,58.80531954443881,43.69320859322869,1411.0175560756186,193.3159334304644,2634185.6595059307,89.97395697914656,90.9923187329501,349.9321058996,"(2.63183247211362, 10.752364753745699)","[ 17.43185421  16.27070561  38.38616751  10.75236475   2.63183247
 -24.48685045 -11.48887163  -0.23486601   2.76108064   0.09661656]","[0.         0.         0.07252027 0.0926893  0.07059754 0.97391114
 0.98557501 0.00283349 0.01507342 0.07114851]",['Ti0' 'Te0' 'Aw' 'Ce' 'Ci' 'e11' 'p11' 'p22' 'Rea' 'Rie'],2652.8467480277,284.72624500604303
chicago_control_concrete_inf_schedTrue_job92,66.55451636239437,47.97065147450856,1411.0003627943704,195.61486929610217,2548653.3209161116,89.97395697914656,90.97992639860227,136.22440403494102,"(0.49279176963166604, 1.21700022582922)","[ 17.6083648   15.46503351   5.58646952   1.21700023   0.49279177
 -21.53520031 -10.24684593  -0.23185059   6.82102388   0.51980472]","[0.00000000e+00 0.00000000e+00 6.46675631e-05 9.58021385e-03
 5.35900709e-07 4.07572329e-01 9.77264464e-01 8.42112343e-02
 0.00000000e+00 2.18557689e-06]",['Ti0' 'Te0' 'Aw' 'Ce' 'Ci' 'e11' 'p11' 'p22' 'Rea' 'Rie'],2716.3109394399303,19.445598469854986
chicago_control_concrete_inf_schedTrue_job163,87.08840823452275,58.00861425182157,1412.0937009660938,198.09565710314283,2529170.430627834,89.97395697914656,90.88566190443589,140.550611805377,"(0.34101669573536797, 0.6983714853263101)","[ 17.12579713  13.2807918    3.62464365   0.69837149   0.3410167
 -25.99789119 -12.19365582  -0.35771285   6.01013623   1.10473853]","[0.00000000e+00 0.00000000e+00 0.00000000e+00 2.42161485e-07
 2.25863772e-12 7.67823400e-01 9.20591877e-01 2.07547251e-03
 0.00000000e+00 3.06421555e-13]",['Ti0' 'Te0' 'Aw' 'Ce' 'Ci' 'e11' 'p11' 'p22' 'Rea' 'Rie'],3506.87174385593,6.471859145128008
chicago_control_concrete_inf_schedTrue_job138,,,,,,,,,,,,,,
chicago_control_concrete_inf_schedTrue_job105,69.48706104558728,49.334707372336766,1412.0957255427868,193.40975648102227,2594917.802663649,89.97395697914656,90.92510944998199,131.349595443162,"(0.34029472918795506, 0.7216564299458129)","[ 17.11193212  13.54831366   3.99739036   0.72165643   0.34029473
 -31.80535056 -10.54422193  -0.18225132   6.60959052   1.00367998]","[0.00000000e+00 0.00000000e+00 6.94999613e-14 1.73488998e-05
 8.67363514e-10 7.87101424e-01 8.70097474e-01 1.58032865e-01
 0.00000000e+00 1.92426075e-11]",['Ti0' 'Te0' 'Aw' 'Ce' 'Ci' 'e11' 'p11' 'p22' 'Rea' 'Rie'],3093.39948697389,7.727338285119004
chicago_control_concrete_inf_schedTrue_job20,64.50317855237307,46.753554126840676,1411.6868589590792,193.15221696211697,2601441.3898418616,89.97395697914656,90.92833541961299,128.613374181898,"(0.373616737458132, 0.644958865362562)","[ 17.06616831  14.15873347   3.75638646   0.64495887   0.37361674
 -30.82977184 -10.62736165  -0.28659586   6.88908221   0.88615895]","[0.00000000e+00 0.00000000e+00 0.00000000e+00 3.72627849e-06
 1.43646428e-10 8.81836965e-01 9.27977190e-01 3.40301964e-02
 0.00000000e+00 2.66453526e-15]",['Ti0' 'Te0' 'Aw' 'Ce' 'Ci' 'e11' 'p11' 'p22' 'Rea' 'Rie'],3191.2822896969606,6.294937541414015
chicago_control_concrete_inf_schedTrue_job123,52.28860083958738,39.928682553536795,1410.4579859263738,191.90041293163242,2564273.183482834,89.97395697914656,90.94136188313381,122.86933719620899,"(0.37820737561872797, 0.767960207561704)","[ 17.08268328  13.55805544   4.05544999   0.76796021   0.37820738
 -25.6413641  -12.04977979  -0.3156005    7.1075055    1.03122157]","[0.00000000e+00 0.00000000e+00 2.05391260e-13 8.64026133e-06
 8.66662297e-12 9.14771681e-01 9.76469742e-01 5.41849036e-03
 0.00000000e+00 6.68087807e-12]",['Ti0' 'Te0' 'Aw' 'Ce' 'Ci' 'e11' 'p11' 'p22' 'Rea' 'Rie'],3481.34915918927,7.775359245208023
chicago_control_concrete_inf_schedTrue_job21,,,,,,,,,,,,,,
chicago_control_concrete_inf_schedTrue_job72,55.30415982367842,41.68876643617157,1410.3877211133706,192.43981274608814,2540255.4073160635,89.97395697914656,90.94832434616568,124.653719719146,"(0.410023127090765, 0.7313947988841641)","[ 17.11017109  13.36862822   4.12115994   0.7313948    0.41002313
 -25.89363421 -12.15142478  -0.23290809   6.96793799   1.05428551]","[0.00000000e+00 0.00000000e+00 1.55431223e-15 8.43857496e-06
 3.84892118e-12 9.65284223e-01 9.94535499e-01 7.62366162e-02
 0.00000000e+00 2.59769983e-12]",['Ti0' 'Te0' 'Aw' 'Ce' 'Ci' 'e11' 'p11' 'p22' 'Rea' 'Rie'],3489.8782776663,7.465340893151009
chicago_control_concrete_inf_schedTrue_job164,70.16463591932809,49.7579019480231,1411.549964285015,194.67845113563286,2559731.6593829836,89.97395697914656,90.96998244021131,128.036992862191,"(0.365184359154579, 0.6323650926799089)","[ 17.19218509  13.57286641   3.71895592   0.63236509   0.36518436
 -31.66561293 -10.51986389  -0.03661356   6.80152279   1.00871999]","[0.00000000e+00 0.00000000e+00 1.63424829e-13 8.95621115e-05
 2.05118142e-08 8.90825851e-01 9.33627163e-01 8.14144724e-01
 0.00000000e+00 1.07509779e-10]",['Ti0' 'Te0' 'Aw' 'Ce' 'Ci' 'e11' 'p11' 'p22' 'Rea' 'Rie'],2971.09246982258,7.132340144844989
chicago_control_concrete_inf_schedTrue_job186,76.34432480858142,52.86366655291716,1411.855501315574,195.70444979516424,2575547.755628296,89.97395697914656,90.91939327772536,132.360593169454,"(0.312795001018022, 0.6754897268766071)","[ 17.16158972  13.98098025   3.70905258   0.67548973   0.312795
 -30.38083335 -10.30689979  -0.1195649    6.67142981   0.88368895]","[0.00000000e+00 0.00000000e+00 1.97042382e-12 1.12038798e-04
 4.56192171e-07 7.30912829e-01 8.26562747e-01 3.84898227e-01
 0.00000000e+00 1.72299730e-10]",['Ti0' 'Te0' 'Aw' 'Ce' 'Ci' 'e11' 'p11' 'p22' 'Rea' 'Rie'],2674.839742381,7.9355763199259854
chicago_control_concrete_inf_schedTrue_job120,75.98899554851587,52.64455115450416,1412.3681103956742,195.02730080769828,2546918.595159868,89.97395697914656,90.95152824268924,133.59539560305902,"(0.44467083600960405, 0.565755202813428)","[ 1.70952731e+01  1.34735823e+01  3.68567697e+00  5.65755203e-01
  4.44670836e-01 -3.21669236e+01 -1.05212712e+01 -2.20728006e-02
  6.60831493e+00  8.76972979e-01]","[0.00000000e+00 0.00000000e+00 7.32747196e-15 9.43315077e-04
 2.37018557e-06 8.26749026e-01 8.95093034e-01 9.20104277e-01
 0.00000000e+00 2.22102114e-10]",['Ti0' 'Te0' 'Aw' 'Ce' 'Ci' 'e11' 'p11' 'p22' 'Rea' 'Rie'],3055.19703664302,7.1110369302619745
chicago_control_concrete_inf_schedTrue_job52,64.3676556120379,46.75795772214862,1411.2584094947886,194.46197800745853,2578457.4034618153,89.97395697914656,90.93586714103391,124.86163630933001,"(0.402870780777596, 0.536682559129431)","[ 17.71283899  12.96565394   3.42386067   0.53668256   0.40287078
 -25.39288602 -11.92682775   0.04569675   7.08875267   0.92011242]","[0.00000000e+00 0.00000000e+00 7.43849426e-14 1.36693055e-03
 8.71655961e-06 9.14164198e-01 9.17852831e-01 8.37366091e-01
 0.00000000e+00 9.02114605e-10]",['Ti0' 'Te0' 'Aw' 'Ce' 'Ci' 'e11' 'p11' 'p22' 'Rea' 'Rie'],2857.8140469164196,6.9323257886099725
chicago_control_concrete_inf_schedTrue_job127,80.3962420077315,54.73988324771275,1412.8195434785653,195.23551198934197,2600549.361200413,89.97395697914656,90.91962061940875,133.013162630596,"(0.42294834125881997, 0.49992855193160995)","[ 17.05189404  12.57196094   3.19570354   0.49992855   0.42294834
 -31.41327459 -10.54989718   0.15408597   6.39439238   1.12366057]","[0.00000000e+00 0.00000000e+00 5.20650190e-12 9.23048983e-03
 2.71417994e-05 7.02406414e-01 8.16906404e-01 6.00406467e-01
 0.00000000e+00 1.56845479e-08]",['Ti0' 'Te0' 'Aw' 'Ce' 'Ci' 'e11' 'p11' 'p22' 'Rea' 'Rie'],3067.1485344249604,6.9046709149469905
chicago_control_concrete_inf_schedTrue_job63,56.05769249380419,42.14961042857246,1410.6432724586655,193.14899387340122,2607406.1740453993,89.97395697914656,90.97765433683996,122.29573283044701,"(0.437587300191389, 0.5557918463323871)","[ 1.71569260e+01  1.38100092e+01  3.72077260e+00  5.55791846e-01
  4.37587300e-01 -2.87299962e+01 -1.03891177e+01 -2.75561752e-02
  7.27509127e+00  9.01808908e-01]","[0.00000000e+00 0.00000000e+00 4.44089210e-16 1.23654897e-03
 1.34795191e-06 7.72112167e-01 8.38099180e-01 9.04628639e-01
 0.00000000e+00 4.77868856e-11]",['Ti0' 'Te0' 'Aw' 'Ce' 'Ci' 'e11' 'p11' 'p22' 'Rea' 'Rie'],3059.5994249175396,6.834787139751995
chicago_control_concrete_inf_schedTrue_job38,52.42414125859128,40.04128822839589,1410.6282545016488,192.67317272958354,2561266.3961253646,89.97395697914656,91.00225428757373,118.10870619263001,"(0.37168648564922796, 0.754568266364664)","[ 17.45531344  14.44951299   3.85467635   0.75456827   0.37168649
 -25.02473343 -11.73999375  -0.04661536   7.59726698   0.86950937]","[0.00000000e+00 0.00000000e+00 1.87924079e-08 8.85886339e-04
 2.04698552e-06 9.30010749e-01 9.80643704e-01 7.60031982e-01
 0.00000000e+00 8.30077385e-08]",['Ti0' 'Te0' 'Aw' 'Ce' 'Ci' 'e11' 'p11' 'p22' 'Rea' 'Rie'],2766.11709636338,9.690784936583
chicago_control_concrete_inf_schedTrue_job24,63.87858731159141,46.49020164072245,1411.1885096478147,194.30348061022246,2565817.451220548,89.97395697914656,90.94894850916747,130.484495405975,"(0.43235831883688597, 0.9093690417297009)","[ 17.85767405  13.81815405   4.48740337   0.90936904   0.43235832
 -32.11492541 -10.41438063  -0.16720232   6.90781724   0.75592853]","[0.00000000e+00 0.00000000e+00 1.60096580e-09 1.23371127e-04
 7.96951355e-07 9.31577236e-01 9.58246039e-01 1.99026170e-01
 0.00000000e+00 4.24612365e-08]",['Ti0' 'Te0' 'Aw' 'Ce' 'Ci' 'e11' 'p11' 'p22' 'Rea' 'Rie'],2989.76994318211,11.12143919270099
chicago_control_concrete_inf_schedTrue_job162,85.97019731259432,57.3875459022821,1412.752691981981,196.6333358420255,2530036.4083500896,89.97395697914656,90.87204586499303,141.66831374287702,"(0.371616864919279, 0.7608144162890079)","[ 17.32838203  11.75483894   3.86171762   0.76081442   0.37161686
 -25.84533842 -12.1070164   -0.36166558   5.97341809   1.08532337]","[0.00000000e+00 0.00000000e+00 4.44089210e-16 5.38682270e-07
 9.76996262e-14 8.96956753e-01 9.31354342e-01 7.28912320e-04
 0.00000000e+00 1.54809499e-12]",['Ti0' 'Te0' 'Aw' 'Ce' 'Ci' 'e11' 'p11' 'p22' 'Rea' 'Rie'],3608.6227948177793,7.088193193775993
chicago_control_concrete_inf_schedTrue_job192,81.89510775384716,55.60479087804146,1411.6513849425312,197.43609198016185,2490221.62678818,89.97395697914656,90.90175456512905,139.565811678433,"(0.368920549781762, 0.698051704187956)","[ 16.91145258  12.99646871   3.89012196   0.6980517    0.36892055
 -25.64218698 -12.01684357  -0.33195439   6.10604997   1.05902856]","[0.00000000e+00 0.00000000e+00 0.00000000e+00 2.62485588e-07
 5.57331958e-14 9.29835406e-01 9.77578539e-01 5.93746860e-03
 0.00000000e+00 7.77156117e-15]",['Ti0' 'Te0' 'Aw' 'Ce' 'Ci' 'e11' 'p11' 'p22' 'Rea' 'Rie'],3501.1189356068703,6.250615361601007
chicago_control_concrete_inf_schedTrue_job128,74.5701318006283,51.91772278515397,1412.089076214045,194.44358368660798,2592460.822704104,89.97395697914656,90.90588242581305,133.95530993691298,"(0.34523892399128303, 0.606233166846093)","[ 16.89790577  13.2584396    3.53800741   0.60623317   0.34523892
 -27.45109299 -10.41909155  -0.2792543    6.45889471   1.00628155]","[0.00000000e+00 0.00000000e+00 0.00000000e+00 3.32298050e-06
 5.37188072e-10 0.00000000e+00 0.00000000e+00 4.29133438e-02
 0.00000000e+00 2.08721929e-14]",['Ti0' 'Te0' 'Aw' 'Ce' 'Ci' 'e11' 'p11' 'p22' 'Rea' 'Rie'],3274.3149497638396,5.871964021292001
chicago_control_concrete_inf_schedTrue_job125,66.78340282795884,47.98461687265818,1411.6152586404671,193.8802257949293,2607629.9539618734,89.97395697914656,90.94819864440836,131.04916235126998,"(0.389499421543336, 0.741058231646965)","[ 17.09294852  14.14994501   4.08865978   0.74105823   0.38949942
 -32.53753314 -10.4674871   -0.23597152   6.83053828   0.80018581]","[0.00000000e+00 0.00000000e+00 1.76747506e-13 2.11261244e-04
 1.29816704e-05 1.82694882e-02 1.51101741e-01 2.17802188e-01
 0.00000000e+00 4.55324667e-12]",['Ti0' 'Te0' 'Aw' 'Ce' 'Ci' 'e11' 'p11' 'p22' 'Rea' 'Rie'],3045.55479949842,8.60120373813703
chicago_control_concrete_inf_schedTrue_job171,63.6197105960064,46.26073936949091,1411.347381078002,192.69083816014918,2617065.3929778957,89.97395697914656,90.94663493721468,125.762595439473,"(0.36971352658893897, 0.7043707685725871)","[ 17.13190497  13.25983966   3.58337699   0.70437077   0.36971353
 -25.34197235 -11.90743318  -0.17767866   6.85598524   1.0955046 ]","[0.00000000e+00 0.00000000e+00 4.68547423e-11 8.47188439e-05
 2.58613220e-09 8.80261519e-01 9.64626792e-01 1.90157514e-01
 0.00000000e+00 3.93701627e-09]",['Ti0' 'Te0' 'Aw' 'Ce' 'Ci' 'e11' 'p11' 'p22' 'Rea' 'Rie'],3343.88874999845,7.922790107301992
chicago_control_concrete_inf_schedTrue_job62,52.812989413676526,40.26134277814888,1410.490726733754,192.52939218806145,2616393.0765327746,89.97395697914656,90.98983612303536,121.553116007888,"(0.42378869464392, 0.8424619632694541)","[ 17.58394846  14.78233169   4.16603899   0.84246196   0.42378869
 -25.56501296 -12.00147741  -0.14637026   7.45500831   0.77184784]","[0.00000000e+00 0.00000000e+00 1.13891618e-08 7.25022900e-04
 3.89611056e-07 9.65803074e-01 9.57617479e-01 3.18647396e-01
 0.00000000e+00 2.51882839e-08]",['Ti0' 'Te0' 'Aw' 'Ce' 'Ci' 'e11' 'p11' 'p22' 'Rea' 'Rie'],2954.79288622753,10.716100229550008
chicago_control_concrete_inf_schedTrue_job185,59.08468816493759,43.804449961585014,1411.1947078545763,192.48341750562085,2613557.631348228,89.97395697914656,90.97298767913459,120.82759383350901,"(0.395092449864494, 0.655309204139232)","[ 17.76541415  13.18343727   3.74659482   0.6553092    0.39509245
 -31.66979977 -11.52035921   0.05121514   7.41491087   0.86134432]","[0.00000000e+00 0.00000000e+00 3.28848726e-10 1.14162237e-03
 2.18858009e-05 0.00000000e+00 0.00000000e+00 7.91139896e-01
 0.00000000e+00 3.20271314e-08]",['Ti0' 'Te0' 'Aw' 'Ce' 'Ci' 'e11' 'p11' 'p22' 'Rea' 'Rie'],2725.83187628666,8.459005194634983
chicago_control_concrete_inf_schedTrue_job22,76.9239235711425,53.2181617273521,1411.3847168716723,196.76530870505448,2517431.57716193,89.97395697914656,90.99354308289689,131.59651706030598,"(0.398968939667232, 0.821607996402512)","[ 17.18248539  14.28374197   4.16304804   0.821608     0.39896894
 -30.562853   -10.53165218  -0.07268779   6.83502773   0.76395758]","[0.00000000e+00 0.00000000e+00 8.43314307e-11 3.85396864e-04
 4.62235515e-07 9.20288927e-01 9.49340070e-01 6.30736450e-01
 0.00000000e+00 9.59600399e-10]",['Ti0' 'Te0' 'Aw' 'Ce' 'Ci' 'e11' 'p11' 'p22' 'Rea' 'Rie'],2731.66042611882,9.253889238019013
chicago_control_concrete_inf_schedTrue_job68,53.93124714131498,40.91168791569431,1410.5923089578882,192.6097814418483,2610459.208260022,89.97395697914656,90.98110597161008,120.336079262009,"(0.317428868179295, 0.8103996530938171)","[ 17.37017449  14.38859141   4.01300453   0.81039965   0.31742887
 -31.36500005 -10.43756225  -0.19690429   7.39666318   0.9133965 ]","[0.00000000e+00 0.00000000e+00 4.25546265e-11 2.79891555e-05
 1.06769704e-09 3.64061255e-01 5.79071286e-01 8.48830328e-02
 0.00000000e+00 6.07327522e-11]",['Ti0' 'Te0' 'Aw' 'Ce' 'Ci' 'e11' 'p11' 'p22' 'Rea' 'Rie'],2863.92452857348,8.940710588495008
chicago_control_concrete_inf_schedTrue_job137,66.34216975606938,47.72689960231619,1411.7967933111997,193.3914805774113,2635317.654652835,89.97395697914656,90.95836803209929,129.705395718343,"(0.3878756456295471, 0.836963185092609)","[ 17.79414161  12.86919726   4.13548758   0.83696319   0.38787565
 -31.95349124 -10.35461755  -0.07508599   6.80393526   0.90584423]","[0.00000000e+00 0.00000000e+00 9.59867963e-10 2.09489723e-04
 8.74571680e-08 8.87650698e-01 9.30845452e-01 5.80672274e-01
 0.00000000e+00 1.76966350e-08]",['Ti0' 'Te0' 'Aw' 'Ce' 'Ci' 'e11' 'p11' 'p22' 'Rea' 'Rie'],2930.6247282631703,10.107388923943006
chicago_control_concrete_inf_schedTrue_job23,51.88462442755615,39.71682436673586,1410.3102055089569,192.46869260006105,2579057.2109390534,89.97395697914656,90.96969805468433,119.723831889154,"(0.344645999197706, 0.681278281749482)","[ 17.42318669  13.9862027    3.81475217   0.68127828   0.344646
 -25.63590911 -12.0382068   -0.17182165   7.32766086   1.02489506]","[0.00000000e+00 0.00000000e+00 3.15303339e-14 5.33092277e-06
 1.42897674e-08 7.71411375e-01 9.57459261e-01 1.90092104e-01
 0.00000000e+00 2.42348808e-09]",['Ti0' 'Te0' 'Aw' 'Ce' 'Ci' 'e11' 'p11' 'p22' 'Rea' 'Rie'],3119.3732292094896,7.523105054010998
chicago_control_concrete_inf_schedTrue_job71,69.9603172426652,49.68855279562584,1411.7568602684294,195.1903127881161,2545158.4527377905,89.97395697914656,90.92884476693942,132.591698220442,"(0.33977714675379, 0.9042423426993761)","[ 17.29011492  14.31871107   4.25173379   0.90424234   0.33977715
 -25.21707215 -11.83041073  -0.22823906   6.7115784    0.83037192]","[0.00000000e+00 0.00000000e+00 7.31130712e-11 6.71180334e-06
 1.04052664e-08 8.72682252e-01 8.03277852e-01 2.29165286e-02
 0.00000000e+00 1.82556104e-09]",['Ti0' 'Te0' 'Aw' 'Ce' 'Ci' 'e11' 'p11' 'p22' 'Rea' 'Rie'],2870.17347279715,9.691581592396005
chicago_control_concrete_inf_schedTrue_job151,55.30419897456743,41.73003921800167,1410.6410184782885,193.31719492310452,2598285.226179951,89.97395697914656,90.9533777968795,119.42376357048599,"(0.345369016521161, 0.6073904695510219)","[ 1.73144480e+01  1.37593227e+01  3.47786214e+00  6.07390470e-01
  3.45369017e-01 -3.14040337e+01 -1.04566659e+01  1.29975440e-02
  7.32187560e+00  1.05166724e+00]","[0.00000000e+00 0.00000000e+00 5.15629761e-11 6.68183283e-04
 1.77575974e-07 8.97652781e-01 9.36708481e-01 9.38609202e-01
 0.00000000e+00 1.82114790e-09]",['Ti0' 'Te0' 'Aw' 'Ce' 'Ci' 'e11' 'p11' 'p22' 'Rea' 'Rie'],2848.4724058055,7.722376611211018
chicago_control_concrete_inf_schedTrue_job182,60.46838325455828,44.636935944294976,1410.901324937193,193.92485307861102,2536458.4369654404,89.97395697914656,90.90827038931454,125.674096871662,"(0.306137905821241, 0.605806799365021)","[ 16.91607662  13.45370136   3.44690467   0.6058068    0.30613791
 -25.11907975 -11.78445928  -0.25020402   6.90650357   1.05058564]","[0.00000000e+00 0.00000000e+00 2.74560441e-08 1.50254928e-02
 3.95976564e-06 8.67384274e-01 9.80656667e-01 3.54888277e-01
 0.00000000e+00 2.30209015e-07]",['Ti0' 'Te0' 'Aw' 'Ce' 'Ci' 'e11' 'p11' 'p22' 'Rea' 'Rie'],3087.3008628378902,10.850681770696994
chicago_control_concrete_inf_schedTrue_job197,,,,,,,,,,,,,,
chicago_control_concrete_inf_schedTrue_job36,57.439919178531746,42.919324945359655,1410.89763513964,193.0031047517918,2580734.434447834,89.97395697914656,90.955423754632,122.48185641791201,"(0.497232553149662, 0.618041261381975)","[ 17.60746822  14.41269165   3.99209265   0.61804126   0.49723255
 -30.70137006 -10.00945531   0.07839944   7.47113393   0.69334062]","[0.00000000e+00 0.00000000e+00 1.28506373e-07 3.56791302e-02
 7.70466687e-05 9.10105736e-01 9.44272381e-01 8.03618902e-01
 0.00000000e+00 1.63476632e-06]",['Ti0' 'Te0' 'Aw' 'Ce' 'Ci' 'e11' 'p11' 'p22' 'Rea' 'Rie'],2674.1693291388397,10.512387825918978
chicago_control_concrete_inf_schedTrue_job148,,,,,,,,,,,,,,
chicago_control_concrete_inf_schedTrue_job75,74.51733928804998,51.917150599917925,1412.3350434997974,194.7907141531306,2619723.275440233,89.97395697914656,90.91616900929907,130.486000958759,"(0.35590903918642, 0.6488435519889549)","[ 17.80716924  12.19497255   3.57257428   0.64884355   0.35590904
 -25.31575987 -11.89540155  -0.02626766   6.63372711   1.02993024]","[0.00000000e+00 0.00000000e+00 2.03481676e-12 2.20592675e-04
 2.01383334e-07 6.08065241e-01 9.18770880e-01 8.68783184e-01
 0.00000000e+00 6.57992327e-10]",['Ti0' 'Te0' 'Aw' 'Ce' 'Ci' 'e11' 'p11' 'p22' 'Rea' 'Rie'],2957.11211476748,7.706409405923978
chicago_control_concrete_inf_schedTrue_job150,59.65450337062112,44.120770016898675,1411.1736630158493,192.55807386033547,2575657.516397197,89.97395697914656,90.97545372195893,121.833931194447,"(0.548390621943146, 0.481143665484286)","[ 17.80240068  11.05736494   3.69729594   0.48114367   0.54839062
 -25.74840569 -12.10290549   0.38567524   7.08829191   1.11960215]","[0.00000000e+00 3.76253739e-07 2.02859951e-11 2.00043699e-02
 9.13293321e-05 8.48869659e-01 7.51868461e-01 3.01616630e-01
 0.00000000e+00 5.29363069e-05]",['Ti0' 'Te0' 'Aw' 'Ce' 'Ci' 'e11' 'p11' 'p22' 'Rea' 'Rie'],3081.93564634358,8.128911224711985
chicago_control_concrete_inf_schedTrue_job166,67.19922766485652,48.30062505785208,1411.0959553042194,195.54649206144745,2523127.0638319044,89.97395697914656,90.94186143768535,131.294914910503,"(0.346400647594165, 0.76553153702942)","[ 17.20183071  13.56485306   4.02380879   0.76553154   0.34640065
 -29.20662055 -10.8861377   -0.2039943    6.5743722    1.04206901]","[0.00000000e+00 0.00000000e+00 5.37347944e-14 4.63459036e-06
 1.23319577e-10 6.66733232e-01 7.81717284e-01 8.06947604e-02
 0.00000000e+00 1.05013775e-11]",['Ti0' 'Te0' 'Aw' 'Ce' 'Ci' 'e11' 'p11' 'p22' 'Rea' 'Rie'],3194.39744156568,8.328624914455986
chicago_control_concrete_inf_schedTrue_job59,,,,,,,,,,,,,,
chicago_control_concrete_inf_schedTrue_job102,60.341709812851754,44.557794260494155,1410.995985030344,193.7324229272056,2598853.8189760903,89.97395697914656,90.92410339096185,128.45881597655898,"(0.444636301588044, 0.671804591145889)","[ 17.42000848  12.03533913   4.03332056   0.67180459   0.4446363
 -26.02520835 -12.2203389   -0.21794516   6.78204729   1.00254883]","[0.00000000e+00 0.00000000e+00 4.44089210e-16 1.26444951e-05
 9.71445147e-13 8.71781780e-01 6.51278655e-01 1.16222523e-01
 0.00000000e+00 4.11426448e-12]",['Ti0' 'Te0' 'Aw' 'Ce' 'Ci' 'e11' 'p11' 'p22' 'Rea' 'Rie'],3530.85561146391,7.239758919962014
chicago_control_concrete_inf_schedTrue_job165,70.8052299267768,50.07823125489018,1411.7118117585949,194.66061525570962,2562016.686216115,89.97395697914656,90.93517697720121,130.103155244261,"(0.35329776327302204, 0.698779529755952)","[ 17.63607166  13.60458117   3.92452811   0.69877953   0.35329776
 -32.1721456  -10.11907661  -0.2169373    6.8721373    0.81407137]","[0.00000000e+00 0.00000000e+00 4.88498131e-15 4.20246729e-05
 1.23658195e-09 8.73808551e-01 9.21552277e-01 1.10386057e-01
 0.00000000e+00 1.09467990e-13]",['Ti0' 'Te0' 'Aw' 'Ce' 'Ci' 'e11' 'p11' 'p22' 'Rea' 'Rie'],2868.3066762089597,7.291707543194008
chicago_control_concrete_inf_schedTrue_job129,84.85366002643259,56.87580320007758,1412.9146143943658,196.4861613562481,2560318.51970573,89.97395697914656,90.890042092205,138.638273869514,"(0.543657179125298, 0.47644641974071794)","[ 17.01830352  13.04239427   3.74304587   0.47644642   0.54365718
 -25.17237534 -11.80411974   0.23016264   6.33746484   0.87555053]","[0.00000000e+00 0.00000000e+00 3.30750982e-11 5.38161438e-02
 1.22450154e-04 9.17068932e-01 9.65468140e-01 5.92263660e-01
 0.00000000e+00 1.46020651e-04]",['Ti0' 'Te0' 'Aw' 'Ce' 'Ci' 'e11' 'p11' 'p22' 'Rea' 'Rie'],2985.2801971365,8.422256354019993
chicago_control_concrete_inf_schedTrue_job103,76.7421740863022,53.04610095263284,1412.0268582728072,195.59211864795088,2597623.514262208,89.97395697914656,90.875852979537,136.39180529761998,"(0.413057848230691, 0.56448345473265)","[ 16.80657013  12.61752819   3.65155008   0.56448345   0.41305785
 -25.83690993 -12.12230961  -0.20243294   6.23565064   1.09616815]","[0.00000000e+00 0.00000000e+00 0.00000000e+00 3.90323221e-06
 4.82058837e-13 6.19684555e-01 9.12192131e-01 1.96389239e-01
 0.00000000e+00 3.99680289e-15]",['Ti0' 'Te0' 'Aw' 'Ce' 'Ci' 'e11' 'p11' 'p22' 'Rea' 'Rie'],3551.26103893486,5.561069866516021
chicago_control_concrete_inf_schedTrue_job144,54.70651307528831,41.36331566194896,1410.605987337689,192.76226678864623,2573913.5054746238,89.97395697914656,91.00816809001611,120.48227646409401,"(0.47846690521022106, 0.607925778047339)","[ 17.39777069  13.8612612    3.88232552   0.60792578   0.47846691
 -31.82279287 -10.52816524   0.08128642   7.37622586   0.92375011]","[0.00000000e+00 0.00000000e+00 3.39728246e-12 2.93180036e-03
 1.02805041e-05 7.45377385e-01 8.44306765e-01 7.38860863e-01
 0.00000000e+00 2.09653683e-08]",['Ti0' 'Te0' 'Aw' 'Ce' 'Ci' 'e11' 'p11' 'p22' 'Rea' 'Rie'],3064.49972947405,8.206713952518982
chicago_control_concrete_inf_schedTrue_job87,86.52787784579806,57.81747987138327,1411.715279335087,198.7881732123226,2484288.675805437,89.97395697914656,90.89280486389963,141.28924956216102,"(0.296850754048982, 0.7723701304536791)","[ 16.8267987   13.67143941   3.97354323   0.77237013   0.29685075
 -25.22593488 -11.82194752  -0.51794704   6.13916019   0.93851913]","[0.00000000e+00 0.00000000e+00 0.00000000e+00 1.69827041e-10
 1.77635684e-15 8.71466674e-01 9.77659789e-01 2.19347962e-09
 0.00000000e+00 0.00000000e+00]",['Ti0' 'Te0' 'Aw' 'Ce' 'Ci' 'e11' 'p11' 'p22' 'Rea' 'Rie'],3340.07197402644,5.754209607692985
chicago_control_concrete_inf_schedTrue_job149,72.78508527950095,51.00223590694066,1412.3323994308234,193.80384194902493,2611178.0228091674,89.97395697914656,90.94079653174578,133.779322417491,"(0.37777843726570204, 0.7464093972884251)","[ 17.78954426  14.53205644   4.0884879    0.7464094    0.37777844
 -25.24781419 -11.82554675  -0.20954608   6.71409703   0.76089972]","[0.00000000e+00 0.00000000e+00 1.03390674e-09 4.67761871e-04
 6.41453379e-09 4.71329588e-01 7.82257507e-01 1.36230650e-01
 0.00000000e+00 3.17064597e-10]",['Ti0' 'Te0' 'Aw' 'Ce' 'Ci' 'e11' 'p11' 'p22' 'Rea' 'Rie'],2883.63937843526,9.50196724308202
chicago_control_concrete_inf_schedTrue_job136,55.71711493261286,41.981425090000336,1410.5879489516958,193.67355000592354,2579332.4363100305,89.97395697914656,91.00182715798825,122.695338253487,"(0.39133324936694397, 0.9543581884490671)","[ 17.5247333   14.85603676   4.48844516   0.95435819   0.39133325
 -25.10433123 -11.77914363  -0.12416917   7.40280655   0.74746235]","[0.00000000e+00 0.00000000e+00 7.52843929e-08 4.66400451e-04
 4.48693591e-07 2.52211762e-01 7.61638052e-01 3.17722245e-01
 0.00000000e+00 8.78817468e-08]",['Ti0' 'Te0' 'Aw' 'Ce' 'Ci' 'e11' 'p11' 'p22' 'Rea' 'Rie'],2751.2919610405497,11.507537466198016
chicago_control_concrete_inf_schedTrue_job5,54.684530384123015,41.361929904638814,1410.7068412785266,193.00362591647823,2620954.5666534025,89.97395697914656,90.99186382135262,119.212977055835,"(0.346513711676764, 0.7172357758652459)","[ 17.35118752  14.29662204   3.77929208   0.71723578   0.34651371
 -30.92247845 -10.39622414  -0.07709993   7.48230753   0.906041  ]","[0.00000000e+00 0.00000000e+00 3.95332656e-11 2.92526517e-04
 8.30410429e-09 8.76703523e-01 9.23123001e-01 5.99862164e-01
 0.00000000e+00 1.02660103e-10]",['Ti0' 'Te0' 'Aw' 'Ce' 'Ci' 'e11' 'p11' 'p22' 'Rea' 'Rie'],2739.32248272544,8.532957677142008
chicago_control_concrete_inf_schedTrue_job40,71.08245979441979,50.16623176447249,1411.7600472132142,193.9027752668846,2595946.4891254273,89.97395697914656,90.920102141888,130.287734159305,"(0.324883405548912, 0.726296488246822)","[ 17.02308329  13.4715035    3.64900354   0.72629649   0.32488341
 -29.62823271 -10.7333729   -0.2818554    6.65086645   1.02445315]","[0.00000000e+00 0.00000000e+00 2.11164419e-13 2.82205653e-06
 2.40744980e-10 9.26857060e-01 9.58056197e-01 1.06927044e-02
 0.00000000e+00 6.87463420e-11]",['Ti0' 'Te0' 'Aw' 'Ce' 'Ci' 'e11' 'p11' 'p22' 'Rea' 'Rie'],3195.35023679903,7.377463565265998
chicago_control_concrete_inf_schedTrue_job131,60.104146239465585,44.485437773986675,1410.6262370131244,194.83401651066936,2552243.794255691,89.97395697914656,90.97047941265956,124.50153031824,"(0.360316402344557, 0.645329839127582)","[ 17.53021113  14.55208981   3.6191811    0.64532984   0.3603164
 -30.17929318 -10.50208521  -0.10842871   7.14539944   0.88663035]","[0.00000000e+00 0.00000000e+00 1.12798659e-13 1.69830359e-04
 4.16749513e-08 9.05013776e-01 9.42796188e-01 4.91336968e-01
 0.00000000e+00 6.86406487e-12]",['Ti0' 'Te0' 'Aw' 'Ce' 'Ci' 'e11' 'p11' 'p22' 'Rea' 'Rie'],2815.83958810909,7.289005454708999
chicago_control_concrete_inf_schedTrue_job135,62.302873621999495,45.585950702297,1411.2543675439651,193.14827025303802,2571928.1162866945,89.97395697914656,90.9633796819176,370.346909182491,"(2.3457264524941497, 11.8537354926799)","[ 17.41390379  17.45937667  39.42180646  11.85373549   2.34572645
 -11.34939228 -10.43072686  -0.35064288   2.60062861   0.09954244]","[0.00000000e+00 0.00000000e+00 0.00000000e+00 3.55837582e-11
 7.51970464e-09 0.00000000e+00 9.71602978e-01 8.25240105e-07
 0.00000000e+00 2.73581158e-11]",['Ti0' 'Te0' 'Aw' 'Ce' 'Ci' 'e11' 'p11' 'p22' 'Rea' 'Rie'],2678.26147420088,82.893163070448
chicago_control_concrete_inf_schedTrue_job189,59.85487068957632,44.352527831516525,1410.6667243206393,194.9064531721418,2577902.6182665545,89.97395697914656,90.98562436392035,123.62256587147101,"(0.331908051222135, 0.7023622193282171)","[ 17.16771064  14.24593863   3.78914874   0.70236222   0.33190805
 -25.12736646 -11.79544893  -0.16359558   7.22566829   0.86346975]","[0.00000000e+00 0.00000000e+00 4.00257605e-12 6.16243385e-05
 1.10199543e-05 6.01755666e-01 9.57318855e-01 2.29296722e-01
 0.00000000e+00 1.21634609e-07]",['Ti0' 'Te0' 'Aw' 'Ce' 'Ci' 'e11' 'p11' 'p22' 'Rea' 'Rie'],2788.3166516740603,9.686046374002984
chicago_control_concrete_inf_schedTrue_job121,,,,,,,,,,,,,,
chicago_control_concrete_inf_schedTrue_job195,63.956311240238044,46.479852281054875,1411.437945724935,193.40386379851714,2588393.194682978,89.97395697914656,90.97944713629788,140.407750770002,"(0.5541510927454429, 1.3217170569001002)","[ 17.59598057  15.18288301   6.05163493   1.32171706   0.55415109
 -30.04659173  -9.18820252  -0.12156396   6.62866447   0.49344948]","[0.00000000e+00 0.00000000e+00 5.00335677e-02 1.80742711e-01
 3.10532770e-04 9.16212983e-01 9.44668014e-01 5.34340742e-01
 3.17745830e-13 1.26143332e-02]",['Ti0' 'Te0' 'Aw' 'Ce' 'Ci' 'e11' 'p11' 'p22' 'Rea' 'Rie'],2629.02997521067,41.911293835403995
chicago_control_concrete_inf_schedTrue_job51,76.3553912621211,52.767561955018365,1412.6287112824714,194.3074000893265,2616536.031489216,89.97395697914656,90.92695103581235,135.893795305515,"(0.367062469717421, 0.7934376550595359)","[ 17.10849795  14.30647915   4.09640076   0.79343766   0.36706247
 -25.25252287 -11.83530612  -0.28953492   6.61773825   0.74094945]","[0.00000000e+00 0.00000000e+00 7.02993219e-13 1.56029490e-04
 4.32549374e-08 9.26787298e-01 9.85288001e-01 4.68714794e-02
 0.00000000e+00 4.95128383e-11]",['Ti0' 'Te0' 'Aw' 'Ce' 'Ci' 'e11' 'p11' 'p22' 'Rea' 'Rie'],2958.2396632419895,8.508671073950012
chicago_control_concrete_inf_schedTrue_job55,67.1991124600534,48.22896259278917,1411.558772683799,194.36937606537262,2562297.737754357,89.97395697914656,90.88754044981954,133.027505728186,"(0.431676959248058, 0.6279015526487399)","[ 16.90538662  12.87934451   3.88350456   0.62790155   0.43167696
 -26.00500301 -12.33363868  -0.17979204   6.46117665   1.0560657 ]","[0.00000000e+00 0.00000000e+00 2.22044605e-16 1.83159520e-05
 3.50142138e-12 4.79723462e-01 5.33787042e-01 2.25955599e-01
 0.00000000e+00 3.70459219e-12]",['Ti0' 'Te0' 'Aw' 'Ce' 'Ci' 'e11' 'p11' 'p22' 'Rea' 'Rie'],3506.06610603797,6.782104929618015
chicago_control_concrete_inf_schedTrue_job98,60.30212438470948,44.49271675408754,1411.3045207809064,192.9064197055322,2533915.8517902503,89.97395697914656,90.9833163526709,124.498256631631,"(0.465541857213863, 0.7124255219183651)","[ 17.34351614  14.08272211   4.0327087    0.71242552   0.46554186
 -32.20372519 -10.23172139   0.0421661    7.21275241   0.81948858]","[0.00000000e+00 0.00000000e+00 3.10058925e-08 3.14199391e-03
 1.30216669e-06 7.36162610e-01 8.36536824e-01 8.25568321e-01
 0.00000000e+00 1.22315553e-07]",['Ti0' 'Te0' 'Aw' 'Ce' 'Ci' 'e11' 'p11' 'p22' 'Rea' 'Rie'],2889.65984795276,10.373376941484992
chicago_control_concrete_inf_schedTrue_job112,70.79844134990525,50.05133899467919,1412.0415075732144,194.29977878468716,2623603.221828503,89.97395697914656,90.91929616431439,131.335229463352,"(0.364492632421423, 0.7770678602201658)","[ 17.00429045  13.85387495   3.94229193   0.77706786   0.36449263
 -31.6547381  -10.49453451  -0.19783449   6.75428997   0.8598133 ]","[0.00000000e+00 0.00000000e+00 6.99951208e-12 1.76271862e-05
 1.86589493e-08 8.71285392e-01 9.20344858e-01 1.04280360e-01
 0.00000000e+00 2.41737075e-10]",['Ti0' 'Te0' 'Aw' 'Ce' 'Ci' 'e11' 'p11' 'p22' 'Rea' 'Rie'],2982.68214224519,8.337156962750015
chicago_control_concrete_inf_schedTrue_job99,,,,,,,,,,,,,,
chicago_control_concrete_inf_schedTrue_job39,62.03624491481796,45.46934127358763,1411.0989519648278,193.627156326608,2592733.3774850494,89.97395697914656,90.90254828560218,131.41133826793398,"(0.434501611062184, 0.8018587471127209)","[ 17.33452926  13.93548195   4.35967433   0.80185875   0.43450161
 -24.53850068 -11.53063159  -0.28459687   6.62496898   0.98472447]","[0.00000000e+00 0.00000000e+00 6.74793554e-13 9.72649094e-06
 2.00697237e-11 4.75291788e-01 9.51034183e-01 2.34051723e-02
 0.00000000e+00 2.02801331e-10]",['Ti0' 'Te0' 'Aw' 'Ce' 'Ci' 'e11' 'p11' 'p22' 'Rea' 'Rie'],3555.0044809314795,8.966125287084026
chicago_control_concrete_inf_schedTrue_job147,77.64570996284931,53.52744909472576,1411.8951766615005,196.2814797359881,2569620.8058046694,89.97395697914656,90.89990020768295,134.632807830856,"(0.44289321450814, 0.564056985619811)","[ 1.68037787e+01  1.27385436e+01  3.65362823e+00  5.64056986e-01
  4.42893215e-01 -2.74080521e+01 -1.07923457e+01  1.96867042e-02
  6.40416097e+00  1.02344911e+00]","[0.00000000e+00 0.00000000e+00 3.66040531e-12 7.19508822e-03
 2.66541221e-06 4.50957654e-01 6.49714044e-01 9.42212232e-01
 0.00000000e+00 4.45561201e-08]",['Ti0' 'Te0' 'Aw' 'Ce' 'Ci' 'e11' 'p11' 'p22' 'Rea' 'Rie'],3206.3262716232002,7.726839313484987
chicago_control_concrete_inf_schedTrue_job56,61.33328516179152,45.18565490703539,1410.5617086246343,195.4033544496787,2568161.6501213117,89.97395697914656,90.96774041433936,127.600069061023,"(0.375776504470805, 0.7323267112442992)","[ 17.24105174  14.1197302    4.17540913   0.73232671   0.3757765
 -30.84935142 -10.41431708  -0.0414436    6.96282391   0.87416245]","[0.00000000e+00 0.00000000e+00 4.78249884e-10 4.19395318e-04
 1.72861516e-08 8.70097000e-01 9.18448508e-01 7.80218864e-01
 0.00000000e+00 1.12290865e-09]",['Ti0' 'Te0' 'Aw' 'Ce' 'Ci' 'e11' 'p11' 'p22' 'Rea' 'Rie'],2774.2455562989003,9.829143934433986
chicago_control_concrete_inf_schedTrue_job109,81.07514452879398,55.18756849572537,1411.8396036598263,196.94767968639619,2529452.832002448,89.97395697914656,90.98995835592414,133.284190093916,"(0.360407479623873, 0.7728531958259078)","[ 17.1282514   13.81756696   3.86843219   0.7728532    0.36040748
 -25.44358936 -11.93929947  -0.17020337   6.60516035   0.89760497]","[0.00000000e+00 0.00000000e+00 2.31814568e-13 1.50441996e-05
 7.34910517e-08 8.99415228e-01 9.76646213e-01 1.73813247e-01
 0.00000000e+00 2.96375147e-10]",['Ti0' 'Te0' 'Aw' 'Ce' 'Ci' 'e11' 'p11' 'p22' 'Rea' 'Rie'],2995.48090449646,7.784731650576987
chicago_control_concrete_inf_schedTrue_job46,74.33968544962619,51.89282328119784,1411.9776559451418,195.67573589478408,2580231.1152603207,89.97395697914656,90.92396697841166,135.439543018005,"(0.348673701232521, 0.8405170996991949)","[ 17.77047399  13.46989917   4.34478683   0.8405171    0.3486737
 -31.84476443 -10.37285786  -0.33078293   6.58312802   0.80024006]","[0.00000000e+00 0.00000000e+00 5.42232925e-13 1.77800489e-06
 5.59240343e-09 8.81882932e-01 9.27034199e-01 9.04964435e-04
 0.00000000e+00 1.95696570e-10]",['Ti0' 'Te0' 'Aw' 'Ce' 'Ci' 'e11' 'p11' 'p22' 'Rea' 'Rie'],3046.2060959189303,8.685203700688021
chicago_control_concrete_inf_schedTrue_job45,58.46312302687596,43.465773775689826,1410.893826261402,192.565527434324,2610065.2230192698,89.97395697914656,90.93749605179657,122.777518874075,"(0.377148193153378, 0.5819669205101551)","[ 17.26951871  13.52793774   3.5194363    0.58196692   0.37714819
 -27.18989594 -10.87759428  -0.12611736   7.07869737   1.06611618]","[0.00000000e+00 0.00000000e+00 2.22044605e-16 4.92641897e-05
 1.57806390e-09 8.63588361e-01 9.19871878e-01 4.24705591e-01
 0.00000000e+00 1.12465592e-12]",['Ti0' 'Te0' 'Aw' 'Ce' 'Ci' 'e11' 'p11' 'p22' 'Rea' 'Rie'],3211.7485669234698,6.2383804407570125
chicago_control_concrete_inf_schedTrue_job81,70.33159825773478,49.823442321963036,1412.0222736408966,194.3895681715498,2565340.4683280373,89.97395697914656,90.94484366173195,129.06704769258002,"(0.311775384202756, 0.5943919752152099)","[ 16.96066034  13.90967724   3.40568938   0.59439198   0.31177538
 -31.14670906 -10.3090595   -0.20814315   6.87181177   0.87609924]","[0.00000000e+00 0.00000000e+00 0.00000000e+00 3.51924835e-07
 3.14345219e-08 7.78817292e-01 8.59610458e-01 8.95288784e-02
 0.00000000e+00 1.20126131e-13]",['Ti0' 'Te0' 'Aw' 'Ce' 'Ci' 'e11' 'p11' 'p22' 'Rea' 'Rie'],2779.00354800185,5.815721667148978
chicago_control_concrete_inf_schedTrue_job12,57.89988146623585,43.18340162805697,1410.7346302661026,193.16196885592618,2558708.2447662572,89.97395697914656,90.98380899047442,126.129297693957,"(0.304925462721328, 0.8829508680258359)","[ 17.24309703  14.55214922   4.30445216   0.88295087   0.30492546
 -31.78942768 -10.33640222  -0.36308994   7.10880154   0.81957052]","[0.00000000e+00 0.00000000e+00 8.09130540e-13 2.93634059e-06
 6.14339690e-11 8.49515241e-01 8.99762032e-01 5.40210382e-05
 0.00000000e+00 6.08291195e-12]",['Ti0' 'Te0' 'Aw' 'Ce' 'Ci' 'e11' 'p11' 'p22' 'Rea' 'Rie'],2921.60075703583,8.704795707854998
chicago_control_concrete_inf_schedTrue_job41,,,,,,,,,,,,,,
chicago_control_concrete_inf_schedTrue_job172,70.6207974306717,50.01411143836446,1411.6231123373827,195.09081304140526,2546395.609341374,89.97395697914656,90.93036461257364,133.199925970547,"(0.42544445515144497, 0.7207138448287679)","[ 17.12880448  14.22092825   4.04091673   0.72071384   0.42544446
 -29.82702407 -10.51369794  -0.06246466   6.69079753   0.81671415]","[0.00000000e+00 0.00000000e+00 1.77031723e-11 3.20418219e-04
 9.53421028e-07 6.65804863e-01 7.83594133e-01 7.07261472e-01
 0.00000000e+00 1.90098848e-09]",['Ti0' 'Te0' 'Aw' 'Ce' 'Ci' 'e11' 'p11' 'p22' 'Rea' 'Rie'],2933.17573812107,9.244037199065986
chicago_control_concrete_inf_schedTrue_job85,54.74672589544546,41.37589247711539,1410.661803338558,192.53564986581486,2593252.0031897286,89.97395697914656,90.99665593952456,118.73119933685498,"(0.342762320847411, 0.671376675073802)","[ 17.46567335  14.07792835   3.63510219   0.67137668   0.34276232
 -25.43305251 -11.94528525   0.04599305   7.43143078   0.99095529]","[0.00000000e+00 0.00000000e+00 6.02605965e-10 4.03836854e-04
 3.34542831e-06 7.85161420e-01 9.79446053e-01 7.71955303e-01
 0.00000000e+00 3.86496029e-08]",['Ti0' 'Te0' 'Aw' 'Ce' 'Ci' 'e11' 'p11' 'p22' 'Rea' 'Rie'],2720.30381278921,8.725818503148005
chicago_control_concrete_inf_schedTrue_job117,,,,,,,,,,,,,,
chicago_control_concrete_inf_schedTrue_job113,,,,,,,,,,,,,,
chicago_control_concrete_inf_schedTrue_job94,55.35499832236077,41.768792284289695,1410.5885890880234,193.5291751326191,2617287.7706010104,89.97395697914656,90.98552558663292,119.990418081672,"(0.384293353607981, 0.688213560692496)","[ 17.37962737  13.95179319   3.67175553   0.68821356   0.38429335
 -30.68048371 -10.45392534   0.05089566   7.39031935   0.94367944]","[0.00000000e+00 0.00000000e+00 2.85692181e-09 7.74964604e-04
 4.54654058e-06 7.59387606e-01 8.47651053e-01 7.65077268e-01
 0.00000000e+00 4.54832885e-08]",['Ti0' 'Te0' 'Aw' 'Ce' 'Ci' 'e11' 'p11' 'p22' 'Rea' 'Rie'],2797.6021472617,9.219064794828995
chicago_control_concrete_inf_schedTrue_job73,91.09389551103632,59.81359935269215,1412.4170946531603,198.69197823333204,2498062.503058318,89.97395697914656,90.91766891736559,142.00426259731,"(0.32132734267409696, 0.830227150716021)","[ 17.03608981  14.09532305   3.97886722   0.83022715   0.32132734
 -25.47289359 -11.9274141   -0.40395924   6.23646738   0.80557475]","[0.00000000e+00 0.00000000e+00 7.10542736e-15 1.00655515e-06
 1.33795197e-11 8.96549035e-01 9.74218206e-01 3.75519362e-05
 0.00000000e+00 2.18713936e-13]",['Ti0' 'Te0' 'Aw' 'Ce' 'Ci' 'e11' 'p11' 'p22' 'Rea' 'Rie'],3019.08780844349,7.531795152198981
chicago_control_concrete_inf_schedTrue_job104,59.471630372908926,44.06888499199124,1411.0151127769586,193.48730784345864,2559436.3877416584,89.97395697914656,90.96918853658462,128.009389861247,"(0.43923153296388595, 0.89688716938724)","[ 17.79017099  14.50647909   4.50292753   0.89688717   0.43923153
 -28.19832561 -10.16235741  -0.21079811   7.22505216   0.58687477]","[0.00000000e+00 0.00000000e+00 7.62245672e-07 4.47289100e-03
 3.31331143e-08 8.26372668e-01 8.93681841e-01 1.78211255e-01
 0.00000000e+00 6.61642297e-09]",['Ti0' 'Te0' 'Aw' 'Ce' 'Ci' 'e11' 'p11' 'p22' 'Rea' 'Rie'],2693.8577585228,12.977541720446993
chicago_control_concrete_inf_schedTrue_job126,55.45517708568315,41.81532319599265,1410.5447607622314,193.30578956882226,2609219.3522845698,89.97395697914656,90.95977318786377,124.31795418168699,"(0.367650406631145, 0.8514856379797422)","[ 17.78607779  13.56301447   4.25543236   0.85148564   0.36765041
 -31.6012881  -10.43941016  -0.15897409   7.17628417   0.86760624]","[0.00000000e+00 0.00000000e+00 9.69954561e-10 1.51413995e-04
 3.57149199e-10 8.88775129e-01 9.32179304e-01 1.79577530e-01
 0.00000000e+00 1.39536138e-09]",['Ti0' 'Te0' 'Aw' 'Ce' 'Ci' 'e11' 'p11' 'p22' 'Rea' 'Rie'],2893.842946113,9.891448084863015
chicago_control_concrete_inf_schedTrue_job10,57.1984096813301,42.77174860641443,1410.8803381568362,192.74739016915436,2636687.6756487205,89.97395697914656,90.97118100344463,122.215600789076,"(0.40126367156852505, 0.597543808636478)","[ 17.55933361  13.79396986   3.54288502   0.59754381   0.40126367
 -25.76878635 -12.08428891  -0.14636648   7.13630044   1.04596101]","[0.00000000e+00 0.00000000e+00 0.00000000e+00 1.86525644e-05
 5.86548143e-10 8.63529444e-01 9.36714478e-01 3.42031106e-01
 0.00000000e+00 2.11541895e-12]",['Ti0' 'Te0' 'Aw' 'Ce' 'Ci' 'e11' 'p11' 'p22' 'Rea' 'Rie'],3315.6657749746196,6.520320462033993
chicago_control_concrete_inf_schedTrue_job173,62.8120742122354,45.863267987955886,1411.1688412705726,193.24407591364246,2575950.3685615063,89.97395697914656,90.91592218571802,126.44769774552799,"(0.359661863995308, 0.571533832904482)","[ 16.91762302  12.67075341   3.5908902    0.57153383   0.35966186
 -25.72457702 -12.10280346  -0.20321037   6.68643704   1.22197108]","[0.00000000e+00 0.00000000e+00 0.00000000e+00 8.77329861e-07
 1.00541797e-12 7.66051334e-01 9.42666764e-01 1.38685129e-01
 0.00000000e+00 3.33066907e-15]",['Ti0' 'Te0' 'Aw' 'Ce' 'Ci' 'e11' 'p11' 'p22' 'Rea' 'Rie'],3475.5015440329,5.653499727550013
chicago_control_concrete_inf_schedTrue_job155,73.00063527527956,51.37908556463725,1411.1379743196842,197.78428029566186,2543727.714501265,89.97395697914656,90.95246506211376,138.281710126848,"(0.391945948496646, 1.0825647744068)","[ 17.10139755  14.64030525   5.18753135   1.08256477   0.39194595
 -31.0741736  -10.52561087  -0.28451703   6.52733026   0.70428409]","[0.00000000e+00 0.00000000e+00 1.42668233e-09 1.20005376e-05
 1.45636769e-09 9.00017391e-01 9.37746765e-01 2.63035200e-03
 0.00000000e+00 5.16070964e-10]",['Ti0' 'Te0' 'Aw' 'Ce' 'Ci' 'e11' 'p11' 'p22' 'Rea' 'Rie'],2928.11655055922,12.145042930388996
chicago_control_concrete_inf_schedTrue_job27,,,,,,,,,,,,,,
chicago_control_concrete_inf_schedTrue_job152,68.56455826586281,48.94805356265307,1411.6390997020112,194.68014741363567,2554720.6315504597,89.97395697914656,90.90594385384523,132.512600652528,"(0.37979259593674897, 0.73630734324147)","[ 17.01114141  13.42281156   3.93520717   0.73630734   0.3797926
 -25.81086099 -12.1150141   -0.30752367   6.5610523    0.98539985]","[0.00000000e+00 0.00000000e+00 4.44089210e-16 1.83396335e-06
 1.55983892e-10 5.35928826e-01 8.14820814e-01 1.31869082e-02
 0.00000000e+00 2.91167090e-12]",['Ti0' 'Te0' 'Aw' 'Ce' 'Ci' 'e11' 'p11' 'p22' 'Rea' 'Rie'],3401.035238085,7.176874408483997
chicago_control_concrete_inf_schedTrue_job79,,,,,,,,,,,,,,
chicago_control_concrete_inf_schedTrue_job124,59.497394052272575,44.09320581040148,1410.8752667079737,193.68613018278225,2577478.598222495,89.97395697914656,90.92144820650903,127.284552705292,"(0.419673927878526, 0.669070283660287)","[ 17.14038037  13.56871617   3.94282758   0.66907028   0.41967393
 -25.89560783 -12.15222493  -0.17914208   6.88743759   0.96897529]","[0.00000000e+00 0.00000000e+00 1.03694830e-13 2.31263610e-04
 3.05001380e-09 9.22375348e-01 9.76328084e-01 3.17356740e-01
 0.00000000e+00 8.86621887e-11]",['Ti0' 'Te0' 'Aw' 'Ce' 'Ci' 'e11' 'p11' 'p22' 'Rea' 'Rie'],3330.43049403692,7.748391155796
chicago_control_concrete_inf_schedTrue_job108,71.76371493676737,50.570650922959025,1411.975648431745,194.87596187269918,2575006.910193786,89.97395697914656,90.92172871971529,131.888020492222,"(0.36277846868830504, 0.822079847127422)","[ 17.7929067   12.89231942   4.01900789   0.82207985   0.36277847
 -32.01802882 -10.46558321  -0.18481366   6.68417958   0.89801019]","[0.00000000e+00 0.00000000e+00 2.77527556e-10 3.27769815e-05
 3.19119258e-07 8.76672123e-01 9.23937883e-01 1.18593532e-01
 0.00000000e+00 7.88216203e-09]",['Ti0' 'Te0' 'Aw' 'Ce' 'Ci' 'e11' 'p11' 'p22' 'Rea' 'Rie'],3030.16263223044,8.641152890217995
chicago_control_concrete_inf_schedTrue_job157,81.52892538971383,55.230107741569455,1412.8159575016946,194.8301916624396,2600894.827104799,89.97395697914656,90.90573757347916,133.353040116278,"(0.448338691362052, 0.379505358983938)","[ 16.70538181  11.91803419   3.03387161   0.37950536   0.44833869
 -32.56804992 -11.78114651   0.22266403   6.31936494   1.17952672]","[0.00000000e+00 4.44089210e-16 0.00000000e+00 2.35200295e-02
 1.05026472e-04 0.00000000e+00 0.00000000e+00 5.88441236e-01
 0.00000000e+00 1.75304775e-05]",['Ti0' 'Te0' 'Aw' 'Ce' 'Ci' 'e11' 'p11' 'p22' 'Rea' 'Rie'],3126.6197325630897,5.331872361742995
chicago_control_concrete_inf_schedTrue_job83,74.1974098241822,51.70309620528807,1412.0591441963336,193.9692475795731,2564781.4202515106,89.97395697914656,90.8951524118687,130.476632999842,"(0.37929612547012204, 0.5461335043437)","[ 16.91909021  12.76575928   3.29519853   0.5461335    0.37929613
 -26.05933442 -12.23972027  -0.19838707   6.541321     1.12288659]","[0.00000000e+00 0.00000000e+00 0.00000000e+00 5.92182032e-04
 2.64332978e-09 9.65835699e-01 9.78632944e-01 2.69397021e-01
 0.00000000e+00 7.88258347e-14]",['Ti0' 'Te0' 'Aw' 'Ce' 'Ci' 'e11' 'p11' 'p22' 'Rea' 'Rie'],3441.20809097625,5.516984261163003
chicago_control_concrete_inf_schedTrue_job160,81.17775731077829,55.275514355276485,1411.7533639462995,197.46421636297475,2529024.6449131635,89.97395697914656,90.92327420886609,137.124324960793,"(0.379189477292043, 0.767729644779761)","[ 16.95929238  13.52823276   3.99511447   0.76772964   0.37918948
 -25.67649733 -12.0436432   -0.27347817   6.37567597   0.91697615]","[0.00000000e+00 0.00000000e+00 1.11022302e-15 1.74695317e-06
 1.03956947e-08 9.85408063e-01 9.86673876e-01 3.24170200e-02
 0.00000000e+00 1.15216725e-11]",['Ti0' 'Te0' 'Aw' 'Ce' 'Ci' 'e11' 'p11' 'p22' 'Rea' 'Rie'],3275.07806996889,7.369719992161009
chicago_control_concrete_inf_schedTrue_job60,77.93613931301012,53.65953188487672,1412.1328235844192,196.19956115215282,2590811.3543123947,89.97395697914656,90.92118837730767,136.67916194392402,"(0.45461214136132394, 0.6676502979832529)","[ 16.9462462   13.76095041   3.92367835   0.6676503    0.45461214
 -25.38079043 -11.88885641  -0.19627712   6.52562439   0.79077985]","[0.00000000e+00 0.00000000e+00 3.99680289e-15 2.37538867e-04
 8.59655934e-07 8.11909628e-01 9.12708681e-01 2.97313512e-01
 0.00000000e+00 1.79620763e-11]",['Ti0' 'Te0' 'Aw' 'Ce' 'Ci' 'e11' 'p11' 'p22' 'Rea' 'Rie'],3216.5512746734803,7.352404305935977
chicago_control_concrete_inf_schedTrue_job64,54.44784614966995,41.19696296166708,1410.6289159989756,192.36203800743712,2606471.775051821,89.97395697914656,90.9336773708676,125.37656120913401,"(0.36977955270345003, 0.8694216660616179)","[ 17.33606641  14.58123763   4.30797363   0.86942167   0.36977955
 -29.81868919 -10.34800252  -0.37369569   7.18590653   0.79006594]","[0.00000000e+00 0.00000000e+00 4.44089210e-15 2.88209997e-07
 9.54623047e-11 8.39535978e-01 9.01340889e-01 2.57659547e-04
 0.00000000e+00 1.85207405e-12]",['Ti0' 'Te0' 'Aw' 'Ce' 'Ci' 'e11' 'p11' 'p22' 'Rea' 'Rie'],3160.9279962763103,7.661243162468978
chicago_control_concrete_inf_schedTrue_job107,64.64994102281776,46.80529620756559,1411.5363705232128,192.72511188792697,2602660.168912279,89.97395697914656,90.94256842834369,123.567494867549,"(0.30113737743478003, 0.618548299479899)","[ 17.11479114  13.48431641   3.30238655   0.6185483    0.30113738
 -30.72468296 -10.47048571  -0.08782483   6.99885526   1.09388791]","[0.00000000e+00 0.00000000e+00 4.84057239e-14 4.95448968e-05
 3.56028025e-07 8.05672645e-01 8.77839402e-01 5.39475704e-01
 0.00000000e+00 5.20376409e-10]",['Ti0' 'Te0' 'Aw' 'Ce' 'Ci' 'e11' 'p11' 'p22' 'Rea' 'Rie'],2877.5320350634697,6.642470288362986
chicago_control_concrete_inf_schedTrue_job54,54.07996845309845,40.97614374379493,1410.5553164336889,192.14628296314254,2565515.0151732382,89.97395697914656,90.95094769572381,120.897362826862,"(0.376540134914406, 0.6429488084706501)","[ 17.31755798  13.52327214   3.69951178   0.64294881   0.37654013
 -25.82808158 -12.13435885  -0.12838429   7.17071929   1.10075973]","[0.00000000e+00 0.00000000e+00 2.22044605e-16 1.67718543e-05
 9.69582414e-10 8.80745737e-01 9.56979181e-01 3.87759964e-01
 0.00000000e+00 4.02944345e-12]",['Ti0' 'Te0' 'Aw' 'Ce' 'Ci' 'e11' 'p11' 'p22' 'Rea' 'Rie'],3277.91462419664,6.731134032552006
chicago_control_concrete_inf_schedTrue_job9,,,,,,,,,,,,,,
chicago_control_concrete_inf_schedTrue_job174,83.56350369010559,56.36179799729363,1412.1421608958206,197.3389469522047,2528475.555764104,89.97395697914656,90.94762267652008,136.220976900212,"(0.36697668116801097, 0.7008159485342379)","[ 16.95407738  13.43416398   3.68951735   0.70081595   0.36697668
 -31.06487459 -10.40634656  -0.09285873   6.40311563   0.93789765]","[0.00000000e+00 0.00000000e+00 7.13518133e-12 7.18268641e-05
 2.96754530e-08 8.13362768e-01 8.83636812e-01 5.10827714e-01
 0.00000000e+00 3.37714301e-09]",['Ti0' 'Te0' 'Aw' 'Ce' 'Ci' 'e11' 'p11' 'p22' 'Rea' 'Rie'],2970.66715453368,8.138136930282997
chicago_control_concrete_inf_schedTrue_job175,65.74826483626407,47.44839872420443,1411.0767563948666,193.89910834215203,2549452.775586227,89.97395697914656,90.96586021251204,124.549716461567,"(0.371703608005198, 0.638280406175177)","[ 1.71443755e+01  1.37954657e+01  3.79875150e+00  6.38280406e-01
  3.71703608e-01 -3.10515363e+01 -1.04439758e+01 -2.74734715e-02
  7.09351569e+00  9.35406641e-01]","[0.00000000e+00 0.00000000e+00 1.72306613e-13 3.55555191e-05
 1.59187901e-08 3.62843366e-01 5.70838072e-01 8.51464208e-01
 0.00000000e+00 8.24695867e-12]",['Ti0' 'Te0' 'Aw' 'Ce' 'Ci' 'e11' 'p11' 'p22' 'Rea' 'Rie'],2881.75857753482,7.51264491727899
chicago_control_concrete_inf_schedTrue_job110,,,,,,,,,,,,,,
chicago_control_concrete_inf_schedTrue_job114,75.07428148770953,52.17875173459614,1412.1428428581414,194.6811238776766,2602228.312301653,89.97395697914656,90.94508735552176,133.868647793083,"(0.530270997616913, 0.6237549232868531)","[ 16.94813782  13.50719139   3.97203041   0.62375492   0.530271
 -31.76599052 -10.45263745   0.07996032   6.67484085   0.79516812]","[0.00000000e+00 0.00000000e+00 2.77795564e-11 4.18208331e-03
 2.30993032e-05 7.62885147e-01 8.52051719e-01 7.50731207e-01
 0.00000000e+00 8.90335908e-07]",['Ti0' 'Te0' 'Aw' 'Ce' 'Ci' 'e11' 'p11' 'p22' 'Rea' 'Rie'],3016.64974258456,9.03403598805599
chicago_control_concrete_inf_schedTrue_job133,66.57087065486567,47.93466193519303,1411.2173741113538,194.8733746289208,2636043.2602171977,89.97395697914656,90.93647459948508,126.201080631878,"(0.372155551035567, 0.60112307910189)","[ 17.21711785  13.95395103   3.46285411   0.60112308   0.37215555
 -32.3746392  -10.22414165  -0.09079248   7.02177571   0.90208671]","[0.00000000e+00 0.00000000e+00 6.21724894e-15 6.92019233e-05
 1.44301304e-09 8.28453426e-01 8.93923421e-01 5.67398287e-01
 0.00000000e+00 7.26974037e-13]",['Ti0' 'Te0' 'Aw' 'Ce' 'Ci' 'e11' 'p11' 'p22' 'Rea' 'Rie'],2888.14174788328,6.297243273584002
chicago_control_concrete_inf_schedTrue_job122,69.69300258228442,49.427677285925846,1412.0616701172626,193.24595034998603,2591922.7152037816,89.97395697914656,90.95911423290782,125.852313172494,"(0.428407064586493, 0.595005187910886)","[ 17.22697713  13.60252251   3.48431168   0.59500519   0.42840706
 -33.00522197 -10.29725395   0.05879368   7.00752425   0.93829712]","[0.00000000e+00 0.00000000e+00 3.88476584e-10 3.25068445e-03
 1.15209604e-05 8.99070101e-01 9.38527448e-01 7.96419073e-01
 0.00000000e+00 8.07423801e-08]",['Ti0' 'Te0' 'Aw' 'Ce' 'Ci' 'e11' 'p11' 'p22' 'Rea' 'Rie'],2965.79314688888,8.267872111181006
chicago_control_concrete_inf_schedTrue_job140,69.28725025282807,49.25464924794033,1411.4747707467718,193.7420029175629,2546539.5337939477,89.97395697914656,90.89846810023303,131.47686543727198,"(0.288533777709392, 0.7528703525290971)","[ 17.03969054  13.55786693   3.75965177   0.75287035   0.28853378
 -24.77191596 -11.66806909  -0.41690264   6.5588393    1.04706153]","[0.00000000e+00 0.00000000e+00 0.00000000e+00 2.87247912e-08
 4.61630734e-13 3.70637186e-01 9.01102889e-01 1.78102642e-05
 0.00000000e+00 4.88498131e-15]",['Ti0' 'Te0' 'Aw' 'Ce' 'Ci' 'e11' 'p11' 'p22' 'Rea' 'Rie'],3264.14398227937,6.457902712664037
chicago_control_concrete_inf_schedTrue_job16,75.39692680711396,52.42742021686639,1411.985029145089,195.97754361135426,2567814.668896182,89.97395697914656,90.92566778403132,132.509573946116,"(0.464134989262834, 0.5270717545612861)","[ 16.9087846   12.7838368    3.64826222   0.52707175   0.46413499
 -30.18313711 -10.47419211   0.15124891   6.53348399   1.01314053]","[0.00000000e+00 0.00000000e+00 3.95239397e-14 4.22735683e-03
 1.66156550e-06 8.55053355e-01 9.10737439e-01 5.71687198e-01
 0.00000000e+00 4.52952988e-08]",['Ti0' 'Te0' 'Aw' 'Ce' 'Ci' 'e11' 'p11' 'p22' 'Rea' 'Rie'],3052.68591536895,6.7728348937640135
chicago_control_concrete_inf_schedTrue_job159,91.12425819989934,59.88358778775068,1412.323764126379,199.3228176351997,2494065.2692891397,89.97395697914656,90.8821261109393,142.149503981429,"(0.357791418334594, 0.65352466674572)","[ 16.85880592  12.68777916   3.65946994   0.65352467   0.35779142
 -25.63459437 -12.01689618  -0.25078859   5.92431333   1.11053359]","[0.00000000e+00 0.00000000e+00 0.00000000e+00 9.43791741e-06
 1.40733469e-09 9.86282694e-01 9.41085730e-01 1.57804244e-01
 0.00000000e+00 4.26498170e-10]",['Ti0' 'Te0' 'Aw' 'Ce' 'Ci' 'e11' 'p11' 'p22' 'Rea' 'Rie'],3445.00113369439,7.032295003347997
chicago_control_concrete_inf_schedTrue_job4,71.267940571131,50.17373050194045,1411.9789672715926,192.64229844286956,2657266.4117457354,89.97395697914656,90.89601697136095,132.223066347024,"(0.40598716347116404, 0.648318756841685)","[ 17.24903779  13.0228187    3.66189141   0.64831876   0.40598716
 -26.33332912 -12.38053813  -0.26381383   6.38359569   1.17938124]","[0.00000000e+00 0.00000000e+00 0.00000000e+00 6.24894769e-07
 1.46882506e-12 1.46972424e-01 7.64417881e-01 4.22181417e-02
 0.00000000e+00 4.37427872e-14]",['Ti0' 'Te0' 'Aw' 'Ce' 'Ci' 'e11' 'p11' 'p22' 'Rea' 'Rie'],3710.80610695039,6.150882443606008
chicago_control_concrete_inf_schedTrue_job43,57.56126694737847,42.96774181944519,1410.9624604148166,192.6135094927761,2638598.8950033826,89.97395697914656,90.98520240192049,120.12917255772601,"(0.5615781530380339, 0.452303958984442)","[ 17.50414071  13.76041751   3.5767282    0.45230396   0.56157815
 -25.08649201 -11.76307875   0.30942788   7.43584158   0.88853109]","[0.00000000e+00 0.00000000e+00 6.80087098e-11 5.57078662e-02
 3.24550314e-05 7.68114882e-01 9.77044663e-01 4.74270807e-01
 0.00000000e+00 3.45103515e-04]",['Ti0' 'Te0' 'Aw' 'Ce' 'Ci' 'e11' 'p11' 'p22' 'Rea' 'Rie'],2887.4719948019897,8.105554863555
chicago_control_concrete_inf_schedTrue_job178,59.51645895556818,44.08089154430057,1410.979660880992,193.24551798276943,2595948.6919521224,89.97395697914656,90.993182052849,123.153728292108,"(0.36870731688801506, 0.7710052496809009)","[ 17.23123249  13.86238925   3.82708545   0.77100525   0.36870732
 -30.97978696 -10.45404639  -0.04200463   7.16042009   0.95951273]","[0.00000000e+00 0.00000000e+00 5.68885596e-08 7.04767844e-04
 4.25413930e-07 8.99907828e-01 9.37724103e-01 7.65836404e-01
 0.00000000e+00 3.05028223e-07]",['Ti0' 'Te0' 'Aw' 'Ce' 'Ci' 'e11' 'p11' 'p22' 'Rea' 'Rie'],2898.76317738649,10.471903355072001
chicago_control_concrete_inf_schedTrue_job47,57.35072404917802,42.88226871948024,1410.7284302524974,193.26522604857274,2557460.2280922164,89.97395697914656,90.96958581284306,126.01260513325701,"(0.346037230305278, 0.8991026401621249)","[ 17.12470161  14.14678857   4.26796148   0.89910264   0.34603723
 -25.31528029 -11.89450507  -0.18663591   7.05858896   0.87712508]","[0.00000000e+00 0.00000000e+00 3.75383946e-10 4.82362786e-05
 6.29561692e-09 8.04680157e-01 9.81745467e-01 8.49107193e-02
 0.00000000e+00 2.19419816e-09]",['Ti0' 'Te0' 'Aw' 'Ce' 'Ci' 'e11' 'p11' 'p22' 'Rea' 'Rie'],2873.1487004045002,10.085186049173984
chicago_control_concrete_inf_schedTrue_job35,69.09016731766658,49.1859949075399,1411.518065428308,194.22401513914718,2581715.888286074,89.97395697914656,90.89176555070416,134.385440022638,"(0.488015018417854, 0.692842854133533)","[ 17.07118825  13.52225525   4.24507756   0.69284285   0.48801502
 -25.78112358 -12.08117322  -0.19023919   6.55263108   0.88865125]","[0.00000000e+00 0.00000000e+00 1.43307588e-12 3.25610484e-04
 6.66701805e-10 9.43627790e-01 9.76175241e-01 2.78315785e-01
 0.00000000e+00 2.76173973e-10]",['Ti0' 'Te0' 'Aw' 'Ce' 'Ci' 'e11' 'p11' 'p22' 'Rea' 'Rie'],3462.9811179111102,8.881654678702006
chicago_control_concrete_inf_schedTrue_job177,85.28807593166297,57.109296946577146,1412.5872220446909,196.9514086069808,2559709.924058708,89.97395697914656,90.91531167312814,142.91118697638,"(0.38266841346202396, 0.8722218852066441)","[ 16.89871026  13.57352002   4.36899499   0.87222189   0.38266841
 -25.61352581 -12.02985587  -0.23675229   6.13052855   0.86682429]","[0.00000000e+00 0.00000000e+00 7.10542736e-13 1.45764990e-05
 2.56867994e-09 6.84926422e-01 8.17263706e-01 4.41632581e-02
 0.00000000e+00 8.93343177e-11]",['Ti0' 'Te0' 'Aw' 'Ce' 'Ci' 'e11' 'p11' 'p22' 'Rea' 'Rie'],3122.8170646108197,9.090777073620984
