fname,hlc_mat,hlc_tot,hlc_se,hlc_si,c_tot,hlc_inf_standard,hlc_inf_current,hlc_tot_pred,c_tot_pred,estimates,probt,names,loglik,err
victoria_control_concrete_schedFalse_job63,,,,,,,,,,,,,,
victoria_control_concrete_schedFalse_job137,66.34216975606938,48.86875346989329,12671.726953120651,188.29949900304024,2635317.654652835,0.0,0.0,7.3455932736688805,"(0.589671397713671, 2.94566299180079)","[ 19.85651531  16.98800992   5.05984523   2.94566299   0.5896714
 -10.03832268  -3.44637155  -0.84525421  93.76999041  41.82476177
   0.54129058]","[0.00000000e+00 0.00000000e+00 2.09191594e-03 2.76719799e-02
 8.97314445e-04 0.00000000e+00 2.22044605e-15 0.00000000e+00
 3.59004541e-01 6.50870210e-02 8.75837086e-04]",['Ti0' 'Te0' 'Aw' 'Ce' 'Ci' 'e11' 'p11' 'p22' 'Rea' 'Ria' 'Rie'],3204.90848843885,8.778339705648817
victoria_control_concrete_schedFalse_job37,87.6304717575767,59.776581149850465,12672.443160501134,190.89461543719784,2506791.4071636293,0.0,0.0,11.239383769705201,"(0.192026113450602, 1.0749804628587)","[ 19.39550107  14.15777064   1.91009589   1.07498046   0.19202611
  -9.41419001 -10.69263798  -0.65704376  47.98497585  39.37007853
   1.61779506]","[0.00000000e+00 0.00000000e+00 0.00000000e+00 7.24241329e-08
 0.00000000e+00 0.00000000e+00 9.81332376e-01 0.00000000e+00
 4.02454234e-01 2.25040183e-01 9.99200722e-15]",['Ti0' 'Te0' 'Aw' 'Ce' 'Ci' 'e11' 'p11' 'p22' 'Rea' 'Ria' 'Rie'],2841.6433770988697,6.306062904996798
victoria_control_concrete_schedFalse_job147,77.64570996284931,55.12771862478121,12671.992238181887,192.9842815859912,2569620.8058046694,0.0,0.0,7.94297157204736,"(3.96671552858056, 28.8634721971247)","[ 1.94665847e+01  1.68168693e+01  3.73223849e+01  2.88634722e+01
  3.96671553e+00 -1.11152181e+01 -3.37894762e+00 -1.00314493e+00
  9.35360894e+01  3.22992598e+01  6.21175689e-02]","[0.00000000e+00 0.00000000e+00 3.74981081e-02 3.88860686e-02
 4.53063373e-02 1.11022302e-15 1.77635684e-15 0.00000000e+00
 3.91016088e-01 5.59432868e-01 4.19760423e-02]",['Ti0' 'Te0' 'Aw' 'Ce' 'Ci' 'e11' 'p11' 'p22' 'Rea' 'Ria' 'Rie'],3273.05338866786,13.535083731693039
victoria_control_concrete_schedFalse_job13,,,,,,,,,,,,,,
victoria_control_concrete_schedFalse_job143,55.51319649577477,42.639671978035786,12670.255138970262,186.57836596142963,2590540.440886881,0.0,0.0,6.70363299912701,"(0.641264125063755, 2.46452660813561)","[ 20.2920281   17.46945989   4.68112475   2.46452661   0.64126413
 -10.00752091  -3.39713228  -0.72073863  98.94531652  49.64863846
   0.57888907]","[0.         0.         0.00141742 0.02606112 0.00038428 0.
 0.         0.         0.         0.         0.0005435 ]",['Ti0' 'Te0' 'Aw' 'Ce' 'Ci' 'e11' 'p11' 'p22' 'Rea' 'Ria' 'Rie'],3194.99467462051,0.6628882752675791
victoria_control_concrete_schedFalse_job161,80.79247776513917,56.52552626368505,12672.489262965057,191.0284878226909,2594888.286998732,0.0,0.0,7.88118573874673,"(0.5688882806668321, 2.51233605913251)","[ 19.40333283  17.05928663   4.6082986    2.51233606   0.56888828
  -9.8388295  -10.21585888  -1.08715792  97.49233059  29.01110744
   0.3810224 ]","[0.00000000e+00 0.00000000e+00 1.77177325e-03 3.12649260e-02
 3.40779093e-05 0.00000000e+00 9.88164473e-01 0.00000000e+00
 3.94828237e-04 1.81712423e-11 8.30063491e-05]",['Ti0' 'Te0' 'Aw' 'Ce' 'Ci' 'e11' 'p11' 'p22' 'Rea' 'Ria' 'Rie'],3263.4609433910305,3.0888501581484693
victoria_control_concrete_schedFalse_job139,,,,,,,,,,,,,,
victoria_control_concrete_schedFalse_job141,55.29210386506697,42.631538738400764,12669.610506450475,188.96025535765767,2603274.677640708,0.0,0.0,6.714695318916861,"(0.6865718029153111, 2.50512951593801)","[20.30070069 17.54699984  4.95996803  2.50512952  0.6865718  -9.82592753
 -3.64362553 -0.72847286 98.79619117 49.60003893  0.53085483]","[0.00000000e+00 0.00000000e+00 1.68023441e-03 2.34779794e-02
 4.47757418e-04 0.00000000e+00 2.06619617e-07 0.00000000e+00
 0.00000000e+00 0.00000000e+00 6.13779054e-04]",['Ti0' 'Te0' 'Aw' 'Ce' 'Ci' 'e11' 'p11' 'p22' 'Rea' 'Ria' 'Rie'],3206.42215561426,0.7403168704154286
victoria_control_concrete_schedFalse_job96,64.85276943066795,47.996732803578944,12670.582174150506,187.39623365687007,2549862.8035598537,0.0,0.0,7.811165020863499,"(0.34145078296644704, 1.2539914338576998)","[ 20.06371398  16.89108899   2.71699577   1.25399143   0.34145078
 -22.06002529  -2.68018815  -0.72726244  77.4830129   49.40709694
   1.1317662 ]","[0.00000000e+00 0.00000000e+00 6.88338275e-13 7.07637654e-06
 4.36539693e-13 9.75501480e-01 0.00000000e+00 0.00000000e+00
 3.28973602e-04 0.00000000e+00 4.77395901e-14]",['Ti0' 'Te0' 'Aw' 'Ce' 'Ci' 'e11' 'p11' 'p22' 'Rea' 'Ria' 'Rie'],3008.3671400076696,2.3327558641187
victoria_control_concrete_schedFalse_job87,,,,,,,,,,,,,,
victoria_control_concrete_schedFalse_job62,52.812989413676526,41.01536022262675,12669.86302557561,186.308329494899,2616393.0765327746,0.0,0.0,6.6767974195953,"(0.556202631288511, 1.98009765491278)","[ 20.45520349  17.79298782   3.94493756   1.98009765   0.55620263
 -10.07040355  -3.43051619  -0.76623394  99.33281373  49.77108522
   0.66850496]","[0.00000000e+00 0.00000000e+00 1.44337547e-05 3.46295287e-03
 5.14214250e-06 0.00000000e+00 0.00000000e+00 0.00000000e+00
 0.00000000e+00 0.00000000e+00 4.79582691e-06]",['Ti0' 'Te0' 'Aw' 'Ce' 'Ci' 'e11' 'p11' 'p22' 'Rea' 'Ria' 'Rie'],3285.9202677891803,0.34100953585061067
victoria_control_concrete_schedFalse_job76,67.45269286585481,49.41012934272429,12670.660366606387,187.4541587359479,2562961.6485762615,0.0,0.0,8.06222603742252,"(0.36921047737774104, 1.4685078316829199)","[ 20.01694899  17.05399544   2.92073713   1.46850783   0.36921048
 -10.05819553  -2.97876336  -0.79139944  73.78048214  49.30909556
   0.94564475]","[0.00000000e+00 0.00000000e+00 5.65489433e-10 4.51776611e-05
 2.64224198e-11 0.00000000e+00 0.00000000e+00 0.00000000e+00
 1.23263273e-03 2.30926389e-13 4.83169060e-13]",['Ti0' 'Te0' 'Aw' 'Ce' 'Ci' 'e11' 'p11' 'p22' 'Rea' 'Ria' 'Rie'],3061.0710880117,2.696415064475781
victoria_control_concrete_schedFalse_job195,,,,,,,,,,,,,,
victoria_control_concrete_schedFalse_job64,54.44784614966995,42.00643233201467,12670.15246011059,186.54096284740882,2606471.775051821,0.0,0.0,6.689813289475531,"(0.5682173753457521, 2.18373659556921)","[ 20.37954974  17.7880761    4.24979751   2.1837366    0.56821738
  -9.5080756  -10.14468976  -0.76201641  99.14966106  49.71059978
   0.6207421 ]","[0.00000000e+00 0.00000000e+00 1.27220608e-04 6.65880189e-03
 3.10128595e-05 0.00000000e+00 8.81965231e-01 0.00000000e+00
 0.00000000e+00 0.00000000e+00 1.11046309e-05]",['Ti0' 'Te0' 'Aw' 'Ce' 'Ci' 'e11' 'p11' 'p22' 'Rea' 'Ria' 'Rie'],3218.21352970534,0.5145178536597985
victoria_control_concrete_schedFalse_job111,72.27368621062237,52.066049483945484,12672.14551078878,188.9942596645874,2589961.7618514644,0.0,0.0,7.64210439112054,"(0.648071497816204, 3.05426826823309)","[ 19.66452377  16.8471932    5.23255383   3.05426827   0.6480715
  -9.68672711 -11.11056745  -0.93346571  94.22475319  36.17875908
   0.45049715]","[0.         0.         0.00394685 0.04271134 0.00147625 0.
 0.98129611 0.         0.29820202 0.01704663 0.00139133]",['Ti0' 'Te0' 'Aw' 'Ce' 'Ci' 'e11' 'p11' 'p22' 'Rea' 'Ria' 'Rie'],3286.2173597062897,8.90073619340696
victoria_control_concrete_schedFalse_job38,52.42414125859128,40.772219814175905,12669.841272956286,186.13673025599223,2561266.3961253646,0.0,0.0,6.678226696607701,"(0.56401296239426, 2.09548056683448)","[ 20.44941198  17.82177918   4.07057544   2.09548057   0.56401296
  -9.60949999 -10.48477806  -0.74716807  99.32547723  49.7653612
   0.64951113]","[0.00000000e+00 0.00000000e+00 1.22264771e-05 3.94099207e-03
 2.33862760e-06 0.00000000e+00 9.87756501e-01 0.00000000e+00
 0.00000000e+00 0.00000000e+00 2.07870962e-06]",['Ti0' 'Te0' 'Aw' 'Ce' 'Ci' 'e11' 'p11' 'p22' 'Rea' 'Ria' 'Rie'],3276.7207523779402,0.3488569291135395
victoria_control_concrete_schedFalse_job177,85.28807593166297,58.65702897310605,12672.818996779188,190.68039226229996,2559709.924058708,0.0,0.0,8.20447619811217,"(0.381807163084575, 1.2655377370383)","[ 19.34179035  13.3292199    2.68445565   1.26553774   0.38180716
 -11.96038766  -3.15412562  -0.59265376  93.56194979  27.38421051
   0.93852506]","[0.00000000e+00 0.00000000e+00 2.37714293e-11 6.29218281e-05
 2.15315321e-10 6.08716802e-04 0.00000000e+00 3.52785356e-10
 2.23481602e-01 6.78996369e-05 5.42232925e-13]",['Ti0' 'Te0' 'Aw' 'Ce' 'Ci' 'e11' 'p11' 'p22' 'Rea' 'Ria' 'Rie'],3012.54040730721,9.310435836789031
victoria_control_concrete_schedFalse_job116,62.62471883962232,46.7377242706159,12670.876391414438,186.9530743267616,2579649.0730634495,0.0,0.0,7.171942657146619,"(0.103244460373009, 0.7889782522459109)","[ 20.04122368  18.17698      1.28823308   0.78897825   0.10324446
 -22.69169801  -3.04588546  -0.65621861  86.86290616  49.49336806
   3.07596163]","[0.00000000e+00 0.00000000e+00 0.00000000e+00 2.91255908e-12
 0.00000000e+00 1.37285984e-01 0.00000000e+00 0.00000000e+00
 1.05743743e-05 0.00000000e+00 0.00000000e+00]",['Ti0' 'Te0' 'Aw' 'Ce' 'Ci' 'e11' 'p11' 'p22' 'Rea' 'Ria' 'Rie'],2999.1840523394703,1.787651387632451
victoria_control_concrete_schedFalse_job126,55.45517708568315,42.649144458130344,12669.84009061074,187.41964018144643,2609219.3522845698,0.0,0.0,6.708236642210599,"(0.6848847250041321, 2.6291692959641497)","[20.37019528 17.70191256  5.03837915  2.6291693   0.68488473 -9.55042696
 -9.71117253 -0.74411282 98.91948747 49.63258008  0.51840407]","[0.         0.         0.00200557 0.02718641 0.00049862 0.
 0.35458131 0.         0.         0.         0.00053955]",['Ti0' 'Te0' 'Aw' 'Ce' 'Ci' 'e11' 'p11' 'p22' 'Rea' 'Ria' 'Rie'],3211.00793950824,0.6690696041183513
victoria_control_concrete_schedFalse_job34,73.15896941098755,52.53661691018313,12672.364409432073,189.15865781365628,2579977.0810101097,0.0,0.0,7.244627444938099,"(1.41210718229851, 9.48694724486127)","[ 19.62184254  16.93477858  12.684334     9.48694724   1.41210718
 -10.01364537  -9.32737303  -1.00294217  95.58550462  42.26458906
   0.1832293 ]","[0.         0.         0.42882356 0.50623364 0.4125478  0.
 0.08730269 0.         0.09750175 0.25673222 0.41638281]",['Ti0' 'Te0' 'Aw' 'Ce' 'Ci' 'e11' 'p11' 'p22' 'Rea' 'Ria' 'Rie'],3321.91550868677,4.6076519291769005
victoria_control_concrete_schedFalse_job70,,,,,,,,,,,,,,
victoria_control_concrete_schedFalse_job59,65.20972852332228,48.22600585261619,12670.106232536022,187.91202777347135,2505345.9029670306,0.0,0.0,7.631704629042179,"(0.153063921961207, 0.885087238142641)","[ 20.14887249  18.00256048   1.74622638   0.88508724   0.15306392
 -23.66054872  -2.92353769  -0.718966    79.54997554  49.511617
   1.9707323 ]","[0.00000000e+00 0.00000000e+00 0.00000000e+00 2.86186630e-11
 0.00000000e+00 9.04774108e-01 0.00000000e+00 0.00000000e+00
 1.96803915e-06 0.00000000e+00 0.00000000e+00]",['Ti0' 'Te0' 'Aw' 'Ce' 'Ci' 'e11' 'p11' 'p22' 'Rea' 'Ria' 'Rie'],2955.80266251903,1.7185106887822492
victoria_control_concrete_schedFalse_job174,83.56350369010559,57.78733923457181,12672.161240169497,190.15135085356323,2528475.555764104,0.0,0.0,7.84531932659263,"(0.420843997827906, 1.64865139981254)","[ 19.48570808  15.17441282   3.33810604   1.6486514    0.420844
  -9.72658569 -10.60646144  -0.99029496  97.52597949  29.42729603
   0.51126204]","[0.00000000e+00 0.00000000e+00 2.14772615e-08 1.51229862e-04
 9.86210669e-10 0.00000000e+00 6.67205939e-01 0.00000000e+00
 2.63396429e-04 6.66133815e-16 8.09901035e-11]",['Ti0' 'Te0' 'Aw' 'Ce' 'Ci' 'e11' 'p11' 'p22' 'Rea' 'Ria' 'Rie'],3054.40384648254,2.9258334521503695
victoria_control_concrete_schedFalse_job105,69.48706104558728,50.589918640855686,12672.189425004299,188.79670146299048,2594917.802663649,0.0,0.0,8.87609223654753,"(0.5439349002083339, 2.49225704426145)","[ 19.70764366  16.8198361    4.49691895   2.49225704   0.5439349
  -9.63586431 -11.19007618  -0.90312129  64.70399448  47.40411972
   0.55407693]","[0.00000000e+00 0.00000000e+00 8.61278634e-05 8.60605211e-03
 1.69400547e-05 0.00000000e+00 9.79471876e-01 0.00000000e+00
 3.46438988e-01 1.77761471e-01 1.22221352e-05]",['Ti0' 'Te0' 'Aw' 'Ce' 'Ci' 'e11' 'p11' 'p22' 'Rea' 'Ria' 'Rie'],3274.50195248769,5.66445370582367
victoria_control_concrete_schedFalse_job22,76.9239235711425,54.50365341175323,12670.983051151956,189.803147025061,2517431.57716193,0.0,0.0,9.482643357719901,"(0.37808438291712104, 1.90363445736502)","[ 19.84722486  17.29109032   3.38143132   1.90363446   0.37808438
  -9.40407882 -11.06951709  -1.00080405  55.87036811  48.89700531
   0.68845386]","[0.00000000e+00 0.00000000e+00 1.46847867e-09 6.99084374e-05
 1.50068846e-10 0.00000000e+00 9.71192726e-01 0.00000000e+00
 6.93748755e-04 2.12706538e-06 8.12927503e-12]",['Ti0' 'Te0' 'Aw' 'Ce' 'Ci' 'e11' 'p11' 'p22' 'Rea' 'Ria' 'Rie'],3166.41396436726,1.9591160227924984
victoria_control_concrete_schedFalse_job138,73.52729115486612,52.958494448513754,12671.657179338943,192.1819051746485,2561111.3106231266,0.0,0.0,7.74964791996668,"(2.68288494073677, 19.2842842598682)","[ 1.95489873e+01  1.69365730e+01  2.59671926e+01  1.92842843e+01
  2.68288494e+00 -1.00739759e+01 -1.05582995e+01 -9.81546967e-01
  9.36943731e+01  3.52508045e+01  9.29426325e-02]","[0.         0.         0.69566069 0.7227772  0.6911774  0.
 0.98651816 0.         0.36756031 0.50996736 0.69259002]",['Ti0' 'Te0' 'Aw' 'Ce' 'Ci' 'e11' 'p11' 'p22' 'Rea' 'Ria' 'Rie'],3282.9717422494396,11.837111708289019
victoria_control_concrete_schedFalse_job58,55.93415718749154,42.89896010709085,12669.814124035729,186.79378289450005,2621401.523058013,0.0,0.0,6.679206561678179,"(0.511135522345839, 1.72629260661493)","[20.40780323 17.74141332  3.56644773  1.72629261  0.51113552 -9.57531487
 -3.87196903 -0.75386723 99.25360309 49.74774264  0.71703635]","[0.00000000e+00 0.00000000e+00 3.57389971e-07 7.24360827e-04
 6.89745732e-08 0.00000000e+00 3.62437494e-04 0.00000000e+00
 0.00000000e+00 0.00000000e+00 5.41977241e-08]",['Ti0' 'Te0' 'Aw' 'Ce' 'Ci' 'e11' 'p11' 'p22' 'Rea' 'Ria' 'Rie'],3219.4952246117,0.39637685497531994
victoria_control_concrete_schedFalse_job31,51.01645375432617,39.92243141996032,12669.868158611898,186.2846823662296,2634950.22582816,0.0,0.0,6.71873438446009,"(0.9702978209603721, 3.9182201577297096)","[ 20.51341462  18.04121119   6.62768175   3.91822016   0.97029782
 -11.13111631  -3.2206378   -0.81439263  98.87227274  49.61294566
   0.35233683]","[0.         0.         0.05375067 0.14243715 0.02901932 0.
 0.         0.         0.         0.         0.03946016]",['Ti0' 'Te0' 'Aw' 'Ce' 'Ci' 'e11' 'p11' 'p22' 'Rea' 'Ria' 'Rie'],3330.2055794959197,0.7805340230382605
victoria_control_concrete_schedFalse_job90,64.90233690894759,48.04586516991698,12671.29496518471,187.7313312090768,2600056.70808017,0.0,0.0,8.05491344357388,"(0.378270260842364, 1.3543938179163302)","[ 19.96506013  16.70388439   2.90368448   1.35439382   0.37827026
 -22.94396889  -2.74236789  -0.71125154  73.92996213  49.19861093
   1.01925385]","[0.00000000e+00 0.00000000e+00 1.16425825e-09 1.05381684e-04
 2.38352205e-09 3.96487409e-01 0.00000000e+00 0.00000000e+00
 1.55440490e-03 1.89404048e-12 4.24435376e-10]",['Ti0' 'Te0' 'Aw' 'Ce' 'Ci' 'e11' 'p11' 'p22' 'Rea' 'Ria' 'Rie'],3047.2836268688,2.482718077656818
victoria_control_concrete_schedFalse_job47,57.35072404917802,43.69908281842977,12670.197677322318,186.2794519695995,2557460.2280922164,0.0,0.0,6.68888818255701,"(0.461713811863289, 1.5711428217715901)","[ 20.30792154  14.90832101   3.4455023    1.57114282   0.46171381
  -9.59044394 -11.74308989  -0.78572102  99.1176867   49.71092174
   0.67306847]","[0.00000000e+00 0.00000000e+00 1.79997826e-06 1.73022029e-03
 1.08822305e-07 0.00000000e+00 8.29025149e-02 0.00000000e+00
 0.00000000e+00 0.00000000e+00 5.13710350e-08]",['Ti0' 'Te0' 'Aw' 'Ce' 'Ci' 'e11' 'p11' 'p22' 'Rea' 'Ria' 'Rie'],3154.6733068936896,0.5305499640956413
victoria_control_concrete_schedFalse_job74,55.981489765118745,42.8799970048928,12669.823118171245,185.91085225403492,2596641.44842878,0.0,0.0,6.679249046371651,"(0.5075461265012129, 1.7534197521283101)","[ 20.41569388  17.75858572   3.61453927   1.75341975   0.50754613
  -9.4509052  -10.86922466  -0.74679635  99.25609983  49.74701794
   0.714312  ]","[0.00000000e+00 0.00000000e+00 1.43066768e-06 1.28199905e-03
 2.01275108e-07 0.00000000e+00 0.00000000e+00 0.00000000e+00
 0.00000000e+00 0.00000000e+00 5.36272151e-08]",['Ti0' 'Te0' 'Aw' 'Ce' 'Ci' 'e11' 'p11' 'p22' 'Rea' 'Ria' 'Rie'],3210.33213826607,0.4425160007087596
victoria_control_concrete_schedFalse_job149,,,,,,,,,,,,,,
victoria_control_concrete_schedFalse_job171,63.6197105960064,47.31164327700936,12671.160332996591,187.2965129142408,2617065.3929778957,0.0,0.0,6.885612257289259,"(0.10037446527359299, 0.8006307462331279)","[ 20.08601612  18.36405368   1.28684553   0.80063075   0.10037447
 -22.69465582  -3.04391667  -0.70693565  92.79299489  49.50066448
   2.93670834]","[0.00000000e+00 0.00000000e+00 0.00000000e+00 5.06261699e-14
 0.00000000e+00 6.29611754e-01 0.00000000e+00 0.00000000e+00
 1.12450475e-05 0.00000000e+00 0.00000000e+00]",['Ti0' 'Te0' 'Aw' 'Ce' 'Ci' 'e11' 'p11' 'p22' 'Rea' 'Ria' 'Rie'],2996.8071657167798,1.7787638727099102
victoria_control_concrete_schedFalse_job133,66.57087065486567,49.18707431870466,12670.933933645898,191.20318016025792,2636043.2602171977,0.0,0.0,8.58491392337649,"(0.458858294985552, 1.5644209337976298)","[ 19.8703221   16.49002091   3.37731527   1.56442093   0.45885829
 -22.43593895  -2.81573483  -0.72847847  66.60486314  49.01606609
   0.86247514]","[0.00000000e+00 0.00000000e+00 1.61901735e-07 6.07143979e-04
 2.58792574e-08 8.79515015e-01 0.00000000e+00 0.00000000e+00
 7.71608097e-03 8.73975687e-08 1.59082514e-08]",['Ti0' 'Te0' 'Aw' 'Ce' 'Ci' 'e11' 'p11' 'p22' 'Rea' 'Ria' 'Rie'],3151.47487378142,2.8052672452876095
victoria_control_concrete_schedFalse_job40,,,,,,,,,,,,,,
victoria_control_concrete_schedFalse_job89,,,,,,,,,,,,,,
victoria_control_concrete_schedFalse_job101,76.91705528648936,54.633712196301204,12671.815327901788,191.43211679204293,2539124.9576308136,0.0,0.0,7.79900953675045,"(0.7499345096909908, 3.92239526789591)","[ 19.5360508   17.03850663   6.70367865   3.92239527   0.74993451
  -9.84492242 -10.47586785  -1.01518325  96.86100286  31.03838739
   0.32201982]","[0.00000000e+00 0.00000000e+00 8.62234864e-02 2.00358177e-01
 4.61021083e-02 0.00000000e+00 9.44986957e-01 0.00000000e+00
 8.79797002e-03 9.12689918e-05 5.53577668e-02]",['Ti0' 'Te0' 'Aw' 'Ce' 'Ci' 'e11' 'p11' 'p22' 'Rea' 'Ria' 'Rie'],3262.87477048133,4.008590439400852
victoria_control_concrete_schedFalse_job166,,,,,,,,,,,,,,
victoria_control_concrete_schedFalse_job3,80.0447795699707,56.06221228873335,12671.429303065692,189.91902350867784,2514692.4985719044,0.0,0.0,7.93919982829511,"(0.534582579915295, 2.61262519199575)","[ 19.70670957  17.01795432   4.5610708    2.61262519   0.53458258
  -9.56847731 -10.58715495  -0.97791291  91.03515886  34.42023746
   0.50188169]","[0.00000000e+00 0.00000000e+00 4.79404427e-04 1.66519469e-02
 1.49936999e-04 0.00000000e+00 9.56274117e-01 0.00000000e+00
 3.75111811e-01 2.36038906e-02 1.06267204e-04]",['Ti0' 'Te0' 'Aw' 'Ce' 'Ci' 'e11' 'p11' 'p22' 'Rea' 'Ria' 'Rie'],3217.1034116819,10.94810409795829
victoria_control_concrete_schedFalse_job82,63.58551400676207,47.270495235536366,12670.249637278415,186.94847418594296,2553995.6813968443,0.0,0.0,7.258143735406799,"(0.100321043780894, 0.8278829771823559)","[ 20.13087872  16.79905037   1.55534891   0.82788298   0.10032104
 -22.50253944  -4.00153911  -0.95672711  86.29025828  49.62769131
   1.85832441]","[0.00000000e+00 0.00000000e+00 0.00000000e+00 0.00000000e+00
 0.00000000e+00 9.34982821e-01 0.00000000e+00 0.00000000e+00
 8.40835401e-10 0.00000000e+00 0.00000000e+00]",['Ti0' 'Te0' 'Aw' 'Ce' 'Ci' 'e11' 'p11' 'p22' 'Rea' 'Ria' 'Rie'],3066.8422687150605,1.3379830522299212
victoria_control_concrete_schedFalse_job134,64.82228391009404,48.173740494085116,12671.109773042434,190.3861205835928,2561380.827879749,0.0,0.0,8.414858070784419,"(0.48872895482725504, 1.5677907296139397)","[ 19.89084014  16.25111796   3.52822454   1.56779073   0.48872895
 -22.99221941  -2.81944573  -0.65153826  68.95956289  48.99912112
   0.87873329]","[0.00000000e+00 0.00000000e+00 2.54182689e-06 3.49696491e-03
 5.45250432e-07 4.56651523e-01 0.00000000e+00 3.77475828e-15
 1.76428651e-02 7.50247813e-07 8.38969384e-07]",['Ti0' 'Te0' 'Aw' 'Ce' 'Ci' 'e11' 'p11' 'p22' 'Rea' 'Ria' 'Rie'],3137.9563883246196,3.16033686818958
victoria_control_concrete_schedFalse_job12,57.89988146623585,44.01479537391737,12670.193202347693,186.23655477269745,2558708.2447662572,0.0,0.0,6.6154905331199405,"(0.13504812122152998, 0.849604153007918)","[ 20.26479735  16.43801175   1.70662331   0.84960415   0.13504812
 -10.21578325 -13.87115647  -0.88749735  99.58650533  49.86620271
   1.70766246]","[0.         0.         0.         0.         0.         0.
 0.00192439 0.         0.         0.         0.        ]",['Ti0' 'Te0' 'Aw' 'Ce' 'Ci' 'e11' 'p11' 'p22' 'Rea' 'Ria' 'Rie'],3099.7143318957897,0.16205726604010984
victoria_control_concrete_schedFalse_job41,69.58144273620906,50.812479486058926,12671.628753313733,191.21773915457302,2542971.3115902618,0.0,0.0,9.04502625105216,"(0.753635787491004, 4.34038713126664)","[ 19.68008972  16.85192274   7.17196036   4.34038713   0.75363579
  -9.76013313 -11.32477772  -0.92905201  61.8284284   48.34124887
   0.38832137]","[0.         0.         0.00942578 0.0484385  0.00640309 0.
 0.87334328 0.         0.18180038 0.01351525 0.00546003]",['Ti0' 'Te0' 'Aw' 'Ce' 'Ci' 'e11' 'p11' 'p22' 'Rea' 'Ria' 'Rie'],3324.6957280534198,5.958292753500741
victoria_control_concrete_schedFalse_job46,74.33968544962619,53.12411188454612,12671.930292472063,188.92291168675808,2580231.1152603207,0.0,0.0,7.85085543053854,"(0.5355593031537009, 2.3228845377531098)","[ 19.71097423  16.99103227   4.31001979   2.32288454   0.5355593
  -9.60066459 -11.03872464  -0.96495693  91.42062315  35.43409137
   0.51994023]","[0.00000000e+00 0.00000000e+00 3.25194778e-05 4.72651380e-03
 3.13068036e-06 0.00000000e+00 9.83828270e-01 0.00000000e+00
 5.97531742e-01 1.82320949e-01 1.59911739e-06]",['Ti0' 'Te0' 'Aw' 'Ce' 'Ci' 'e11' 'p11' 'p22' 'Rea' 'Ria' 'Rie'],3255.49794741704,17.80282495992526
victoria_control_concrete_schedFalse_job121,56.665820682234646,43.30577788635048,12670.31192338441,186.3807842760513,2603280.6587064075,0.0,0.0,6.67475076006248,"(0.43066285716312297, 1.4968783238360601)","[ 20.3013532   17.56875244   3.18614385   1.49687832   0.43066286
 -10.11560236  -3.20904315  -0.69815847  99.22165992  49.74148085
   0.85518743]","[0.00000000e+00 0.00000000e+00 4.12965380e-08 6.31064170e-04
 1.61716944e-08 0.00000000e+00 0.00000000e+00 0.00000000e+00
 0.00000000e+00 0.00000000e+00 8.21301627e-09]",['Ti0' 'Te0' 'Aw' 'Ce' 'Ci' 'e11' 'p11' 'p22' 'Rea' 'Ria' 'Rie'],3113.3615438329402,0.3279956004869904
victoria_control_concrete_schedFalse_job164,70.16463591932809,50.87517318007556,12671.293381663902,187.7990612689383,2559731.6593829836,0.0,0.0,8.60064941928249,"(0.549783131935701, 2.53112022450475)","[ 19.89466432  16.91158006   4.55475214   2.53112022   0.54978313
 -10.06229003  -3.25962007  -0.82290844  67.62303526  48.05217438
   0.5950801 ]","[0.00000000e+00 0.00000000e+00 3.14625300e-04 1.23833018e-02
 1.19278944e-04 0.00000000e+00 0.00000000e+00 0.00000000e+00
 1.82581805e-01 2.56877797e-02 1.17114259e-04]",['Ti0' 'Te0' 'Aw' 'Ce' 'Ci' 'e11' 'p11' 'p22' 'Rea' 'Ria' 'Rie'],3153.6575192791497,4.952924423918708
victoria_control_concrete_schedFalse_job194,55.136802376216316,42.395575179113486,12670.002212500396,186.15962163696884,2620576.5504714227,0.0,0.0,6.68644760680426,"(0.539881276757563, 1.9747249812576397)","[ 20.39338786  17.78368918   3.9095713    1.97472498   0.53988128
  -9.47123352 -19.18448723  -0.75596073  99.1777089   49.72002504
   0.65851159]","[0.00000000e+00 0.00000000e+00 2.21778795e-05 4.67728711e-03
 3.28305274e-06 0.00000000e+00 3.30947891e-01 0.00000000e+00
 0.00000000e+00 0.00000000e+00 1.69160222e-06]",['Ti0' 'Te0' 'Aw' 'Ce' 'Ci' 'e11' 'p11' 'p22' 'Rea' 'Ria' 'Rie'],3206.0548477854,0.46805555228564977
victoria_control_concrete_schedFalse_job85,54.74672589544546,42.175745864227146,12670.088485246697,186.37761404996846,2593252.0031897286,0.0,0.0,6.70111938223839,"(0.667999638723332, 2.68218657861064)","[ 20.35389584  17.68119119   4.86454825   2.68218658   0.66799964
  -9.58666248 -11.77730504  -0.75237022  99.02621929  49.6674087
   0.53517141]","[0.         0.         0.00138937 0.02640217 0.00046657 0.
 0.01517694 0.         0.         0.         0.00046664]",['Ti0' 'Te0' 'Aw' 'Ce' 'Ci' 'e11' 'p11' 'p22' 'Rea' 'Ria' 'Rie'],3239.4928824502804,0.6034232198324201
victoria_control_concrete_schedFalse_job11,73.2616424257807,52.5530781560756,12671.812629166201,188.68785468753467,2527340.8031802457,0.0,0.0,9.62353697010173,"(0.49254711826158504, 2.25946604430067)","[ 19.73863929  16.9075404    4.15184666   2.25946604   0.49254712
  -9.54214261 -11.08257759  -0.93512366  54.78155593  48.54755973
   0.58278317]","[0.00000000e+00 0.00000000e+00 1.77232769e-05 3.21637325e-03
 1.50891192e-06 0.00000000e+00 9.94750093e-01 0.00000000e+00
 1.08816261e-01 3.37243519e-02 5.86227057e-07]",['Ti0' 'Te0' 'Aw' 'Ce' 'Ci' 'e11' 'p11' 'p22' 'Rea' 'Ria' 'Rie'],3230.55478532435,2.91274386499647
victoria_control_concrete_schedFalse_job144,54.70651307528831,42.12140504205855,12669.983555003628,185.7833865876496,2573913.5054746238,0.0,0.0,6.67782365195775,"(0.509562640947873, 1.81570585834579)","[20.41053083 17.75505482  3.62396981  1.81570586  0.50956264 -9.53783082
 -4.10901302 -0.75132283 99.27755031 49.75363052  0.71820642]","[0.00000000e+00 0.00000000e+00 1.78992023e-06 1.66125612e-03
 2.84447369e-07 0.00000000e+00 1.81584204e-02 0.00000000e+00
 0.00000000e+00 0.00000000e+00 3.02608740e-07]",['Ti0' 'Te0' 'Aw' 'Ce' 'Ci' 'e11' 'p11' 'p22' 'Rea' 'Ria' 'Rie'],3218.02333533779,0.39306233829718007
victoria_control_concrete_schedFalse_job172,70.6207974306717,51.154436278031056,12671.46206273225,188.3382985704304,2546395.609341374,0.0,0.0,9.02361444491108,"(0.521851974788704, 2.58905652712259)","[ 19.78968969  16.9288402    4.81420954   2.58905653   0.52185197
  -9.5809698  -10.77828845  -0.90742357  61.36142206  48.8762912
   0.58262443]","[0.00000000e+00 0.00000000e+00 7.85346522e-05 6.28342587e-03
 3.17516465e-05 0.00000000e+00 9.35457987e-01 0.00000000e+00
 2.65764489e-02 4.78343598e-05 2.11312865e-05]",['Ti0' 'Te0' 'Aw' 'Ce' 'Ci' 'e11' 'p11' 'p22' 'Rea' 'Ria' 'Rie'],3264.9992002733,3.46283730800422
victoria_control_concrete_schedFalse_job191,70.8156582405373,51.290195865866764,12670.545002189323,188.79289199019024,2521172.2736736895,0.0,0.0,8.956712837086402,"(0.484457075744973, 2.2683586152992796)","[ 19.94266597  17.06290488   4.18549687   2.26835862   0.48445708
 -10.11582872  -3.14750242  -0.84319311  62.47985164  48.52276269
   0.64548897]","[0.00000000e+00 0.00000000e+00 3.87690338e-05 6.65665091e-03
 4.77177428e-06 0.00000000e+00 0.00000000e+00 0.00000000e+00
 7.02925584e-02 4.20341812e-03 7.33322443e-06]",['Ti0' 'Te0' 'Aw' 'Ce' 'Ci' 'e11' 'p11' 'p22' 'Rea' 'Ria' 'Rie'],3098.44083951803,3.5654326974864983
victoria_control_concrete_schedFalse_job124,59.497394052272575,44.99882597275623,12670.443374094482,187.39156980118625,2577478.598222495,0.0,0.0,6.65844996401442,"(0.152124822135949, 0.8648930654784459)","[ 20.1889144   15.86329906   1.77436553   0.86489307   0.15212482
 -23.72012477  -3.0629638   -0.87554927  98.80205941  49.70340021
   1.67964433]","[0.00000000e+00 0.00000000e+00 0.00000000e+00 8.88178420e-16
 0.00000000e+00 8.68111279e-01 0.00000000e+00 0.00000000e+00
 0.00000000e+00 0.00000000e+00 0.00000000e+00]",['Ti0' 'Te0' 'Aw' 'Ce' 'Ci' 'e11' 'p11' 'p22' 'Rea' 'Ria' 'Rie'],3098.9193821920503,0.7055789187854806
victoria_control_concrete_schedFalse_job132,55.33386880849611,42.53959003130333,12670.43855747876,186.68991724277612,2548798.1632038034,0.0,0.0,6.7224958454256605,"(0.8463066134211059, 3.60819069279738)","[20.33157982 17.53668381  6.17941169  3.60819069  0.84630661 -9.75100513
 -3.87691072 -0.72456399 98.74559743 49.57386174  0.43481648]","[0.         0.         0.01861082 0.08131514 0.01250091 0.
 0.00020793 0.         0.         0.         0.01399368]",['Ti0' 'Te0' 'Aw' 'Ce' 'Ci' 'e11' 'p11' 'p22' 'Rea' 'Ria' 'Rie'],3220.16912260417,0.8235869859868084
victoria_control_concrete_schedFalse_job68,53.93124714131498,41.697844098710476,12669.96625332271,186.53229224495172,2610459.208260022,0.0,0.0,6.676621440512741,"(0.512123437042372, 1.8568698680886)","[20.42543419 17.78234219  3.66090217  1.85686987  0.51212344 -9.46689094
 -9.16420568 -0.73997225 99.29999888 49.7602205   0.71613217]","[0.00000000e+00 0.00000000e+00 2.95672443e-06 2.02191615e-03
 4.72706288e-07 0.00000000e+00 0.00000000e+00 0.00000000e+00
 0.00000000e+00 0.00000000e+00 1.64101823e-07]",['Ti0' 'Te0' 'Aw' 'Ce' 'Ci' 'e11' 'p11' 'p22' 'Rea' 'Ria' 'Rie'],3223.93079201305,0.3679451790181787
victoria_control_concrete_schedFalse_job115,,,,,,,,,,,,,,
victoria_control_concrete_schedFalse_job167,,,,,,,,,,,,,,
victoria_control_concrete_schedFalse_job67,67.18552896823465,49.423093725296326,12671.421932056743,189.739609072838,2603559.120362618,0.0,0.0,8.49576658590884,"(0.7380561571125992, 3.95335068127052)","[19.84309009 17.08709573  6.55282272  3.95335068  0.73805616 -9.8745648
 -4.01844281 -0.9058668  69.33430025 47.96735663  0.4040251 ]","[0.         0.         0.01722604 0.07049822 0.01091037 0.
 0.00198031 0.         0.07768337 0.04986815 0.01213906]",['Ti0' 'Te0' 'Aw' 'Ce' 'Ci' 'e11' 'p11' 'p22' 'Rea' 'Ria' 'Rie'],3269.17698124656,3.887235871405661
victoria_control_concrete_schedFalse_job186,76.34432480858142,54.36931288443452,12671.740810187437,191.7449220955689,2575547.755628296,0.0,0.0,7.60373492486263,"(2.14612757025554, 14.8758690605025)","[ 19.59518245  16.95965808  20.6094645   14.87586906   2.14612757
 -10.03021401 -10.93612687  -0.97984119  94.03254963  37.36367314
   0.11809354]","[0.00000000e+00 0.00000000e+00 4.23897222e-08 5.75097135e-06
 2.49910919e-06 0.00000000e+00 9.20638168e-01 0.00000000e+00
 2.96801551e-01 2.56500989e-01 5.83444649e-07]",['Ti0' 'Te0' 'Aw' 'Ce' 'Ci' 'e11' 'p11' 'p22' 'Rea' 'Ria' 'Rie'],3284.7542301992894,9.88087292799147
victoria_control_concrete_schedFalse_job178,59.51645895556818,44.9636318992725,12670.495668067402,186.59508684026014,2595948.6919521224,0.0,0.0,6.634322980593621,"(0.15159952529947598, 0.898928334091238)","[ 20.24296984  16.50621326   1.86774349   0.89892833   0.15159953
 -11.12367534  -4.02345465  -0.92642459  99.47068006  49.83311046
   1.42749026]","[0.00000000e+00 0.00000000e+00 0.00000000e+00 2.75335310e-14
 0.00000000e+00 6.49119619e-07 1.21311993e-01 0.00000000e+00
 0.00000000e+00 0.00000000e+00 0.00000000e+00]",['Ti0' 'Te0' 'Aw' 'Ce' 'Ci' 'e11' 'p11' 'p22' 'Rea' 'Ria' 'Rie'],3138.5690919913,0.22829057850211942
victoria_control_concrete_schedFalse_job188,85.00554886018836,58.761968053564765,12672.098323096145,193.2382676763278,2563740.7052267804,0.0,0.0,7.95431972780564,"(0.46611046512574894, 1.5094584919483602)","[19.41887392 14.83867857  3.37759594  1.50945849  0.46611047 -9.87677846
 -3.92520348 -0.92621558 97.27457357 27.93274386  0.51053579]","[0.00000000e+00 0.00000000e+00 1.99620836e-07 1.02189353e-03
 1.65242930e-09 0.00000000e+00 2.11918189e-02 0.00000000e+00
 6.65176426e-04 3.65485420e-13 1.66592073e-10]",['Ti0' 'Te0' 'Aw' 'Ce' 'Ci' 'e11' 'p11' 'p22' 'Rea' 'Ria' 'Rie'],3074.00963183357,3.1976010893168603
victoria_control_concrete_schedFalse_job91,57.62889342709804,43.99297926853754,12670.126302790424,188.69465618047371,2591427.1646053963,0.0,0.0,6.62769288754697,"(0.183907536798441, 0.8952866319411421)","[ 20.26036426  15.42296421   1.88390235   0.89528663   0.18390754
 -10.02364947  -3.40381207  -0.77523488  99.43924113  49.82748779
   1.61533773]","[0.00000000e+00 0.00000000e+00 0.00000000e+00 2.25066632e-11
 0.00000000e+00 0.00000000e+00 7.15423054e-09 0.00000000e+00
 0.00000000e+00 0.00000000e+00 2.66453526e-15]",['Ti0' 'Te0' 'Aw' 'Ce' 'Ci' 'e11' 'p11' 'p22' 'Rea' 'Ria' 'Rie'],3047.35511435302,0.2559774795729508
victoria_control_concrete_schedFalse_job136,55.71711493261286,42.74983084190853,12669.820707299828,186.3873433000053,2579332.4363100305,0.0,0.0,6.666941820331511,"(0.417387526860032, 1.37979632496875)","[20.3636775  17.65618575  3.04750057  1.37979632  0.41738753 -9.99067735
 -3.26395837 -0.69394693 99.32793019 49.77056535  0.89531376]","[0.00000000e+00 0.00000000e+00 8.28764546e-09 2.92571283e-04
 3.87151555e-09 0.00000000e+00 0.00000000e+00 0.00000000e+00
 0.00000000e+00 0.00000000e+00 1.20318155e-09]",['Ti0' 'Te0' 'Aw' 'Ce' 'Ci' 'e11' 'p11' 'p22' 'Rea' 'Ria' 'Rie'],3129.42891003156,0.3425696486866192
victoria_control_concrete_schedFalse_job103,76.7421740863022,54.582936394706884,12672.05199851771,191.89491699714202,2597623.514262208,0.0,0.0,7.77280830281175,"(0.8363084901934609, 4.794256819534071)","[ 19.54587293  17.08896072   7.79830551   4.79425682   0.83630849
  -9.92557528 -10.69081134  -1.03707229  96.91343941  31.45338351
   0.28680664]","[0.         0.         0.22271088 0.34783515 0.17774799 0.
 0.92373755 0.         0.01309864 0.00192414 0.18925837]",['Ti0' 'Te0' 'Aw' 'Ce' 'Ci' 'e11' 'p11' 'p22' 'Rea' 'Ria' 'Rie'],3290.09912191142,4.1079835580651505
victoria_control_concrete_schedFalse_job65,61.21752254168983,46.09972305728862,12670.309208472458,189.46616052423542,2595231.7186778397,0.0,0.0,6.92303133228302,"(0.100324065230663, 0.7828203670951059)","[ 20.12616164  15.8153377    1.35083087   0.78282037   0.10032407
 -23.86865309  -3.148277    -0.76454343  92.1428196   49.61311526
   2.68946081]","[0.00000000e+00 0.00000000e+00 0.00000000e+00 2.22044605e-16
 0.00000000e+00 9.51708992e-01 0.00000000e+00 0.00000000e+00
 1.15169616e-07 0.00000000e+00 0.00000000e+00]",['Ti0' 'Te0' 'Aw' 'Ce' 'Ci' 'e11' 'p11' 'p22' 'Rea' 'Ria' 'Rie'],3035.8110468259497,1.5261553311209406
victoria_control_concrete_schedFalse_job45,,,,,,,,,,,,,,
victoria_control_concrete_schedFalse_job102,60.341709812851754,45.528307533971365,12670.505208490313,188.21231013830882,2598853.8189760903,0.0,0.0,6.77602693644757,"(0.10032761101548301, 0.7659221220488241)","[ 20.14450236  15.82998192   1.32183351   0.76592212   0.10032761
 -24.0380985   -3.18882095  -0.75522428  95.26744583  49.60229923
   2.70936131]","[0.00000000e+00 0.00000000e+00 0.00000000e+00 2.88657986e-15
 0.00000000e+00 5.36882775e-01 0.00000000e+00 0.00000000e+00
 4.45230519e-11 0.00000000e+00 0.00000000e+00]",['Ti0' 'Te0' 'Aw' 'Ce' 'Ci' 'e11' 'p11' 'p22' 'Rea' 'Ria' 'Rie'],3045.06732637916,1.1765472318380201
victoria_control_concrete_schedFalse_job100,65.27595147234346,48.213721363738166,12670.5465659783,187.17889054723858,2553410.5481190532,0.0,0.0,7.431839269585621,"(0.100689358878585, 0.802928652367101)","[ 20.1193922   18.44495954   1.32788137   0.80292865   0.10068936
 -22.5908395   -3.00555061  -0.70401862  82.24014725  49.48039395
   2.83565192]","[0.00000000e+00 0.00000000e+00 0.00000000e+00 6.86117829e-14
 0.00000000e+00 6.14906622e-01 0.00000000e+00 0.00000000e+00
 2.77750857e-06 0.00000000e+00 0.00000000e+00]",['Ti0' 'Te0' 'Aw' 'Ce' 'Ci' 'e11' 'p11' 'p22' 'Rea' 'Ria' 'Rie'],2941.58596651111,1.6623566572923698
victoria_control_concrete_schedFalse_job104,59.471630372908926,44.93789394374595,12670.476205708012,186.5925536557825,2559436.3877416584,0.0,0.0,6.67040843426965,"(0.14394936059414, 0.820826100301712)","[ 20.19381973  16.00792957   1.72751989   0.8208261    0.14394936
 -23.92860607  -2.99484304  -0.85918985  98.53579143  49.6676842
   1.71238182]","[0.00000000e+00 0.00000000e+00 0.00000000e+00 3.55271368e-15
 0.00000000e+00 8.71217357e-01 0.00000000e+00 0.00000000e+00
 0.00000000e+00 0.00000000e+00 0.00000000e+00]",['Ti0' 'Te0' 'Aw' 'Ce' 'Ci' 'e11' 'p11' 'p22' 'Rea' 'Ria' 'Rie'],3025.233284857,0.8475930010098098
victoria_control_concrete_schedFalse_job109,81.07514452879398,56.57806207483073,12671.604621994937,190.05834655770568,2529452.832002448,0.0,0.0,7.731138501756259,"(0.4401632248246671, 1.93715962497674)","[ 19.67633916  17.11461312   3.54518566   1.93715962   0.44016322
  -9.49560614 -10.6542582   -0.99910174  95.46353472  33.30342174
   0.58009893]","[0.00000000e+00 0.00000000e+00 1.01808890e-06 1.74444864e-03
 1.28128264e-07 0.00000000e+00 8.33291877e-01 0.00000000e+00
 1.59249720e-01 5.44186106e-04 4.89716017e-08]",['Ti0' 'Te0' 'Aw' 'Ce' 'Ci' 'e11' 'p11' 'p22' 'Rea' 'Ria' 'Rie'],3176.61196257095,6.9293788100840406
victoria_control_concrete_schedFalse_job86,62.39029097734943,46.60488333653961,12670.77200169876,186.9186043230993,2556815.4091334813,0.0,0.0,7.157817823825161,"(0.10172188317328099, 0.788533583524179)","[ 20.04037004  18.14123925   1.26157786   0.78853358   0.10172188
 -22.1313407   -3.05415494  -0.63371921  87.04401279  49.45523024
   3.20814051]","[0.00000000e+00 0.00000000e+00 0.00000000e+00 3.30266925e-11
 0.00000000e+00 9.65054753e-01 0.00000000e+00 0.00000000e+00
 2.59833005e-05 0.00000000e+00 0.00000000e+00]",['Ti0' 'Te0' 'Aw' 'Ce' 'Ci' 'e11' 'p11' 'p22' 'Rea' 'Ria' 'Rie'],3003.92603004042,1.8461034445693585
victoria_control_concrete_schedFalse_job170,73.34529016100946,52.629996311266524,12672.238702766399,189.12464910061195,2583302.180818829,0.0,0.0,7.53000152089889,"(1.06420246231149, 6.24139423586309)","[ 19.62381591  16.85089602   9.23873117   6.24139424   1.06420246
  -9.90240427 -11.21167911  -0.96870011  95.63322494  36.91145751
   0.25741556]","[0.         0.         0.12858548 0.22390402 0.10735479 0.
 0.93310602 0.         0.11714048 0.03790429 0.1085161 ]",['Ti0' 'Te0' 'Aw' 'Ce' 'Ci' 'e11' 'p11' 'p22' 'Rea' 'Ria' 'Rie'],3318.7668263779497,6.069489408923412
victoria_control_concrete_schedFalse_job155,73.00063527527956,52.696960906680246,12670.503004272117,192.34497745136798,2543727.714501265,0.0,0.0,9.64777338633923,"(0.462533371533266, 1.93920015514999)","[19.81475993 16.9078507   3.90434618  1.93920016  0.46253337 -9.43532711
 -4.32651542 -0.89887526 53.7887357  49.18334718  0.67877623]","[0.00000000e+00 0.00000000e+00 2.25119805e-07 7.08088928e-04
 1.35542690e-07 0.00000000e+00 8.95938114e-02 0.00000000e+00
 9.65177235e-04 5.13176168e-11 1.49465811e-08]",['Ti0' 'Te0' 'Aw' 'Ce' 'Ci' 'e11' 'p11' 'p22' 'Rea' 'Ria' 'Rie'],3213.0165968221995,2.34317391904157
victoria_control_concrete_schedFalse_job187,,,,,,,,,,,,,,
victoria_control_concrete_schedFalse_job98,60.30212438470948,45.4392387953284,12670.999181744806,187.07929912278556,2533915.8517902503,0.0,0.0,6.64352023365999,"(0.10111435939844, 0.737838111480833)","[ 20.0986358   15.8068555    1.36375408   0.73783811   0.10111436
 -23.47171101  -3.31374214  -0.75187165  98.22512501  49.66281375
   2.63467047]","[0.00000000e+00 0.00000000e+00 0.00000000e+00 2.66453526e-15
 0.00000000e+00 7.39963434e-01 0.00000000e+00 0.00000000e+00
 4.21884749e-15 0.00000000e+00 0.00000000e+00]",['Ti0' 'Te0' 'Aw' 'Ce' 'Ci' 'e11' 'p11' 'p22' 'Rea' 'Ria' 'Rie'],3074.28910234671,1.03140906962006
victoria_control_concrete_schedFalse_job10,57.1984096813301,43.63432052337095,12670.314919268501,186.71306821949554,2636687.6756487205,0.0,0.0,6.709933663596081,"(0.616923554890077, 2.411157653815)","[20.33365233 17.72320865  4.5911982   2.41115765  0.61692355 -9.78286896
 -3.6789561  -0.77211653 98.85210309 49.62283134  0.55783552]","[0.00000000e+00 0.00000000e+00 7.06802291e-03 4.11280960e-02
 6.37305832e-04 0.00000000e+00 4.78036162e-07 0.00000000e+00
 0.00000000e+00 0.00000000e+00 1.12733564e-03]",['Ti0' 'Te0' 'Aw' 'Ce' 'Ci' 'e11' 'p11' 'p22' 'Rea' 'Ria' 'Rie'],3198.4386147240198,0.48156251776324943
victoria_control_concrete_schedFalse_job152,68.56455826586281,50.04984060866836,12671.494697028587,188.0982096043267,2554720.6315504597,0.0,0.0,8.70291665813263,"(0.627635807269386, 2.8133644031027503)","[ 19.87439863  16.78234372   5.14984783   2.8133644    0.62763581
 -10.30825297  -3.15964562  -0.80566818  66.76057467  47.59661073
   0.54682199]","[0.         0.         0.00214907 0.02409134 0.0009252  0.
 0.         0.         0.01078188 0.         0.00088839]",['Ti0' 'Te0' 'Aw' 'Ce' 'Ci' 'e11' 'p11' 'p22' 'Rea' 'Ria' 'Rie'],3171.3848018906897,3.582094297312672
victoria_control_concrete_schedFalse_job127,80.3962420077315,56.27155819443963,12673.092468792109,190.3432306647961,2600549.361200413,0.0,0.0,7.62496722923535,"(3.8872661598837204, 29.684214521160197)","[ 1.93204330e+01  1.69705992e+01  3.70061415e+01  2.96842145e+01
  3.88726616e+00 -1.09136078e+01 -3.91533021e+00 -1.13218679e+00
  9.49371823e+01  3.61585576e+01  5.23648179e-02]","[0.00000000e+00 0.00000000e+00 9.49307299e-12 0.00000000e+00
 4.51805508e-07 2.37654341e-11 1.54853851e-02 0.00000000e+00
 2.24317161e-01 4.62564901e-01 1.01949420e-08]",['Ti0' 'Te0' 'Aw' 'Ce' 'Ci' 'e11' 'p11' 'p22' 'Rea' 'Ria' 'Rie'],3352.19130014211,9.331775909841951
victoria_control_concrete_schedFalse_job183,,,,,,,,,,,,,,
victoria_control_concrete_schedFalse_job110,59.22569622046479,44.98212105748535,12670.22561889666,189.84097785906692,2560265.5926420395,0.0,0.0,6.720117218696821,"(0.134977203860391, 0.78064994695644)","[ 20.12995354  15.53967879   1.61093206   0.78064995   0.1349772
 -24.20061313  -2.97676736  -0.77980945  97.05355446  49.65742547
   2.0959482 ]","[0.00000000e+00 0.00000000e+00 0.00000000e+00 1.77635684e-15
 0.00000000e+00 1.83054115e-01 0.00000000e+00 0.00000000e+00
 3.22413918e-09 0.00000000e+00 0.00000000e+00]",['Ti0' 'Te0' 'Aw' 'Ce' 'Ci' 'e11' 'p11' 'p22' 'Rea' 'Ria' 'Rie'],3022.7617081021804,1.4137543376607997
victoria_control_concrete_schedFalse_job200,73.46122978778979,52.94602853125727,12671.915433527449,192.46979002988465,2608912.2529187924,0.0,0.0,7.78884168413324,"(1.15067713481298, 6.98439585890267)","[ 19.57770921  17.02585464  10.82657993   6.98439586   1.15067713
  -9.94518263 -10.86217658  -1.00757582  95.61061632  32.55993595
   0.21824295]","[0.         0.         0.4109879  0.49987182 0.38393255 0.
 0.8137959  0.         0.07740058 0.03036881 0.3879421 ]",['Ti0' 'Te0' 'Aw' 'Ce' 'Ci' 'e11' 'p11' 'p22' 'Rea' 'Ria' 'Rie'],3300.53106096796,5.908787395341259
victoria_control_concrete_schedFalse_job160,81.17775731077829,56.63003897292329,12671.52568267422,190.08117152092763,2529024.6449131635,0.0,0.0,7.72962177595055,"(0.495839857208459, 2.25008825512177)","[ 19.63920225  17.14146504   3.99446403   2.25008826   0.49583986
  -9.68195638 -11.07676229  -1.06790208  96.82629435  32.06247953
   0.48366231]","[0.00000000e+00 0.00000000e+00 1.33249253e-05 3.50127639e-03
 1.18584533e-06 0.00000000e+00 9.56055104e-01 0.00000000e+00
 8.04639855e-03 9.38578371e-09 5.96682724e-07]",['Ti0' 'Te0' 'Aw' 'Ce' 'Ci' 'e11' 'p11' 'p22' 'Rea' 'Ria' 'Rie'],3260.46311360486,3.84426481335975
victoria_control_concrete_schedFalse_job69,60.884527125898025,45.756421511420555,12670.727826846918,186.86700089483102,2578043.4250418902,0.0,0.0,6.727301903145469,"(0.10019140135531598, 0.8256920514742181)","[ 20.17903847  17.0792486    1.56939921   0.82569205   0.1001914
 -23.45137171  -4.87967396  -0.9385989   97.30414847  49.61449769
   1.72935781]","[0.00000000e+00 0.00000000e+00 0.00000000e+00 0.00000000e+00
 0.00000000e+00 8.83219035e-01 2.67920827e-01 0.00000000e+00
 4.59856375e-10 0.00000000e+00 0.00000000e+00]",['Ti0' 'Te0' 'Aw' 'Ce' 'Ci' 'e11' 'p11' 'p22' 'Rea' 'Ria' 'Rie'],2993.53603546982,1.2972284870714317
victoria_control_concrete_schedFalse_job52,64.3676556120379,47.80049622398205,12670.881422809258,188.4797133203085,2578457.4034618153,0.0,0.0,8.085856181038,"(0.40862661029360897, 1.33270454686859)","[ 19.97235629  16.49527665   3.02791924   1.33270455   0.40862661
 -23.19209615  -2.75099268  -0.66528152  73.39616385  49.25656195
   1.02001554]","[0.00000000e+00 0.00000000e+00 1.82084903e-09 1.54248491e-04
 7.45539186e-10 6.14943419e-01 0.00000000e+00 5.55111512e-15
 2.08529887e-03 1.13242749e-14 1.40806033e-10]",['Ti0' 'Te0' 'Aw' 'Ce' 'Ci' 'e11' 'p11' 'p22' 'Rea' 'Ria' 'Rie'],3062.48231522215,2.6357045634632
victoria_control_concrete_schedFalse_job184,,,,,,,,,,,,,,
victoria_control_concrete_schedFalse_job129,,,,,,,,,,,,,,
victoria_control_concrete_schedFalse_job9,69.74720438508795,50.705740919655675,12670.3381513773,188.4937380292109,2534650.7655049968,0.0,0.0,8.53377243334033,"(0.353798399508629, 1.6709376217652199)","[20.02377369 17.45832687  3.12576456  1.67093762  0.3537984  -9.56786047
 -3.33869911 -0.87966196 67.20085613 49.16125048  0.81936358]","[0.00000000e+00 0.00000000e+00 2.77611983e-07 6.96271977e-05
 1.62686961e-04 0.00000000e+00 5.25268717e-12 0.00000000e+00
 1.99628057e-01 1.02563892e-02 2.96193455e-06]",['Ti0' 'Te0' 'Aw' 'Ce' 'Ci' 'e11' 'p11' 'p22' 'Rea' 'Ria' 'Rie'],3038.7013237206797,4.977975436059269
victoria_control_concrete_schedFalse_job181,56.343678079773206,43.121549377012684,12670.253334470804,186.45875965286476,2562577.865615584,0.0,0.0,6.68363042164294,"(0.478711945479531, 1.74285580717853)","[20.3236769  17.55231551  3.53370674  1.74285581  0.47871195 -9.75014275
 -3.59975131 -0.67250768 99.13900943 49.70667993  0.77359491]","[0.00000000e+00 0.00000000e+00 2.59174080e-06 2.99552903e-03
 1.28767540e-07 0.00000000e+00 2.17344696e-08 0.00000000e+00
 0.00000000e+00 0.00000000e+00 1.51140195e-07]",['Ti0' 'Te0' 'Aw' 'Ce' 'Ci' 'e11' 'p11' 'p22' 'Rea' 'Ria' 'Rie'],3120.2765567334995,0.4986245544956489
victoria_control_concrete_schedFalse_job180,,,,,,,,,,,,,,
victoria_control_concrete_schedFalse_job57,63.755171125514096,47.4003357248204,12671.192262294804,187.5125771768025,2533553.1369353374,0.0,0.0,7.90203298291714,"(0.394743926661504, 1.36137330465139)","[ 19.98300602  16.48977882   2.95298337   1.3613733    0.39474393
 -23.05543832  -2.75201503  -0.65278775  76.23721537  49.25447956
   1.0580173 ]","[0.00000000e+00 0.00000000e+00 4.17685553e-09 3.05965289e-04
 1.11821197e-09 1.90729245e-02 0.00000000e+00 4.44089210e-16
 4.68316459e-03 0.00000000e+00 4.65901984e-10]",['Ti0' 'Te0' 'Aw' 'Ce' 'Ci' 'e11' 'p11' 'p22' 'Rea' 'Ria' 'Rie'],3058.85217747737,2.84054829484586
victoria_control_concrete_schedFalse_job24,,,,,,,,,,,,,,
victoria_control_concrete_schedFalse_job4,71.267940571131,51.50217474444466,12672.176875791014,188.45920487847752,2657266.4117457354,0.0,0.0,8.72178961654525,"(0.469062490020454, 2.0916799389448704)","[ 19.72990588  16.96484099   3.84050156   2.09167994   0.46906249
  -9.61518999 -11.17064415  -0.93490106  66.81885005  47.21314959
   0.62336859]","[0.00000000e+00 0.00000000e+00 1.52473354e-06 1.17728403e-03
 1.98735325e-07 0.00000000e+00 9.56966415e-01 0.00000000e+00
 4.24951028e-01 2.39281771e-01 5.35485316e-08]",['Ti0' 'Te0' 'Aw' 'Ce' 'Ci' 'e11' 'p11' 'p22' 'Rea' 'Ria' 'Rie'],3276.3678131067895,6.79905850069885
victoria_control_concrete_schedFalse_job83,,,,,,,,,,,,,,
victoria_control_concrete_schedFalse_job44,65.77537789765917,48.540571908510195,12671.446813235683,188.00003256057715,2602896.055709727,0.0,0.0,8.34758529707519,"(0.39957212540183096, 1.5101274511717502)","[ 19.88646107  16.68636973   3.1315126    1.51012745   0.39957213
 -22.98917849  -2.848346    -0.73913562  69.81856308  49.04375762
   0.93280141]","[0.00000000e+00 0.00000000e+00 1.70539085e-08 2.23785329e-04
 3.41356876e-08 1.90190561e-02 0.00000000e+00 0.00000000e+00
 9.35238292e-04 1.75567065e-07 1.80550110e-08]",['Ti0' 'Te0' 'Aw' 'Ce' 'Ci' 'e11' 'p11' 'p22' 'Rea' 'Ria' 'Rie'],3137.9707177146697,1.9947282624757108
victoria_control_concrete_schedFalse_job108,71.76371493676737,51.90339155740365,12671.928254155398,190.36630468125313,2575006.910193786,0.0,0.0,8.77970255129923,"(0.6811757793281451, 3.33137332470451)","[ 19.64401145  16.86906334   5.8011522    3.33137332   0.68117578
  -9.76560747 -11.28841897  -0.95633612  73.26071602  40.21755917
   0.42079989]","[0.         0.         0.00483745 0.04295529 0.00196558 0.
 0.67680498 0.         0.7480194  0.5511897  0.00197058]",['Ti0' 'Te0' 'Aw' 'Ce' 'Ci' 'e11' 'p11' 'p22' 'Rea' 'Ria' 'Rie'],3331.98232398612,24.449279903882164
victoria_control_concrete_schedFalse_job81,70.33159825773478,51.04567884025833,12671.968492314569,188.9279796921147,2565340.4683280373,0.0,0.0,9.231744574471,"(0.608205804344342, 2.9320670780720497)","[ 19.67047547  16.7314672    5.18912291   2.93206708   0.6082058
  -9.67257905 -11.16167339  -0.90205097  60.16196838  47.66222955
   0.49768987]","[0.00000000e+00 0.00000000e+00 1.34639927e-03 2.32294760e-02
 3.21195745e-04 0.00000000e+00 9.84975619e-01 0.00000000e+00
 2.32256138e-01 9.50971943e-02 3.02632185e-04]",['Ti0' 'Te0' 'Aw' 'Ce' 'Ci' 'e11' 'p11' 'p22' 'Rea' 'Ria' 'Rie'],3286.89090575915,4.4713434549446
victoria_control_concrete_schedFalse_job112,70.79844134990525,51.29045825241738,12672.140569246641,188.91857405711383,2623603.221828503,0.0,0.0,9.324742778244051,"(0.526498903170187, 2.38457026309687)","[ 19.70017493  16.86596356   4.41500639   2.38457026   0.5264989
  -9.63053592 -11.18761037  -0.93960409  59.67280743  47.0109424
   0.55781423]","[0.00000000e+00 0.00000000e+00 4.06437332e-05 5.68185253e-03
 5.56106639e-06 0.00000000e+00 9.61285820e-01 0.00000000e+00
 3.36212775e-01 1.98052601e-01 2.99925296e-06]",['Ti0' 'Te0' 'Aw' 'Ce' 'Ci' 'e11' 'p11' 'p22' 'Rea' 'Ria' 'Rie'],3285.8007807935805,4.799980046132449
victoria_control_concrete_schedFalse_job122,69.69300258228442,50.660712676337624,12671.989671336454,188.26702210364297,2591922.7152037816,0.0,0.0,6.94992356213166,"(1.18408279906598, 7.88818615160951)","[ 19.7986928   17.08365205  10.82729947   7.88818615   1.1840828
  -9.91186397 -10.78571765  -0.92294266  95.31340302  48.33451346
   0.2385581 ]","[0.         0.         0.23908413 0.32310565 0.23046596 0.
 0.96522819 0.         0.07956886 0.01720153 0.22996499]",['Ti0' 'Te0' 'Aw' 'Ce' 'Ci' 'e11' 'p11' 'p22' 'Rea' 'Ria' 'Rie'],3293.80518658021,5.2335282147651405
victoria_control_concrete_schedFalse_job119,64.74942315976465,47.97156432594953,12671.61009328041,187.87764862987163,2628818.692932354,0.0,0.0,8.09468719768961,"(0.39247541701347405, 1.50562229659059)","[ 19.91166102  16.86085825   3.07845522   1.5056223    0.39247542
 -22.8981461   -2.8330709   -0.75327263  73.6469699   48.97910369
   0.91174518]","[0.00000000e+00 0.00000000e+00 6.59858035e-08 5.28274113e-04
 2.41255012e-08 1.60697831e-01 0.00000000e+00 0.00000000e+00
 1.57772008e-02 4.47927288e-06 1.72887353e-08]",['Ti0' 'Te0' 'Aw' 'Ce' 'Ci' 'e11' 'p11' 'p22' 'Rea' 'Ria' 'Rie'],3113.61203048812,2.9838519666976886
victoria_control_concrete_schedFalse_job168,64.99757772772661,48.0678214223144,12670.98775302639,187.2719034662869,2573890.9810464843,0.0,0.0,7.901894990941969,"(0.35413869217349797, 1.2800757350833898)","[ 20.02910095  16.84227023   2.71720971   1.28007574   0.35413869
 -21.61277914  -2.69967088  -0.73284447  76.11606543  49.34978315
   1.08607361]","[0.00000000e+00 0.00000000e+00 8.47788506e-12 1.73592127e-04
 2.23110419e-12 8.11370675e-01 0.00000000e+00 0.00000000e+00
 3.10176126e-02 4.03940430e-05 2.66453526e-14]",['Ti0' 'Te0' 'Aw' 'Ce' 'Ci' 'e11' 'p11' 'p22' 'Rea' 'Ria' 'Rie'],3026.64043735955,3.1307645948748313
victoria_control_concrete_schedFalse_job169,58.80531954443881,44.5931313332475,12670.504842614197,187.2381997006155,2634185.6595059307,0.0,0.0,6.62399503174037,"(0.144758940270202, 0.848146588067755)","[ 20.19099568  15.93488322   1.72350082   0.84814659   0.14475894
 -23.59493162  -3.06718927  -0.87217742  99.38712186  49.80950883
   1.76966612]","[0.00000000e+00 0.00000000e+00 0.00000000e+00 8.21565038e-15
 0.00000000e+00 9.71798811e-02 0.00000000e+00 0.00000000e+00
 0.00000000e+00 0.00000000e+00 0.00000000e+00]",['Ti0' 'Te0' 'Aw' 'Ce' 'Ci' 'e11' 'p11' 'p22' 'Rea' 'Ria' 'Rie'],3097.7909734434998,0.2850336064352703
victoria_control_concrete_schedFalse_job94,55.35499832236077,42.585955433321985,12669.870558726292,187.34391958205433,2617287.7706010104,0.0,0.0,6.69391591483946,"(0.588237648145085, 2.0920735931570102)","[20.35346839 17.64497963  4.20884503  2.09207359  0.58823765 -9.8913873
 -3.47234248 -0.75324101 99.08014239 49.69030631  0.61893902]","[0.00000000e+00 0.00000000e+00 1.17258403e-04 7.86266000e-03
 2.30730648e-05 0.00000000e+00 2.15383267e-13 0.00000000e+00
 0.00000000e+00 0.00000000e+00 2.79285946e-05]",['Ti0' 'Te0' 'Aw' 'Ce' 'Ci' 'e11' 'p11' 'p22' 'Rea' 'Ria' 'Rie'],3220.47371498872,0.5285653861344599
victoria_control_concrete_schedFalse_job142,60.500679959086625,45.771760150700466,12669.481402684312,190.8447048460043,2591252.8443129305,0.0,0.0,6.71833682047976,"(0.145423991642821, 0.8368269603216991)","[ 20.17346896  15.71082969   1.68220626   0.83682696   0.14542399
 -23.13189007  -3.00579471  -0.84174406  97.31844916  49.65669794
   1.87121573]","[0.00000000e+00 0.00000000e+00 0.00000000e+00 4.44089210e-16
 0.00000000e+00 3.87486751e-01 0.00000000e+00 0.00000000e+00
 1.08641740e-09 0.00000000e+00 0.00000000e+00]",['Ti0' 'Te0' 'Aw' 'Ce' 'Ci' 'e11' 'p11' 'p22' 'Rea' 'Ria' 'Rie'],3066.1449120909197,1.35299807443337
victoria_control_concrete_schedFalse_job72,55.30415982367842,42.46707690267512,12669.745842727782,185.63543497679387,2540255.4073160635,0.0,0.0,6.68577725551967,"(0.558408045674616, 2.1154588002797197)","[ 20.39794409  17.71866601   4.06979375   2.1154588    0.55840805
  -9.48096463 -18.65395131  -0.72316574  99.19655199  49.72065262
   0.65403621]","[0.00000000e+00 0.00000000e+00 5.51361216e-05 7.46417276e-03
 1.15199169e-05 0.00000000e+00 3.02255826e-07 0.00000000e+00
 0.00000000e+00 0.00000000e+00 6.55824406e-06]",['Ti0' 'Te0' 'Aw' 'Ce' 'Ci' 'e11' 'p11' 'p22' 'Rea' 'Ria' 'Rie'],3202.26613386669,0.4587093764294492
victoria_control_concrete_schedFalse_job113,67.06513149121793,49.19587599568092,12671.094425793366,187.36734848098837,2582055.847536604,0.0,0.0,8.03497229301029,"(0.367921541020962, 1.29812055353526)","[ 20.03105376  16.78050385   2.75814315   1.29812055   0.36792154
 -24.42330512  -2.70109216  -0.71560752  74.11394935  49.29125984
   1.05072712]","[0.00000000e+00 0.00000000e+00 7.75646214e-12 1.27080011e-05
 1.37763134e-11 1.04138831e-03 0.00000000e+00 0.00000000e+00
 1.09596938e-03 0.00000000e+00 1.26343380e-13]",['Ti0' 'Te0' 'Aw' 'Ce' 'Ci' 'e11' 'p11' 'p22' 'Rea' 'Ria' 'Rie'],3014.75688145558,2.505275380500409
victoria_control_concrete_schedFalse_job106,82.15041704730137,57.10902718323115,12672.149728102193,190.1624906047924,2522529.3697179323,0.0,0.0,7.86363368822154,"(0.45715515535052204, 1.67806129632184)","[ 19.47227938  15.01198926   3.46983054   1.6780613    0.45715516
  -9.73702722 -13.3128079   -0.95504619  97.43652955  29.24051495
   0.49062883]","[0.00000000e+00 0.00000000e+00 4.77377768e-07 1.72281018e-03
 1.12129956e-08 0.00000000e+00 5.85239795e-02 0.00000000e+00
 0.00000000e+00 0.00000000e+00 1.78281945e-09]",['Ti0' 'Te0' 'Aw' 'Ce' 'Ci' 'e11' 'p11' 'p22' 'Rea' 'Ria' 'Rie'],3056.3401203462,1.4428382259996386
victoria_control_concrete_schedFalse_job198,62.44469611407029,46.6348636191306,12670.094026633153,186.9127965720212,2554001.9743869165,0.0,0.0,7.04029898108824,"(0.10017897131431, 0.8480308619191921)","[ 20.18898594  17.12865989   1.6026651    0.84803086   0.10017897
 -24.35951117 -11.23111605  -0.95930623  90.76040041  49.60342089
   1.67560099]","[0.00000000e+00 0.00000000e+00 0.00000000e+00 0.00000000e+00
 0.00000000e+00 8.79658070e-01 9.46883232e-01 0.00000000e+00
 9.91725102e-09 0.00000000e+00 0.00000000e+00]",['Ti0' 'Te0' 'Aw' 'Ce' 'Ci' 'e11' 'p11' 'p22' 'Rea' 'Ria' 'Rie'],2993.9857005580798,1.4236834045633806
victoria_control_concrete_schedFalse_job43,57.56126694737847,43.840244857168344,12670.525531711954,186.62374920451518,2638598.8950033826,0.0,0.0,6.667609451556371,"(0.38182580851522296, 1.3137194312795502)","[ 20.28869714  17.45851538   2.80365711   1.31371943   0.38182581
 -10.69530756  -2.92264068  -0.69941702  99.22442837  49.7498473
   1.00451467]","[0.00000000e+00 0.00000000e+00 6.60205224e-11 3.99991644e-05
 5.66966474e-11 0.00000000e+00 0.00000000e+00 0.00000000e+00
 0.00000000e+00 0.00000000e+00 1.44240175e-11]",['Ti0' 'Te0' 'Aw' 'Ce' 'Ci' 'e11' 'p11' 'p22' 'Rea' 'Ria' 'Rie'],3081.14536761807,0.3656378466059502
victoria_control_concrete_schedFalse_job159,91.12425819989934,61.62566633353911,12672.491240121735,193.27153173202885,2494065.2692891397,0.0,0.0,11.0106065322014,"(0.24703521816486101, 1.15656281573839)","[ 19.29857707  14.73876369   2.39897876   1.15656282   0.24703522
  -9.7336641  -10.67271201  -0.73882056  58.7052839   30.99064031
   1.12559385]","[0.00000000e+00 0.00000000e+00 0.00000000e+00 6.66062849e-09
 0.00000000e+00 0.00000000e+00 9.88060967e-01 0.00000000e+00
 6.38118410e-01 3.53222113e-01 2.88657986e-15]",['Ti0' 'Te0' 'Aw' 'Ce' 'Ci' 'e11' 'p11' 'p22' 'Rea' 'Ria' 'Rie'],2914.06414992278,21.758709828894197
victoria_control_concrete_schedFalse_job107,64.64994102281776,47.89629837626886,12671.392692607871,187.5608153108175,2602660.168912279,0.0,0.0,7.204155588216059,"(0.10585368653642199, 0.805291745640423)","[ 20.02974119  18.1966782    1.32255604   0.80529175   0.10585369
 -12.48075885  -3.06940472  -0.70029445  86.57318336  49.38611138
   2.84947858]","[0.00000000e+00 0.00000000e+00 0.00000000e+00 3.07376347e-12
 0.00000000e+00 7.69802277e-02 0.00000000e+00 0.00000000e+00
 1.38741962e-04 0.00000000e+00 0.00000000e+00]",['Ti0' 'Te0' 'Aw' 'Ce' 'Ci' 'e11' 'p11' 'p22' 'Rea' 'Ria' 'Rie'],2998.31665867361,1.9823958581536107
victoria_control_concrete_schedFalse_job35,69.09016731766658,50.4260823930909,12671.445106324769,189.4567350143301,2581715.888286074,0.0,0.0,8.39851690471437,"(0.786163327181289, 4.04501338117669)","[19.84502156 16.97055709  6.82532481  4.04501338  0.78616333 -9.90561865
 -3.79610426 -0.86951977 70.5912186  48.07960943  0.39781365]","[0.00000000e+00 0.00000000e+00 2.19922867e-02 8.63590213e-02
 1.41318051e-02 0.00000000e+00 4.06545864e-06 0.00000000e+00
 3.24952792e-01 4.86315099e-02 1.57679096e-02]",['Ti0' 'Te0' 'Aw' 'Ce' 'Ci' 'e11' 'p11' 'p22' 'Rea' 'Ria' 'Rie'],3254.60111400795,7.3458781610081285
victoria_control_concrete_schedFalse_job30,67.57417024157847,49.66860659044728,12670.657660916526,190.26000418565826,2566983.3965714434,0.0,0.0,8.41738147183607,"(0.7480765342606249, 3.00885951546403)","[ 19.87876731  16.593586     5.63138377   3.00885952   0.74807653
 -10.20719551  -3.25303366  -0.75733893  71.44563517  46.86362786
   0.49252864]","[0.         0.         0.03117013 0.1171012  0.02190562 0.
 0.         0.         0.00630455 0.00200689 0.02030477]",['Ti0' 'Te0' 'Aw' 'Ce' 'Ci' 'e11' 'p11' 'p22' 'Rea' 'Ria' 'Rie'],3205.26283880315,3.0724679945751294
victoria_control_concrete_schedFalse_job71,69.9603172426652,50.84962848537272,12671.575283052664,188.9254588179341,2545158.4527377905,0.0,0.0,9.05733959199953,"(0.521065480174629, 2.75261038122316)","[ 19.76572766  16.95680436   4.89375581   2.75261038   0.52106548
  -9.58864215 -10.97745614  -0.9281747   60.87264219  48.96686678
   0.56818744]","[0.00000000e+00 0.00000000e+00 5.97256120e-05 5.52589646e-03
 1.06561946e-05 0.00000000e+00 9.27436082e-01 0.00000000e+00
 3.79640175e-02 2.32948748e-06 7.79750803e-06]",['Ti0' 'Te0' 'Aw' 'Ce' 'Ci' 'e11' 'p11' 'p22' 'Rea' 'Ria' 'Rie'],3274.08707337128,3.8457891143610716
victoria_control_concrete_schedFalse_job135,62.302873621999495,46.57184752084549,12670.952524846663,187.17286428630456,2571928.1162866945,0.0,0.0,7.08592593979153,"(0.10110640565388, 0.78447409773721)","[ 20.05031974  18.1651232    1.2613877    0.7844741    0.10110641
 -22.04520002  -3.05246852  -0.64443976  88.44740523  49.4693386
   3.20807296]","[0.00000000e+00 0.00000000e+00 0.00000000e+00 7.04705183e-11
 0.00000000e+00 1.14224864e-01 0.00000000e+00 0.00000000e+00
 1.61248841e-04 0.00000000e+00 0.00000000e+00]",['Ti0' 'Te0' 'Aw' 'Ce' 'Ci' 'e11' 'p11' 'p22' 'Rea' 'Ria' 'Rie'],3007.2292866810103,1.9935093860823612
victoria_control_concrete_schedFalse_job145,64.25809462086103,47.666824321059806,12671.065869352267,187.3434536450184,2570190.5005153683,0.0,0.0,7.9878410751597,"(0.387694224799871, 1.31894812798707)","[ 19.98465481  16.51442323   2.86086476   1.31894813   0.38769422
 -22.52262755  -2.72096686  -0.65763718  74.82987782  49.28672724
   1.07366733]","[0.00000000e+00 0.00000000e+00 1.06431086e-10 6.66292776e-05
 1.71496151e-11 7.99803376e-01 0.00000000e+00 0.00000000e+00
 1.93077881e-03 4.44089210e-16 4.70801176e-12]",['Ti0' 'Te0' 'Aw' 'Ce' 'Ci' 'e11' 'p11' 'p22' 'Rea' 'Ria' 'Rie'],3034.97357167098,2.6453113866581006
victoria_control_concrete_schedFalse_job125,66.78340282795884,49.090844035423316,12671.464684363003,188.05123878455646,2607629.9539618734,0.0,0.0,8.299665640941651,"(0.633164396836942, 2.96847622619352)","[ 19.88853806  16.88434102   5.23537251   2.96847623   0.6331644
 -10.40622645  -3.17297353  -0.82518677  72.98095969  46.97693614
   0.5288856 ]","[0.         0.         0.0061055  0.05106667 0.00427063 0.
 0.         0.         0.5635465  0.33517755 0.00390005]",['Ti0' 'Te0' 'Aw' 'Ce' 'Ci' 'e11' 'p11' 'p22' 'Rea' 'Ria' 'Rie'],3185.6381299994605,10.88276952641575
victoria_control_concrete_schedFalse_job199,60.107731603656475,45.311955625913725,12670.521227407644,186.79325219139443,2594510.869616249,0.0,0.0,6.64754245902462,"(0.159920541782204, 0.897517750085733)","[ 20.22834799  16.33735237   1.91105674   0.89751775   0.15992054
 -12.56270231  -3.44287281  -0.91303223  99.26020196  49.78249093
   1.38883969]","[0.00000000e+00 0.00000000e+00 0.00000000e+00 2.22044605e-16
 0.00000000e+00 1.87384641e-01 2.13891974e-05 0.00000000e+00
 0.00000000e+00 0.00000000e+00 0.00000000e+00]",['Ti0' 'Te0' 'Aw' 'Ce' 'Ci' 'e11' 'p11' 'p22' 'Rea' 'Ria' 'Rie'],3126.67526945534,0.3655365516556115
victoria_control_concrete_schedFalse_job117,62.3060932856948,46.72694965719271,12670.84138960848,189.67377248111842,2575654.1983984793,0.0,0.0,7.34242451358464,"(0.11919938260018499, 0.8098521821644351)","[ 20.02148004  18.07817258   1.42703056   0.80985218   0.11919938
  -9.99877628 -10.70605326  -0.64341907  84.13190797  49.45108541
   2.61180142]","[0.00000000e+00 0.00000000e+00 0.00000000e+00 2.13906670e-11
 0.00000000e+00 0.00000000e+00 9.14594534e-01 0.00000000e+00
 1.25947039e-05 0.00000000e+00 2.22044605e-16]",['Ti0' 'Te0' 'Aw' 'Ce' 'Ci' 'e11' 'p11' 'p22' 'Rea' 'Ria' 'Rie'],3012.7960792476897,1.7925246645450814
victoria_control_concrete_schedFalse_job156,63.360241970243784,47.14679626390595,12670.515507122636,186.96280186125503,2581749.2128771334,0.0,0.0,7.2680379488369695,"(0.10160483857641, 0.80949103005164)","[ 20.12381339  18.45392803   1.33928921   0.80949103   0.10160484
 -22.85470274  -2.96322263  -0.73766417  85.26852099  49.54477558
   2.77541816]","[0.00000000e+00 0.00000000e+00 0.00000000e+00 2.66453526e-15
 0.00000000e+00 9.64909104e-01 0.00000000e+00 0.00000000e+00
 2.33582611e-07 0.00000000e+00 0.00000000e+00]",['Ti0' 'Te0' 'Aw' 'Ce' 'Ci' 'e11' 'p11' 'p22' 'Rea' 'Ria' 'Rie'],2945.04778783172,1.5508810287646
victoria_control_concrete_schedFalse_job20,64.50317855237307,47.84212292093698,12671.516764370332,187.96803926404544,2601441.3898418616,0.0,0.0,8.10514208790973,"(0.4212698546396379, 1.5263583319602)","[ 19.92046561  16.65711236   3.23047643   1.52635833   0.42126985
 -22.9878805   -2.82385215  -0.71496276  73.51308203  48.96031736
   0.90506692]","[0.00000000e+00 0.00000000e+00 1.66439346e-07 7.55182506e-04
 6.28267462e-08 5.69336006e-01 0.00000000e+00 0.00000000e+00
 2.00284127e-02 2.54748012e-06 3.80928475e-08]",['Ti0' 'Te0' 'Aw' 'Ce' 'Ci' 'e11' 'p11' 'p22' 'Rea' 'Ria' 'Rie'],3115.17360017786,3.1699966682322707
victoria_control_concrete_schedFalse_job14,60.34399039804627,45.44567524287841,12670.641919989714,186.78625665290025,2572500.947943663,0.0,0.0,6.69428472910525,"(0.10217411077191099, 0.797879203731705)","[ 20.1280102   16.86650232   1.55652207   0.7978792    0.10217411
 -24.37335616 -13.3709772   -0.92240459  97.9273907   49.66034318
   1.7934234 ]","[0.00000000e+00 0.00000000e+00 0.00000000e+00 0.00000000e+00
 0.00000000e+00 1.66572861e-01 2.06313398e-01 0.00000000e+00
 3.77475828e-15 0.00000000e+00 0.00000000e+00]",['Ti0' 'Te0' 'Aw' 'Ce' 'Ci' 'e11' 'p11' 'p22' 'Rea' 'Ria' 'Rie'],3050.7072064462104,1.06824343475214
victoria_control_concrete_schedFalse_job179,91.84750406761816,61.87518297291461,12673.187117749234,192.49094799677087,2508349.3490126673,0.0,0.0,8.18545746005998,"(0.492696921327539, 1.79360964395383)","[ 19.12094305  17.04418111   3.69268838   1.79360964   0.49269692
 -10.81277374 -10.01854225  -0.98791989  97.49934732  24.25347431
   0.41506023]","[0.00000000e+00 0.00000000e+00 1.39660306e-06 2.32186692e-03
 1.51892921e-07 0.00000000e+00 1.44392922e-03 0.00000000e+00
 9.96037466e-03 0.00000000e+00 3.92616326e-08]",['Ti0' 'Te0' 'Aw' 'Ce' 'Ci' 'e11' 'p11' 'p22' 'Rea' 'Ria' 'Rie'],3146.5401091664503,4.678854833119219
victoria_control_concrete_schedFalse_job92,66.55451636239437,48.94246096526466,12670.477597004463,187.68923454419917,2548653.3209161116,0.0,0.0,8.05565502357218,"(0.320243141104219, 1.2354556190656)","[ 20.07997652  17.24216846   2.62968024   1.23545562   0.32024314
 -25.93038623  -2.65190151  -0.80551411  73.62935992  49.42072753
   1.08631078]","[0.00000000e+00 0.00000000e+00 3.75255382e-14 5.35846298e-07
 2.06501483e-14 0.00000000e+00 0.00000000e+00 0.00000000e+00
 7.10400761e-06 0.00000000e+00 1.11022302e-15]",['Ti0' 'Te0' 'Aw' 'Ce' 'Ci' 'e11' 'p11' 'p22' 'Rea' 'Ria' 'Rie'],2983.9011441459998,1.925095963127939
victoria_control_concrete_schedFalse_job173,62.8120742122354,46.85080822155207,12670.911285648504,187.09346531484601,2575950.3685615063,0.0,0.0,7.05193753185655,"(0.10019193635583, 0.783274662494265)","[ 20.09006495  15.9053817    1.38296403   0.78327466   0.10019194
 -22.81527132  -3.10559288  -0.79692484  89.68146822  49.57338299
   2.55014855]","[0.00000000e+00 0.00000000e+00 0.00000000e+00 1.77635684e-15
 0.00000000e+00 2.44321013e-01 0.00000000e+00 0.00000000e+00
 9.75103152e-08 0.00000000e+00 0.00000000e+00]",['Ti0' 'Te0' 'Aw' 'Ce' 'Ci' 'e11' 'p11' 'p22' 'Rea' 'Ria' 'Rie'],3010.7893060989195,1.4893907968454707
victoria_control_concrete_schedFalse_job146,56.81299559355434,43.404904639767636,12670.427213672336,186.6249461925243,2627950.9882056336,0.0,0.0,6.70565765970358,"(0.6469462469540329, 2.4564086563829304)","[20.36155136 17.74253548  4.66793903  2.45640866  0.64694625 -9.55587313
 -9.24540955 -0.75551427 98.94580378 49.64312768  0.53887237]","[0.00000000e+00 0.00000000e+00 9.75213683e-04 2.14456192e-02
 1.82620725e-04 0.00000000e+00 3.47378263e-01 0.00000000e+00
 0.00000000e+00 0.00000000e+00 1.83003107e-04]",['Ti0' 'Te0' 'Aw' 'Ce' 'Ci' 'e11' 'p11' 'p22' 'Rea' 'Ria' 'Rie'],3207.2407356045896,0.5637205243400398
victoria_control_concrete_schedFalse_job79,82.37826422919552,57.22023158034833,12672.308257063698,190.17555131138505,2526786.599109346,0.0,0.0,7.90433975941676,"(0.562170748149895, 2.1834972317613603)","[ 19.48096888  14.61841784   4.22910595   2.18349723   0.56217075
 -10.31787511  -3.69921669  -0.92483478  97.42174709  28.65242487
   0.43860841]","[0.00000000e+00 0.00000000e+00 5.69572065e-04 2.34624351e-02
 1.59446080e-05 0.00000000e+00 4.42905079e-05 0.00000000e+00
 1.00871463e-03 5.04121189e-11 2.15640228e-05]",['Ti0' 'Te0' 'Aw' 'Ce' 'Ci' 'e11' 'p11' 'p22' 'Rea' 'Ria' 'Rie'],3138.34309188531,3.3606447737639398
victoria_control_concrete_schedFalse_job6,64.66811202406053,47.900363907176114,12671.201861139298,187.47034087123748,2579005.7190123736,0.0,0.0,8.07560711615544,"(0.37781213093443106, 1.3445646814388201)","[ 19.95193689  16.64770143   2.87918598   1.34456468   0.37781213
 -23.00558482  -2.74849089  -0.70201144  73.54842541  49.24435694
   1.03691685]","[0.00000000e+00 0.00000000e+00 1.63849312e-09 1.34615541e-04
 5.99446714e-10 1.26576201e-01 0.00000000e+00 0.00000000e+00
 1.95328975e-03 1.24567023e-13 2.41623832e-10]",['Ti0' 'Te0' 'Aw' 'Ce' 'Ci' 'e11' 'p11' 'p22' 'Rea' 'Ria' 'Rie'],3057.02341902125,2.573282245914159
victoria_control_concrete_schedFalse_job1,71.19600347969994,51.480090295871214,12671.75238694617,188.66723286470105,2575973.3703618953,0.0,0.0,9.136702880924869,"(0.49436736746678395, 2.24467611700613)","[ 19.76196699  16.96511254   4.1744873    2.24467612   0.49436737
  -9.55339298 -11.06018722  -0.94090103  60.51168213  48.340305
   0.59668522]","[0.00000000e+00 0.00000000e+00 9.45330231e-06 2.59438630e-03
 7.67489467e-07 0.00000000e+00 9.71245279e-01 0.00000000e+00
 5.56008713e-02 9.09542516e-03 4.15376686e-07]",['Ti0' 'Te0' 'Aw' 'Ce' 'Ci' 'e11' 'p11' 'p22' 'Rea' 'Ria' 'Rie'],3273.77654883593,2.954920686759829
victoria_control_concrete_schedFalse_job154,,,,,,,,,,,,,,
victoria_control_concrete_schedFalse_job55,67.1991124600534,49.40246619537177,12671.41744186411,189.3280420748401,2562297.737754357,0.0,0.0,8.10187767783921,"(0.827833962691942, 4.47319808593378)","[19.84654207 16.97676915  7.19147741  4.47319809  0.82783396 -9.89712782
 -3.92173774 -0.8660828  74.92590862 48.13124128  0.37102808]","[0.         0.         0.0471343  0.1333461  0.03362343 0.
 0.00053421 0.         0.28621059 0.01204272 0.03803603]",['Ti0' 'Te0' 'Aw' 'Ce' 'Ci' 'e11' 'p11' 'p22' 'Rea' 'Ria' 'Rie'],3252.97616517596,7.855578341828389
victoria_control_concrete_schedFalse_job193,72.48334390661735,52.119894456097285,12671.349345961095,188.276391517223,2526192.0383603815,0.0,0.0,8.89699352822294,"(0.43005596601397705, 2.07319472655824)","[19.86375951 16.97024304  3.83060187  2.07319473  0.43005597 -9.40797824
 -4.67382271 -0.88912694 62.55521795 49.11773272  0.72456843]","[0.00000000e+00 0.00000000e+00 3.92888447e-07 7.53293381e-04
 3.23312996e-07 0.00000000e+00 3.43586998e-01 0.00000000e+00
 2.21852322e-02 6.23073837e-09 2.82492643e-08]",['Ti0' 'Te0' 'Aw' 'Ce' 'Ci' 'e11' 'p11' 'p22' 'Rea' 'Ria' 'Rie'],3196.35545785817,3.3741639679031596
victoria_control_concrete_schedFalse_job165,70.8052299267768,51.240811649156164,12671.528941364317,188.19893314595845,2562016.686216115,0.0,0.0,9.134403558611721,"(0.43958787835861296, 2.1294175630779697)","[ 19.80128247  17.09541468   3.93347511   2.12941756   0.43958788
  -9.52004615 -10.83104124  -0.95673241  59.87156359  48.95619113
   0.64846817]","[0.00000000e+00 0.00000000e+00 2.14707223e-07 5.57723681e-04
 3.34592183e-08 0.00000000e+00 9.49711069e-01 0.00000000e+00
 2.04814325e-03 1.09299771e-08 1.16598122e-08]",['Ti0' 'Te0' 'Aw' 'Ce' 'Ci' 'e11' 'p11' 'p22' 'Rea' 'Ria' 'Rie'],3239.10098720785,2.39818402990608
victoria_control_concrete_schedFalse_job18,,,,,,,,,,,,,,
victoria_control_concrete_schedFalse_job162,85.97019731259432,58.97702781041504,12673.198422725522,190.66104818586933,2530036.4083500896,0.0,0.0,11.4856582408122,"(0.203355639701116, 1.05299755473672)","[ 19.31395699  14.34194323   2.00453904   1.05299755   0.20335564
  -9.57047043 -10.45503068  -0.68678058  44.02982571  41.53361648
   1.50165926]","[0.00000000e+00 0.00000000e+00 0.00000000e+00 2.78208856e-09
 0.00000000e+00 0.00000000e+00 9.55093602e-01 0.00000000e+00
 3.24260702e-01 2.60576826e-01 0.00000000e+00]",['Ti0' 'Te0' 'Aw' 'Ce' 'Ci' 'e11' 'p11' 'p22' 'Rea' 'Ria' 'Rie'],2902.39037502992,2.358931191656101
victoria_control_concrete_schedFalse_job8,,,,,,,,,,,,,,
victoria_control_concrete_schedFalse_job140,,,,,,,,,,,,,,
victoria_control_concrete_schedFalse_job189,59.85487068957632,45.295060435034245,12669.800295673691,188.98388068244344,2577902.6182665545,0.0,0.0,6.7228070320891495,"(0.158705916277163, 0.8934864717463771)","[ 20.21307763  16.3616866    1.88889739   0.89348647   0.15870592
 -10.51714102  -9.498532    -0.90807246  97.71073165  49.65376274
   1.38289569]","[0.00000000e+00 0.00000000e+00 0.00000000e+00 1.08801856e-14
 0.00000000e+00 0.00000000e+00 4.01611694e-04 0.00000000e+00
 1.33226763e-14 0.00000000e+00 0.00000000e+00]",['Ti0' 'Te0' 'Aw' 'Ce' 'Ci' 'e11' 'p11' 'p22' 'Rea' 'Ria' 'Rie'],3105.66672104208,1.0824209761517114
victoria_control_concrete_schedFalse_job175,65.74826483626407,48.46630571056229,12670.71402922944,187.11027513991363,2549452.775586227,0.0,0.0,7.756616984755781,"(0.348238140120058, 1.306359066657)","[ 20.04158255  16.7629006    2.72560894   1.30635907   0.34823814
 -12.64472181  -2.71391715  -0.69312651  78.45012947  49.34010508
   1.13194918]","[0.00000000e+00 0.00000000e+00 4.73499018e-11 5.47315035e-05
 7.24744709e-11 1.01043949e-01 0.00000000e+00 0.00000000e+00
 1.28429733e-03 0.00000000e+00 1.76103576e-12]",['Ti0' 'Te0' 'Aw' 'Ce' 'Ci' 'e11' 'p11' 'p22' 'Rea' 'Ria' 'Rie'],3014.75477522745,2.5906019525792194
victoria_control_concrete_schedFalse_job196,84.83417333895737,58.38058641989232,12672.495811710207,190.02851320273206,2530635.271867392,0.0,0.0,7.84351694187213,"(0.49418283975285, 1.85937168725785)","[ 19.47556613  14.82631642   3.60538804   1.85937169   0.49418284
  -9.98986113 -10.62138785  -0.94618541  97.62160269  29.39745752
   0.4747678 ]","[0.00000000e+00 0.00000000e+00 2.35601391e-05 7.93531395e-03
 3.63120026e-07 0.00000000e+00 9.72970623e-01 0.00000000e+00
 2.00034716e-02 6.06567438e-07 7.98828627e-07]",['Ti0' 'Te0' 'Aw' 'Ce' 'Ci' 'e11' 'p11' 'p22' 'Rea' 'Ria' 'Rie'],3140.80209071289,4.4834753877827715
victoria_control_concrete_schedFalse_job118,71.28659783803444,51.79664973839909,12671.540307858557,192.3273420096273,2614500.9098652494,0.0,0.0,9.53318264145919,"(0.6920530980400811, 3.59536198350547)","[ 19.63709051  16.93083384   6.19258515   3.59536198   0.6920531
  -9.76945767 -11.33771365  -0.97566795  61.10638131  43.39031675
   0.40006491]","[0.         0.         0.00674986 0.04574137 0.00267321 0.
 0.94859534 0.         0.7787096  0.68533977 0.00255152]",['Ti0' 'Te0' 'Aw' 'Ce' 'Ci' 'e11' 'p11' 'p22' 'Rea' 'Ria' 'Rie'],3328.2385454325104,19.92018032698401
victoria_control_concrete_schedFalse_job99,74.87731176490581,53.49571964029268,12672.364784744143,190.1505016273151,2637139.474722359,0.0,0.0,7.6802918523956905,"(0.69997421594413, 3.65162663262707)","[ 19.57247418  17.10826034   6.14348927   3.65162663   0.69997422
  -9.8796378  -11.00486555  -1.0523127   96.94366141  32.91166732
   0.34805666]","[0.00000000e+00 0.00000000e+00 3.69674720e-02 1.16009675e-01
 1.87775104e-02 0.00000000e+00 7.63580242e-01 0.00000000e+00
 1.00748388e-02 7.27022888e-05 2.03784444e-02]",['Ti0' 'Te0' 'Aw' 'Ce' 'Ci' 'e11' 'p11' 'p22' 'Rea' 'Ria' 'Rie'],3313.88682784357,3.9461045308129084
victoria_control_concrete_schedFalse_job23,51.88462442755615,40.42417288450158,12669.570382390859,185.69371528721408,2579057.2109390534,0.0,0.0,6.759449288097009,"(1.7298355639894099, 7.5551593542047)","[ 20.51624182  17.87065499  11.69845685   7.55515935   1.72983556
 -10.61955017  -3.43195341  -0.77381183  98.3196073   49.41431944
   0.20711955]","[0.         0.         0.4471051  0.52281876 0.42107152 0.
 0.         0.         0.         0.         0.43729044]",['Ti0' 'Te0' 'Aw' 'Ce' 'Ci' 'e11' 'p11' 'p22' 'Rea' 'Ria' 'Rie'],3344.67908994593,0.95585104404796
victoria_control_concrete_schedFalse_job158,57.790538691329296,43.997099561807815,12670.8325744634,187.05647623713352,2578306.072866703,0.0,0.0,6.66090620432374,"(0.252472917682561, 0.970623028563939)","[ 20.15979342  14.40459096   2.17851304   0.97062303   0.25247292
 -23.28538832  -2.80465327  -0.71367275  99.0463985   49.72073439
   1.36258961]","[0.00000000e+00 0.00000000e+00 0.00000000e+00 4.65997834e-08
 2.22044605e-16 6.39708859e-01 0.00000000e+00 0.00000000e+00
 0.00000000e+00 0.00000000e+00 1.11022302e-15]",['Ti0' 'Te0' 'Aw' 'Ce' 'Ci' 'e11' 'p11' 'p22' 'Rea' 'Ria' 'Rie'],3025.16745620664,0.49167952001431026
victoria_control_concrete_schedFalse_job51,76.3553912621211,54.211752939511975,12672.763096877148,189.73089109532268,2616536.031489216,0.0,0.0,7.66917758677557,"(0.6692296463758629, 3.30658313272403)","[ 19.48656639  17.02779513   5.51538459   3.30658313   0.66922965
  -9.93260762 -10.788799    -1.05039781  97.58929979  32.45554751
   0.34723043]","[0.00000000e+00 0.00000000e+00 4.60827147e-02 1.41497357e-01
 1.67379425e-02 0.00000000e+00 9.85554836e-01 0.00000000e+00
 1.65673585e-04 2.13329047e-07 2.10926316e-02]",['Ti0' 'Te0' 'Aw' 'Ce' 'Ci' 'e11' 'p11' 'p22' 'Rea' 'Ria' 'Rie'],3281.60337508886,2.744003620000731
victoria_control_concrete_schedFalse_job150,,,,,,,,,,,,,,
victoria_control_concrete_schedFalse_job75,74.51733928804998,53.25871804199912,12672.44078933708,189.47784688997586,2619723.275440233,0.0,0.0,7.58018115629011,"(0.903211242280521, 5.04600166644775)","[ 19.5958864   17.0115445    7.80109711   5.04600167   0.90321124
  -9.92363811 -10.95890251  -1.03382918  96.84182956  34.80357072
   0.27756823]","[0.         0.         0.1383947  0.25089773 0.10172349 0.
 0.98267255 0.         0.00467731 0.00195814 0.10897499]",['Ti0' 'Te0' 'Aw' 'Ce' 'Ci' 'e11' 'p11' 'p22' 'Rea' 'Ria' 'Rie'],3317.93522168314,3.7204639896990885
victoria_control_concrete_schedFalse_job5,54.684530384123015,42.14751609734867,12670.039343857869,186.54777995547698,2620954.5666534025,0.0,0.0,6.6956088908161,"(0.6226423041869039, 2.30808273180612)","[20.37361304 17.71781135  4.54397177  2.30808273  0.6226423  -9.51728147
 -4.86820772 -0.74097487 99.08039807 49.68710329  0.58411346]","[0.00000000e+00 0.00000000e+00 3.06022182e-04 1.21874222e-02
 7.72241340e-05 0.00000000e+00 6.59476114e-01 0.00000000e+00
 0.00000000e+00 0.00000000e+00 3.78592865e-05]",['Ti0' 'Te0' 'Aw' 'Ce' 'Ci' 'e11' 'p11' 'p22' 'Rea' 'Ria' 'Rie'],3217.1704713403997,1.0375129334468411
victoria_control_concrete_schedFalse_job176,70.61090651966401,51.28057874482975,12671.670728387528,190.13121575215663,2612077.0338125792,0.0,0.0,9.35198745533986,"(0.5081917684012821, 2.24445367722822)","[ 19.73342165  16.90704423   4.30259518   2.24445368   0.50819177
  -9.58830151 -11.13476716  -0.9441541   57.87030091  48.47421741
   0.58462426]","[0.00000000e+00 0.00000000e+00 1.46964863e-05 2.78673052e-03
 2.46738239e-06 0.00000000e+00 6.94240337e-01 0.00000000e+00
 3.47806429e-03 3.43168007e-04 9.02426492e-07]",['Ti0' 'Te0' 'Aw' 'Ce' 'Ci' 'e11' 'p11' 'p22' 'Rea' 'Ria' 'Rie'],3293.29294333544,1.8924343273536408
victoria_control_concrete_schedFalse_job130,63.82649093881657,47.457731160542345,12671.590076777473,187.79378284531572,2599004.3575737095,0.0,0.0,7.8875998676949,"(0.200443546226318, 0.939950262187587)","[19.92850911 17.57898438  2.02411448  0.93995026  0.20044355 -9.94665667
 -3.70596051 -0.69778823 75.99413356 49.25980686  1.52733865]","[0.00000000e+00 0.00000000e+00 0.00000000e+00 6.68723543e-09
 0.00000000e+00 0.00000000e+00 9.98132043e-03 0.00000000e+00
 1.11105018e-04 8.65973959e-15 0.00000000e+00]",['Ti0' 'Te0' 'Aw' 'Ce' 'Ci' 'e11' 'p11' 'p22' 'Rea' 'Ria' 'Rie'],3004.89471980664,1.9041922444448796
victoria_control_concrete_schedFalse_job27,69.05809316476902,50.57801805476191,12670.012277670796,191.8668949157813,2519135.1898884377,0.0,0.0,8.83802644823653,"(0.61322338276698, 2.39523515211504)","[ 19.92169197  16.77661048   4.68081631   2.39523515   0.61322338
 -10.31030653  -3.12447428  -0.77358487  64.03209402  48.54199052
   0.57334785]","[0.         0.         0.00123089 0.02861149 0.00035941 0.
 0.         0.         0.031759   0.         0.0004852 ]",['Ti0' 'Te0' 'Aw' 'Ce' 'Ci' 'e11' 'p11' 'p22' 'Rea' 'Ria' 'Rie'],3150.5249612894395,4.089922487821669
victoria_control_concrete_schedFalse_job182,60.46838325455828,45.656542446802185,12670.453651745514,189.1727281171926,2536458.4369654404,0.0,0.0,6.71833242908313,"(0.10029315091667099, 0.7600456814679591)","[ 20.07620431  15.4216543    1.31710075   0.76004568   0.10029315
 -22.16666579  -3.07929752  -0.70637938  96.27669437  49.5954618
   2.97430396]","[0.00000000e+00 0.00000000e+00 0.00000000e+00 1.66977543e-13
 0.00000000e+00 9.03928010e-01 0.00000000e+00 0.00000000e+00
 2.20628728e-07 0.00000000e+00 0.00000000e+00]",['Ti0' 'Te0' 'Aw' 'Ce' 'Ci' 'e11' 'p11' 'p22' 'Rea' 'Ria' 'Rie'],3033.5506176824297,1.5441771434628109
victoria_control_concrete_schedFalse_job60,77.93613931301012,54.98209844914328,12672.110038543671,189.47264940760064,2590811.3543123947,0.0,0.0,7.73106300087364,"(0.6699187664110899, 3.36850862197926)","[ 19.56705499  17.10998978   5.79729857   3.36850862   0.66991877
  -9.85405057 -10.76067355  -1.05576974  97.28460992  31.70898803
   0.35472063]","[0.00000000e+00 0.00000000e+00 2.34390292e-02 9.46940064e-02
 7.33124072e-03 0.00000000e+00 8.96807522e-01 0.00000000e+00
 1.64995050e-03 2.74930627e-05 9.82790849e-03]",['Ti0' 'Te0' 'Aw' 'Ce' 'Ci' 'e11' 'p11' 'p22' 'Rea' 'Ria' 'Rie'],3286.8969593482598,3.2670672951614588
victoria_control_concrete_schedFalse_job151,55.30419897456743,42.53311455201551,12669.892993327228,186.90345845638714,2598285.226179951,0.0,0.0,6.695364128061639,"(0.5958482085443161, 2.1583836390232)","[ 20.38003929  17.73260602   4.28377241   2.15838364   0.59584821
  -9.50873737 -12.4426118   -0.75479766  99.07238569  49.684564
   0.60012497]","[0.00000000e+00 0.00000000e+00 8.52609152e-05 7.22709704e-03
 1.34570186e-05 0.00000000e+00 1.84647149e-03 0.00000000e+00
 0.00000000e+00 0.00000000e+00 9.99110645e-06]",['Ti0' 'Te0' 'Aw' 'Ce' 'Ci' 'e11' 'p11' 'p22' 'Rea' 'Ria' 'Rie'],3222.6078032292103,0.5660140979082211
victoria_control_concrete_schedFalse_job192,81.89510775384716,57.02228437967951,12671.702791150503,190.5725336589969,2490221.62678818,0.0,0.0,7.782276342338821,"(0.46481074897213503, 1.9823444991838)","[ 19.6574615   17.07364324   3.70380395   1.9823445    0.46481075
  -9.50469677 -10.40534251  -1.00088966  96.07960084  31.8672092
   0.55029749]","[0.00000000e+00 0.00000000e+00 1.83672390e-06 1.21906684e-03
 2.06488181e-07 0.00000000e+00 7.83728508e-01 0.00000000e+00
 1.34812232e-01 1.05717836e-04 7.23805000e-08]",['Ti0' 'Te0' 'Aw' 'Ce' 'Ci' 'e11' 'p11' 'p22' 'Rea' 'Ria' 'Rie'],3186.77460194513,6.765189180032979
victoria_control_concrete_schedFalse_job39,,,,,,,,,,,,,,
victoria_control_concrete_schedFalse_job120,75.98899554851587,53.98742459710359,12672.475835037048,189.24624554411187,2546918.595159868,0.0,0.0,7.52447837186694,"(1.03696246264223, 6.572674862641879)","[ 19.53395327  16.97258094   9.42488982   6.57267486   1.03696246
  -9.95017399 -12.12461942  -1.02857004  96.70600782  35.96016872
   0.23340142]","[0.         0.         0.21739222 0.32101671 0.18868439 0.
 0.15093546 0.         0.0648393  0.05336413 0.19536709]",['Ti0' 'Te0' 'Aw' 'Ce' 'Ci' 'e11' 'p11' 'p22' 'Rea' 'Ria' 'Rie'],3283.13434818979,4.698526745679561
victoria_control_concrete_schedFalse_job33,73.89627659568609,52.93582874540618,12671.948805974167,189.4154250532192,2621448.327414606,0.0,0.0,7.616624517221731,"(0.785900814299415, 3.85621796374064)","[ 19.66650033  16.91113836   6.36330388   3.85621796   0.78590081
  -9.8052887  -11.17947425  -0.9903639   95.9638046   34.97787844
   0.35007195]","[0.         0.         0.02270756 0.09070533 0.01109759 0.
 0.98477548 0.         0.07326599 0.00152208 0.01192829]",['Ti0' 'Te0' 'Aw' 'Ce' 'Ci' 'e11' 'p11' 'p22' 'Rea' 'Ria' 'Rie'],3328.14314638899,5.420676464418269
victoria_control_concrete_schedFalse_job42,61.89461038584588,46.333814582691645,12670.945756550514,187.01749459313584,2552370.3696660916,0.0,0.0,7.06394580721292,"(0.10186383782503901, 0.7837611470321071)","[ 20.04224598  18.13229851   1.27028133   0.78376115   0.10186384
 -22.13367747  -3.06904934  -0.63448113  88.89098351  49.47080486
   3.20215157]","[0.00000000e+00 0.00000000e+00 0.00000000e+00 2.02007300e-11
 0.00000000e+00 4.76521865e-01 0.00000000e+00 0.00000000e+00
 1.18312343e-05 0.00000000e+00 0.00000000e+00]",['Ti0' 'Te0' 'Aw' 'Ce' 'Ci' 'e11' 'p11' 'p22' 'Rea' 'Ria' 'Rie'],3008.92535974286,1.8291167265236412
victoria_control_concrete_schedFalse_job2,69.98555762976065,50.81216998335024,12672.165705572259,188.22646490079893,2597906.2874265476,0.0,0.0,8.28637089343175,"(0.5858596229386109, 3.1911753464993797)","[ 19.83197466  17.15112422   5.28604976   3.19117535   0.58585962
  -9.68778312 -10.07091377  -0.89847283  72.81567224  47.37512936
   0.48929018]","[0.         0.         0.00810146 0.05346803 0.00474105 0.
 0.98784316 0.         0.5004875  0.27924908 0.00485105]",['Ti0' 'Te0' 'Aw' 'Ce' 'Ci' 'e11' 'p11' 'p22' 'Rea' 'Ria' 'Rie'],3223.04822010276,9.06653500300475
victoria_control_concrete_schedFalse_job153,60.855093563335764,45.92354044647241,12670.403082962026,189.97240950945684,2643843.778653419,0.0,0.0,6.79665706365471,"(0.100156261176625, 0.799525811217609)","[ 20.1054571   15.72738888   1.30643151   0.79952581   0.10015626
 -23.42116138  -3.08361525  -0.75550324  94.73917195  49.61567852
   2.77630395]","[0.00000000e+00 0.00000000e+00 0.00000000e+00 3.46389584e-14
 0.00000000e+00 5.74954228e-01 0.00000000e+00 0.00000000e+00
 2.24180327e-07 0.00000000e+00 0.00000000e+00]",['Ti0' 'Te0' 'Aw' 'Ce' 'Ci' 'e11' 'p11' 'p22' 'Rea' 'Ria' 'Rie'],3021.05523254826,1.5668766622299302
victoria_control_concrete_schedFalse_job185,59.08468816493759,44.74454482395233,12670.887616651273,187.07977145461768,2613557.631348228,0.0,0.0,6.67810836657666,"(0.273837136984558, 1.05970070246005)","[ 20.20779523  15.18517091   2.40225925   1.0597007    0.27383714
 -11.13412487  -3.02588867  -0.78364528  98.97972103  49.70624938
   1.05703242]","[0.00000000e+00 0.00000000e+00 3.64597241e-13 2.00335230e-06
 3.14916981e-11 1.46896940e-07 0.00000000e+00 0.00000000e+00
 0.00000000e+00 0.00000000e+00 2.02937667e-11]",['Ti0' 'Te0' 'Aw' 'Ce' 'Ci' 'e11' 'p11' 'p22' 'Rea' 'Ria' 'Rie'],3042.62849747271,0.6008409861624706
victoria_control_concrete_schedFalse_job197,60.157379623368655,45.33742118072715,12670.520244493364,186.74670700353687,2597539.473395058,0.0,0.0,6.62398809016801,"(0.138263667412637, 0.862355567263499)","[ 20.25189556  16.36249064   1.71934595   0.86235557   0.13826367
 -11.34565011  -3.37928593  -0.92062827  99.46472873  49.83582613
   1.66590014]","[0.00000000e+00 0.00000000e+00 0.00000000e+00 0.00000000e+00
 0.00000000e+00 1.93929201e-06 6.75210599e-09 0.00000000e+00
 0.00000000e+00 0.00000000e+00 0.00000000e+00]",['Ti0' 'Te0' 'Aw' 'Ce' 'Ci' 'e11' 'p11' 'p22' 'Rea' 'Ria' 'Rie'],3108.0113972222102,0.27134159331231
victoria_control_concrete_schedFalse_job157,,,,,,,,,,,,,,
victoria_control_concrete_schedFalse_job131,60.104146239465585,45.45083082908612,12669.929963058628,189.21176188691854,2552243.794255691,0.0,0.0,6.701519017202389,"(0.103490333553678, 0.739649594414413)","[ 20.13814933  15.22004715   1.30076444   0.73964959   0.10349033
 -24.1444031   -3.08859829  -0.65162685  96.51176355  49.6157631
   3.09237371]","[0.00000000e+00 0.00000000e+00 0.00000000e+00 3.31801253e-12
 0.00000000e+00 6.97613372e-01 0.00000000e+00 0.00000000e+00
 1.31230525e-07 0.00000000e+00 0.00000000e+00]",['Ti0' 'Te0' 'Aw' 'Ce' 'Ci' 'e11' 'p11' 'p22' 'Rea' 'Ria' 'Rie'],3031.7391279633002,1.5282167408801515
victoria_control_concrete_schedFalse_job21,78.03376914309425,55.13795305249024,12670.589774933973,190.75086067126958,2511841.179127334,0.0,0.0,9.8876633491689,"(0.41338711535564, 1.9833738100468998)","[ 19.78913668  17.18366244   3.63616452   1.98337381   0.41338712
  -9.42221611 -10.96764202  -0.99048797  51.65186013  48.85356523
   0.63070404]","[0.00000000e+00 0.00000000e+00 7.43767381e-09 1.95355061e-04
 2.27831309e-10 0.00000000e+00 9.22626991e-01 0.00000000e+00
 1.20092637e-03 7.59159434e-06 1.51267887e-11]",['Ti0' 'Te0' 'Aw' 'Ce' 'Ci' 'e11' 'p11' 'p22' 'Rea' 'Ria' 'Rie'],3165.28183305549,1.9050901373220004
victoria_control_concrete_schedFalse_job128,74.5701318006283,53.240674686801256,12672.331734679605,188.91003493949177,2592460.822704104,0.0,0.0,7.649966050035321,"(0.539072134581846, 2.56320843732005)","[ 19.62647628  17.0379867    4.508883     2.56320844   0.53907213
  -9.72015097 -10.64121219  -1.00455651  96.19746372  34.03879448
   0.48327617]","[0.00000000e+00 0.00000000e+00 5.55508646e-04 1.66875312e-02
 8.90295495e-05 0.00000000e+00 9.68494118e-01 0.00000000e+00
 5.69747250e-02 3.82840508e-05 9.41204113e-05]",['Ti0' 'Te0' 'Aw' 'Ce' 'Ci' 'e11' 'p11' 'p22' 'Rea' 'Ria' 'Rie'],3265.45295662706,5.114695547449481
victoria_control_concrete_schedFalse_job56,61.33328516179152,46.203490927988675,12669.707201614836,190.11055570981546,2568161.6501213117,0.0,0.0,6.85470331927723,"(0.10025661422248101, 0.774977985836904)","[ 20.09842912  15.31266741   1.29408821   0.77497799   0.10025661
 -23.39754186  -3.03331445  -0.68966543  93.184217    49.62534171
   3.07567562]","[0.00000000e+00 0.00000000e+00 0.00000000e+00 4.46087611e-13
 0.00000000e+00 2.76144464e-01 0.00000000e+00 0.00000000e+00
 3.12918606e-07 0.00000000e+00 0.00000000e+00]",['Ti0' 'Te0' 'Aw' 'Ce' 'Ci' 'e11' 'p11' 'p22' 'Rea' 'Ria' 'Rie'],3010.8459326853804,1.5924103874607107
victoria_control_concrete_schedFalse_job66,,,,,,,,,,,,,,
victoria_control_concrete_schedFalse_job16,75.39692680711396,53.77559961752197,12672.008899941782,190.34058220597268,2567814.668896182,0.0,0.0,7.69323407072472,"(1.1357899220094398, 7.434812998953019)","[ 19.53754616  17.02458378  10.90159177   7.434813     1.13578992
 -10.02656916 -10.66828469  -1.03028384  96.19095513  33.58559876
   0.2077922 ]","[0.         0.         0.38917727 0.47809289 0.36209483 0.
 0.97992715 0.         0.04244802 0.03852899 0.3665645 ]",['Ti0' 'Te0' 'Aw' 'Ce' 'Ci' 'e11' 'p11' 'p22' 'Rea' 'Ria' 'Rie'],3285.08386078062,4.9108040548314795
victoria_control_concrete_schedFalse_job54,54.07996845309845,41.778418333991574,12670.012416655096,186.367526654758,2565515.0151732382,0.0,0.0,6.71393291610083,"(0.8352988503326501, 3.56004903507703)","[ 20.36160643  17.54751245   6.03632113   3.56004904   0.83529885
  -9.61060855 -10.70340875  -0.71709096  98.88215114  49.6130771
   0.44876815]","[0.         0.         0.01006537 0.0611992  0.00629012 0.
 0.8182384  0.         0.         0.         0.0061705 ]",['Ti0' 'Te0' 'Aw' 'Ce' 'Ci' 'e11' 'p11' 'p22' 'Rea' 'Ria' 'Rie'],3243.3394917501396,0.90945403314476
victoria_control_concrete_schedFalse_job190,,,,,,,,,,,,,,
victoria_control_concrete_schedFalse_job163,,,,,,,,,,,,,,
victoria_control_concrete_schedFalse_job73,91.09389551103632,61.45518067823911,12672.543459271366,191.73887723801812,2498062.503058318,0.0,0.0,10.460717740806698,"(0.222464214255034, 1.1557997459218101)","[19.38878125 14.40515733  2.10827195  1.15579975  0.22246421 -9.52566927
 -4.01097829 -0.70133087 62.67263631 31.59912383  1.32397476]","[0.00000000e+00 0.00000000e+00 0.00000000e+00 5.15222689e-08
 0.00000000e+00 0.00000000e+00 1.36872410e-02 0.00000000e+00
 6.19055099e-01 2.97660773e-01 0.00000000e+00]",['Ti0' 'Te0' 'Aw' 'Ce' 'Ci' 'e11' 'p11' 'p22' 'Rea' 'Ria' 'Rie'],2832.6407822002398,20.562552414662
victoria_control_concrete_schedFalse_job148,73.67060092896384,53.06600029891689,12671.510662853074,192.61866589015662,2580848.5559886275,0.0,0.0,9.92764972917109,"(0.7157984047917401, 3.83560693733809)","[ 19.66700079  16.93069651   6.70879759   3.83560694   0.7157984
  -9.73725921 -11.28429209  -0.96141809  52.9520827   47.38709089
   0.38960183]","[0.         0.         0.00727318 0.04988818 0.00405954 0.
 0.95014003 0.         0.31666435 0.21378465 0.00386353]",['Ti0' 'Te0' 'Aw' 'Ce' 'Ci' 'e11' 'p11' 'p22' 'Rea' 'Ria' 'Rie'],3306.30210939065,4.092938094190009
victoria_control_concrete_schedFalse_job36,57.439919178531746,43.79035429439988,12670.53402219758,186.99765280388127,2580734.434447834,0.0,0.0,6.65562493269166,"(0.261374074009734, 1.04385580399214)","[ 20.25997278  15.22781712   2.34906195   1.0438558    0.26137407
  -9.54857754 -10.52922527  -0.78393216  99.33481681  49.7890543
   1.12498007]","[0.00000000e+00 0.00000000e+00 0.00000000e+00 8.38245238e-08
 1.11022302e-15 0.00000000e+00 8.78545893e-01 0.00000000e+00
 0.00000000e+00 0.00000000e+00 0.00000000e+00]",['Ti0' 'Te0' 'Aw' 'Ce' 'Ci' 'e11' 'p11' 'p22' 'Rea' 'Ria' 'Rie'],3071.68735352611,0.26955039864088004
victoria_control_concrete_schedFalse_job32,72.90724924680174,52.38434977984328,12671.886435098704,188.86815226913106,2543202.2567002582,0.0,0.0,9.54569977651435,"(0.6233022312248989, 2.96731199704121)","[ 19.68745432  16.81667488   5.18313654   2.967312     0.62330223
  -9.60675907 -11.05991554  -0.91655922  57.0996032   47.18940684
   0.47020337]","[0.00000000e+00 0.00000000e+00 1.37452264e-03 2.50291383e-02
 7.52568098e-04 0.00000000e+00 9.52583338e-01 0.00000000e+00
 3.77713321e-01 2.58788368e-01 5.87062323e-04]",['Ti0' 'Te0' 'Aw' 'Ce' 'Ci' 'e11' 'p11' 'p22' 'Rea' 'Ria' 'Rie'],3254.83212217676,4.881328222946449
victoria_control_concrete_schedFalse_job61,57.114149505653685,43.59590762606119,12670.488207927725,186.9084421926774,2610249.0140007734,0.0,0.0,6.67008775963579,"(0.40115219899076393, 1.34771466059486)","[ 20.26653314  17.3212912    2.92424917   1.34771466   0.4011522
 -10.72055548  -2.93583648  -0.65932848  99.19544205  49.73844545
   0.98917739]","[0.00000000e+00 0.00000000e+00 1.96958450e-10 8.20024582e-05
 6.69016176e-10 0.00000000e+00 0.00000000e+00 0.00000000e+00
 0.00000000e+00 0.00000000e+00 1.03772546e-10]",['Ti0' 'Te0' 'Aw' 'Ce' 'Ci' 'e11' 'p11' 'p22' 'Rea' 'Ria' 'Rie'],3084.36597018027,0.4295483426767195
victoria_control_concrete_schedFalse_job114,75.07428148770953,53.528723251674556,12672.13046067946,189.3041332596121,2602228.312301653,0.0,0.0,7.53733865867887,"(0.956335598639208, 5.45823890812172)","[ 19.63288311  16.87509583   8.18368488   5.45823891   0.9563356
  -9.88092541 -11.33407071  -0.98473482  95.23436554  37.15247466
   0.2859831 ]","[0.         0.         0.09325053 0.18890637 0.07456427 0.
 0.90893023 0.         0.16297528 0.03066949 0.07507209]",['Ti0' 'Te0' 'Aw' 'Ce' 'Ci' 'e11' 'p11' 'p22' 'Rea' 'Ria' 'Rie'],3331.74422789455,6.76697212655983
victoria_control_concrete_schedFalse_job123,52.28860083958738,40.695602478063066,12669.9375959503,186.25007509461497,2564273.183482834,0.0,0.0,6.67848102654572,"(0.610159459063793, 2.06407457178687)","[ 20.45152023  17.66721246   4.14810464   2.06407457   0.61015946
 -10.16252584  -3.37907711  -0.72646277  99.32582509  49.76642972
   0.64239233]","[0.00000000e+00 0.00000000e+00 3.73604709e-05 5.86067005e-03
 1.24971026e-05 0.00000000e+00 0.00000000e+00 0.00000000e+00
 0.00000000e+00 0.00000000e+00 1.81504197e-05]",['Ti0' 'Te0' 'Aw' 'Ce' 'Ci' 'e11' 'p11' 'p22' 'Rea' 'Ria' 'Rie'],3293.56062210698,0.3268217925531198
victoria_control_concrete_schedFalse_job7,,,,,,,,,,,,,,
