fname,hlc_mat,hlc_tot,hlc_se,hlc_si,c_tot,hlc_inf_standard,hlc_inf_current,hlc_tot_pred,c_tot_pred,estimates,probt,names,loglik,err
victoria_control_wood_inf_schedTrue_job111,72.25856237676149,52.616481227020806,12668.04650920017,196.56704656190155,272470.27891531604,90.12179430565158,91.10568452861835,132.619866993768,"(0.80120053286945, 18.6219964470413)","[ 1.82073392e+01 -7.79224944e+00  4.13274541e+00  1.86219964e+01
  8.01200533e-01 -2.16174449e+01 -2.67894102e+00  2.81469349e+00
  1.20684464e-02  7.52827994e+00]","[0.         0.17446716 0.         0.9012369  0.         0.29349909
 0.         0.         0.90140778 0.        ]",['Ti0' 'Te0' 'Aw' 'Ce' 'Ci' 'e11' 'p11' 'p22' 'Rea' 'Rie'],2431.63665737101,5.343787505380988
victoria_control_wood_inf_schedTrue_job14,,,,,,,,,,,,,,
victoria_control_wood_inf_schedTrue_job6,,,,,,,,,,,,,,
victoria_control_wood_inf_schedTrue_job7,79.8896078513843,57.42512453783278,12665.369018882937,207.56566667105838,215741.54247670044,90.12179430565158,91.05483595813433,146.994131852587,"(0.9066435326159771, 19.948593873259398)","[ 1.81023053e+01 -5.09692194e-01  5.00995717e+00  1.99485939e+01
  9.06643533e-01 -3.42453954e+01 -3.19593568e+00  2.33823561e+00
  1.95319665e-02  6.78346069e+00]","[0.00000000e+00 8.59350089e-01 0.00000000e+00 9.50906082e-01
 1.23234756e-13 0.00000000e+00 0.00000000e+00 0.00000000e+00
 9.51128587e-01 0.00000000e+00]",['Ti0' 'Te0' 'Aw' 'Ce' 'Ci' 'e11' 'p11' 'p22' 'Rea' 'Rie'],3212.8198381051197,6.102605455098001
victoria_control_wood_inf_schedTrue_job99,74.81957831603907,54.029348711550675,12668.265143660006,197.47094157870117,303180.06566556887,90.12179430565158,91.0840793041935,136.778293384299,"(0.857384231713042, 19.2481681593907)","[ 1.81248110e+01 -2.48691975e+00  4.35563637e+00  1.92481682e+01
  8.57384232e-01 -9.85050839e+00 -9.89980504e+00  2.80991136e+00
  1.18857693e-02  7.29921583e+00]","[0.         0.59639248 0.         0.9514976  0.         0.
 0.98618571 0.         0.95144723 0.        ]",['Ti0' 'Te0' 'Aw' 'Ce' 'Ci' 'e11' 'p11' 'p22' 'Rea' 'Rie'],2660.9946962787803,5.333645933648029
victoria_control_wood_inf_schedTrue_job199,59.9946569574495,45.637405852913425,12666.422177235509,193.62020202900254,281717.4728104697,90.12179430565158,91.12292599180299,127.550543570514,"(0.9246931015052621, 17.8799362685429)","[ 1.81443937e+01 -4.97746848e+00  4.44943018e+00  1.78799363e+01
  9.24693102e-01 -1.09205779e+01 -3.08458352e+00  2.92565606e+00
  1.29271115e-02  7.82710220e+00]","[0.00000000e+00 3.57993607e-01 0.00000000e+00 9.58701331e-01
 7.61390950e-13 1.68400627e-02 3.18184417e-03 0.00000000e+00
 9.58708133e-01 0.00000000e+00]",['Ti0' 'Te0' 'Aw' 'Ce' 'Ci' 'e11' 'p11' 'p22' 'Rea' 'Rie'],2667.0577160141,5.569591355236
victoria_control_wood_inf_schedTrue_job152,68.66437371604083,50.815390905137825,12667.008060614411,198.54904971055183,240093.3334324857,90.12179430565158,91.0648068491144,138.1819193386,"(0.6780199325719771, 22.2157329306743)","[ 1.81130004e+01  1.10133313e+00  4.42934712e+00  2.22157329e+01
  6.78019933e-01 -1.00199279e+01 -9.86440350e+00  2.26044806e+00
  1.47648684e-02  7.22207194e+00]","[0.         0.71639223 0.         0.92575835 0.         0.
 0.97994367 0.         0.92620819 0.        ]",['Ti0' 'Te0' 'Aw' 'Ce' 'Ci' 'e11' 'p11' 'p22' 'Rea' 'Rie'],3021.29838823106,5.027804579904
victoria_control_wood_inf_schedTrue_job37,86.42648517119675,60.32255973118593,12667.78272294077,202.91885740093582,223827.3764947324,90.12179430565158,91.07909384161596,144.892362563592,"(0.8074447399050351, 21.214770249973)","[ 1.80596936e+01  1.81076588e+00  4.71182814e+00  2.12147702e+01
  8.07444740e-01 -1.03058984e+01 -3.25524465e+00  2.65361689e+00
  1.16411828e-02  6.89003384e+00]","[0.00000000e+00 6.44396721e-01 0.00000000e+00 9.42727280e-01
 0.00000000e+00 1.51954884e-06 1.00099825e-02 0.00000000e+00
 9.42766004e-01 0.00000000e+00]",['Ti0' 'Te0' 'Aw' 'Ce' 'Ci' 'e11' 'p11' 'p22' 'Rea' 'Rie'],2631.8478409068302,5.446293442614007
victoria_control_wood_inf_schedTrue_job168,64.33800731843667,48.273900467200214,12666.449823598365,196.3376548885824,282678.8441375868,90.12179430565158,91.1103506479806,129.722424354509,"(0.9117067778215091, 17.7154381843536)","[ 1.81247166e+01 -3.66633415e+00  4.51498744e+00  1.77154382e+01
  9.11706778e-01 -1.09511086e+01 -3.02045233e+00  3.04921985e+00
  1.18532252e-02  7.69691421e+00]","[0.00000000e+00 5.69200610e-01 0.00000000e+00 9.59122550e-01
 5.75095527e-14 6.17837041e-02 8.99496242e-03 0.00000000e+00
 9.59103380e-01 0.00000000e+00]",['Ti0' 'Te0' 'Aw' 'Ce' 'Ci' 'e11' 'p11' 'p22' 'Rea' 'Rie'],2420.90242839316,6.090263656726989
victoria_control_wood_inf_schedTrue_job117,62.31801473667723,47.11643781286492,12666.571870521453,196.14215347922482,248155.48394578916,90.12179430565158,91.1217543671998,126.906762490477,"(0.859346857541855, 19.794724032443)","[ 1.82035782e+01 -1.03794819e+01  4.22197927e+00  1.97947240e+01
  8.59346858e-01 -1.79076085e+01 -2.80541592e+00  3.09871138e+00
  9.63120174e-03  7.87016953e+00]","[0.00000000e+00 8.94210447e-02 0.00000000e+00 9.34951225e-01
 1.98974170e-12 7.40883857e-01 0.00000000e+00 0.00000000e+00
 9.35056808e-01 0.00000000e+00]",['Ti0' 'Te0' 'Aw' 'Ce' 'Ci' 'e11' 'p11' 'p22' 'Rea' 'Rie'],2324.04669240222,5.690338927765993
victoria_control_wood_inf_schedTrue_job34,,,,,,,,,,,,,,
victoria_control_wood_inf_schedTrue_job190,65.12594741961476,48.95425159118827,12665.949134131743,200.2635414448731,246958.92178907729,90.12179430565158,91.09168820874237,136.04742322111701,"(0.8190473869650892, 18.5218082020126)","[ 1.82158054e+01 -8.09547275e+00  4.66405229e+00  1.85218082e+01
  8.19047387e-01 -1.03888311e+01 -3.49299509e+00  2.68400885e+00
  1.47270942e-02  7.33565100e+00]","[0.00000000e+00 1.26444911e-01 0.00000000e+00 1.36111209e-01
 5.10702591e-15 0.00000000e+00 1.88402125e-06 0.00000000e+00
 1.57258471e-01 0.00000000e+00]",['Ti0' 'Te0' 'Aw' 'Ce' 'Ci' 'e11' 'p11' 'p22' 'Rea' 'Rie'],2689.56905553742,5.754873595091965
victoria_control_wood_inf_schedTrue_job161,81.05092081738569,57.53949209680112,12668.320759288328,201.5110079483441,251686.92089828505,90.12179430565158,91.071015503816,141.00975573255,"(0.9326242773034279, 16.758686586664)","[ 1.81330514e+01 -2.76314836e+00  4.50365629e+00  1.67586866e+01
  9.32624277e-01 -2.25749144e+01 -2.67107480e+00  2.94899129e+00
  1.18878959e-02  7.07982001e+00]","[0.00000000e+00 6.21235838e-01 0.00000000e+00 2.06892045e-01
 2.22044605e-16 0.00000000e+00 0.00000000e+00 0.00000000e+00
 2.10714277e-01 0.00000000e+00]",['Ti0' 'Te0' 'Aw' 'Ce' 'Ci' 'e11' 'p11' 'p22' 'Rea' 'Rie'],2442.30324190215,5.518240528604025
victoria_control_wood_inf_schedTrue_job165,71.05796898840597,52.110311679189,12666.933528828382,198.48763440739052,253031.77760267124,90.12179430565158,91.08041903272664,313.698937592073,"(3.2753445581389906, 26.8101233328865)","[ 18.59887118  15.80567999  39.58716316  26.81012333   3.27534456
 -22.31207465  -3.34522019  -0.32974695   3.11409601   0.07367379]","[0.00000000e+00 0.00000000e+00 0.00000000e+00 8.38123023e-04
 2.44094782e-07 9.55425609e-01 0.00000000e+00 1.35574274e-06
 7.81425657e-04 2.55478645e-08]",['Ti0' 'Te0' 'Aw' 'Ce' 'Ci' 'e11' 'p11' 'p22' 'Rea' 'Rie'],2507.3315969091896,178.61917084931605
victoria_control_wood_inf_schedTrue_job139,61.748100125918924,46.75332092219972,12666.003651558698,195.5006233944883,275899.7984419513,90.12179430565158,91.10917569615862,128.453611399294,"(0.929693334253135, 17.7448790453183)","[ 1.81224517e+01 -3.48010954e+00  4.44110815e+00  1.77448790e+01
  9.29693334e-01 -1.17883184e+01 -3.14023020e+00  2.96870229e+00
  1.25785756e-02  7.77233295e+00]","[0.00000000e+00 5.27443898e-01 0.00000000e+00 2.34101154e-01
 1.53210777e-14 2.91293546e-01 1.08989594e-02 0.00000000e+00
 2.26828500e-01 0.00000000e+00]",['Ti0' 'Te0' 'Aw' 'Ce' 'Ci' 'e11' 'p11' 'p22' 'Rea' 'Rie'],2624.58057905546,5.770831276526991
victoria_control_wood_inf_schedTrue_job188,84.7023552427959,59.54263772459999,12668.028862884079,203.67836709376516,263062.90105452854,90.12179430565158,91.06343545806924,142.681704847772,"(0.894564241831982, 18.7464708463511)","[ 1.81322063e+01 -2.80958784e+00  4.65245699e+00  1.87464708e+01
  8.94564242e-01 -9.44917342e+00 -9.85783870e+00  2.75124817e+00
  1.32430146e-02  6.99536402e+00]","[0.00000000e+00 5.39488089e-01 0.00000000e+00 9.19980350e-01
 3.99680289e-15 0.00000000e+00 9.85124954e-01 0.00000000e+00
 9.20317884e-01 0.00000000e+00]",['Ti0' 'Te0' 'Aw' 'Ce' 'Ci' 'e11' 'p11' 'p22' 'Rea' 'Rie'],2646.35212134843,6.130591858578981
victoria_control_wood_inf_schedTrue_job197,60.254122280919,45.831834090884776,12666.14646752212,194.4174936156096,255757.26672086318,90.12179430565158,91.07564203878991,132.079423910992,"(0.685981150688902, 22.435166669545897)","[ 1.81145706e+01  8.55997885e-01  4.28702796e+00  2.24351667e+01
  6.85981151e-01 -1.01249337e+01 -1.04812062e+01  2.36930411e+00
  1.31686071e-02  7.55803340e+00]","[0.         0.7809356  0.         0.92381784 0.         0.
 0.98541618 0.         0.92391535 0.        ]",['Ti0' 'Te0' 'Aw' 'Ce' 'Ci' 'e11' 'p11' 'p22' 'Rea' 'Rie'],2963.68232040415,4.709726510096999
victoria_control_wood_inf_schedTrue_job31,50.96927567037729,40.081277559429566,12665.720603541191,190.4512139551785,311302.98309585993,90.12179430565158,91.15057940806075,120.40596715207701,"(0.891874048881086, 16.8363993688186)","[ 1.81118730e+01 -6.95328866e+00  4.24797906e+00  1.68363994e+01
  8.91874049e-01 -9.66283779e+00 -9.94514460e+00  3.14279757e+00
  1.16222794e-02  8.29361394e+00]","[0.00000000e+00 3.08750974e-01 0.00000000e+00 9.62333582e-01
 2.57971422e-12 0.00000000e+00 9.87657178e-01 0.00000000e+00
 9.62330229e-01 0.00000000e+00]",['Ti0' 'Te0' 'Aw' 'Ce' 'Ci' 'e11' 'p11' 'p22' 'Rea' 'Rie'],2446.15716212568,5.832584400562993
victoria_control_wood_inf_schedTrue_job150,,,,,,,,,,,,,,
victoria_control_wood_inf_schedTrue_job12,,,,,,,,,,,,,,
victoria_control_wood_inf_schedTrue_job126,55.49419035929297,42.97583443695283,12665.769055670364,193.42234208069118,264811.93903913966,90.12179430565158,91.10412721030522,125.203533951787,"(0.7229197905998019, 0.10416873463068)","[ 18.6508178  -14.66796065   4.20521379   0.10416873   0.72291979
 -10.19146022  -9.56900676   2.24310595   3.67990948   4.30708552]","[0.00000000e+00 6.94978467e-07 0.00000000e+00 0.00000000e+00
 2.22044605e-16 0.00000000e+00 9.36854774e-01 0.00000000e+00
 6.51804615e-08 2.84753998e-10]",['Ti0' 'Te0' 'Aw' 'Ce' 'Ci' 'e11' 'p11' 'p22' 'Rea' 'Rie'],2491.02300904002,5.048004522445012
victoria_control_wood_inf_schedTrue_job41,69.57756731434961,51.337664170098165,12667.32827075955,198.90663390611655,236965.38144570257,90.12179430565158,91.09481989856991,135.299165273845,"(0.718427669275514, 20.3653706847605)","[ 1.81163606e+01 -1.14968383e-01  4.36684924e+00  2.03653707e+01
  7.18427669e-01 -2.16251165e+01 -2.89124627e+00  2.66838389e+00
  1.24615853e-02  7.37856701e+00]","[0.         0.97634205 0.         0.92770961 0.         0.94196563
 0.         0.         0.9278362  0.        ]",['Ti0' 'Te0' 'Aw' 'Ce' 'Ci' 'e11' 'p11' 'p22' 'Rea' 'Rie'],2567.02709188793,4.870567636434004
victoria_control_wood_inf_schedTrue_job73,93.00335235540636,63.80455863216433,12666.909487374165,206.54265607117512,205547.12268545278,90.12179430565158,91.06416514798912,149.974886840014,"(0.740149822056613, 22.817128058770198)","[ 1.81133279e+01  4.23077619e-01  4.66981836e+00  2.28171281e+01
  7.40149822e-01 -2.19443088e+01 -2.82723870e+00  2.35933413e+00
  1.28992732e-02  6.65488372e+00]","[0.         0.89018639 0.         0.92250792 0.         0.58554265
 0.         0.         0.92249289 0.        ]",['Ti0' 'Te0' 'Aw' 'Ce' 'Ci' 'e11' 'p11' 'p22' 'Rea' 'Rie'],2794.97896512409,5.2346029524350115
victoria_control_wood_inf_schedTrue_job66,87.58312769312239,61.481350476388165,12666.019054495298,209.7131033589245,194079.73083301296,90.12179430565158,91.07514463650463,147.790822224876,"(0.827052627086078, 16.7898806146873)","[ 1.80478440e+01  2.60718376e+00  5.03729393e+00  1.67898806e+01
  8.27052627e-01 -2.83902974e+01 -3.03226427e+00  2.72385003e+00
  1.47512819e-02  6.75156874e+00]","[0.00000000e+00 5.26599887e-01 0.00000000e+00 9.64517851e-01
 1.75415238e-14 7.02980756e-01 0.00000000e+00 0.00000000e+00
 9.64652992e-01 0.00000000e+00]",['Ti0' 'Te0' 'Aw' 'Ce' 'Ci' 'e11' 'p11' 'p22' 'Rea' 'Rie'],2572.26910163988,6.34406317573999
victoria_control_wood_inf_schedTrue_job27,68.14072400647521,50.87722641255691,12665.60562676035,204.05274439366278,234287.26841408206,90.12179430565158,91.09511552369814,138.099850938746,"(0.855044809353625, 21.127829422603103)","[ 1.81275968e+01 -7.62919830e-01  4.89350873e+00  2.11278294e+01
  8.55044809e-01 -2.10037595e+01 -2.95617909e+00  2.63862611e+00
  1.54524401e-02  7.22568499e+00]","[0.00000000e+00 8.58667480e-01 0.00000000e+00 9.36219907e-01
 8.88178420e-16 9.25037583e-01 0.00000000e+00 0.00000000e+00
 9.36254661e-01 0.00000000e+00]",['Ti0' 'Te0' 'Aw' 'Ce' 'Ci' 'e11' 'p11' 'p22' 'Rea' 'Rie'],2761.4382493505395,7.089829607233014
victoria_control_wood_inf_schedTrue_job92,67.23991528312587,50.0986392877507,12665.960229053006,199.61866768110946,222151.9451075325,90.12179430565158,91.11947085768465,131.07609169903,"(0.501443247761589, 0.571896913303234)","[ 18.71728852  13.87936139   4.8478593    0.57189691   0.50144325
 -21.60237744  -2.89611379   0.20057703   6.75556202   0.87359435]","[0.00000000e+00 0.00000000e+00 0.00000000e+00 4.80521100e-03
 1.25728807e-07 8.36478013e-02 0.00000000e+00 4.32278736e-01
 0.00000000e+00 3.45859519e-09]",['Ti0' 'Te0' 'Aw' 'Ce' 'Ci' 'e11' 'p11' 'p22' 'Rea' 'Rie'],2504.97497120802,7.024235960415979
victoria_control_wood_inf_schedTrue_job94,,,,,,,,,,,,,,
victoria_control_wood_inf_schedTrue_job75,74.55015985493183,53.85096144341846,12668.170203473124,196.96496207342628,288995.0816878021,90.12179430565158,91.07379981360448,134.906856660965,"(0.7136921333978531, 0.0968393175801812)","[ 18.45976866 -14.63242687   4.13159389   0.09683932   0.71369213
 -10.98285019  -9.0021974    2.36426697   2.91662052   4.49590116]","[0.00000000e+00 7.94925439e-05 0.00000000e+00 1.11022302e-15
 0.00000000e+00 0.00000000e+00 9.93862851e-01 0.00000000e+00
 1.61500016e-04 5.55695956e-09]",['Ti0' 'Te0' 'Aw' 'Ce' 'Ci' 'e11' 'p11' 'p22' 'Rea' 'Rie'],2489.0267706332197,4.379058040332012
victoria_control_wood_inf_schedTrue_job71,,,,,,,,,,,,,,
victoria_control_wood_inf_schedTrue_job2,69.99527358456982,51.16687565938183,12667.879811796836,193.11448824585412,254545.47663574613,90.12179430565158,91.0930996958129,131.81422016064502,"(0.615231436324821, 0.11326318043792401)","[ 18.43488467 -14.6630772    3.96042073   0.11326318   0.61523144
 -11.64654832  -9.96595453   2.34672098   2.26118502   5.32524988]","[0.00000000e+00 2.51335145e-05 0.00000000e+00 6.75634371e-06
 0.00000000e+00 0.00000000e+00 7.16465436e-01 0.00000000e+00
 5.14820381e-03 9.50630685e-11]",['Ti0' 'Te0' 'Aw' 'Ce' 'Ci' 'e11' 'p11' 'p22' 'Rea' 'Rie'],2566.1778945666897,4.010517807005982
victoria_control_wood_inf_schedTrue_job193,72.97616811428506,53.27185447563242,12666.705210099002,200.41735846494203,216469.45659902907,90.12179430565158,91.1082883580516,133.656073165014,"(0.8000328270933891, 0.0986982717439053)","[ 18.53952985 -14.70532676   4.52582736   0.09869827   0.80003283
  -9.3665172   -3.95532992   2.2899711    3.71774197   3.76414775]","[0.00000000e+00 1.85304819e-07 0.00000000e+00 6.21724894e-15
 1.33226763e-15 2.72387668e-10 6.71739493e-01 0.00000000e+00
 2.35105269e-10 1.20321753e-10]",['Ti0' 'Te0' 'Aw' 'Ce' 'Ci' 'e11' 'p11' 'p22' 'Rea' 'Rie'],2322.79292756983,5.237742814130996
victoria_control_wood_inf_schedTrue_job85,54.72261258079405,42.44021749522894,12666.248342111094,191.95240784978654,281437.7303908725,90.12179430565158,91.13662795490745,123.235344759798,"(0.790345570686363, 0.14229184180029197)","[ 18.30572158 -14.45482656   4.26920435   0.14229184   0.79034557
 -21.67877275  -2.8036899    2.81255546   1.71515421   6.39940093]","[0.00000000e+00 3.34362152e-02 0.00000000e+00 1.77109848e-01
 3.10862447e-15 7.43134765e-01 0.00000000e+00 0.00000000e+00
 3.20794839e-01 2.12322314e-04]",['Ti0' 'Te0' 'Aw' 'Ce' 'Ci' 'e11' 'p11' 'p22' 'Rea' 'Rie'],2291.9120709659196,5.710084391546999
victoria_control_wood_inf_schedTrue_job191,,,,,,,,,,,,,,
victoria_control_wood_inf_schedTrue_job38,52.44683933968753,41.056519061447524,12665.615551631048,191.90955121232966,248810.82265651727,90.12179430565158,91.13706913759584,120.21560254806002,"(0.830608064677896, 18.2298910335553)","[ 1.81931931e+01 -9.08865424e+00  4.25784658e+00  1.82298910e+01
  8.30608065e-01 -2.16475615e+01 -2.66022206e+00  3.00016075e+00
  1.30049302e-02  8.30538286e+00]","[0.00000000e+00 1.47528745e-01 0.00000000e+00 9.24605866e-01
 1.91335836e-12 8.12910832e-01 0.00000000e+00 0.00000000e+00
 9.24796579e-01 0.00000000e+00]",['Ti0' 'Te0' 'Aw' 'Ce' 'Ci' 'e11' 'p11' 'p22' 'Rea' 'Rie'],2341.03488808457,5.642711114449995
victoria_control_wood_inf_schedTrue_job105,69.4904709180967,50.99019089700956,12667.916574904077,194.46879056532802,283681.7855025417,90.12179430565158,91.08342619185498,136.613219802593,"(0.7304866328671681, 22.397975824899397)","[ 1.81253858e+01 -3.15978817e-01  4.52788750e+00  2.23979758e+01
  7.30486633e-01 -1.00183105e+01 -1.02844369e+01  2.57154365e+00
  1.20964366e-02  7.30783938e+00]","[0.00000000e+00 9.33263575e-01 0.00000000e+00 9.21060390e-01
 1.41597845e-12 0.00000000e+00 9.90083678e-01 0.00000000e+00
 9.21377224e-01 0.00000000e+00]",['Ti0' 'Te0' 'Aw' 'Ce' 'Ci' 'e11' 'p11' 'p22' 'Rea' 'Rie'],2769.1338230738597,5.329429518703989
victoria_control_wood_inf_schedTrue_job20,64.56925879243322,48.243708139050376,12667.165958833742,193.72706961090796,256454.1505690356,90.12179430565158,91.08344119345816,133.000764089228,"(0.6729472327339501, 20.3868379194025)","[ 1.81024860e+01  9.20626836e-01  4.33600635e+00  2.03868379e+01
  6.72947233e-01 -1.27296472e+01 -2.99221514e+00  2.49214593e+00
  1.20154007e-02  7.50673840e+00]","[0.00000000e+00 7.94002850e-01 0.00000000e+00 9.35049040e-01
 0.00000000e+00 4.89860736e-01 1.71337046e-07 0.00000000e+00
 9.35155938e-01 0.00000000e+00]",['Ti0' 'Te0' 'Aw' 'Ce' 'Ci' 'e11' 'p11' 'p22' 'Rea' 'Rie'],2698.23024403557,4.354036169105996
victoria_control_wood_inf_schedTrue_job131,59.86836691788968,45.78250289397899,12666.131843233023,197.62286789137082,261393.0802738635,90.12179430565158,91.11787476848008,130.11077739831,"(0.7198148236638309, 18.602321271584)","[ 1.82787369e+01 -1.26702007e+01  4.35180958e+00  1.86023213e+01
  7.19814824e-01 -9.85533335e+00 -9.54855646e+00  2.80504280e+00
  1.13187371e-02  7.67443966e+00]","[0.         0.01822903 0.         0.9622637  0.         0.
 0.98701972 0.         0.96225487 0.        ]",['Ti0' 'Te0' 'Aw' 'Ce' 'Ci' 'e11' 'p11' 'p22' 'Rea' 'Rie'],2474.57112786869,4.899271439751999
victoria_control_wood_inf_schedTrue_job127,80.37571841134809,56.84126685727627,12669.083802164836,197.1472261926844,274944.87956010544,90.12179430565158,91.08723946920156,140.527781692454,"(0.813309813650228, 19.7033641333016)","[ 1.81232716e+01 -1.38045044e+00  4.27003935e+00  1.97033641e+01
  8.13309814e-01 -2.23074203e+01 -2.94144916e+00  2.69117860e+00
  1.26278192e-02  7.10340282e+00]","[0.00000000e+00 7.53234970e-01 0.00000000e+00 9.44355021e-01
 2.22044605e-16 7.89502006e-01 0.00000000e+00 0.00000000e+00
 9.44417771e-01 0.00000000e+00]",['Ti0' 'Te0' 'Aw' 'Ce' 'Ci' 'e11' 'p11' 'p22' 'Rea' 'Rie'],2606.1187388296303,5.842194558401019
victoria_control_wood_inf_schedTrue_job151,55.4163809551489,42.95818121213745,12665.66439815562,194.01301022194855,247819.82810394542,90.12179430565158,91.09949548942566,125.818555007587,"(0.864879234492922, 19.050970440024102)","[ 1.81175692e+01 -2.70316552e+00  4.29192883e+00  1.90509704e+01
  8.64879234e-01 -1.00599372e+01 -3.68562515e+00  2.94785181e+00
  1.22938534e-02  7.93565945e+00]","[0.00000000e+00 6.12887081e-01 0.00000000e+00 8.95044120e-01
 5.45119505e-13 1.75857751e-07 2.85847339e-01 0.00000000e+00
 8.95606348e-01 0.00000000e+00]",['Ti0' 'Te0' 'Aw' 'Ce' 'Ci' 'e11' 'p11' 'p22' 'Rea' 'Rie'],2568.32102855975,6.398193481512024
victoria_control_wood_inf_schedTrue_job137,66.3347033882348,49.213647440023344,12667.65472637859,193.58984772525392,295549.9778596241,90.12179430565158,91.11242869266165,131.088486808077,"(0.8513459419753889, 0.0959084075088007)","[ 18.44085348 -14.54830867   4.22795443   0.09590841   0.85134594
 -21.92278533  -3.75231495   2.35915735   3.6468601    3.98157489]","[0.00000000e+00 6.33698886e-03 0.00000000e+00 0.00000000e+00
 1.08801856e-14 4.76851219e-01 1.11022302e-15 0.00000000e+00
 4.00003146e-06 5.65547900e-07]",['Ti0' 'Te0' 'Aw' 'Ce' 'Ci' 'e11' 'p11' 'p22' 'Rea' 'Rie'],2560.84436098173,5.430937664434026
victoria_control_wood_inf_schedTrue_job123,52.35510082268221,40.96864845464648,12665.826743677108,191.21846672748256,222396.16335011288,90.12179430565158,91.08200361868285,126.272492946284,"(0.627680834167609, 21.9235276392869)","[ 1.81087724e+01  5.90822899e-01  4.19981981e+00  2.19235276e+01
  6.27680834e-01 -1.10371421e+01 -3.28562093e+00  2.36666966e+00
  1.35804620e-02  7.90580068e+00]","[0.00000000e+00 8.58519833e-01 0.00000000e+00 4.84529488e-01
 0.00000000e+00 3.55638308e-04 2.74868570e-04 0.00000000e+00
 4.81129941e-01 0.00000000e+00]",['Ti0' 'Te0' 'Aw' 'Ce' 'Ci' 'e11' 'p11' 'p22' 'Rea' 'Rie'],2858.35833836535,4.40551549291699
victoria_control_wood_inf_schedTrue_job135,62.47985623225848,47.14005213973968,12666.714154894677,194.9592175137989,242045.17054158635,90.12179430565158,91.1001130006077,129.419911244146,"(0.813561574597319, 0.097036991262592)","[ 18.73459685 -14.51562014   4.38206204   0.09703699   0.81356157
 -10.48405302 -10.44962212   2.20927473   4.15611965   3.57066667]","[0.00000000e+00 1.01002577e-02 0.00000000e+00 0.00000000e+00
 2.44249065e-15 0.00000000e+00 9.58681561e-01 0.00000000e+00
 7.58423775e-08 5.43313965e-06]",['Ti0' 'Te0' 'Aw' 'Ce' 'Ci' 'e11' 'p11' 'p22' 'Rea' 'Rie'],2543.8915940262,5.3900727423790045
victoria_control_wood_inf_schedTrue_job121,56.62296270503529,43.60540082256385,12666.23975001335,192.55544163264045,287097.16539416264,90.12179430565158,91.12691440258736,122.568787417497,"(0.8483510636299871, 15.6244539606044)","[ 1.82072857e+01 -1.04620156e+01  4.33520442e+00  1.56244540e+01
  8.48351064e-01 -1.94248226e+01 -2.72853109e+00  2.96518351e+00
  1.57367774e-02  8.14294718e+00]","[0.00000000e+00 6.99297620e-02 0.00000000e+00 9.64428051e-01
 3.55271368e-15 7.05042294e-01 0.00000000e+00 0.00000000e+00
 9.64597880e-01 0.00000000e+00]",['Ti0' 'Te0' 'Aw' 'Ce' 'Ci' 'e11' 'p11' 'p22' 'Rea' 'Rie'],2442.0520260652397,5.930167282598987
victoria_control_wood_inf_schedTrue_job119,64.77658050880153,48.30291883061733,12667.331509974607,192.8245619956075,293410.41624123853,90.12179430565158,91.11378947091765,129.439318634146,"(0.8648822164917309, 0.106782838100474)","[ 18.47354998 -14.68922601   4.28643829   0.10678284   0.86488222
 -21.71516832  -3.107084     2.29292538   3.7739734    3.95165442]","[0.00000000e+00 3.24702699e-06 0.00000000e+00 0.00000000e+00
 8.18012325e-13 5.81498454e-01 0.00000000e+00 0.00000000e+00
 2.61932327e-08 1.15165917e-08]",['Ti0' 'Te0' 'Aw' 'Ce' 'Ci' 'e11' 'p11' 'p22' 'Rea' 'Rie'],2521.0360454053,5.998067265271999
victoria_control_wood_inf_schedTrue_job36,57.41716306366375,44.084955323941145,12666.343579740536,192.74764316738575,269201.42871644447,90.12179430565158,91.10389277082547,122.502217198384,"(0.628652114577644, 0.0896888344467269)","[ 18.630533   -14.46056115   3.99902783   0.08968883   0.62865211
 -21.47639046  -2.96472506   2.2811327    3.45525735   4.7078602 ]","[0.00000000e+00 1.72439693e-02 0.00000000e+00 0.00000000e+00
 0.00000000e+00 3.32844798e-01 0.00000000e+00 0.00000000e+00
 2.29067887e-04 7.00458291e-07]",['Ti0' 'Te0' 'Aw' 'Ce' 'Ci' 'e11' 'p11' 'p22' 'Rea' 'Rie'],2325.55394726266,4.209629335624996
victoria_control_wood_inf_schedTrue_job96,64.55197923938913,48.5077893680013,12666.030430530944,198.21987949710754,259244.68469623796,90.12179430565158,91.07442761620747,136.451422020566,"(0.680101689244834, 21.321830152670103)","[ 1.80987184e+01  1.22659238e+00  4.54750375e+00  2.13218302e+01
  6.80101689e-01 -1.00973375e+01 -1.02176309e+01  2.38698824e+00
  1.33554627e-02  7.31525999e+00]","[0.         0.70643931 0.         0.88909213 0.         0.
 0.98701386 0.         0.88948162 0.        ]",['Ti0' 'Te0' 'Aw' 'Ce' 'Ci' 'e11' 'p11' 'p22' 'Rea' 'Rie'],2902.7967111137,4.907759513037973
victoria_control_wood_inf_schedTrue_job45,58.59105569709176,44.78126608960227,12666.484426266976,192.8875941775536,243457.6349894525,90.12179430565158,91.08074507197583,129.702904913113,"(0.7040402804459351, 21.752477258264697)","[ 1.81194144e+01  2.24089533e-01  4.35455670e+00  2.17524773e+01
  7.04040280e-01 -9.81933161e+00 -9.97506895e+00  2.52402454e+00
  1.23939078e-02  7.69753364e+00]","[0.         0.95517584 0.         0.93326957 0.         0.
 0.98976182 0.         0.93322023 0.        ]",['Ti0' 'Te0' 'Aw' 'Ce' 'Ci' 'e11' 'p11' 'p22' 'Rea' 'Rie'],2762.5702673866804,4.823535111430999
victoria_control_wood_inf_schedTrue_job106,81.36383240573565,57.801159906065024,12667.547559967988,202.78727784069648,234904.40861275292,90.12179430565158,91.06642679667763,145.009672645268,"(0.7515631786886451, 16.4772527297142)","[ 1.80717054e+01  1.97055253e+00  4.69345039e+00  1.64772527e+01
  7.51563179e-01 -2.71028317e+01 -2.85376194e+00  2.49900346e+00
  1.62273577e-02  6.87986434e+00]","[0.00000000e+00 5.54181447e-01 0.00000000e+00 4.64005095e-01
 0.00000000e+00 3.36066730e-10 0.00000000e+00 0.00000000e+00
 4.60419937e-01 0.00000000e+00]",['Ti0' 'Te0' 'Aw' 'Ce' 'Ci' 'e11' 'p11' 'p22' 'Rea' 'Rie'],2699.06749720406,5.16826366031097
victoria_control_wood_inf_schedTrue_job192,79.9168009223179,57.01416419695288,12666.915251876057,202.1205694776625,206809.88978826813,90.12179430565158,91.05569995840078,146.854980894117,"(0.7082574892292459, 24.524476095635098)","[ 1.81182403e+01  1.08562784e+00  4.65733007e+00  2.45244761e+01
  7.08257489e-01 -2.61534914e+01 -3.09868942e+00  2.16231023e+00
  1.56473095e-02  6.79379146e+00]","[0.         0.67842858 0.         0.88842473 0.         0.
 0.         0.         0.88948236 0.        ]",['Ti0' 'Te0' 'Aw' 'Ce' 'Ci' 'e11' 'p11' 'p22' 'Rea' 'Rie'],3093.84019161644,5.801717842902008
victoria_control_wood_inf_schedTrue_job51,76.48696283907296,54.799248341141606,12668.539505294908,196.25674541626051,257091.7067627699,90.12179430565158,91.08739050366391,139.398565187263,"(0.7616055423226459, 20.886076311830898)","[ 1.81238718e+01 -6.91934817e-01  4.29750598e+00  2.08860763e+01
  7.61605542e-01 -2.13177839e+01 -3.06120479e+00  2.69740603e+00
  1.02397282e-02  7.16343526e+00]","[0.         0.86443909 0.         0.95391546 0.         0.88703852
 0.         0.         0.95407148 0.        ]",['Ti0' 'Te0' 'Aw' 'Ce' 'Ci' 'e11' 'p11' 'p22' 'Rea' 'Rie'],2641.4349666248,4.775131477727001
victoria_control_wood_inf_schedTrue_job196,84.91886052090382,59.46732701061332,12667.798901461323,201.56944131180046,232164.35540691382,90.12179430565158,91.07760370579379,146.659097454023,"(0.7122030760934509, 21.8163257603042)","[ 1.81008686e+01  1.05244708e+00  4.55170775e+00  2.18163258e+01
  7.12203076e-01 -1.00727805e+01 -1.03833887e+01  2.38049094e+00
  1.25744867e-02  6.80595922e+00]","[0.         0.72799684 0.         0.93946678 0.         0.
 0.98884675 0.         0.93963469 0.        ]",['Ti0' 'Te0' 'Aw' 'Ce' 'Ci' 'e11' 'p11' 'p22' 'Rea' 'Rie'],2907.7146887271,4.602039718957002
victoria_control_wood_inf_schedTrue_job115,57.12011100157294,44.0743343946045,12665.549982160772,195.9624480838097,265781.5523813165,90.12179430565158,91.07563697337754,130.577688313365,"(0.63354603946777, 22.2214631733664)","[ 1.81188917e+01  1.28828718e+00  4.41046245e+00  2.22214632e+01
  6.33546039e-01 -1.01947271e+01 -3.30979336e+00  2.39353736e+00
  1.38441895e-02  7.64443199e+00]","[0.00000000e+00 7.03081465e-01 0.00000000e+00 7.06180477e-01
 0.00000000e+00 1.66533454e-14 5.48020728e-04 0.00000000e+00
 7.08030611e-01 0.00000000e+00]",['Ti0' 'Te0' 'Aw' 'Ce' 'Ci' 'e11' 'p11' 'p22' 'Rea' 'Rie'],2716.56312850119,5.00818158575899
victoria_control_wood_inf_schedTrue_job104,59.22354009735025,45.25987807640008,12666.178930271479,194.9129237854012,269560.0733205458,90.12179430565158,91.1146165006448,126.112187933853,"(0.87072620291035, 0.10579883616168101)","[ 18.59325871 -14.67182315   4.37667293   0.10579884   0.8707262
  -9.88873594  -9.85808274   2.12363691   4.78310496   3.14634275]","[0.00000000e+00 1.84415604e-06 0.00000000e+00 0.00000000e+00
 1.04360964e-13 0.00000000e+00 7.63643279e-01 0.00000000e+00
 0.00000000e+00 2.35274311e-09]",['Ti0' 'Te0' 'Aw' 'Ce' 'Ci' 'e11' 'p11' 'p22' 'Rea' 'Rie'],2478.2219525233,6.7292259021160135
victoria_control_wood_inf_schedTrue_job186,76.24943872643978,54.918225046096936,12667.775006465827,199.3978034763836,283973.6686748302,90.12179430565158,91.08815258750856,137.560569154516,"(0.808281397921692, 19.5044743670251)","[ 1.81301338e+01 -1.45240331e+00  4.44841050e+00  1.95044744e+01
  8.08281398e-01 -1.97823484e+01 -2.77045882e+00  2.92825737e+00
  9.78728392e-03  7.25973774e+00]","[0.         0.76562503 0.         0.94321409 0.         0.93499575
 0.         0.         0.94330745 0.        ]",['Ti0' 'Te0' 'Aw' 'Ce' 'Ci' 'e11' 'p11' 'p22' 'Rea' 'Rie'],2339.47942105097,5.315398209240016
victoria_control_wood_inf_schedTrue_job171,63.54375548637818,47.62764079603582,12666.937427718152,193.04729264802427,302105.5946079662,90.12179430565158,91.09435506468405,131.134529625904,"(0.7877529355357049, 20.6398017685314)","[ 1.81212992e+01 -1.30808681e+00  4.24261008e+00  2.06398018e+01
  7.87752936e-01 -9.97804362e+00 -1.55712433e+01  2.64850829e+00
  1.18759112e-02  7.61388065e+00]","[0.00000000e+00 7.58327627e-01 0.00000000e+00 9.55402940e-01
 2.22044605e-16 0.00000000e+00 9.88289625e-01 0.00000000e+00
 9.55601791e-01 0.00000000e+00]",['Ti0' 'Te0' 'Aw' 'Ce' 'Ci' 'e11' 'p11' 'p22' 'Rea' 'Rie'],2801.56401479739,4.756783360425999
victoria_control_wood_inf_schedTrue_job141,55.33318401002408,42.93073248793871,12665.79023762463,194.47512552450885,270037.96017325064,90.12179430565158,91.13341003983307,123.28586228876001,"(0.960721060088125, 18.1645003769419)","[ 1.81260856e+01 -5.45164738e+00  4.35196007e+00  1.81645004e+01
  9.60721060e-01 -9.76853156e+00 -1.00078490e+01  3.05863854e+00
  1.32378974e-02  8.09799223e+00]","[0.00000000e+00 3.83545210e-01 0.00000000e+00 9.57092721e-01
 7.33635375e-13 0.00000000e+00 9.87737862e-01 0.00000000e+00
 9.57058010e-01 0.00000000e+00]",['Ti0' 'Te0' 'Aw' 'Ce' 'Ci' 'e11' 'p11' 'p22' 'Rea' 'Rie'],2590.7497397260604,6.68621137770198
victoria_control_wood_inf_schedTrue_job74,55.99187366368551,43.27962985145729,12665.657356371008,193.54077584234585,283890.3338678676,90.12179430565158,91.11177821503686,267.009362347754,"(2.27138655725164, 29.6139243428756)","[ 18.51788359  16.6763936   35.87729218  29.61392434   2.27138656
 -22.17519964  -3.99018287  -0.50116418   3.67010532   0.07508171]","[0.00000000e+00 0.00000000e+00 2.70596101e-05 0.00000000e+00
 4.90212389e-04 9.23433553e-01 2.27303864e-05 0.00000000e+00
 5.06902728e-03 2.26567802e-04]",['Ti0' 'Te0' 'Aw' 'Ce' 'Ci' 'e11' 'p11' 'p22' 'Rea' 'Rie'],2360.04432043438,183.79164443911395
victoria_control_wood_inf_schedTrue_job35,69.12591962757139,50.93877025580059,12667.24380440037,196.61372744211803,250932.86603036924,90.12179430565158,91.05571041609859,136.668212361819,"(0.660299439686562, 22.056976828330303)","[ 1.81076720e+01  1.29399452e+00  4.41795668e+00  2.20569768e+01
  6.60299440e-01 -2.01990486e+01 -2.91130371e+00  2.25614370e+00
  1.37707394e-02  7.30321968e+00]","[0.         0.63507018 0.         0.94005501 0.         0.56546992
 0.         0.         0.94044505 0.        ]",['Ti0' 'Te0' 'Aw' 'Ce' 'Ci' 'e11' 'p11' 'p22' 'Rea' 'Rie'],2844.07926653675,4.007269008984991
victoria_control_wood_inf_schedTrue_job52,64.32006466125772,48.317193247226555,12666.692269568905,197.2242200027721,274952.9526754249,90.12179430565158,91.09801041221034,131.040690468317,"(0.629199910640019, 0.127720219384181)","[ 18.3852896  -14.48037116   4.27624192   0.12772022   0.62919991
 -11.18569855  -3.56435498   2.47279919   1.79656501   5.83465241]","[0.00000000e+00 2.94112124e-02 0.00000000e+00 7.29024130e-02
 0.00000000e+00 2.00313903e-01 3.93807200e-01 0.00000000e+00
 1.90741723e-01 2.07147177e-05]",['Ti0' 'Te0' 'Aw' 'Ce' 'Ci' 'e11' 'p11' 'p22' 'Rea' 'Rie'],2457.23728682569,3.7390072606840192
victoria_control_wood_inf_schedTrue_job140,69.32365742297232,51.04839288289581,12667.186363063225,196.64828272092532,249115.60559456813,90.12179430565158,91.05532456594923,138.322752872541,"(0.670098455915658, 23.6758915102944)","[ 1.81157898e+01  1.29493669e+00  4.48471534e+00  2.36758915e+01
  6.70098456e-01 -2.22509887e+01 -3.02554842e+00  2.26846986e+00
  1.40080753e-02  7.21546054e+00]","[0.         0.65298952 0.         0.89790471 0.         0.91952599
 0.         0.         0.89794689 0.        ]",['Ti0' 'Te0' 'Aw' 'Ce' 'Ci' 'e11' 'p11' 'p22' 'Rea' 'Rie'],2915.8366279789198,4.653046014197997
victoria_control_wood_inf_schedTrue_job160,,,,,,,,,,,,,,
victoria_control_wood_inf_schedTrue_job145,,,,,,,,,,,,,,
victoria_control_wood_inf_schedTrue_job120,76.16520123170419,54.83549167157999,12668.192154764958,198.88343111509477,242249.83959595807,90.12179430565158,91.10973308996755,140.73990521345502,"(0.798337408751564, 20.767384586935698)","[ 1.81266481e+01 -1.14834982e+00  4.54243783e+00  2.07673846e+01
  7.98337409e-01 -9.79917385e+00 -1.03975639e+01  2.69093858e+00
  1.08779719e-02  7.09442737e+00]","[0.         0.7669906  0.         0.93029346 0.         0.
 0.98446326 0.         0.93046982 0.        ]",['Ti0' 'Te0' 'Aw' 'Ce' 'Ci' 'e11' 'p11' 'p22' 'Rea' 'Rie'],2677.6032944281897,5.071731107245995
victoria_control_wood_inf_schedTrue_job149,72.7881761425935,52.79343524137226,12668.33382575702,195.14796000932,290750.0595709698,90.12179430565158,91.09254451964226,135.80365071790501,"(0.6854423052479631, 0.0940181252777823)","[ 18.45952642 -14.67828101   4.29995059   0.09401813   0.68544231
 -20.92537078  -3.18660932   2.31152768   2.77663882   4.58693348]","[0.00000000e+00 6.93009727e-06 0.00000000e+00 2.35367281e-14
 0.00000000e+00 9.52366251e-01 0.00000000e+00 0.00000000e+00
 7.32334622e-05 9.24200716e-11]",['Ti0' 'Te0' 'Aw' 'Ce' 'Ci' 'e11' 'p11' 'p22' 'Rea' 'Rie'],2497.6710829214803,4.077222451980987
victoria_control_wood_inf_schedTrue_job3,80.5409119464164,57.50475952411485,12666.464860061189,204.2956778150711,223173.11725342195,90.12179430565158,91.09164746843717,143.710708511806,"(0.7787785501771429, 19.9352944651515)","[ 1.81141720e+01 -1.29980178e-01  4.89352236e+00  1.99352945e+01
  7.78778550e-01 -2.11853264e+01 -2.99658658e+00  2.57511102e+00
  1.34147980e-02  6.94500890e+00]","[0.         0.9719056  0.         0.96068506 0.         0.96467705
 0.         0.         0.96075077 0.        ]",['Ti0' 'Te0' 'Aw' 'Ce' 'Ci' 'e11' 'p11' 'p22' 'Rea' 'Rie'],2761.31505808123,5.550297401297996
victoria_control_wood_inf_schedTrue_job22,76.9252300569283,55.43812740644344,12665.990766608897,201.63161925892425,227510.39560579223,90.12179430565158,91.12797960366639,136.95534318682502,"(0.961558428183575, 18.3558517281291)","[ 1.81287121e+01 -4.37446107e+00  4.73612494e+00  1.83558517e+01
  9.61558428e-01 -1.14301505e+01 -1.01637429e+01  3.15098932e+00
  1.08983926e-02  7.29075174e+00]","[0.00000000e+00 4.90964809e-01 0.00000000e+00 9.60269536e-01
 3.08708614e-12 0.00000000e+00 9.87169938e-01 0.00000000e+00
 9.60306267e-01 0.00000000e+00]",['Ti0' 'Te0' 'Aw' 'Ce' 'Ci' 'e11' 'p11' 'p22' 'Rea' 'Rie'],2443.97984063728,6.536434178035961
victoria_control_wood_inf_schedTrue_job24,63.821986131222125,47.97198352602923,12666.694835702443,196.15645040943843,254154.0739605687,90.12179430565158,91.10964382271503,129.485295770112,"(0.691129466178529, 0.0998907760644727)","[ 18.50698151 -14.60860075   4.20411828   0.09989078   0.69112947
 -18.56819528  -2.95395348   2.24740633   3.18172913   4.5411555 ]","[0.00000000e+00 2.88872685e-04 0.00000000e+00 4.44089210e-16
 0.00000000e+00 9.17280465e-01 0.00000000e+00 0.00000000e+00
 8.57237763e-05 3.54508971e-08]",['Ti0' 'Te0' 'Aw' 'Ce' 'Ci' 'e11' 'p11' 'p22' 'Rea' 'Rie'],2466.39691139911,4.333080465877998
victoria_control_wood_inf_schedTrue_job200,73.36130264834961,53.401912476839414,12667.739150428151,199.36936642966538,295084.10934783646,90.12179430565158,91.05001527041932,141.211322480068,"(0.754299629040886, 21.5519588149932)","[ 1.81004868e+01  5.37298747e-01  4.50436534e+00  2.15519588e+01
  7.54299629e-01 -1.04284050e+01 -3.46989226e+00  2.40481293e+00
  1.38723599e-02  7.06771276e+00]","[0.00000000e+00 8.70806254e-01 0.00000000e+00 9.42651893e-01
 0.00000000e+00 1.01962883e-12 2.31060403e-03 0.00000000e+00
 9.42706318e-01 0.00000000e+00]",['Ti0' 'Te0' 'Aw' 'Ce' 'Ci' 'e11' 'p11' 'p22' 'Rea' 'Rie'],2938.18757290425,5.025244504540012
victoria_control_wood_inf_schedTrue_job101,76.79016127742993,55.50671028623108,12667.447490993465,203.48381932562543,244036.25266867637,90.12179430565158,91.04742868212334,146.622788950291,"(0.791810078766869, 23.826503062518302)","[ 1.81143468e+01  3.24768506e-01  4.73535117e+00  2.38265031e+01
  7.91810079e-01 -3.36056248e+01 -3.17942991e+00  2.25482470e+00
  1.70039674e-02  6.80321823e+00]","[0.00000000e+00 9.02476589e-01 0.00000000e+00 8.91539722e-01
 2.22044605e-16 0.00000000e+00 0.00000000e+00 0.00000000e+00
 8.91801699e-01 0.00000000e+00]",['Ti0' 'Te0' 'Aw' 'Ce' 'Ci' 'e11' 'p11' 'p22' 'Rea' 'Rie'],3134.23793799575,6.375814151025992
victoria_control_wood_inf_schedTrue_job116,62.6192858426193,47.23627809892896,12666.7750304656,195.24761384390752,275208.4415765128,90.12179430565158,91.11889333377682,128.55735957663902,"(0.9520364299238341, 17.738622703020898)","[ 1.81222664e+01 -4.35953227e+00  4.67568867e+00  1.77386227e+01
  9.52036430e-01 -1.11799449e+01 -3.03866813e+00  3.04222946e+00
  1.40147752e-02  7.76461418e+00]","[0.00000000e+00 4.48717913e-01 0.00000000e+00 5.64789180e-01
 1.39142697e-10 5.59543274e-02 1.12364415e-03 0.00000000e+00
 5.64604488e-01 0.00000000e+00]",['Ti0' 'Te0' 'Aw' 'Ce' 'Ci' 'e11' 'p11' 'p22' 'Rea' 'Rie'],2524.00474477035,7.133537230785976
victoria_control_wood_inf_schedTrue_job109,,,,,,,,,,,,,,
victoria_control_wood_inf_schedTrue_job178,59.307882405223275,45.226367189074175,12666.274084847852,193.39066132018485,285255.0342986356,90.12179430565158,91.1291987391153,126.83126096389799,"(0.778890739943237, 16.8614288899173)","[ 1.81193080e+01 -1.97780040e+00  4.35441097e+00  1.68614289e+01
  7.78890740e-01 -9.72134019e+00 -9.49162337e+00  2.87833908e+00
  1.34164466e-02  7.87107506e+00]","[0.00000000e+00 6.88266919e-01 0.00000000e+00 2.36780206e-01
 8.88178420e-16 0.00000000e+00 9.50056222e-01 0.00000000e+00
 2.46616002e-01 0.00000000e+00]",['Ti0' 'Te0' 'Aw' 'Ce' 'Ci' 'e11' 'p11' 'p22' 'Rea' 'Rie'],2513.616241368,5.545888305174003
victoria_control_wood_inf_schedTrue_job147,,,,,,,,,,,,,,
victoria_control_wood_inf_schedTrue_job187,86.1386509300404,60.24006516425219,12667.904890883538,203.5781884093673,211852.2616234669,90.12179430565158,91.09119380550496,144.107314318013,"(1.06672663279776, 17.6190410456393)","[ 1.81160228e+01 -4.60277233e+00  4.96715933e+00  1.76190410e+01
  1.06672663e+00 -1.05258074e+01 -9.92402501e+00  3.09630833e+00
  1.20877658e-02  6.92718527e+00]","[0.00000000e+00 4.79643593e-01 0.00000000e+00 9.61923059e-01
 5.40034684e-12 0.00000000e+00 9.87637805e-01 0.00000000e+00
 9.61893307e-01 0.00000000e+00]",['Ti0' 'Te0' 'Aw' 'Ce' 'Ci' 'e11' 'p11' 'p22' 'Rea' 'Rie'],2596.39521514273,7.2173554916379885
victoria_control_wood_inf_schedTrue_job70,54.84799385786098,42.532756271005134,12665.580189954291,192.30291352421307,275431.6148716593,90.12179430565158,91.0911018724239,128.425664017475,"(0.783654002285165, 19.047778472283397)","[ 1.81162322e+01 -7.92315479e-01  4.43434897e+00  1.90477785e+01
  7.83654002e-01 -2.31397623e+01 -2.85036658e+00  2.87939185e+00
  1.10977165e-02  7.77550793e+00]","[0.         0.87179379 0.         0.94404094 0.         0.58363195
 0.         0.         0.94416559 0.        ]",['Ti0' 'Te0' 'Aw' 'Ce' 'Ci' 'e11' 'p11' 'p22' 'Rea' 'Rie'],2343.45110025555,5.156240522422024
victoria_control_wood_inf_schedTrue_job21,77.96136686722178,56.16633527149975,12665.894528647894,204.14657429966613,226300.33738967014,90.12179430565158,91.10433639944593,140.063079857211,"(0.904674510878051, 19.765129501760303)","[ 1.81209220e+01 -2.54289030e+00  4.73479271e+00  1.97651295e+01
  9.04674511e-01 -2.06418519e+01 -2.99448204e+00  2.86962945e+00
  1.26378168e-02  7.12700242e+00]","[0.00000000e+00 6.40967149e-01 0.00000000e+00 9.13206342e-01
 2.88924440e-12 9.11357778e-01 0.00000000e+00 0.00000000e+00
 9.13344072e-01 0.00000000e+00]",['Ti0' 'Te0' 'Aw' 'Ce' 'Ci' 'e11' 'p11' 'p22' 'Rea' 'Rie'],2550.32836676644,6.217291426166014
victoria_control_wood_inf_schedTrue_job177,85.56182087757034,59.81492966770434,12668.428127058294,201.9450557202574,249616.98018615023,90.12179430565158,91.07047912232439,147.117867193269,"(0.7521076543361801, 21.6846242723489)","[ 1.80990277e+01  5.62691274e-01  4.58864335e+00  2.16846243e+01
  7.52107654e-01 -1.03248686e+01 -3.82004557e+00  2.46682002e+00
  1.27210356e-02  6.78454988e+00]","[0.00000000e+00 8.77209857e-01 0.00000000e+00 9.28586458e-01
 0.00000000e+00 2.75905965e-11 1.61849143e-01 0.00000000e+00
 9.28608935e-01 0.00000000e+00]",['Ti0' 'Te0' 'Aw' 'Ce' 'Ci' 'e11' 'p11' 'p22' 'Rea' 'Rie'],2855.33788785992,4.971236721891984
victoria_control_wood_inf_schedTrue_job133,,,,,,,,,,,,,,
victoria_control_wood_inf_schedTrue_job59,64.69412740190066,48.640642529948856,12665.657585242236,199.0988097302288,215470.32958605187,90.12179430565158,91.130829699592,131.22444435629998,"(0.9888860815015501, 18.592165274003698)","[ 1.81255947e+01 -3.36677486e+00  4.72101932e+00  1.85921653e+01
  9.88886082e-01 -2.09625639e+01 -2.87748346e+00  3.04248015e+00
  1.36577377e-02  7.60687367e+00]","[0.00000000e+00 5.70313492e-01 0.00000000e+00 9.62360177e-01
 1.88968841e-10 9.38541048e-01 0.00000000e+00 0.00000000e+00
 9.62478092e-01 0.00000000e+00]",['Ti0' 'Te0' 'Aw' 'Ce' 'Ci' 'e11' 'p11' 'p22' 'Rea' 'Rie'],2480.9311819138197,7.812458051609013
victoria_control_wood_inf_schedTrue_job90,64.89907360036905,48.48960170526469,12667.145119344012,194.72325686336083,284200.10673782864,90.12179430565158,91.13298016533767,128.880519483939,"(0.7289182294778749, 0.0917090208356543)","[ 18.47677137 -14.24044055   4.1374184    0.09170902   0.72891823
 -19.89375318  -3.62091059   2.32134429   3.42523051   4.33389402]","[0.00000000e+00 2.23390352e-01 0.00000000e+00 0.00000000e+00
 0.00000000e+00 2.26250523e-02 0.00000000e+00 3.45011797e-10
 3.16145981e-02 6.73739847e-03]",['Ti0' 'Te0' 'Aw' 'Ce' 'Ci' 'e11' 'p11' 'p22' 'Rea' 'Rie'],2510.27625891452,4.4723688777349935
victoria_control_wood_inf_schedTrue_job56,61.44640313263915,46.82732983934145,12665.819360546335,199.9299286985351,259750.06995999807,90.12179430565158,91.11858092475543,133.215261011249,"(0.957339716350256, 19.2381187900705)","[ 1.81233925e+01 -2.89625603e+00  4.82626820e+00  1.92381188e+01
  9.57339716e-01 -1.15307774e+01 -3.02992602e+00  2.96504947e+00
  1.27295202e-02  7.49391793e+00]","[0.00000000e+00 6.08017976e-01 0.00000000e+00 9.50302225e-01
 2.50055532e-11 1.38449742e-01 4.32625999e-04 0.00000000e+00
 9.50345333e-01 0.00000000e+00]",['Ti0' 'Te0' 'Aw' 'Ce' 'Ci' 'e11' 'p11' 'p22' 'Rea' 'Rie'],2531.85452114843,6.661190785477004
victoria_control_wood_inf_schedTrue_job4,71.34979293718469,51.9110965278401,12668.043282423847,193.44950494587115,277578.6892276338,90.12179430565158,91.05959867537962,137.195718480178,"(0.7640819643149599, 20.972787243995498)","[ 1.81147298e+01 -7.39074646e+00  4.13432035e+00  2.09727872e+01
  7.64081964e-01 -2.47345571e+01 -3.04611863e+00  2.23452560e+00
  1.65996476e-02  7.27225755e+00]","[0.         0.01655632 0.         0.93382389 0.         0.
 0.         0.         0.93401279 0.        ]",['Ti0' 'Te0' 'Aw' 'Ce' 'Ci' 'e11' 'p11' 'p22' 'Rea' 'Rie'],3112.24791600245,4.617037292389028
victoria_control_wood_inf_schedTrue_job122,69.60429607119251,51.00502036866416,12667.713150126088,193.79683384639972,290581.3848519407,90.12179430565158,91.1097454317096,131.465210565394,"(0.864631759235715, 16.7410872530097)","[ 1.81238783e+01 -3.83010260e+00  4.39848687e+00  1.67410873e+01
  8.64631759e-01 -9.53362947e+00 -9.96295502e+00  2.92616233e+00
  1.37792354e-02  7.59279589e+00]","[0.00000000e+00 4.48899014e-01 0.00000000e+00 9.51010883e-01
 6.83897383e-14 0.00000000e+00 9.87562387e-01 0.00000000e+00
 9.51079778e-01 0.00000000e+00]",['Ti0' 'Te0' 'Aw' 'Ce' 'Ci' 'e11' 'p11' 'p22' 'Rea' 'Rie'],2524.86305662212,5.981553801621999
victoria_control_wood_inf_schedTrue_job54,54.012135986242285,42.0074255256694,12666.140459900562,191.86467563102192,264498.5811150835,90.12179430565158,91.09002369410176,126.22614322886601,"(0.7445629456119309, 20.0095022606812)","[ 1.81154178e+01 -2.14305348e+00  4.35732644e+00  2.00095023e+01
  7.44562946e-01 -1.35323628e+01 -2.96401585e+00  2.59864324e+00
  1.40733315e-02  7.90821578e+00]","[0.00000000e+00 6.26817889e-01 0.00000000e+00 9.45883865e-01
 2.44249065e-15 9.92201778e-02 0.00000000e+00 0.00000000e+00
 9.46105214e-01 0.00000000e+00]",['Ti0' 'Te0' 'Aw' 'Ce' 'Ci' 'e11' 'p11' 'p22' 'Rea' 'Rie'],2732.9717140634502,5.078117620670994
victoria_control_wood_inf_schedTrue_job114,75.11073645372775,54.12971261411242,12668.03185331865,196.79122796977185,270254.8115785893,90.12179430565158,91.1041867809092,137.108305928622,"(0.801191292747598, 18.888306143601998)","[ 1.81064661e+01 -8.60442549e-01  4.36129471e+00  1.88883061e+01
  8.01191293e-01 -1.14766982e+01 -3.12278404e+00  2.80821682e+00
  1.02332160e-02  7.28327095e+00]","[0.         0.85110714 0.         0.95211487 0.         0.21246172
 0.01730512 0.         0.95208645 0.        ]",['Ti0' 'Te0' 'Aw' 'Ce' 'Ci' 'e11' 'p11' 'p22' 'Rea' 'Rie'],2588.89713963268,4.697835128512992
victoria_control_wood_inf_schedTrue_job32,72.94934531460233,53.16353893206811,12667.680948037563,199.0921108189241,243714.07588356407,90.12179430565158,91.05544878102856,142.637139453677,"(0.6946378142019279, 23.744314268631)","[ 1.81087418e+01  1.29868133e+00  4.60024631e+00  2.37443143e+01
  6.94637814e-01 -2.65793460e+01 -3.09673509e+00  2.19052505e+00
  1.56803363e-02  6.99511646e+00]","[0.         0.61971441 0.         0.88986501 0.         0.
 0.         0.         0.89016218 0.        ]",['Ti0' 'Te0' 'Aw' 'Ce' 'Ci' 'e11' 'p11' 'p22' 'Rea' 'Rie'],3078.98811452294,4.970988591484996
victoria_control_wood_inf_schedTrue_job33,74.11476692239317,53.7835617723513,12667.704109358947,199.14317175835492,269101.2849522916,90.12179430565158,91.07030715454837,136.957018437612,"(0.615508728222347, 0.29686099972164603)","[ 18.2550228   14.53797745   4.49791123   0.296861     0.61550873
 -21.3192419   -2.83837262   0.55692816   6.33217548   0.96938534]","[0.00000000e+00 2.30726549e-12 0.00000000e+00 1.01899870e-01
 5.71777591e-06 9.48230876e-01 0.00000000e+00 3.53621334e-01
 0.00000000e+00 1.48327472e-02]",['Ti0' 'Te0' 'Aw' 'Ce' 'Ci' 'e11' 'p11' 'p22' 'Rea' 'Rie'],2499.08338921399,5.106923289076008
victoria_control_wood_inf_schedTrue_job13,,,,,,,,,,,,,,
victoria_control_wood_inf_schedTrue_job179,91.45750313765095,63.08335495029001,12668.42401032801,206.65146247916059,218630.35555819835,90.12179430565158,91.06140121647843,149.240960043699,"(0.919563081415547, 18.967218865417102)","[ 1.79419343e+01 -1.28285792e+00  4.83095984e+00  1.89672189e+01
  9.19563081e-01 -9.94719227e+00 -1.51596744e+01  2.77129938e+00
  1.30114663e-02  6.68756189e+00]","[0.         0.75859792 0.         0.93566412 0.         0.
 0.98256353 0.         0.93573872 0.        ]",['Ti0' 'Te0' 'Aw' 'Ce' 'Ci' 'e11' 'p11' 'p22' 'Rea' 'Rie'],2676.0550354411803,6.492799387253996
victoria_control_wood_inf_schedTrue_job30,67.765332605015,50.467790613675504,12666.472319911687,200.84912556534505,258806.77428674948,90.12179430565158,91.06036430591325,139.286401756084,"(0.687342657953366, 22.076432349995798)","[ 1.81002039e+01  1.27006095e+00  4.55670861e+00  2.20764323e+01
  6.87342658e-01 -2.23883960e+01 -3.00029043e+00  2.27503195e+00
  1.42562445e-02  7.16519550e+00]","[0.         0.64625879 0.         0.92347261 0.         0.80626131
 0.         0.         0.92333238 0.        ]",['Ti0' 'Te0' 'Aw' 'Ce' 'Ci' 'e11' 'p11' 'p22' 'Rea' 'Rie'],2932.7269577974,4.665622333888024
victoria_control_wood_inf_schedTrue_job184,,,,,,,,,,,,,,
victoria_control_wood_inf_schedTrue_job155,73.22386057461391,53.74777294456808,12665.8872957197,205.35064722576027,243949.4975337509,90.12179430565158,91.10090736659535,138.19163468219102,"(0.9683437625442809, 15.7487725465096)","[ 1.81128430e+01 -3.22609561e+00  4.95342371e+00  1.57487725e+01
  9.68343763e-01 -1.07661210e+01 -1.00263481e+01  3.01261128e+00
  1.44850871e-02  7.22184295e+00]","[0.00000000e+00 5.68809539e-01 0.00000000e+00 7.42744534e-01
 1.77635684e-15 0.00000000e+00 9.84637737e-01 0.00000000e+00
 7.41971095e-01 0.00000000e+00]",['Ti0' 'Te0' 'Aw' 'Ce' 'Ci' 'e11' 'p11' 'p22' 'Rea' 'Rie'],2617.10111330447,6.698361815459975
victoria_control_wood_inf_schedTrue_job169,,,,,,,,,,,,,,
victoria_control_wood_inf_schedTrue_job146,56.71533697711372,43.60099637506542,12666.289522493413,191.4098703241436,315088.54788432526,90.12179430565158,91.11669588651921,123.43472619736099,"(0.779753539285076, 0.0877440374045373)","[ 18.54980852 -14.62761014   4.26406516   0.08774404   0.77975354
 -10.40842434  -9.82913099   2.29232548   4.51633196   3.58511591]","[0.00000000e+00 1.90752109e-04 0.00000000e+00 0.00000000e+00
 1.77635684e-15 0.00000000e+00 5.96628492e-01 0.00000000e+00
 1.32116540e-13 1.43828338e-08]",['Ti0' 'Te0' 'Aw' 'Ce' 'Ci' 'e11' 'p11' 'p22' 'Rea' 'Rie'],2339.8676611711103,5.526000568548028
victoria_control_wood_inf_schedTrue_job44,65.8321316756482,48.99683327502114,12667.25598425408,194.53784837991643,259378.34493516764,90.12179430565158,91.06452830415984,134.385920276634,"(0.59080557577671, 21.9209689419863)","[ 1.81011472e+01  1.71911921e+00  4.22974536e+00  2.19209689e+01
  5.90805576e-01 -9.67717319e+00 -4.19783415e+00  2.31692172e+00
  1.20310398e-02  7.42922470e+00]","[0.         0.58628727 0.         0.03524353 0.         0.
 0.53000379 0.         0.04204806 0.        ]",['Ti0' 'Te0' 'Aw' 'Ce' 'Ci' 'e11' 'p11' 'p22' 'Rea' 'Rie'],2762.6783260607,4.057081898359968
victoria_control_wood_inf_schedTrue_job107,64.62152320489986,48.22449450819121,12667.121163258531,192.950172387657,281416.9676840737,90.12179430565158,91.0927139002573,130.48057526895,"(0.821191810738573, 19.0563805801349)","[ 1.81174760e+01 -1.72983870e+00  4.35807042e+00  1.90563806e+01
  8.21191811e-01 -9.64878801e+00 -1.08839835e+01  2.88243911e+00
  1.22005661e-02  7.65177545e+00]","[0.00000000e+00 7.27487752e-01 0.00000000e+00 9.37496103e-01
 3.79918319e-13 0.00000000e+00 9.82880634e-01 0.00000000e+00
 9.37490637e-01 0.00000000e+00]",['Ti0' 'Te0' 'Aw' 'Ce' 'Ci' 'e11' 'p11' 'p22' 'Rea' 'Rie'],2547.6486219251997,6.162115511860009
victoria_control_wood_inf_schedTrue_job132,55.38699326512291,42.86353317672558,12666.040614130148,192.45117891122794,225715.96802019537,90.12179430565158,91.11481720750129,122.48950478136899,"(0.7625373303311931, 0.0894065990250929)","[ 18.53218816 -14.65786412   4.27261663   0.0894066    0.76253733
 -21.77110665  -2.79850411   2.28423987   4.24761312   3.91635164]","[0.00000000e+00 1.70780224e-04 0.00000000e+00 0.00000000e+00
 5.55111512e-15 8.22914639e-01 0.00000000e+00 0.00000000e+00
 3.13758264e-08 4.52276953e-07]",['Ti0' 'Te0' 'Aw' 'Ce' 'Ci' 'e11' 'p11' 'p22' 'Rea' 'Rie'],2296.6420176935103,5.088887261138993
victoria_control_wood_inf_schedTrue_job60,78.05228917158671,55.9689307207505,12667.776824876828,200.95691006506684,277902.5220649961,90.12179430565158,91.08310540612572,143.017467552613,"(0.927381091422568, 20.514054667312898)","[ 1.81044837e+01 -1.34598579e+00  4.72664013e+00  2.05140547e+01
  9.27381091e-01 -2.19630773e+01 -2.93517206e+00  2.56960155e+00
  1.51544178e-02  6.97699848e+00]","[0.00000000e+00 7.07626158e-01 0.00000000e+00 9.34535947e-01
 5.10702591e-15 8.86193012e-01 0.00000000e+00 0.00000000e+00
 9.34660010e-01 0.00000000e+00]",['Ti0' 'Te0' 'Aw' 'Ce' 'Ci' 'e11' 'p11' 'p22' 'Rea' 'Rie'],2903.13288249534,6.459438702550983
victoria_control_wood_inf_schedTrue_job166,67.6516657718647,50.412628802158245,12665.955783929725,200.9749050377717,217325.4138269827,90.12179430565158,91.08978753046499,139.557047928875,"(0.971131109011613, 19.188404425072697)","[ 1.81265160e+01 -3.07129276e+00  5.15588096e+00  1.91884044e+01
  9.71131109e-01 -1.06005237e+01 -1.00311925e+01  2.78873510e+00
  1.48956632e-02  7.15063281e+00]","[0.00000000e+00 5.36372205e-01 0.00000000e+00 9.47758000e-01
 2.51909604e-12 0.00000000e+00 9.84655621e-01 0.00000000e+00
 9.47935060e-01 0.00000000e+00]",['Ti0' 'Te0' 'Aw' 'Ce' 'Ci' 'e11' 'p11' 'p22' 'Rea' 'Rie'],2851.55896394107,7.14220327947001
victoria_control_wood_inf_schedTrue_job118,,,,,,,,,,,,,,
victoria_control_wood_inf_schedTrue_job125,66.61820314989642,49.468489288749005,12667.422022693785,195.12066774183586,303352.8824678015,90.12179430565158,91.09692367240925,134.43571274081498,"(0.8993159258638459, 19.2969297372515)","[ 1.81103313e+01 -2.03136681e+00  4.50276218e+00  1.92969297e+01
  8.99315926e-01 -2.13272916e+01 -2.88910307e+00  2.78667976e+00
  1.28585801e-02  7.42564105e+00]","[0.00000000e+00 6.48117213e-01 0.00000000e+00 9.62858771e-01
 1.80078175e-13 8.86083833e-01 0.00000000e+00 0.00000000e+00
 9.62895427e-01 0.00000000e+00]",['Ti0' 'Te0' 'Aw' 'Ce' 'Ci' 'e11' 'p11' 'p22' 'Rea' 'Rie'],2681.64713153126,6.126131382705012
victoria_control_wood_inf_schedTrue_job5,54.65903911276495,42.416292293439454,12665.940206075209,192.2463560839362,299944.25680695346,90.12179430565158,91.13925474447004,123.128211738439,"(0.7273143993867621, 17.7103539603565)","[ 1.81162802e+01 -9.23865857e-01  4.23181419e+00  1.77103540e+01
  7.27314399e-01 -2.13324642e+01 -2.75289996e+00  2.76053426e+00
  1.38197261e-02  8.10779583e+00]","[0.00000000e+00 8.32423729e-01 0.00000000e+00 9.30738501e-01
 1.11022302e-15 9.09009601e-01 0.00000000e+00 0.00000000e+00
 9.30655997e-01 0.00000000e+00]",['Ti0' 'Te0' 'Aw' 'Ce' 'Ci' 'e11' 'p11' 'p22' 'Rea' 'Rie'],2473.2478987744503,4.729499128272991
victoria_control_wood_inf_schedTrue_job163,86.46469387242539,60.48474163124193,12667.229347087476,204.5517987687839,237159.5810688004,90.12179430565158,91.04231076883627,148.551299414538,"(0.914712895546473, 21.613345072031603)","[ 1.81230018e+01 -3.94216308e+00  4.72950165e+00  2.16133451e+01
  9.14712896e-01 -2.22474955e+01 -3.12381706e+00  2.43878810e+00
  1.47224740e-02  6.71695880e+00]","[0.00000000e+00 3.38343936e-01 0.00000000e+00 2.15171576e-01
 0.00000000e+00 9.98283009e-07 0.00000000e+00 0.00000000e+00
 2.20353065e-01 0.00000000e+00]",['Ti0' 'Te0' 'Aw' 'Ce' 'Ci' 'e11' 'p11' 'p22' 'Rea' 'Rie'],3069.6786037693896,6.0750376107880015
victoria_control_wood_inf_schedTrue_job89,76.66007547293219,55.0872967658368,12668.216518106823,198.8281847592533,237288.75168790855,90.12179430565158,91.0430646833656,142.54127832709298,"(0.7416862130848231, 21.845023007515202)","[ 1.80501359e+01 -1.08527354e-01  4.40630933e+00  2.18450230e+01
  7.41686213e-01 -1.01848278e+01 -9.91866010e+00  2.37546631e+00
  1.41043810e-02  7.00140728e+00]","[0.00000000e+00 9.75246100e-01 0.00000000e+00 9.03338701e-01
 8.21565038e-15 0.00000000e+00 9.80207314e-01 0.00000000e+00
 9.04308743e-01 0.00000000e+00]",['Ti0' 'Te0' 'Aw' 'Ce' 'Ci' 'e11' 'p11' 'p22' 'Rea' 'Rie'],2984.2503880374898,5.342052165917011
victoria_control_wood_inf_schedTrue_job82,63.1636283581123,47.64593534410876,12666.1307412039,196.95498070837291,259966.13033519237,90.12179430565158,91.09411809062121,131.589128583123,"(0.7982339530263921, 0.11425930705075901)","[ 18.45579284 -14.63270038   4.59258008   0.11425931   0.79823395
 -21.77238214  -2.91861913   2.28018178   3.10657023   4.49284175]","[0.00000000e+00 1.95128811e-04 0.00000000e+00 0.00000000e+00
 0.00000000e+00 9.54716856e-01 0.00000000e+00 0.00000000e+00
 2.79802018e-05 2.31385577e-09]",['Ti0' 'Te0' 'Aw' 'Ce' 'Ci' 'e11' 'p11' 'p22' 'Rea' 'Rie'],2552.8257215151,5.36904794702599
victoria_control_wood_inf_schedTrue_job79,82.22221108032981,58.20222998130324,12667.800921823029,202.4140649518541,229575.92105907065,90.12179430565158,91.10592563161511,141.980539039809,"(0.8558133546412661, 19.4137370083217)","[ 1.81334335e+01 -2.34489710e+00  4.72535344e+00  1.94137370e+01
  8.55813355e-01 -1.02436078e+01 -1.02650908e+01  2.75916156e+00
  1.27573524e-02  7.03046143e+00]","[0.00000000e+00 5.98079973e-01 0.00000000e+00 9.24078414e-01
 3.55271368e-15 0.00000000e+00 9.84793557e-01 0.00000000e+00
 9.24468744e-01 0.00000000e+00]",['Ti0' 'Te0' 'Aw' 'Ce' 'Ci' 'e11' 'p11' 'p22' 'Rea' 'Rie'],2714.80524821457,5.579839171337994
victoria_control_wood_inf_schedTrue_job18,65.31813718203675,48.76140618562718,12666.979434044666,195.335643548109,289128.1454251739,90.12179430565158,91.07003061948166,135.489988186855,"(0.8077313444492379, 20.847223978012)","[ 1.81134127e+01 -6.34855916e-01  4.44438360e+00  2.08472240e+01
  8.07731344e-01 -2.10805163e+01 -3.06253194e+00  2.52487880e+00
  1.38328255e-02  7.36678631e+00]","[0.         0.86256421 0.         0.93205244 0.         0.92448038
 0.         0.         0.9319856  0.        ]",['Ti0' 'Te0' 'Aw' 'Ce' 'Ci' 'e11' 'p11' 'p22' 'Rea' 'Rie'],2902.4765665082396,5.36430261798202
victoria_control_wood_inf_schedTrue_job175,65.68361945311939,49.05777958178553,12666.52792668374,196.82394639706223,258221.6826719609,90.12179430565158,91.10847048193574,130.774645572836,"(0.7752066261204269, 20.012768934156)","[ 1.81244421e+01 -1.28285038e+00  4.58635772e+00  2.00127689e+01
  7.75206626e-01 -9.54289526e+00 -4.52795636e+00  2.77798275e+00
  1.28173213e-02  7.63392487e+00]","[0.00000000e+00 7.79745497e-01 0.00000000e+00 9.60605874e-01
 2.55351296e-14 0.00000000e+00 7.48923475e-01 0.00000000e+00
 9.60619876e-01 0.00000000e+00]",['Ti0' 'Te0' 'Aw' 'Ce' 'Ci' 'e11' 'p11' 'p22' 'Rea' 'Rie'],2566.25523596333,5.412160330646003
victoria_control_wood_inf_schedTrue_job108,71.77153808707865,52.42702896515887,12667.722605600171,197.54685906175567,258712.23940671288,90.12179430565158,91.08428840793174,134.419535822494,"(0.7587843231070369, 0.103804570148884)","[ 18.4628665  -14.58174851   4.32076986   0.10380457   0.75878432
 -20.11734236  -3.37964294   2.2810448    3.08149222   4.35790261]","[0.00000000e+00 2.71968047e-03 0.00000000e+00 0.00000000e+00
 0.00000000e+00 7.38100775e-01 0.00000000e+00 0.00000000e+00
 1.33459392e-04 9.45435965e-08]",['Ti0' 'Te0' 'Aw' 'Ce' 'Ci' 'e11' 'p11' 'p22' 'Rea' 'Rie'],2599.46263317725,4.851907754397018
victoria_control_wood_inf_schedTrue_job143,55.61675348169826,42.97814128190492,12666.248865949126,191.99392191017503,245279.28800127603,90.12179430565158,91.10663019578541,315.42166011502104,"(2.54290454253723, 29.609975130911497)","[ 18.11673117  17.52459798  38.27131402  29.60997513   2.54290454
 -21.79947123  -3.00798489  -0.3297471    3.07950343   0.09085589]","[0.00000000e+00 0.00000000e+00 9.46314872e-06 0.00000000e+00
 2.41190094e-04 4.68239579e-02 0.00000000e+00 1.35078194e-06
 3.19426021e-03 8.89219175e-05]",['Ti0' 'Te0' 'Aw' 'Ce' 'Ci' 'e11' 'p11' 'p22' 'Rea' 'Rie'],2421.9903917675897,204.8554959933939
victoria_control_wood_inf_schedTrue_job158,57.74552090541341,44.23488432173072,12666.726119843248,191.9280823107319,270416.6431469606,90.12179430565158,91.10290352069902,125.17715540671499,"(0.729118739068065, 0.0932317147163375)","[ 18.66048004 -14.38550188   4.07488967   0.09323171   0.72911874
 -10.35863594 -10.13522159   2.21913723   3.99566094   3.99301716]","[0.00000000e+00 9.07501664e-02 0.00000000e+00 0.00000000e+00
 1.21307409e-11 0.00000000e+00 9.83192708e-01 1.55431223e-15
 6.37063967e-04 7.26523248e-04]",['Ti0' 'Te0' 'Aw' 'Ce' 'Ci' 'e11' 'p11' 'p22' 'Rea' 'Rie'],2525.99454566204,5.001200497266993
victoria_control_wood_inf_schedTrue_job102,60.331442727541635,45.93604532421743,12666.1589240878,195.49037808678668,280662.0477309779,90.12179430565158,91.07503250541787,131.847814480198,"(0.532725601916229, 0.17841092810057801)","[ 18.16202905   5.76004334   4.2420807    0.17841093   0.5327256
  -9.95549844 -10.2588145    1.37995251   3.94258621   3.64191569]","[0.00000000e+00 6.68313266e-01 0.00000000e+00 4.36684584e-04
 2.42974219e-09 0.00000000e+00 9.83120913e-01 2.22295428e-01
 2.72136494e-01 3.11073086e-01]",['Ti0' 'Te0' 'Aw' 'Ce' 'Ci' 'e11' 'p11' 'p22' 'Rea' 'Rie'],2941.22511724166,3.8758634427030074
victoria_control_wood_inf_schedTrue_job67,,,,,,,,,,,,,,
victoria_control_wood_inf_schedTrue_job46,73.68598891117564,53.54271583342144,12667.430845769983,198.94031694130783,284959.793746525,90.12179430565158,91.0803110883399,137.303387347297,"(0.7521484798878629, 0.13146341913805001)","[ 18.41674031 -14.38505714   4.49502972   0.13146342   0.75214848
 -22.21894898  -3.25523582   2.25698954   2.46797674   4.81516477]","[0.00000000e+00 9.68250003e-02 0.00000000e+00 2.74317256e-04
 0.00000000e+00 8.92702772e-01 0.00000000e+00 1.26565425e-14
 7.46788530e-02 5.56851554e-04]",['Ti0' 'Te0' 'Aw' 'Ce' 'Ci' 'e11' 'p11' 'p22' 'Rea' 'Rie'],2699.40840382133,4.721058963875009
victoria_control_wood_inf_schedTrue_job156,62.93588940427698,47.4913513144122,12666.192534644719,196.5281337886661,283677.70724305866,90.12179430565158,91.07452725984871,134.434278528817,"(0.7961694584971529, 22.8628078448416)","[ 1.81240148e+01 -6.44983348e-01  4.56273169e+00  2.28628078e+01
  7.96169458e-01 -9.85099780e+00 -8.52685813e+00  2.44439928e+00
  1.41534464e-02  7.42442555e+00]","[0.00000000e+00 8.50482433e-01 0.00000000e+00 1.05708769e-01
 0.00000000e+00 0.00000000e+00 6.59171076e-04 0.00000000e+00
 1.09440845e-01 0.00000000e+00]",['Ti0' 'Te0' 'Aw' 'Ce' 'Ci' 'e11' 'p11' 'p22' 'Rea' 'Rie'],2970.45675573957,5.148625424818988
victoria_control_wood_inf_schedTrue_job181,56.42813370396736,43.53834057922256,12666.01381884689,193.5114153219001,236210.3402426339,90.12179430565158,91.10747121394566,125.103899797559,"(0.659150239825419, 0.310593686560078)","[ 18.31799808 -14.45681301   4.36866599   0.31059369   0.65915024
 -18.426236    -3.36541116   2.66371075   0.75341283   7.23994311]","[0.00000000e+00 4.72015461e-02 0.00000000e+00 6.58968259e-01
 0.00000000e+00 4.39268966e-01 0.00000000e+00 0.00000000e+00
 6.93135991e-01 1.65458781e-04]",['Ti0' 'Te0' 'Aw' 'Ce' 'Ci' 'e11' 'p11' 'p22' 'Rea' 'Rie'],2562.2397587316395,4.661106225520001
victoria_control_wood_inf_schedTrue_job42,61.71419864007565,46.689942149109285,12666.777622308457,194.73378344159363,255712.09712897032,90.12179430565158,91.08627538395884,132.321752596338,"(0.734125313020646, 20.9611443263461)","[ 1.81202102e+01 -3.06725344e-01  4.32426539e+00  2.09611443e+01
  7.34125313e-01 -1.10860661e+01 -3.24424686e+00  2.71285386e+00
  1.07442241e-02  7.54659220e+00]","[0.         0.93966444 0.         0.9498908  0.         0.01488895
 0.00792234 0.         0.94984236 0.        ]",['Ti0' 'Te0' 'Aw' 'Ce' 'Ci' 'e11' 'p11' 'p22' 'Rea' 'Rie'],2584.9997411317104,4.567341354291017
victoria_control_wood_inf_schedTrue_job157,81.45825937983362,57.41825765684716,12669.103326293009,197.5931196428124,292555.3937647274,90.12179430565158,91.06528472342441,143.346291458566,"(0.770457124644089, 20.0512480581361)","[ 1.79621731e+01 -1.63269879e+00  4.40587696e+00  2.00512481e+01
  7.70457125e-01 -9.67959835e+00 -1.03931858e+01  2.55747560e+00
  1.19647391e-02  6.96414877e+00]","[0.         0.66293061 0.         0.95770866 0.         0.
 0.98514225 0.         0.95772289 0.        ]",['Ti0' 'Te0' 'Aw' 'Ce' 'Ci' 'e11' 'p11' 'p22' 'Rea' 'Rie'],2766.86542492726,4.6010270837070095
victoria_control_wood_inf_schedTrue_job183,77.36326599609977,55.39531519091437,12668.64122160061,198.13351623491337,269852.692080902,90.12179430565158,91.09908633419897,138.533074998594,"(0.875639735274813, 19.6617170711685)","[ 1.81237961e+01 -2.35509107e+00  4.43603748e+00  1.96617171e+01
  8.75639735e-01 -1.02815081e+01 -1.00742939e+01  2.88666989e+00
  1.07006386e-02  7.20779213e+00]","[0.00000000e+00 6.33664028e-01 0.00000000e+00 9.60586017e-01
 2.44249065e-15 0.00000000e+00 9.86257793e-01 0.00000000e+00
 9.60614950e-01 0.00000000e+00]",['Ti0' 'Te0' 'Aw' 'Ce' 'Ci' 'e11' 'p11' 'p22' 'Rea' 'Rie'],2634.56836367281,5.657254628804992
victoria_control_wood_inf_schedTrue_job138,73.52602875996561,53.61182160288503,12667.63462049792,201.08442989579854,261026.07760330517,90.12179430565158,91.07845820631579,140.930395106741,"(0.858039809893223, 21.0324172126288)","[ 1.80895082e+01  2.26600388e-01  4.68614091e+00  2.10324172e+01
  8.58039810e-01 -1.18377549e+01 -3.04439563e+00  2.64124899e+00
  1.36269562e-02  7.08207443e+00]","[0.00000000e+00 9.54648506e-01 0.00000000e+00 7.66009392e-01
 7.21644966e-14 2.11525271e-01 8.77473184e-05 0.00000000e+00
 7.66589724e-01 0.00000000e+00]",['Ti0' 'Te0' 'Aw' 'Ce' 'Ci' 'e11' 'p11' 'p22' 'Rea' 'Rie'],2784.7370732546,6.172964194396997
victoria_control_wood_inf_schedTrue_job144,54.86127656192868,42.59161047217325,12665.762241394412,193.3467033001458,228664.31344143918,90.12179430565158,91.13316255379999,125.045000791408,"(0.7936509450116309, 16.4183415260018)","[ 1.81161292e+01 -2.79642402e+00  4.50872735e+00  1.64183415e+01
  7.93650945e-01 -1.00587532e+01 -1.02042621e+01  2.82500965e+00
  1.58048230e-02  7.98131616e+00]","[0.         0.56444978 0.         0.74150965 0.         0.
 0.9509371  0.         0.73891829 0.        ]",['Ti0' 'Te0' 'Aw' 'Ce' 'Ci' 'e11' 'p11' 'p22' 'Rea' 'Rie'],2655.28292204514,5.804798743513999
victoria_control_wood_inf_schedTrue_job142,60.329225427972716,46.07511665476168,12665.923028597108,198.05813039723373,277827.2500299064,90.12179430565158,91.13506811429569,126.22934586449499,"(0.8361845791543651, 0.0949310382416888)","[ 18.83997424 -14.6714283    4.43775101   0.09493104   0.83618458
  -9.72974506 -10.10543137   2.20490117   4.49595141   3.4261367 ]","[0.00000000e+00 6.15577260e-06 0.00000000e+00 0.00000000e+00
 4.44089210e-16 0.00000000e+00 9.54208618e-01 0.00000000e+00
 1.33226763e-15 9.44077927e-10]",['Ti0' 'Te0' 'Aw' 'Ce' 'Ci' 'e11' 'p11' 'p22' 'Rea' 'Rie'],2438.3985284569603,5.693553811014013
victoria_control_wood_inf_schedTrue_job189,59.72897812747824,45.73147896244594,12665.60630334436,198.1952438349356,269721.32825014956,90.12179430565158,91.12113579682949,129.278434796079,"(0.8181594990036241, 18.4752812417645)","[ 1.81179363e+01 -1.53715179e+00  4.60294217e+00  1.84752812e+01
  8.18159499e-01 -2.07559397e+01 -2.94059462e+00  2.79799454e+00
  1.41015096e-02  7.72114066e+00]","[0.         0.71847878 0.         0.95170723 0.         0.63582235
 0.         0.         0.95182004 0.        ]",['Ti0' 'Te0' 'Aw' 'Ce' 'Ci' 'e11' 'p11' 'p22' 'Rea' 'Rie'],2622.0245127451003,5.556442079637975
victoria_control_wood_inf_schedTrue_job136,55.51640203640771,43.02463059331908,12665.87411008178,194.14258053351466,282009.6598479644,90.12179430565158,91.1343821716002,121.98091187437099,"(0.8184811483546899, 1.81453119424418)","[ 18.25811863 -14.54586176   4.31438643   1.81453119   0.81848115
  -9.38042133 -10.11476739   2.95511838   0.1337658    8.06423817]","[0.00000000e+00 2.97738921e-03 0.00000000e+00 9.42481744e-01
 2.28705943e-14 0.00000000e+00 9.86530004e-01 0.00000000e+00
 9.43443409e-01 2.21131678e-05]",['Ti0' 'Te0' 'Aw' 'Ce' 'Ci' 'e11' 'p11' 'p22' 'Rea' 'Rie'],2455.54881634636,6.033088987149014
victoria_control_wood_inf_schedTrue_job86,62.22949688883725,47.03490729544114,12666.610489639275,195.6063819415781,263142.02392636193,90.12179430565158,91.0715475453823,133.718449710037,"(0.662115891196129, 24.6309192111107)","[ 1.81017117e+01  1.34341203e+00  4.55419666e+00  2.46309192e+01
  6.62115891e-01 -2.44829645e+01 -3.05821628e+00  2.19906548e+00
  1.71083553e-02  7.46129124e+00]","[0.00000000e+00 6.54822797e-01 0.00000000e+00 8.48640044e-01
 9.23705556e-14 0.00000000e+00 0.00000000e+00 0.00000000e+00
 8.48984199e-01 0.00000000e+00]",['Ti0' 'Te0' 'Aw' 'Ce' 'Ci' 'e11' 'p11' 'p22' 'Rea' 'Rie'],3021.9098995524105,5.430973467323014
victoria_control_wood_inf_schedTrue_job103,76.76578246333105,55.23854560985015,12667.7121439302,200.09113793291326,274239.11249195336,90.12179430565158,91.04329717877259,143.655277208943,"(0.6562159496187759, 22.9735497253089)","[ 1.80143143e+01  2.16084247e+00  4.39398346e+00  2.29735497e+01
  6.56215950e-01 -2.68457388e+01 -3.02458150e+00  2.03405346e+00
  1.63663515e-02  6.94474235e+00]","[0.         0.29955684 0.         0.91016847 0.         0.
 0.         0.         0.91046017 0.        ]",['Ti0' 'Te0' 'Aw' 'Ce' 'Ci' 'e11' 'p11' 'p22' 'Rea' 'Rie'],3125.4311496023497,4.527378553648987
victoria_control_wood_inf_schedTrue_job162,84.74808899612654,59.3458177544516,12668.283884250093,201.1354627736179,240386.57136650803,90.12179430565158,91.04108364361578,146.93238400133498,"(0.565520550484557, 0.21617198959231002)","[ 18.1156366    3.88005115   4.34429968   0.21617199   0.56552055
 -21.82652837  -2.8193099    1.39120846   2.85508068   3.95077092]","[0.00000000e+00 8.15961483e-01 0.00000000e+00 3.81136302e-05
 6.50528520e-10 9.17166545e-01 0.00000000e+00 2.56764989e-01
 5.04018780e-01 3.56694965e-01]",['Ti0' 'Te0' 'Aw' 'Ce' 'Ci' 'e11' 'p11' 'p22' 'Rea' 'Rie'],2932.0713140944604,4.160293998494012
victoria_control_wood_inf_schedTrue_job176,70.68908846572529,51.880658949405145,12667.59127154584,198.03512404571308,260433.91008659598,90.12179430565158,91.07437452166278,136.322383969249,"(0.664829079136684, 0.174066582826592)","[ 18.23978432  10.27645689   4.4532068    0.17406658   0.66482908
 -21.29788584  -2.91004667   1.26983821   5.32212216   2.01343031]","[0.         0.76110609 0.         0.74149247 0.14241507 0.26820514
 0.         0.77121791 0.47910386 0.78390469]",['Ti0' 'Te0' 'Aw' 'Ce' 'Ci' 'e11' 'p11' 'p22' 'Rea' 'Rie'],2582.62180028603,8.520935376820006
victoria_control_wood_inf_schedTrue_job65,61.22770257985639,46.544544019066755,12666.230169200277,197.10768443391234,258876.27121089987,90.12179430565158,91.11861601652072,129.857115081705,"(0.791097684218697, 0.101879425867564)","[ 18.52356553 -14.52006023   4.36458789   0.10187943   0.79109768
 -28.70465189  -8.84826165   2.21013592   3.91929952   3.7814722 ]","[0.00000000e+00 1.33101547e-02 0.00000000e+00 0.00000000e+00
 0.00000000e+00 4.61587351e-01 6.43473589e-01 0.00000000e+00
 8.96957537e-07 2.66271912e-06]",['Ti0' 'Te0' 'Aw' 'Ce' 'Ci' 'e11' 'p11' 'p22' 'Rea' 'Rie'],2561.17273254308,5.494930149754026
victoria_control_wood_inf_schedTrue_job129,84.84580193525099,59.395526707907365,12668.930881341752,201.15606321003293,262153.3931260001,90.12179430565158,91.06912913453512,144.33567077144698,"(0.889310064353379, 19.956307736586)","[ 1.81075261e+01 -1.74416985e+00  4.61435154e+00  1.99563077e+01
  8.89310064e-01 -9.74710389e+00 -1.00489987e+01  2.81602036e+00
  1.09260598e-02  6.91736820e+00]","[0.         0.69561245 0.         0.94208475 0.         0.
 0.98375545 0.         0.942134   0.        ]",['Ti0' 'Te0' 'Aw' 'Ce' 'Ci' 'e11' 'p11' 'p22' 'Rea' 'Rie'],2665.75917548845,5.194609808202017
victoria_control_wood_inf_schedTrue_job195,63.74183632373186,47.77598385604798,12667.187940479029,193.65617894283653,286513.3533145952,90.12179430565158,91.1311605806315,127.620837911829,"(0.711387721825374, 0.0992708062330435)","[ 18.72382512 -14.48661639   4.18625335   0.09927081   0.71138772
 -10.49375855  -3.65947298   2.23558702   3.75769539   4.07801558]","[0.00000000e+00 2.74020383e-02 0.00000000e+00 4.44089210e-16
 0.00000000e+00 6.04532512e-03 3.98985294e-01 0.00000000e+00
 5.78458543e-05 1.18328823e-05]",['Ti0' 'Te0' 'Aw' 'Ce' 'Ci' 'e11' 'p11' 'p22' 'Rea' 'Rie'],2444.98243663712,4.840099365665992
victoria_control_wood_inf_schedTrue_job128,74.21993314873397,53.696411337247056,12667.993380092683,197.20715401406886,287035.725195649,90.12179430565158,91.05572770932615,142.198450607451,"(0.801953512740115, 19.5393471494605)","[ 1.81021763e+01  9.52047785e-02  4.53946458e+00  1.95393471e+01
  8.01953513e-01 -1.16966554e+01 -3.19230265e+00  2.46024690e+00
  1.46147286e-02  7.01781070e+00]","[0.00000000e+00 9.76428194e-01 0.00000000e+00 9.57562205e-01
 0.00000000e+00 4.30719377e-02 2.11977428e-05 0.00000000e+00
 9.57586318e-01 0.00000000e+00]",['Ti0' 'Te0' 'Aw' 'Ce' 'Ci' 'e11' 'p11' 'p22' 'Rea' 'Rie'],2977.35269741578,5.067519258803003
victoria_control_wood_inf_schedTrue_job81,70.28667397224406,51.55124842043662,12667.824223817363,196.3948138466228,261893.67001951206,90.12179430565158,91.10010142158215,135.96455939194098,"(0.751300570008037, 19.6487243328892)","[ 1.81087149e+01 -3.53365032e-01  4.39623769e+00  1.96487243e+01
  7.51300570e-01 -2.19235936e+01 -2.98794541e+00  2.70746329e+00
  1.16745924e-02  7.34318321e+00]","[0.         0.9327097  0.         0.95488897 0.         0.95339093
 0.         0.         0.9547915  0.        ]",['Ti0' 'Te0' 'Aw' 'Ce' 'Ci' 'e11' 'p11' 'p22' 'Rea' 'Rie'],2570.07376254673,4.845673588752021
victoria_control_wood_inf_schedTrue_job159,90.99384717317879,63.04685829183829,12667.166464030923,208.65848064343768,207950.90661783563,90.12179430565158,91.0383002207568,153.291013688808,"(0.8575441903529829, 22.0060178689528)","[ 1.81006722e+01  8.47698133e-02  5.02177289e+00  2.20060179e+01
  8.57544190e-01 -1.96297524e+01 -3.15788590e+00  2.37796085e+00
  1.67764735e-02  6.50676314e+00]","[0.00000000e+00 9.81037771e-01 0.00000000e+00 9.24896408e-01
 3.21964677e-14 8.50706000e-01 0.00000000e+00 0.00000000e+00
 9.24985362e-01 0.00000000e+00]",['Ti0' 'Te0' 'Aw' 'Ce' 'Ci' 'e11' 'p11' 'p22' 'Rea' 'Rie'],3048.7213451044395,6.3123882367339945
victoria_control_wood_inf_schedTrue_job124,59.47696740612953,45.45067689049387,12666.134444836816,195.70656100361202,265827.2252686622,90.12179430565158,91.07187047774052,132.282181146977,"(0.7413199842826029, 21.1169497542029)","[ 1.81183952e+01  2.10383125e-02  4.55786655e+00  2.11169498e+01
  7.41319984e-01 -2.20707904e+01 -2.98871600e+00  2.39937730e+00
  1.47347086e-02  7.54486244e+00]","[0.         0.99474809 0.         0.42877514 0.         0.02817838
 0.         0.         0.42947614 0.        ]",['Ti0' 'Te0' 'Aw' 'Ce' 'Ci' 'e11' 'p11' 'p22' 'Rea' 'Rie'],2911.06382442663,4.515090778323014
victoria_control_wood_inf_schedTrue_job63,55.948324762980405,43.22271656684668,12666.053104480156,192.92375605420025,289860.3378293205,90.12179430565158,91.11673080384048,128.12658131023701,"(0.645402230970281, 19.1085862063745)","[ 1.81179838e+01  1.19433511e+00  4.38094555e+00  1.91085862e+01
  6.45402231e-01 -2.14483246e+01 -2.85238611e+00  2.46482933e+00
  1.53141875e-02  7.78946754e+00]","[0.         0.72422761 0.         0.65830167 0.         0.60704329
 0.         0.         0.6596331  0.        ]",['Ti0' 'Te0' 'Aw' 'Ce' 'Ci' 'e11' 'p11' 'p22' 'Rea' 'Rie'],2673.82909354559,4.449020607429986
victoria_control_wood_inf_schedTrue_job167,74.44454583712344,53.92340362084477,12667.530005747278,198.68613085162912,225861.60697909354,90.12179430565158,91.04997339205254,141.769036509231,"(0.584604697583038, 24.745426798860198)","[ 1.80550190e+01  2.42541940e+00  4.47386984e+00  2.47454268e+01
  5.84604698e-01 -2.68106674e+01 -3.26419719e+00  1.93608754e+00
  1.72250208e-02  7.03650141e+00]","[0.         0.23734025 0.         0.85997348 0.         0.
 0.         0.         0.85993514 0.        ]",['Ti0' 'Te0' 'Aw' 'Ce' 'Ci' 'e11' 'p11' 'p22' 'Rea' 'Rie'],3210.10502472335,4.505703608271006
victoria_control_wood_inf_schedTrue_job8,58.339555864767725,44.83905346418812,12665.593178377307,196.77274808206462,227767.04951446212,90.12179430565158,91.07427629406129,131.853955584945,"(0.7045031088264241, 21.876823016585004)","[ 1.81091731e+01  8.17516734e-01  4.50009337e+00  2.18768230e+01
  7.04503109e-01 -1.00996389e+01 -9.48808197e+00  2.39347755e+00
  1.49171240e-02  7.56923153e+00]","[0.         0.80834067 0.         0.93115357 0.         0.
 0.99018995 0.         0.93157459 0.        ]",['Ti0' 'Te0' 'Aw' 'Ce' 'Ci' 'e11' 'p11' 'p22' 'Rea' 'Rie'],2981.57984633664,5.005674318625012
victoria_control_wood_inf_schedTrue_job110,59.2866040630704,45.38922102693654,12666.116208970403,196.6376922739629,221567.72084114203,90.12179430565158,91.12343148169568,126.899111551243,"(0.6839934197207079, 18.8590149640855)","[ 1.82411640e+01 -8.53845413e+00  4.19518292e+00  1.88590150e+01
  6.83993420e-01 -1.10099504e+01 -3.12198120e+00  2.75443447e+00
  1.21141543e-02  7.86816166e+00]","[0.         0.05749019 0.         0.94681384 0.         0.02435167
 0.00475705 0.         0.94684973 0.        ]",['Ti0' 'Te0' 'Aw' 'Ce' 'Ci' 'e11' 'p11' 'p22' 'Rea' 'Rie'],2504.59493244526,4.58591609281099
victoria_control_wood_inf_schedTrue_job58,,,,,,,,,,,,,,
victoria_control_wood_inf_schedTrue_job148,73.63007521526028,53.617084706517254,12667.38168331775,200.38385805936522,265558.44979319215,90.12179430565158,91.0716973250349,139.973059042634,"(0.8041513989394, 21.505907797670396)","[ 1.81010855e+01 -7.56987232e-02  4.59601281e+00  2.15059078e+01
  8.04151399e-01 -1.09158919e+01 -3.03297070e+00  2.55612578e+00
  1.34275674e-02  7.13080438e+00]","[0.00000000e+00 9.84280235e-01 0.00000000e+00 9.29336498e-01
 6.88338275e-15 4.17711599e-04 1.05729967e-06 0.00000000e+00
 9.29403066e-01 0.00000000e+00]",['Ti0' 'Te0' 'Aw' 'Ce' 'Ci' 'e11' 'p11' 'p22' 'Rea' 'Rie'],2769.63143801635,5.493711832027998
victoria_control_wood_inf_schedTrue_job23,51.936548827556976,40.755396093389734,12665.542777966155,192.18165698105358,263886.40670232126,90.12179430565158,91.11001321687954,124.022742016936,"(0.631460353250191, 19.8348621343304)","[ 1.82064796e+01 -4.37713627e+00  4.22894329e+00  1.98348621e+01
  6.31460353e-01 -2.01105607e+01 -2.92816183e+00  2.51068622e+00
  1.31102268e-02  8.04992711e+00]","[0.         0.19148438 0.         0.94889474 0.         0.59000969
 0.         0.         0.94903707 0.        ]",['Ti0' 'Te0' 'Aw' 'Ce' 'Ci' 'e11' 'p11' 'p22' 'Rea' 'Rie'],2670.36302417829,4.002237314888006
victoria_control_wood_inf_schedTrue_job55,67.1637483385954,49.89752250724535,12667.083334333309,197.116344394539,253763.5068053687,90.12179430565158,91.05531742092687,138.222786176375,"(0.6762821950266279, 22.2646633264002)","[ 1.80957661e+01  1.31757554e+00  4.46073222e+00  2.22646633e+01
  6.76282195e-01 -1.03401327e+01 -1.05297204e+01  2.32881411e+00
  1.23794276e-02  7.22231774e+00]","[0.         0.65689361 0.         0.92119411 0.         0.
 0.97745075 0.         0.92122164 0.        ]",['Ti0' 'Te0' 'Aw' 'Ce' 'Ci' 'e11' 'p11' 'p22' 'Rea' 'Rie'],3013.61414125594,4.104682510831992
victoria_control_wood_inf_schedTrue_job9,69.74487619995496,51.4553683678892,12665.69539240799,199.3066553356721,243009.7152872071,90.12179430565158,91.11604377705494,133.36075524166202,"(0.885703224942082, 0.153893764066655)","[ 18.58553566  -0.59954893   4.68904318   0.15389376   0.88570322
 -21.73663763  -3.04986661   1.56061271   5.64820825   1.85024959]","[0.         0.99115288 0.         0.63398949 0.00195938 0.78999132
 0.         0.58501557 0.22669489 0.69522019]",['Ti0' 'Te0' 'Aw' 'Ce' 'Ci' 'e11' 'p11' 'p22' 'Rea' 'Rie'],2507.6103742765804,6.8855304176989875
victoria_control_wood_inf_schedTrue_job87,87.51878131039697,61.32348333439514,12666.446960276866,208.25094121216767,196123.91724658586,90.12179430565158,91.04691846051209,150.082178933661,"(0.7518691725795029, 17.670601103879)","[ 1.81011960e+01  9.43334682e-01  4.99493560e+00  1.76706011e+01
  7.51869173e-01 -2.26733154e+01 -3.15351523e+00  2.31796724e+00
  1.79660882e-02  6.64505018e+00]","[0.00000000e+00 7.58260579e-01 0.00000000e+00 7.52714496e-04
 0.00000000e+00 0.00000000e+00 0.00000000e+00 0.00000000e+00
 1.17875312e-03 0.00000000e+00]",['Ti0' 'Te0' 'Aw' 'Ce' 'Ci' 'e11' 'p11' 'p22' 'Rea' 'Rie'],2954.40408752468,5.224833124650985
victoria_control_wood_inf_schedTrue_job112,70.7626166017851,51.74665731526277,12667.914658167336,195.5330624910867,294426.1794196398,90.12179430565158,91.08784494571547,135.105581729964,"(0.847594927790908, 20.2636206951484)","[ 1.81102669e+01 -1.63463719e+00  4.37756580e+00  2.02636207e+01
  8.47594928e-01 -9.77282053e+00 -1.01485722e+01  2.81941417e+00
  1.20638635e-02  7.38955483e+00]","[0.00000000e+00 7.30007060e-01 0.00000000e+00 9.47609715e-01
 2.39697151e-12 0.00000000e+00 9.87816136e-01 0.00000000e+00
 9.47651843e-01 0.00000000e+00]",['Ti0' 'Te0' 'Aw' 'Ce' 'Ci' 'e11' 'p11' 'p22' 'Rea' 'Rie'],2622.9527935311,5.950420911755998
victoria_control_wood_inf_schedTrue_job64,54.37098805683126,42.2183282618278,12666.114742198037,191.74416430409,286863.7257288096,90.12179430565158,91.08796743806896,126.17623704905,"(0.6900910150007149, 21.683942606964198)","[ 1.81253316e+01 -1.12903744e+00  4.16054336e+00  2.16839426e+01
  6.90091015e-01 -2.06769095e+01 -2.90800104e+00  2.54240296e+00
  1.20430815e-02  7.91337951e+00]","[0.         0.78075284 0.         0.95963334 0.         0.51565992
 0.         0.         0.95951181 0.        ]",['Ti0' 'Te0' 'Aw' 'Ce' 'Ci' 'e11' 'p11' 'p22' 'Rea' 'Rie'],2738.77377015252,4.302720681661015
victoria_control_wood_inf_schedTrue_job76,,,,,,,,,,,,,,
victoria_control_wood_inf_schedTrue_job100,64.90808308848389,48.65449719319526,12665.955576839388,197.32696214147472,258404.66270317743,90.12179430565158,91.10576287069699,132.784974139954,"(0.8303266809755211, 22.1894791681082)","[ 1.81444695e+01 -2.44941837e+00  4.65771215e+00  2.21894792e+01
  8.30326681e-01 -9.62946083e+00 -9.10890176e+00  2.71687840e+00
  1.37469102e-02  7.51722568e+00]","[0.00000000e+00 5.79697121e-01 0.00000000e+00 9.07208473e-01
 9.51905221e-13 0.00000000e+00 9.23462662e-01 0.00000000e+00
 9.07394777e-01 0.00000000e+00]",['Ti0' 'Te0' 'Aw' 'Ce' 'Ci' 'e11' 'p11' 'p22' 'Rea' 'Rie'],2684.15440250155,6.78139741873602
victoria_control_wood_inf_schedTrue_job154,68.89302076467833,50.9835006121006,12665.559983357314,199.20414048372646,245866.9164492961,90.12179430565158,91.12549179994878,131.55397685808902,"(0.8835570169396841, 20.725178913344)","[ 1.81292035e+01 -2.47234614e+00  4.79806904e+00  2.07251789e+01
  8.83557017e-01 -9.09006023e+00 -6.26920705e+00  3.06166231e+00
  1.07194294e-02  7.59072314e+00]","[0.00000000e+00 6.77186936e-01 0.00000000e+00 9.36987643e-01
 4.15223411e-14 0.00000000e+00 8.67856618e-01 0.00000000e+00
 9.37152553e-01 0.00000000e+00]",['Ti0' 'Te0' 'Aw' 'Ce' 'Ci' 'e11' 'p11' 'p22' 'Rea' 'Rie'],2292.92957887375,6.694797396390982
victoria_control_wood_inf_schedTrue_job170,73.38545761799594,53.27833207793429,12667.975030478263,197.4825268185844,262727.94496292225,90.12179430565158,91.08179451356257,135.293011649507,"(0.770221727844917, 20.9223265699862)","[ 1.81157214e+01 -9.89909966e-01  4.32835611e+00  2.09223266e+01
  7.70221728e-01 -9.55924142e+00 -1.70189028e+01  2.74140907e+00
  1.13493546e-02  7.38001542e+00]","[0.         0.82400816 0.         0.9339212  0.         0.
 0.98156694 0.         0.93398655 0.        ]",['Ti0' 'Te0' 'Aw' 'Ce' 'Ci' 'e11' 'p11' 'p22' 'Rea' 'Rie'],2589.85894825777,5.094513842520001
victoria_control_wood_inf_schedTrue_job43,57.70606519013247,44.244143292860194,12666.20713735666,192.54057985986697,274652.8760955609,90.12179430565158,91.1205819167146,124.828264810268,"(0.8788921775489749, 16.820137195403)","[ 1.81737138e+01 -7.47853685e+00  4.32293811e+00  1.68201372e+01
  8.78892178e-01 -2.12296459e+01 -2.68040314e+00  2.94765892e+00
  1.31465232e-02  7.99785965e+00]","[0.00000000e+00 1.76975632e-01 0.00000000e+00 2.12387638e-01
 1.77635684e-15 8.47059589e-02 0.00000000e+00 0.00000000e+00
 2.15658701e-01 0.00000000e+00]",['Ti0' 'Te0' 'Aw' 'Ce' 'Ci' 'e11' 'p11' 'p22' 'Rea' 'Rie'],2438.8298788259,5.622134254393018
victoria_control_wood_inf_schedTrue_job91,57.50048179500153,44.23296195959895,12665.97091349614,194.64854484402,280825.50590645603,90.12179430565158,91.0758864847788,129.873543891275,"(0.7963450978728249, 17.8003905303615)","[ 1.81190977e+01 -9.98832802e-01  4.42547735e+00  1.78003905e+01
  7.96345098e-01 -9.91575884e+00 -1.01487194e+01  2.68364326e+00
  1.35060893e-02  7.68629150e+00]","[0.         0.81162863 0.         0.96156007 0.         0.
 0.98298516 0.         0.96160044 0.        ]",['Ti0' 'Te0' 'Aw' 'Ce' 'Ci' 'e11' 'p11' 'p22' 'Rea' 'Rie'],2835.0084995012603,4.981065703883985
victoria_control_wood_inf_schedTrue_job164,69.75871034607951,51.368680363189924,12666.80890051457,197.90063198846596,269027.7039109558,90.12179430565158,91.11388415697886,135.922110069892,"(0.944608829349486, 19.5537346995868)","[ 1.81193732e+01 -2.86585688e+00  4.78837207e+00  1.95537347e+01
  9.44608829e-01 -2.05046846e+01 -2.97973300e+00  2.84298891e+00
  1.34816793e-02  7.34367309e+00]","[0.00000000e+00 5.46882353e-01 0.00000000e+00 9.46514499e-01
 1.08868470e-12 8.92654629e-01 0.00000000e+00 0.00000000e+00
 9.46480673e-01 0.00000000e+00]",['Ti0' 'Te0' 'Aw' 'Ce' 'Ci' 'e11' 'p11' 'p22' 'Rea' 'Rie'],2711.32402398865,6.32369175608801
victoria_control_wood_inf_schedTrue_job69,60.719857346456166,46.12008538038146,12666.305144692793,194.76090994193618,267876.8497195413,90.12179430565158,91.11054475986633,128.729227565454,"(0.800274732591195, 17.4569033367302)","[ 1.81216975e+01 -1.48048393e+00  4.40668929e+00  1.74569033e+01
  8.00274733e-01 -9.34188604e+00 -9.75799411e+00  2.88218705e+00
  1.26838895e-02  7.75555972e+00]","[0.         0.78052359 0.         0.95651767 0.         0.
 0.98814653 0.         0.95652113 0.        ]",['Ti0' 'Te0' 'Aw' 'Ce' 'Ci' 'e11' 'p11' 'p22' 'Rea' 'Rie'],2473.46070145987,5.5885940678349755
victoria_control_wood_inf_schedTrue_job134,64.77426231530721,48.56870391745227,12666.752332617021,197.15261094860318,257623.14165358653,90.12179430565158,91.08232430049684,136.834449622703,"(0.8301699070820729, 22.657716785288102)","[ 1.81221072e+01 -1.10617235e+00  4.55021779e+00  2.26577168e+01
  8.30169907e-01 -2.55268905e+01 -3.00962310e+00  2.41903583e+00
  1.71387985e-02  7.29096236e+00]","[0.00000000e+00 7.68424088e-01 0.00000000e+00 9.09047980e-01
 5.28466160e-14 0.00000000e+00 0.00000000e+00 0.00000000e+00
 9.09394546e-01 0.00000000e+00]",['Ti0' 'Te0' 'Aw' 'Ce' 'Ci' 'e11' 'p11' 'p22' 'Rea' 'Rie'],2999.89248072659,6.8517399130890055
victoria_control_wood_inf_schedTrue_job16,,,,,,,,,,,,,,
victoria_control_wood_inf_schedTrue_job172,,,,,,,,,,,,,,
victoria_control_wood_inf_schedTrue_job180,71.32435180855833,52.31015220334598,12667.139550189137,199.30852964273316,259308.24044887058,90.12179430565158,91.1085784731735,133.623088272187,"(1.00391058748834, 17.4492296710991)","[ 1.81281877e+01 -5.18247000e+00  4.69043316e+00  1.74492297e+01
  1.00391059e+00 -9.49253392e+00 -8.03930474e+00  3.12164520e+00
  1.09573414e-02  7.47277929e+00]","[0.00000000e+00 4.15118082e-01 0.00000000e+00 9.68046448e-01
 4.55191440e-14 0.00000000e+00 8.96839825e-01 0.00000000e+00
 9.68127518e-01 0.00000000e+00]",['Ti0' 'Te0' 'Aw' 'Ce' 'Ci' 'e11' 'p11' 'p22' 'Rea' 'Rie'],2491.0194933006696,6.417536332496979
victoria_control_wood_inf_schedTrue_job173,62.59798232055181,47.18677261951043,12666.664408833125,194.6102124322349,279298.0198086922,90.12179430565158,91.06942336569115,134.11807816432,"(0.588823266999284, 23.619831154506503)","[ 1.81017235e+01  2.31506526e+00  4.40596305e+00  2.36198312e+01
  5.88823267e-01 -2.47207606e+01 -3.05055217e+00  2.07563513e+00
  1.56382695e-02  7.44047811e+00]","[0.         0.36360839 0.         0.89624856 0.         0.
 0.         0.         0.89659971 0.        ]",['Ti0' 'Te0' 'Aw' 'Ce' 'Ci' 'e11' 'p11' 'p22' 'Rea' 'Rie'],2992.98537236638,4.183009373580006
victoria_control_wood_inf_schedTrue_job185,59.0626276466218,44.98721861140169,12666.544553936285,191.6293486082766,283535.53830915625,90.12179430565158,91.12157605777254,297.924146979052,"(2.7203237823038298, 29.6776578306872)","[ 18.40934587  16.74867468  39.17066551  29.67765783   2.72032378
 -10.78088673  -9.47736382  -0.38796603   3.28730726   0.06925182]","[0.00000000e+00 0.00000000e+00 8.51144266e-10 0.00000000e+00
 1.59799838e-05 0.00000000e+00 6.52048971e-01 7.05469017e-11
 3.48722022e-03 4.40266596e-06]",['Ti0' 'Te0' 'Aw' 'Ce' 'Ci' 'e11' 'p11' 'p22' 'Rea' 'Rie'],2331.41716586441,195.999442846151
victoria_control_wood_inf_schedTrue_job57,63.66580767096748,47.85175811785134,12666.974346634695,195.62159361728283,236353.04983408528,90.12179430565158,91.09419883250823,130.75370252926902,"(0.751293867470029, 20.3523789657212)","[ 1.82523334e+01 -1.03687006e+01  4.33346633e+00  2.03523790e+01
  7.51293867e-01 -1.11596706e+01 -3.02321629e+00  2.61395377e+00
  1.30371096e-02  7.63492987e+00]","[0.00000000e+00 3.29229163e-02 0.00000000e+00 9.23042438e-01
 2.22044605e-16 8.60128803e-03 8.46870145e-06 0.00000000e+00
 9.23145664e-01 0.00000000e+00]",['Ti0' 'Te0' 'Aw' 'Ce' 'Ci' 'e11' 'p11' 'p22' 'Rea' 'Rie'],2682.0490518329,4.875644053250966
victoria_control_wood_inf_schedTrue_job62,52.655688091531324,41.15537120424607,12665.965694297876,191.2809303126106,303714.40385436954,90.12179430565158,91.12540027900523,121.857025124363,"(0.7055712953567779, 18.787616065585002)","[ 1.81916277e+01 -5.70988497e+00  4.07428499e+00  1.87876161e+01
  7.05571295e-01 -1.42812618e+01 -2.82367484e+00  2.75788502e+00
  1.16079057e-02  8.19473062e+00]","[0.00000000e+00 2.50435365e-01 0.00000000e+00 9.32388214e-01
 0.00000000e+00 8.90999623e-01 1.43189003e-08 0.00000000e+00
 9.32224975e-01 0.00000000e+00]",['Ti0' 'Te0' 'Aw' 'Ce' 'Ci' 'e11' 'p11' 'p22' 'Rea' 'Rie'],2491.27727395188,4.485748961691982
victoria_control_wood_inf_schedTrue_job61,57.021676208281136,43.81581649584696,12666.335344553145,192.06138156110416,301865.82823340176,90.12179430565158,91.07042276589871,128.07797686848699,"(0.62535848361539, 19.347082892156898)","[ 1.81871969e+01 -7.40331363e+00  4.29617629e+00  1.93470829e+01
  6.25358484e-01 -1.02375929e+01 -3.81495150e+00  2.37433102e+00
  1.52390825e-02  7.79250448e+00]","[0.00000000e+00 4.30002065e-02 0.00000000e+00 9.29692004e-01
 6.30209218e-11 5.55111512e-15 1.07187584e-01 0.00000000e+00
 9.31110615e-01 0.00000000e+00]",['Ti0' 'Te0' 'Aw' 'Ce' 'Ci' 'e11' 'p11' 'p22' 'Rea' 'Rie'],2825.73900073365,8.811564889951
victoria_control_wood_inf_schedTrue_job10,,,,,,,,,,,,,,
victoria_control_wood_inf_schedTrue_job40,70.94228145468476,51.807856170917276,12667.726622900364,195.03880035023857,289665.2993621428,90.12179430565158,91.08409396422059,135.197039077488,"(0.870318048043438, 19.3951873077788)","[ 1.81149465e+01 -1.93443502e+00  4.44924607e+00  1.93951873e+01
  8.70318048e-01 -9.87846540e+00 -3.96610762e+00  2.72752722e+00
  1.33232100e-02  7.38328848e+00]","[0.00000000e+00 6.76873801e-01 0.00000000e+00 6.56561949e-01
 2.19824159e-14 0.00000000e+00 3.05705469e-01 0.00000000e+00
 6.61217913e-01 0.00000000e+00]",['Ti0' 'Te0' 'Aw' 'Ce' 'Ci' 'e11' 'p11' 'p22' 'Rea' 'Rie'],2721.220084494,5.603811622980004
victoria_control_wood_inf_schedTrue_job194,55.20979182666281,42.766679657735516,12665.870669655833,192.64080061826462,278824.52688325173,90.12179430565158,91.10973656448826,125.73579256858999,"(0.7644480745409431, 14.98490085583)","[ 18.22624102  -9.48853573   4.22951228  14.98490086   0.76444807
 -10.18148191  -9.36495056   2.64698928   0.01866428   7.93452056]","[0.         0.04715855 0.         0.7580358  0.         0.
 0.98856995 0.         0.76239901 0.        ]",['Ti0' 'Te0' 'Aw' 'Ce' 'Ci' 'e11' 'p11' 'p22' 'Rea' 'Rie'],2808.1179104518897,4.9302063734810275
victoria_control_wood_inf_schedTrue_job174,83.59949305484669,58.90159143441267,12667.670821771533,202.56307761245583,235832.5570654521,90.12179430565158,91.10141651571527,144.394324603931,"(1.0399899927171, 19.1895146392505)","[ 1.81196616e+01 -3.96027929e+00  4.83551880e+00  1.91895146e+01
  1.03998999e+00 -9.77382485e+00 -9.88048427e+00  2.91921538e+00
  1.27449035e-02  6.91273505e+00]","[0.00000000e+00 4.64976989e-01 0.00000000e+00 8.55278148e-01
 9.72888436e-12 0.00000000e+00 9.85113298e-01 0.00000000e+00
 8.56500649e-01 0.00000000e+00]",['Ti0' 'Te0' 'Aw' 'Ce' 'Ci' 'e11' 'p11' 'p22' 'Rea' 'Rie'],2673.46708814878,7.318317267830992
victoria_control_wood_inf_schedTrue_job98,,,,,,,,,,,,,,
victoria_control_wood_inf_schedTrue_job130,63.873021118284676,47.80848401972906,12667.127210353792,192.98377603132388,267738.659287173,90.12179430565158,91.05848198631767,132.02583500309998,"(0.531282225993701, 18.817554739186498)","[ 1.81128578e+01  1.71108040e+00  3.97421762e+00  1.88175547e+01
  5.31282226e-01 -2.66198129e+01 -2.85252684e+00  2.34497151e+00
  1.06166003e-02  7.56365854e+00]","[0.         0.56134947 0.         0.15400013 0.         0.
 0.         0.         0.16269629 0.        ]",['Ti0' 'Te0' 'Aw' 'Ce' 'Ci' 'e11' 'p11' 'p22' 'Rea' 'Rie'],2618.41092862052,2.672592589770005
victoria_control_wood_inf_schedTrue_job72,54.919489300226076,42.6308006274678,12665.803214015476,193.4313303488547,250688.04294357554,90.12179430565158,91.08733642870037,128.992371257333,"(0.691256669322478, 23.7358116267088)","[ 1.81132866e+01  4.78173407e-01  4.41231735e+00  2.37358116e+01
  6.91256669e-01 -2.17039282e+01 -3.06931930e+00  2.25415541e+00
  1.76861767e-02  7.73471027e+00]","[0.         0.88294988 0.         0.84639017 0.         0.74666939
 0.         0.         0.84691649 0.        ]",['Ti0' 'Te0' 'Aw' 'Ce' 'Ci' 'e11' 'p11' 'p22' 'Rea' 'Rie'],3019.31111901765,5.290388257800004
victoria_control_wood_inf_schedTrue_job198,62.26019936426223,47.1338487446461,12665.927017471937,197.02112080285053,249094.6642444252,90.12179430565158,91.11414493366341,130.519997028162,"(0.78656656950491, 18.902092102068302)","[ 1.81138296e+01 -1.00904287e+00  4.46366780e+00  1.89020921e+01
  7.86566570e-01 -2.12594523e+01 -2.75541046e+00  2.69135690e+00
  1.31950654e-02  7.64846616e+00]","[0.         0.82140105 0.         0.95311758 0.         0.9352914
 0.         0.         0.95326698 0.        ]",['Ti0' 'Te0' 'Aw' 'Ce' 'Ci' 'e11' 'p11' 'p22' 'Rea' 'Rie'],2563.6236001717602,5.113546353035986
victoria_control_wood_inf_schedTrue_job113,66.86698167664183,49.641957254554086,12666.859791061986,195.6855353184483,281686.3709758578,90.12179430565158,91.1000824929986,131.791529614075,"(0.7899464549538959, 19.963172940516397)","[ 1.81166098e+01 -1.23855613e+00  4.27727814e+00  1.99631729e+01
  7.89946455e-01 -2.04185759e+01 -3.06890459e+00  2.79756699e+00
  1.13326953e-02  7.57640836e+00]","[0.00000000e+00 7.97469836e-01 0.00000000e+00 9.57575827e-01
 6.66133815e-16 8.17956404e-01 0.00000000e+00 0.00000000e+00
 9.57570420e-01 0.00000000e+00]",['Ti0' 'Te0' 'Aw' 'Ce' 'Ci' 'e11' 'p11' 'p22' 'Rea' 'Rie'],2573.4078748067604,5.404593719747993
victoria_control_wood_inf_schedTrue_job68,53.98308653363056,41.98639701286973,12665.920272986868,191.7926123409021,263037.71737628884,90.12179430565158,91.11971254741646,123.87403645520901,"(0.8304842785750441, 20.1618360128483)","[ 1.81149589e+01 -3.39681907e+00  4.44012210e+00  2.01618360e+01
  8.30484279e-01 -9.63424098e+00 -9.30077078e+00  2.88762583e+00
  1.33633239e-02  8.05935335e+00]","[0.00000000e+00 5.47089964e-01 0.00000000e+00 7.94050670e-01
 1.63891123e-12 0.00000000e+00 8.50167439e-01 0.00000000e+00
 7.95609968e-01 0.00000000e+00]",['Ti0' 'Te0' 'Aw' 'Ce' 'Ci' 'e11' 'p11' 'p22' 'Rea' 'Rie'],2591.55217669091,6.507028724031002
victoria_control_wood_inf_schedTrue_job153,60.80759536334421,46.209709059347524,12666.216333596645,195.4571973977753,318963.31284209975,90.12179430565158,91.08800254546354,132.247862517623,"(0.728753536069693, 23.2848798855879)","[ 1.81218346e+01  5.94759521e-01  4.43656236e+00  2.32848799e+01
  7.28753536e-01 -2.13496035e+01 -2.97697062e+00  2.40490336e+00
  1.37985873e-02  7.54776030e+00]","[0.         0.86293942 0.         0.89652829 0.         0.8764694
 0.         0.         0.89675163 0.        ]",['Ti0' 'Te0' 'Aw' 'Ce' 'Ci' 'e11' 'p11' 'p22' 'Rea' 'Rie'],2899.9381505933698,5.22758582600602
victoria_control_wood_inf_schedTrue_job47,57.20513003302461,44.03991207922796,12666.033049515478,194.2964411206617,260909.55284685094,90.12179430565158,91.12004685645412,129.724350761257,"(1.1050512845651002, 18.779505784367302)","[ 1.81124885e+01 -5.17855189e+00  4.85288232e+00  1.87795058e+01
  1.10505128e+00 -9.76263262e+00 -1.04638081e+01  3.19634919e+00
  1.26451145e-02  7.69600784e+00]","[0.00000000e+00 4.72510797e-01 0.00000000e+00 9.60062021e-01
 2.32443860e-08 0.00000000e+00 9.84975069e-01 0.00000000e+00
 9.60115781e-01 0.00000000e+00]",['Ti0' 'Te0' 'Aw' 'Ce' 'Ci' 'e11' 'p11' 'p22' 'Rea' 'Rie'],2495.19274813617,7.737815676520995
victoria_control_wood_inf_schedTrue_job39,62.09770796452121,46.927019701061994,12666.372964780148,195.04272822098332,237554.65945899882,90.12179430565158,91.06388845424178,132.798132509841,"(0.6410017921047809, 21.0606500017128)","[ 1.82001076e+01 -3.47900420e+00  4.16762327e+00  2.10606500e+01
  6.41001792e-01 -1.00078710e+01 -1.00910609e+01  2.33214216e+00
  1.26216842e-02  7.51760469e+00]","[0.         0.26670775 0.         0.92473298 0.         0.
 0.984621   0.         0.9248525  0.        ]",['Ti0' 'Te0' 'Aw' 'Ce' 'Ci' 'e11' 'p11' 'p22' 'Rea' 'Rie'],2918.4907277194898,3.92600004009401
victoria_control_wood_inf_schedTrue_job11,73.04439956443106,53.24592677338077,12667.338612435691,199.53975684251046,228210.25941079395,90.12179430565158,91.1044417089505,135.60931369840299,"(0.852044095255823, 0.233107385435341)","[ 18.31153687 -14.52582818   4.65487514   0.23310739   0.8520441
 -11.85827051  -2.9158098    2.65094512   1.20738084   6.16674394]","[0.00000000e+00 1.58971067e-02 0.00000000e+00 3.41130541e-01
 7.54951657e-15 3.52417844e-01 3.26185024e-04 0.00000000e+00
 4.39446599e-01 8.37720907e-05]",['Ti0' 'Te0' 'Aw' 'Ce' 'Ci' 'e11' 'p11' 'p22' 'Rea' 'Rie'],2567.33124730723,6.038519098344011
victoria_control_wood_inf_schedTrue_job182,60.508244205110756,46.10040313367344,12666.154600475127,196.61197634964444,228248.31177717797,90.12179430565158,91.06369912941824,132.724845867114,"(0.61861135345313, 22.9036641417877)","[ 1.80968306e+01  1.74079340e+00  4.38612777e+00  2.29036641e+01
  6.18611353e-01 -2.15045941e+01 -3.04950371e+00  2.30083843e+00
  1.31680604e-02  7.52121628e+00]","[0.         0.51982848 0.         0.88117896 0.         0.92590542
 0.         0.         0.88114055 0.        ]",['Ti0' 'Te0' 'Aw' 'Ce' 'Ci' 'e11' 'p11' 'p22' 'Rea' 'Rie'],2860.4475504389097,4.3093863789279965
victoria_control_wood_inf_schedTrue_job83,74.29683109335012,53.710875426590114,12667.846869609475,196.86050531069063,241888.57421818003,90.12179430565158,91.05524305231744,139.230818414892,"(0.665157338443593, 21.927895445472803)","[ 1.81068355e+01  1.29076952e+00  4.31542493e+00  2.19278954e+01
  6.65157338e-01 -2.17283419e+01 -3.11723733e+00  2.29805440e+00
  1.26358330e-02  7.16968207e+00]","[0.         0.6230105  0.         0.95230046 0.         0.77465241
 0.         0.         0.9524229  0.        ]",['Ti0' 'Te0' 'Aw' 'Ce' 'Ci' 'e11' 'p11' 'p22' 'Rea' 'Rie'],2932.1488427961604,3.653994025827984
