fname,hlc_mat,hlc_tot,hlc_se,hlc_si,c_tot,hlc_inf_standard,hlc_inf_current,hlc_tot_pred,c_tot_pred,estimates,probt,names,loglik,err
chicago_control_concrete_inf_schedTrue_job8,58.246896058517635,43.403340579052056,1410.640626390041,193.70435066741945,2531543.3238876304,89.97395697914656,90.92540769522905,123.50174745515699,0.833826139026838,"[ 17.15989011   3.46668767   0.83382614 -24.14887918  -1.6253883
   8.09705142]",[0.         0.         0.         0.87746649 0.         0.        ],['Ti0' 'Aw' 'Ci' 'e11' 'p11' 'Ria'],2436.40964521673,2.139688310344013
chicago_control_concrete_inf_schedTrue_job115,57.13380273876467,42.78906940095981,1410.556678086656,193.84573908277318,2562521.5600256664,89.97395697914656,90.92234283517368,123.20250101536699,0.822086090223265,"[ 17.18099471   3.47932834   0.82208609 -24.64989556  -1.54458696
   8.11671834]",[0.         0.         0.         0.63504908 0.         0.        ],['Ti0' 'Aw' 'Ci' 'e11' 'p11' 'Ria'],2315.16326781943,2.363541519504011
chicago_control_concrete_inf_schedTrue_job44,65.77537789765917,47.432762527492955,1411.5501613544125,193.39457049538657,2602896.055709727,89.97395697914656,90.90998949867611,128.44207514483298,0.8290404612677801,"[ 16.98565427   3.51118152   0.82904046 -24.26404072  -1.5082601
   7.78561074]",[0.         0.         0.         0.87990365 0.         0.        ],['Ti0' 'Aw' 'Ci' 'e11' 'p11' 'Ria'],2243.58753834593,2.334310424060021
chicago_control_concrete_inf_schedTrue_job6,64.66811202406053,46.856330762694625,1411.3731611468115,193.43364145607308,2579005.7190123736,89.97395697914656,90.95569160173933,127.149012332377,0.8992833744016129,"[ 16.95050819   3.58200714   0.89928337 -24.48262203  -1.44892973
   7.86478779]",[0.         0.         0.         0.51007057 0.         0.        ],['Ti0' 'Aw' 'Ci' 'e11' 'p11' 'Ria'],2143.8237190093,2.947728067229008
chicago_control_concrete_inf_schedTrue_job86,62.39029097734943,45.635586624797924,1411.058662423422,193.20307588948174,2556815.4091334813,89.97395697914656,90.92723890690112,126.75979310953801,0.8495479106144929,"[ 17.00849292   3.64242042   0.84954791 -24.74934454  -1.5760359
   7.88893683]",[0.         0.         0.         0.95269741 0.         0.        ],['Ti0' 'Aw' 'Ci' 'e11' 'p11' 'Ria'],2372.28759850026,2.2511989514219977
chicago_control_concrete_inf_schedTrue_job69,60.884527125898025,44.84937692021813,1411.1613958764408,193.66020783363888,2578043.4250418902,89.97395697914656,90.97173700682825,124.133080816785,0.9733013133106608,"[ 17.38249262   3.84450529   0.97330131 -24.31640947  -1.35532021
   8.05587031]",[0.         0.         0.         0.92902517 0.         0.        ],['Ti0' 'Aw' 'Ci' 'e11' 'p11' 'Ria'],1989.41445135218,3.425271497265996
chicago_control_concrete_inf_schedTrue_job14,60.34399039804627,44.536034675687,1411.0667804540378,193.29701450800061,2572500.947943663,89.97395697914656,90.99544565550065,120.836893096827,0.9133701134745841,"[ 17.4855706    3.44712601   0.91337011 -24.14586837  -1.29753693
   8.27561827]",[0.         0.         0.         0.84686596 0.         0.        ],['Ti0' 'Aw' 'Ci' 'e11' 'p11' 'Ria'],1890.34402143893,3.3332192572090094
chicago_control_concrete_inf_schedTrue_job143,55.51319649577477,41.799607081102124,1410.7274625054004,192.26772606451738,2590540.440886881,89.97395697914656,90.96080162403908,118.52807951575399,0.8786614276927909,"[ 17.25553236   3.3501921    0.87866143 -24.14973083  -1.31557727
   8.43681939]",[0.         0.         0.         0.29753899 0.         0.        ],['Ti0' 'Aw' 'Ci' 'e11' 'p11' 'Ria'],1927.12460833773,3.1643530118330006
chicago_control_concrete_inf_schedTrue_job194,55.136802376216316,41.600215207083195,1410.5816557274084,192.57791952727652,2620576.5504714227,89.97395697914656,90.9764297594956,122.186934287827,0.971337383524857,"[ 17.52859383   3.71212917   0.97133738 -24.56599539  -1.49200791
   8.18418111]",[0.         0.         0.         0.53399826 0.         0.        ],['Ti0' 'Aw' 'Ci' 'e11' 'p11' 'Ria'],2211.59056202015,3.182665959542007
chicago_control_concrete_inf_schedTrue_job130,63.82649093881657,46.353962082776874,1411.6189834659738,192.40956947880298,2599004.3575737095,89.97395697914656,90.90387542305855,126.876952682857,0.845291439066654,"[ 17.03340763   3.39252108   0.84529144 -24.0862844   -1.55514108
   7.8816521 ]",[0.         0.         0.         0.88390681 0.         0.        ],['Ti0' 'Aw' 'Ci' 'e11' 'p11' 'Ria'],2310.41728645818,2.3153298744209962
chicago_control_concrete_inf_schedTrue_job119,64.74942315976465,46.863938123122345,1411.7657838171426,192.83118891952046,2628818.692932354,89.97395697914656,90.96651264205283,126.00890843108601,0.99201569178367,"[ 17.87361685   3.76078394   0.99201569 -24.33803411  -1.37932959
   7.93594685]",[0.         0.         0.         0.92122562 0.         0.        ],['Ti0' 'Aw' 'Ci' 'e11' 'p11' 'Ria'],2011.82510203788,3.46379367675101
chicago_control_concrete_inf_schedTrue_job179,91.84750406761816,60.17581153120821,1412.8916193556686,199.10037273533155,2508349.3490126673,89.97395697914656,90.88945092275061,141.813364193772,0.92064409736129,"[ 16.79701613   3.69516388   0.9206441  -24.34326426  -1.38098161
   7.05152159]",[0.         0.         0.         0.97586768 0.         0.        ],['Ti0' 'Aw' 'Ci' 'e11' 'p11' 'Ria'],2027.6669867044102,3.0060061822269972
chicago_control_concrete_inf_schedTrue_job180,71.33539929256287,50.40273802765633,1411.5821264056854,195.5614794941922,2575652.361601498,89.97395697914656,90.95411176272576,129.08897858187598,0.942359314369302,"[ 17.22863677   3.79100767   0.94235931 -24.19411309  -1.31857783
   7.74659472]",[0.         0.         0.         0.94289358 0.         0.        ],['Ti0' 'Aw' 'Ci' 'e11' 'p11' 'Ria'],1929.9169046611398,3.0744151900940153
chicago_control_concrete_inf_schedTrue_job199,60.107731603656475,44.40471850430959,1410.9732932296472,193.25151202220425,2594510.869616249,89.97395697914656,90.98870096949132,123.439766210934,1.0012695492553,"[ 17.49316177   3.77847265   1.00126955 -24.31678682  -1.35974433
   8.10111709]",[0.         0.         0.         0.52197674 0.         0.        ],['Ti0' 'Aw' 'Ci' 'e11' 'p11' 'Ria'],1974.1945873980603,4.1502137822600105
chicago_control_concrete_inf_schedTrue_job134,64.82228391009404,47.007663090134265,1411.3456389718458,194.6362175219064,2561380.827879749,89.97395697914656,90.9220950164732,130.867184715627,0.906105992507141,"[ 17.18917057   3.77516395   0.90610599 -24.66915697  -1.52911823
   7.64133501]",[0.         0.         0.         0.63462208 0.         0.        ],['Ti0' 'Aw' 'Ci' 'e11' 'p11' 'Ria'],2270.9320823624803,2.649238330924021
chicago_control_concrete_inf_schedTrue_job146,56.81299559355434,42.53271266671056,1410.8294418520707,192.27421650209118,2627950.9882056336,89.97395697914656,90.97567212732937,120.834790026807,0.9975717108056991,"[ 17.81696246   3.7770003    0.99757171 -24.23947037  -1.32515392
   8.2757623 ]",[0.         0.         0.         0.59365128 0.         0.        ],['Ti0' 'Aw' 'Ci' 'e11' 'p11' 'Ria'],1924.6294699940697,3.7189407014579956
chicago_control_concrete_inf_schedTrue_job13,53.15365008149436,40.46243009977876,1410.5299376084865,192.6059560752301,2531990.6087987544,89.97395697914656,91.00238816827182,119.50607570092801,0.9976384160472909,"[ 17.44334948   3.88926231   0.99763842 -24.22383971  -1.32058811
   8.3677754 ]",[0.         0.         0.         0.55563144 0.         0.        ],['Ti0' 'Aw' 'Ci' 'e11' 'p11' 'Ria'],1945.8899423248101,3.7933149899209866
chicago_control_concrete_inf_schedTrue_job141,55.29210386506697,41.74639339251914,1410.4338263089726,193.82104938249952,2603274.677640708,89.97395697914656,90.98962727321586,121.81953402731101,1.0892080671942,"[ 17.3758318    4.10076158   1.08920807 -24.26384794  -1.35126168
   8.2088641 ]",[0.         0.         0.         0.69173099 0.         0.        ],['Ti0' 'Aw' 'Ci' 'e11' 'p11' 'Ria'],2003.69012594877,3.869550553704997
chicago_control_concrete_inf_schedTrue_job61,57.114149505653685,42.70237811340582,1410.8427656409067,192.29633267864762,2610249.0140007734,89.97395697914656,90.92000043946676,121.432282237362,0.796617818261912,"[ 17.43944277   3.32011834   0.79661782 -24.61931418  -1.49873331
   8.23504246]",[0.         0.         0.         0.94200024 0.         0.        ],['Ti0' 'Aw' 'Ci' 'e11' 'p11' 'Ria'],2214.5930694744798,2.225292834363998
chicago_control_concrete_inf_schedTrue_job32,72.90724924680174,51.14383322121186,1411.8469495899665,194.99448387411275,2543202.2567002582,89.97395697914656,90.89628392665439,134.131416944493,0.8444409611875642,"[ 16.94534959   3.57918906   0.84444096 -24.84750238  -1.64046176
   7.45537491]",[0.         0.         0.         0.74369545 0.         0.        ],['Ti0' 'Aw' 'Ci' 'e11' 'p11' 'Ria'],2478.4371229181797,2.1570897088699894
chicago_control_concrete_inf_schedTrue_job100,65.27595147234346,47.23467296727264,1411.0464354755725,194.45351776791512,2553410.5481190532,89.97395697914656,90.96769449917153,124.403999298443,0.8805088846010409,"[ 17.42012211   3.46315475   0.88050888 -24.31988111  -1.36769382
   8.03832679]",[0.         0.         0.         0.66812361 0.         0.        ],['Ti0' 'Aw' 'Ci' 'e11' 'p11' 'Ria'],2010.88246477763,4.438031449820002
chicago_control_concrete_inf_schedTrue_job33,73.89627659568609,51.66051894633232,1411.9472355947028,195.4492128429127,2621448.327414606,89.97395697914656,90.90176765551159,136.184958788637,1.11510113374727,"[ 17.57133946   4.22529299   1.11510113 -24.49928343  -1.47229803
   7.34295482]",[0.         0.         0.         0.50363823 0.         0.        ],['Ti0' 'Aw' 'Ci' 'e11' 'p11' 'Ria'],2188.6441298269397,4.047493894219002
chicago_control_concrete_inf_schedTrue_job91,57.62889342709804,43.05690243111536,1410.6473446500308,193.6566314708675,2591427.1646053963,89.97395697914656,90.92779346272715,125.140159622423,0.9749797232571371,"[ 17.17012157   3.82833587   0.97497972 -24.59786097  -1.51741051
   7.99103983]",[0.         0.         0.         0.67740872 0.         0.        ],['Ti0' 'Aw' 'Ci' 'e11' 'p11' 'Ria'],2274.63244875274,2.9100206113309923
chicago_control_concrete_inf_schedTrue_job187,87.4603078524386,58.16812234910417,1412.6496151488045,198.0237562471788,2495994.089443441,89.97395697914656,90.93028314284868,138.38068819808,1.0467368662785799,"[ 17.07213378   4.04250044   1.04673687 -24.26366792  -1.3453254
   7.22644188]",[0.         0.         0.         0.94923958 0.         0.        ],['Ti0' 'Aw' 'Ci' 'e11' 'p11' 'Ria'],1985.12394839728,3.9603253556849722
chicago_control_concrete_inf_schedTrue_job193,72.48334390661735,50.96855954298308,1411.6446463020636,195.49303101341062,2526192.0383603815,89.97395697914656,90.96785100710619,131.056424890681,1.1252320719161,"[ 17.82827276   4.19431851   1.12523207 -24.18243692  -1.30493043
   7.63030123]",[0.         0.         0.         0.90036188 0.         0.        ],['Ti0' 'Aw' 'Ci' 'e11' 'p11' 'Ria'],1902.36982083828,4.341086206303004
chicago_control_concrete_inf_schedTrue_job31,51.01645375432617,39.19303035864273,1410.5534204001801,192.14955023860838,2634950.22582816,89.97395697914656,91.02574048720139,119.83483588783899,1.12475321805573,"[ 17.30801814   4.03862387   1.12475322 -23.42558388  -1.29620713
   8.34481887]",[0.         0.         0.         0.85581334 0.         0.        ],['Ti0' 'Aw' 'Ci' 'e11' 'p11' 'Ria'],1894.1635967948498,4.361241185097015
chicago_control_concrete_inf_schedTrue_job145,64.25809462086103,46.65794399863407,1411.2919569518995,193.732176275432,2570190.5005153683,89.97395697914656,90.95924473430657,125.448835930611,0.8183454070570509,"[ 16.85094183   3.33199714   0.81834541 -24.42203159  -1.40542703
   7.97137728]",[0.         0.         0.         0.25997457 0.         0.        ],['Ti0' 'Aw' 'Ci' 'e11' 'p11' 'Ria'],2043.05574351721,2.560322461856984
chicago_control_concrete_inf_schedTrue_job34,73.15896941098755,51.23226616818845,1412.2982066756877,194.4761207897017,2579977.0810101097,89.97395697914656,90.9438232228581,131.053903219902,1.04540823875178,"[ 17.20590577   3.76687808   1.04540824 -24.2148795   -1.31615245
   7.63044805]",[0.        0.        0.        0.9443808 0.        0.       ],['Ti0' 'Aw' 'Ci' 'e11' 'p11' 'Ria'],1931.54220802909,4.0153612186149985
chicago_control_concrete_inf_schedTrue_job18,65.33364347894315,47.234749496348186,1411.3579287816585,193.9387532210248,2623214.0694151004,89.97395697914656,90.91574143838969,128.691171134682,0.8329552378699692,"[ 17.03866164   3.49928752   0.83295524 -24.77792148  -1.61595543
   7.77054083]",[0.         0.         0.         0.08560668 0.         0.        ],['Ti0' 'Aw' 'Ci' 'e11' 'p11' 'Ria'],2443.2163370407,2.154558360961005
chicago_control_concrete_inf_schedTrue_job11,73.2616424257807,51.36612660322441,1411.8799497775813,195.6909044768644,2527340.8031802457,89.97395697914656,90.94999239866932,129.525295427905,0.910315147932484,"[ 17.49262693   3.63522828   0.91031515 -24.27748907  -1.34095667
   7.72049967]",[0.         0.         0.         0.75496802 0.         0.        ],['Ti0' 'Aw' 'Ci' 'e11' 'p11' 'Ria'],1968.58251543397,3.2061651924039722
chicago_control_concrete_inf_schedTrue_job65,61.21752254168983,45.082525691336414,1410.8517684310175,194.64494923358782,2595231.7186778397,89.97395697914656,90.97538440700389,127.075618759373,1.07051191860344,"[ 17.8331025    3.94223405   1.07051192 -24.52892322  -1.44995138
   7.86933017]",[0.         0.         0.         0.78460732 0.         0.        ],['Ti0' 'Aw' 'Ci' 'e11' 'p11' 'Ria'],2102.7570339563604,3.5235722324010084
chicago_control_concrete_inf_schedTrue_job57,63.755171125514096,46.391175307927554,1411.4343324018023,193.71126302277102,2533553.1369353374,89.97395697914656,90.94398460746547,126.822231793673,0.9064654509613499,"[ 17.351148     3.740493     0.90646545 -24.55080405  -1.46621938
   7.88505285]",[0.         0.         0.         0.88459211 0.         0.        ],['Ti0' 'Aw' 'Ci' 'e11' 'p11' 'Ria'],2151.15223546145,3.336539397502989
chicago_control_concrete_inf_schedTrue_job158,57.790538691329296,43.076264319336296,1411.1064075532965,192.22982422402725,2578306.072866703,89.97395697914656,90.95199082231248,123.867808141324,1.0710435041039101,"[ 17.57939433   3.84611059   1.0710435  -24.21387184  -1.34152295
   8.07312259]",[0.         0.         0.         0.95138496 0.         0.        ],['Ti0' 'Aw' 'Ci' 'e11' 'p11' 'Ria'],1959.71241551513,4.163689610090998
chicago_control_concrete_inf_schedTrue_job196,84.83417333895737,56.86589692050489,1412.2908284831283,196.48449234266118,2530635.271867392,89.97395697914656,90.92949977427364,136.896658572131,0.845502982593188,"[ 16.83523912   3.35604805   0.84550298 -24.72068681  -1.5768952
   7.30478019]",[0.         0.         0.         0.95028796 0.         0.        ],['Ti0' 'Aw' 'Ci' 'e11' 'p11' 'Ria'],2350.101235524,2.3527876139299906
chicago_control_concrete_inf_schedTrue_job198,62.44469611407029,45.7351665677865,1410.7262554186068,194.47732364231652,2554001.9743869165,89.97395697914656,90.97052209003928,124.457359723511,0.895015940268476,"[ 17.11574143   3.64407205   0.89501594 -24.44575829  -1.43228955
   8.0348804 ]",[0.         0.         0.         0.84238558 0.         0.        ],['Ti0' 'Aw' 'Ci' 'e11' 'p11' 'Ria'],2113.53928035638,2.590966152837993
chicago_control_concrete_inf_schedTrue_job183,77.40472281933916,53.35138855244668,1412.3842052465884,195.4452031934871,2566711.1633309824,89.97395697914656,90.9228957912874,135.13369003526,0.9974208354382591,"[ 17.1654348    3.89596978   0.99742084 -24.37095145  -1.3938851
   7.40007913]",[0.         0.         0.         0.11984684 0.         0.        ],['Ti0' 'Aw' 'Ci' 'e11' 'p11' 'Ria'],2056.15746782989,3.3142882371680003
chicago_control_concrete_inf_schedTrue_job200,73.46122978778979,51.458020577420136,1411.7965862320739,195.60374664274445,2608912.2529187924,89.97395697914656,90.88010488015053,132.464678365506,0.793987637373432,"[ 16.90156431   3.29419723   0.79398764 -24.73734024  -1.58137379
   7.54918226]",[0.        0.        0.        0.2017145 0.        0.       ],['Ti0' 'Aw' 'Ci' 'e11' 'p11' 'Ria'],2358.1458169708103,2.216049328296009
chicago_control_concrete_inf_schedTrue_job7,78.11381470910628,53.90361486120742,1410.8153752777969,198.3737839729574,2514356.3257742934,89.97395697914656,90.9117623678739,135.620483810105,0.9286595208815841,"[ 16.93736372   3.6890845    0.92865952 -24.98687249  -1.70424288
   7.37351742]",[0.         0.         0.         0.44513943 0.         0.        ],['Ti0' 'Aw' 'Ci' 'e11' 'p11' 'Ria'],2583.49656918823,2.2316324034910053
chicago_control_concrete_inf_schedTrue_job58,55.93415718749154,42.090380056307204,1410.5814444841108,193.37470849376228,2621401.523058013,89.97395697914656,91.00310387129508,119.04253239636999,1.01851955204681,"[ 17.52957416   3.79330616   1.01851955 -24.08687389  -1.25844454
   8.40035893]",[0.        0.        0.        0.8170187 0.        0.       ],['Ti0' 'Aw' 'Ci' 'e11' 'p11' 'Ria'],1844.9659705593601,4.23908998625501
chicago_control_concrete_inf_schedTrue_job181,56.343678079773206,42.29273160777582,1410.7635118651194,192.7648165097154,2562577.865615584,89.97395697914656,90.97313241997509,118.32146324821699,0.830698514256118,"[ 17.52769151   3.39222236   0.83069851 -24.23776652  -1.32516074
   8.45155201]",[0.         0.         0.         0.87440964 0.         0.        ],['Ti0' 'Aw' 'Ci' 'e11' 'p11' 'Ria'],1930.5570861657602,2.831384518187008
chicago_control_concrete_inf_schedTrue_job82,63.58551400676207,46.33782731100571,1410.8234403831962,194.36413059751962,2553995.6813968443,89.97395697914656,90.95125937511652,126.511398337621,0.930115151444608,"[ 17.69353783   3.82041723   0.93011515 -24.45264975  -1.4483907
   7.90442611]",[0.         0.         0.         0.86888244 0.         0.        ],['Ti0' 'Aw' 'Ci' 'e11' 'p11' 'Ria'],2147.38278834788,2.8923085987689916
chicago_control_concrete_inf_schedTrue_job96,64.85276943066795,47.01053994608065,1411.1143130044031,194.41546736032697,2549862.8035598537,89.97395697914656,90.9327692159297,128.400929002897,0.8456192494071808,"[ 16.9907321    3.57746508   0.84561925 -24.71510702  -1.56811273
   7.78810565]",[0.         0.         0.         0.72428588 0.         0.        ],['Ti0' 'Aw' 'Ci' 'e11' 'p11' 'Ria'],2359.2990377521696,2.318167378920009
chicago_control_concrete_inf_schedTrue_job118,71.28659783803444,50.38455909745014,1411.6564302110226,195.6533453202507,2614500.9098652494,89.97395697914656,90.92869942990964,130.962102665048,1.0390858733071802,"[ 17.77455715   3.9317018    1.03908587 -24.06790193  -1.23712724
   7.63579677]",[0.         0.         0.         0.46762566 0.         0.        ],['Ti0' 'Aw' 'Ci' 'e11' 'p11' 'Ria'],1795.20457286929,4.116100770129975
chicago_control_concrete_inf_schedTrue_job161,80.79247776513917,55.017981900698054,1412.3821274412974,196.44582020785757,2594888.286998732,89.97395697914656,90.91048141104648,135.115957518581,0.916434200016086,"[ 17.2304052    3.50393307   0.9164342  -24.3307969   -1.4063096
   7.40105032]",[0.        0.        0.        0.6949627 0.        0.       ],['Ti0' 'Aw' 'Ci' 'e11' 'p11' 'Ria'],2062.63856756269,3.075752642659978
chicago_control_concrete_inf_schedTrue_job170,73.34529016100946,51.34330076594355,1412.1064123915226,194.7633921047959,2583302.180818829,89.97395697914656,90.91494044605301,130.859131938,0.978506775357708,"[ 17.09993741   3.72008125   0.97850678 -24.27137091  -1.34448801
   7.64180524]",[0.         0.         0.         0.74973579 0.         0.        ],['Ti0' 'Aw' 'Ci' 'e11' 'p11' 'Ria'],1976.7914775408499,3.5196476295410264
chicago_control_concrete_inf_schedTrue_job30,67.57417024157847,48.476103218268506,1411.0928378845285,195.25543584860554,2566983.3965714434,89.97395697914656,90.90203591485043,129.035800351012,0.7421852148658771,"[ 16.93000096   3.28250957   0.74218521 -24.77612868  -1.59908387
   7.74978725]",[0.         0.         0.         0.90467228 0.         0.        ],['Ti0' 'Aw' 'Ci' 'e11' 'p11' 'Ria'],2405.8470914424897,1.950604966544006
chicago_control_concrete_inf_schedTrue_job76,67.45269286585481,48.36738078023586,1411.1865457321494,194.50475531380212,2562961.6485762615,89.97395697914656,90.99329260058398,127.570581129585,1.04913253881675,"[ 17.32976158   3.94268711   1.04913254 -24.29191584  -1.34414137
   7.83879787]",[0.        0.        0.        0.9036687 0.        0.       ],['Ti0' 'Aw' 'Ci' 'e11' 'p11' 'Ria'],1965.1584780138198,3.9781538912859986
chicago_control_concrete_inf_schedTrue_job90,64.90233690894759,46.99269325268465,1411.5604155898748,193.65949383867468,2600056.70808017,89.97395697914656,90.99806085651636,127.70320295756399,1.11861151416284,"[ 17.85647684   3.89898362   1.11861151 -24.30461346  -1.35616216
   7.83065716]",[0.       0.       0.       0.909128 0.       0.      ],['Ti0' 'Aw' 'Ci' 'e11' 'p11' 'Ria'],1978.5461835838,3.9546877581140194
chicago_control_concrete_inf_schedTrue_job188,85.00554886018836,57.0504621457987,1412.058253420976,197.77629082904812,2563740.7052267804,89.97395697914656,90.89634460610974,135.469005875801,0.8484761630298909,"[ 17.07513007   3.45628657   0.84847616 -24.46095543  -1.45705932
   7.3817623 ]",[0.         0.         0.         0.91358688 0.         0.        ],['Ti0' 'Aw' 'Ci' 'e11' 'p11' 'Ria'],2165.4405536472896,2.7637670075829988
chicago_control_concrete_inf_schedTrue_job42,61.89461038584588,45.36421427284307,1411.2001239863473,193.09883913048512,2552370.3696660916,89.97395697914656,90.93966791230925,124.90019497811599,0.7984893639438391,"[ 17.13242234   3.47629522   0.79848936 -24.38107345  -1.39584465
   8.00639263]",[0.        0.        0.        0.8596475 0.        0.       ],['Ti0' 'Aw' 'Ci' 'e11' 'p11' 'Ria'],2020.91731481784,2.5093335599230073
chicago_control_concrete_inf_schedTrue_job70,54.82195341736101,41.40938854632581,1410.5709515548624,192.33312395285301,2610746.3325116285,89.97395697914656,90.9574288719506,120.690712169275,0.84301656530154,"[ 17.19798646   3.37089233   0.84301657 -24.40995986  -1.41184413
   8.28564172]",[0.         0.         0.         0.82610748 0.         0.        ],['Ti0' 'Aw' 'Ci' 'e11' 'p11' 'Ria'],1933.4581190764802,2.6745629868839984
chicago_control_concrete_inf_schedTrue_job139,61.608385636989006,45.233254466112015,1410.8188281567386,193.52601442022566,2584197.4186468325,89.97395697914656,90.96924994180206,125.064401758967,1.01942722428338,"[ 17.33119018   3.92011853   1.01942722 -24.37670969  -1.39564192
   7.99588041]",[0.         0.         0.         0.89690082 0.         0.        ],['Ti0' 'Aw' 'Ci' 'e11' 'p11' 'Ria'],2060.41516006297,3.5283674630360053
chicago_control_concrete_inf_schedTrue_job153,60.855093563335764,44.86601467461315,1410.9062113265336,194.27499383288352,2643843.778653419,89.97395697914656,90.92863168465281,127.067912877387,0.900227323710223,"[ 17.31550279   3.7578915    0.90022732 -24.32039201  -1.58151607
   7.86980739]",[0.         0.         0.         0.89078652 0.         0.        ],['Ti0' 'Aw' 'Ci' 'e11' 'p11' 'Ria'],2360.16945863148,2.5097222393759893
chicago_control_concrete_inf_schedTrue_job3,80.0447795699707,54.7321443281555,1411.7336752709216,197.26033612653697,2514692.4985719044,89.97395697914656,90.95104177504706,133.801385798135,0.872835415579562,"[ 17.04945465   3.59989316   0.87283542 -24.4896801   -1.46318981
   7.47376415]",[0.         0.         0.         0.93550112 0.         0.        ],['Ti0' 'Aw' 'Ci' 'e11' 'p11' 'Ria'],2176.8421698353895,2.592991030260009
chicago_control_concrete_inf_schedTrue_job37,87.6304717575767,58.211237830199174,1412.3062012576581,197.65985798362564,2506791.4071636293,89.97395697914656,90.93119269527489,136.66086534373198,0.850251111670973,"[ 16.86599912   3.45680746   0.85025111 -24.51671503  -1.48336665
   7.31738378]",[0.         0.         0.         0.89085983 0.         0.        ],['Ti0' 'Aw' 'Ci' 'e11' 'p11' 'Ria'],2208.34094093698,2.4209578524270228
chicago_control_concrete_inf_schedTrue_job111,72.27368621062237,50.807867036607206,1412.1508522415506,194.64503050037013,2589961.7618514644,89.97395697914656,90.94527616366942,132.662131321404,1.14014937345099,"[ 17.43307975   4.04663276   1.14014937 -24.36922187  -1.39476526
   7.53794613]",[0.         0.         0.         0.87411199 0.         0.        ],['Ti0' 'Aw' 'Ci' 'e11' 'p11' 'Ria'],2058.95571053629,4.095820345557996
chicago_control_concrete_inf_schedTrue_job106,82.15041704730137,55.709951543566206,1412.174930393598,197.2700183859468,2522529.3697179323,89.97395697914656,90.9125914816913,134.96335453973802,0.8256244858124759,"[ 16.8349742    3.2638063    0.82562449 -24.52219034  -1.48847241
   7.40941868]",[0.         0.         0.         0.95054872 0.         0.        ],['Ti0' 'Aw' 'Ci' 'e11' 'p11' 'Ria'],2227.0655446833302,2.4844451508189707
chicago_control_concrete_inf_schedTrue_job89,76.57589912169394,52.89375849985533,1412.3969923909751,194.59542247399432,2545743.421624439,89.97395697914656,90.88393769788311,133.724231762209,0.800761727877113,"[ 16.84747573   3.30361512   0.80076173 -24.80519834  -1.61549788
   7.47807624]",[0.         0.         0.         0.88010283 0.         0.        ],['Ti0' 'Aw' 'Ci' 'e11' 'p11' 'Ria'],2424.18390329458,2.057990586084003
chicago_control_concrete_inf_schedTrue_job167,74.36459930285736,51.82450071848007,1411.8410635403436,194.53970075783923,2532332.070928897,89.97395697914656,90.88918874780033,132.410681109597,0.799725436771207,"[ 16.79834003   3.27512216   0.79972544 -24.89866598  -1.65189039
   7.55226083]",[0.         0.         0.         0.90941791 0.         0.        ],['Ti0' 'Aw' 'Ci' 'e11' 'p11' 'Ria'],2489.63159008583,2.124048721820998
chicago_control_concrete_inf_schedTrue_job156,63.360241970243784,46.211252398657926,1411.0005977734222,194.24015129550307,2581749.2128771334,89.97395697914656,90.93035124578381,125.890206912344,0.8261996182166071,"[ 17.16371038   3.38111701   0.82619962 -24.85049382  -1.64002836
   7.94342963]",[0.         0.         0.         0.90764102 0.         0.        ],['Ti0' 'Aw' 'Ci' 'e11' 'p11' 'Ria'],2467.45625883183,2.302621904356002
chicago_control_concrete_inf_schedTrue_job176,70.61090651966401,50.006793007883395,1411.677118929052,195.05391086515988,2612077.0338125792,89.97395697914656,90.9070445560013,131.5440642139,0.9253366728637941,"[ 17.47010535   3.74916685   0.92533667 -24.48123879  -1.47156243
   7.60201539]",[0.         0.         0.         0.94448199 0.         0.        ],['Ti0' 'Aw' 'Ci' 'e11' 'p11' 'Ria'],2204.71282244376,2.9050425082900233
chicago_control_concrete_inf_schedTrue_job67,67.18552896823465,48.21319243544315,1411.571494127247,194.2266820990457,2603559.120362618,89.97395697914656,90.89797820852202,131.196183077538,0.878429676341379,"[ 16.94574645   3.52061149   0.87842968 -24.89341424  -1.64155355
   7.62217297]",[0.      0.      0.      0.69151 0.      0.     ],['Ti0' 'Aw' 'Ci' 'e11' 'p11' 'Ria'],2451.28825246167,2.376178684287993
chicago_control_concrete_inf_schedTrue_job191,70.8156582405373,50.17593782593992,1411.188435397866,196.0754201767912,2521172.2736736895,89.97395697914656,90.96239947468906,126.823941315053,0.8791159748860309,"[ 17.24474063   3.65871031   0.87911597 -24.18948159  -1.31172592
   7.88494656]",[0.        0.        0.        0.6272062 0.        0.       ],['Ti0' 'Aw' 'Ci' 'e11' 'p11' 'Ria'],1909.40092712001,3.3030972795910003
chicago_control_concrete_inf_schedTrue_job101,76.91705528648936,53.210631572972666,1411.8144587630534,196.6989702222176,2539124.9576308136,89.97395697914656,90.8857735274414,136.283640321502,0.8426713270598281,"[ 17.01383315   3.54964141   0.84267133 -24.77034606  -1.58931527
   7.33763787]",[0.         0.         0.         0.93132977 0.         0.        ],['Ti0' 'Aw' 'Ci' 'e11' 'p11' 'Ria'],2387.04102838096,2.623319510502
chicago_control_concrete_inf_schedTrue_job142,60.500679959086625,44.72884273651038,1410.3899533714364,195.34396924092312,2591252.8443129305,89.97395697914656,90.98958700625673,122.262857965453,0.926721751069094,"[ 17.45366789   3.76083434   0.92672175 -24.12406569  -1.30673864
   8.17909884]",[0.         0.         0.         0.87249729 0.         0.        ],['Ti0' 'Aw' 'Ci' 'e11' 'p11' 'Ria'],1887.26258865032,3.3098669669280127
chicago_control_concrete_inf_schedTrue_job66,85.44690640420076,57.388513386677594,1411.538739706465,199.4626777403404,2487390.4762330125,89.97395697914656,90.92197358048129,135.841072347862,0.8622026926241549,"[ 16.95903155   3.6156405    0.86220269 -24.43427972  -1.44276603
   7.36154377]",[0.         0.         0.         0.76704489 0.         0.        ],['Ti0' 'Aw' 'Ci' 'e11' 'p11' 'Ria'],2130.87809063937,2.5852142253960153
chicago_control_concrete_inf_schedTrue_job154,69.82603824345298,49.63824172696721,1410.8910529054106,195.47740315595038,2532270.8366996762,89.97395697914656,90.99120730152272,126.94228412888,1.03907018163569,"[ 17.42876652   4.02650558   1.03907018 -24.10453725  -1.27380702
   7.87759577]",[0.        0.        0.        0.1296266 0.        0.       ],['Ti0' 'Aw' 'Ci' 'e11' 'p11' 'Ria'],1868.1394871323603,3.984662475931998
chicago_control_concrete_inf_schedTrue_job168,64.99757772772661,47.08084896629124,1411.3610641614935,194.3130722012637,2573890.9810464843,89.97395697914656,90.96660634056303,124.916503025216,0.9234217154873019,"[ 17.20097343   3.57075179   0.92342172 -24.24244305  -1.32602235
   8.00534738]",[0.         0.         0.         0.90820445 0.         0.        ],['Ti0' 'Aw' 'Ci' 'e11' 'p11' 'Ria'],1941.8014163291398,3.25738812319301
chicago_control_concrete_inf_schedTrue_job132,55.33386880849611,41.72179423665806,1410.9044364902381,192.77446664327343,2548798.1632038034,89.97395697914656,90.9713289343199,119.099251621774,0.9344300044781609,"[ 17.85191419   3.65788345   0.93443    -24.17313428  -1.29553445
   8.39635838]",[0.         0.         0.         0.71874859 0.         0.        ],['Ti0' 'Aw' 'Ci' 'e11' 'p11' 'Ria'],1894.46099857129,3.3388032277400015
chicago_control_concrete_inf_schedTrue_job190,65.22950167562419,47.26292303540733,1410.8856512145544,195.35168196169215,2540445.5347138653,89.97395697914656,90.95121717400188,127.30195296490801,0.830066025384607,"[ 17.37640631   3.53404486   0.83006603 -24.60553929  -1.51914379
   7.85533903]",[0.         0.         0.         0.71641557 0.         0.        ],['Ti0' 'Aw' 'Ci' 'e11' 'p11' 'Ria'],2258.45775232736,2.367168568335998
chicago_control_concrete_inf_schedTrue_job116,62.62471883962232,45.77878172608496,1411.1876963748864,193.52007283987976,2579649.0730634495,89.97395697914656,90.97511741181457,124.602570591079,1.09554833024461,"[ 17.35500524   4.05043365   1.09554833 -23.60431591  -1.27836783
   8.02551661]",[0.         0.         0.         0.90521997 0.         0.        ],['Ti0' 'Aw' 'Ci' 'e11' 'p11' 'Ria'],1878.2738471764,4.354880220202006
chicago_control_concrete_inf_schedTrue_job184,75.03123755686269,52.213728915630966,1411.8014407270725,195.46697186447463,2623600.7100732997,89.97395697914656,90.90098447536026,133.02724886585,0.9557798979794541,"[ 17.36113296   3.74436236   0.9557799  -24.39136205  -1.41696756
   7.51725687]",[0.         0.         0.         0.91261742 0.         0.        ],['Ti0' 'Aw' 'Ci' 'e11' 'p11' 'Ria'],2088.1929325617602,3.373842839455989
chicago_control_concrete_inf_schedTrue_job74,55.981489765118745,42.09780487464941,1410.6096684962472,192.9664856704328,2596641.44842878,89.97395697914656,90.97497696614268,118.137873186795,0.854770377128783,"[ 17.86222502   3.47266673   0.85477038 -24.33536886  -1.39574751
   8.46468599]",[0.         0.         0.         0.45134386 0.         0.        ],['Ti0' 'Aw' 'Ci' 'e11' 'p11' 'Ria'],2059.23435311781,2.721623509935995
chicago_control_concrete_inf_schedTrue_job169,58.80531954443881,43.69320859322869,1411.0175560756186,193.3159334304644,2634185.6595059307,89.97395697914656,90.9923187329501,121.39449063338999,0.982340954322995,"[ 17.4318542    3.63640354   0.98234095 -24.15690827  -1.27761172
   8.23760613]",[0.        0.        0.        0.9722181 0.        0.       ],['Ti0' 'Aw' 'Ci' 'e11' 'p11' 'Ria'],1841.46653890583,3.6591006133409962
chicago_control_concrete_inf_schedTrue_job92,66.55451636239437,47.97065147450856,1411.0003627943704,195.61486929610217,2548653.3209161116,89.97395697914656,90.97992639860227,126.48564095338101,1.1012792496773798,"[ 17.60836479   4.14870363   1.10127925 -24.21661092  -1.34402635
   7.90603576]",[0.         0.         0.         0.62007194 0.         0.        ],['Ti0' 'Aw' 'Ci' 'e11' 'p11' 'Ria'],1978.06480586607,3.82497052334098
chicago_control_concrete_inf_schedTrue_job163,87.08840823452275,58.00861425182157,1412.0937009660938,198.09565710314283,2529170.430627834,89.97395697914656,90.88566190443589,138.847704187731,0.815207428088488,"[ 17.12579709   3.26025366   0.81520743 -24.8792331   -1.66675024
   7.20213565]",[0.         0.         0.         0.10689925 0.         0.        ],['Ti0' 'Aw' 'Ci' 'e11' 'p11' 'Ria'],2527.1035430593,2.0837885101389872
chicago_control_concrete_inf_schedTrue_job138,73.52729115486612,51.52003285036769,1411.7647808038073,196.0323070109272,2561111.3106231266,89.97395697914656,90.91508505552375,133.957133496964,0.908995685267236,"[ 16.89216726   3.68741239   0.90899569 -24.50356825  -1.45216432
   7.46507464]",[0.         0.         0.         0.01736513 0.         0.        ],['Ti0' 'Aw' 'Ci' 'e11' 'p11' 'Ria'],2148.60101907738,2.816613526422003
chicago_control_concrete_inf_schedTrue_job105,69.48706104558728,49.334707372336766,1412.0957255427868,193.40975648102227,2594917.802663649,89.97395697914656,90.92510944998199,128.762920043843,0.808959909484632,"[ 17.11193208   3.51591014   0.80895991 -24.49291272  -1.45807348
   7.76621095]",[0.         0.         0.         0.60149969 0.         0.        ],['Ti0' 'Aw' 'Ci' 'e11' 'p11' 'Ria'],2172.3997112493803,2.3642412945609976
chicago_control_concrete_inf_schedTrue_job20,64.50317855237307,46.753554126840676,1411.6868589590792,193.15221696211697,2601441.3898418616,89.97395697914656,90.92833541961299,127.624942730688,0.855536242930336,"[ 17.0661683    3.52622454   0.85553624 -24.6564517   -1.55380485
   7.83545895]",[0.         0.         0.         0.74247401 0.         0.        ],['Ti0' 'Aw' 'Ci' 'e11' 'p11' 'Ria'],2329.2992593312697,2.4699913243450027
chicago_control_concrete_inf_schedTrue_job123,52.28860083958738,39.928682553536795,1410.4579859263738,191.90041293163242,2564273.183482834,89.97395697914656,90.94136188313381,118.10283007277701,0.758303716328382,"[ 17.08268325   3.2290584    0.75830372 -24.85011033  -1.62867684
   8.46719761]",[0.         0.         0.         0.93115917 0.         0.        ],['Ti0' 'Aw' 'Ci' 'e11' 'p11' 'Ria'],2442.9725391837,1.848172998772995
chicago_control_concrete_inf_schedTrue_job21,78.03376914309425,53.820485798020506,1411.2111924883661,197.75704934381068,2511841.179127334,89.97395697914656,90.96515171332165,133.481021437353,1.0255564128127,"[ 17.01527292   3.77759865   1.02555641 -24.28987162  -1.34672482
   7.49170174]",[0.         0.         0.         0.94892656 0.         0.        ],['Ti0' 'Aw' 'Ci' 'e11' 'p11' 'Ria'],1995.08968972388,3.6726183726969737
chicago_control_concrete_inf_schedTrue_job72,55.30415982367842,41.68876643617157,1410.3877211133706,192.43981274608814,2540255.4073160635,89.97395697914656,90.94832434616568,121.730799334863,0.8214063740450509,"[ 17.11017102   3.54434362   0.82140637 -24.83053212  -1.61708306
   8.21484789]",[0.         0.         0.         0.91545015 0.         0.        ],['Ti0' 'Aw' 'Ci' 'e11' 'p11' 'Ria'],2431.33431191405,2.0237794792580104
chicago_control_concrete_inf_schedTrue_job164,70.16463591932809,49.7579019480231,1411.549964285015,194.67845113563286,2559731.6593829836,89.97395697914656,90.96998244021131,128.22958031963898,0.8623413781525799,"[ 17.19218504   3.61402894   0.86234138 -24.37362537  -1.38660111
   7.79851262]",[0.         0.         0.         0.67690606 0.         0.        ],['Ti0' 'Aw' 'Ci' 'e11' 'p11' 'Ria'],2038.0823852272301,2.884107368337027
chicago_control_concrete_inf_schedTrue_job186,76.34432480858142,52.86366655291716,1411.855501315574,195.70444979516424,2575547.755628296,89.97395697914656,90.91939327772536,132.50169074357999,0.8681446354902079,"[ 17.16158966   3.60466174   0.86814464 -24.13792522  -1.28908813
   7.54707351]",[0.        0.        0.        0.7252992 0.        0.       ],['Ti0' 'Aw' 'Ci' 'e11' 'p11' 'Ria'],1883.79573314687,3.224602366106012
chicago_control_concrete_inf_schedTrue_job120,75.98899554851587,52.64455115450416,1412.3681103956742,195.02730080769828,2546918.595159868,89.97395697914656,90.95152824268924,134.089794205646,0.910527988997266,"[ 17.09527299   3.6576193    0.91052799 -24.48114893  -1.45950386
   7.45768912]",[0.         0.         0.         0.49930103 0.         0.        ],['Ti0' 'Aw' 'Ci' 'e11' 'p11' 'Ria'],2170.12519915524,2.96673539518801
chicago_control_concrete_inf_schedTrue_job52,64.3676556120379,46.75795772214862,1411.2584094947886,194.46197800745853,2578457.4034618153,89.97395697914656,90.93586714103391,125.940284096555,0.897640337547515,"[ 17.7128389    3.52657264   0.89764034 -24.29478512  -1.35667575
   7.94027111]",[0.         0.         0.         0.89698138 0.         0.        ],['Ti0' 'Aw' 'Ci' 'e11' 'p11' 'Ria'],1981.21809785932,3.2570539673919967
chicago_control_concrete_inf_schedTrue_job127,80.3962420077315,54.73988324771275,1412.8195434785653,195.23551198934197,2600549.361200413,89.97395697914656,90.91962061940875,135.694880852638,0.940527466359593,"[ 17.05189417   3.51718729   0.94052747 -24.12054716  -1.41633404
   7.36947476]",[0.         0.         0.         0.87990389 0.         0.        ],['Ti0' 'Aw' 'Ci' 'e11' 'p11' 'Ria'],2101.16302643672,3.2024675364610005
chicago_control_concrete_inf_schedTrue_job63,56.05769249380419,42.14961042857246,1410.6432724586655,193.14899387340122,2607406.1740453993,89.97395697914656,90.97765433683996,121.444365460813,0.860688917404195,"[ 17.15692594   3.57634825   0.86068892 -24.50559046  -1.45696636
   8.2342231 ]",[0.         0.         0.         0.33266048 0.         0.        ],['Ti0' 'Aw' 'Ci' 'e11' 'p11' 'Ria'],2156.28422171175,2.5806950828930013
chicago_control_concrete_inf_schedTrue_job38,52.42414125859128,40.04128822839589,1410.6282545016488,192.67317272958354,2561266.3961253646,89.97395697914656,91.00225428757373,117.060030832974,0.9704673300087721,"[ 17.45531339   3.63554939   0.97046733 -24.21228517  -1.30808449
   8.54262546]",[0.         0.         0.         0.94844027 0.         0.        ],['Ti0' 'Aw' 'Ci' 'e11' 'p11' 'Ria'],1899.8698177674103,3.6867592115270043
chicago_control_concrete_inf_schedTrue_job24,63.87858731159141,46.49020164072245,1411.1885096478147,194.30348061022246,2565817.451220548,89.97395697914656,90.94894850916747,129.314543202751,1.1251779859159199,"[ 17.85767394   4.18646628   1.12517799 -24.39414966  -1.39725026
   7.73308226]",[0.         0.         0.         0.93147234 0.         0.        ],['Ti0' 'Aw' 'Ci' 'e11' 'p11' 'Ria'],2040.4360571461102,3.990332350606991
chicago_control_concrete_inf_schedTrue_job162,85.97019731259432,57.3875459022821,1412.752691981981,196.6333358420255,2530036.4083500896,89.97395697914656,90.87204586499303,139.1813938757,0.8129519220639491,"[ 17.32838198   3.29057106   0.81295192 -24.91325639  -1.6616734
   7.18486841]",[0.         0.         0.         0.90008363 0.         0.        ],['Ti0' 'Aw' 'Ci' 'e11' 'p11' 'Ria'],2500.56945104822,2.116056528932006
chicago_control_concrete_inf_schedTrue_job192,81.89510775384716,55.60479087804146,1411.6513849425312,197.43609198016185,2490221.62678818,89.97395697914656,90.90175456512905,136.716296613396,0.809826153460246,"[ 16.91145254   3.35798619   0.80982615 -24.91149385  -1.68007188
   7.31441697]",[0.         0.         0.         0.83072505 0.         0.        ],['Ti0' 'Aw' 'Ci' 'e11' 'p11' 'Ria'],2548.9427817550895,1.9281396190719988
chicago_control_concrete_inf_schedTrue_job128,74.5701318006283,51.91772278515397,1412.089076214045,194.44358368660798,2592460.822704104,89.97395697914656,90.90588242581305,132.577077227758,0.7697894796647209,"[ 16.89790575   3.23214299   0.76978948 -24.70280145  -1.58513774
   7.54278206]",[0.         0.         0.         0.04429916 0.         0.        ],['Ti0' 'Aw' 'Ci' 'e11' 'p11' 'Ria'],2388.8658487110997,2.103756336557012
chicago_control_concrete_inf_schedTrue_job125,66.78340282795884,47.98461687265818,1411.6152586404671,193.8802257949293,2607629.9539618734,89.97395697914656,90.94819864440836,128.982590917808,0.9165496686300271,"[ 17.09294848   3.74142524   0.91654967 -24.53259146  -1.49274813
   7.75298428]",[0.         0.         0.         0.29324812 0.         0.        ],['Ti0' 'Aw' 'Ci' 'e11' 'p11' 'Ria'],2220.72871569881,2.784128589890969
chicago_control_concrete_inf_schedTrue_job171,63.6197105960064,46.26073936949091,1411.347381078002,192.69083816014918,2617065.3929778957,89.97395697914656,90.94663493721468,123.643530442626,0.80591727263411,"[ 17.13190496   3.2052269    0.80591727 -24.67662733  -1.53082927
   8.08776647]",[0.         0.         0.         0.25558311 0.         0.        ],['Ti0' 'Aw' 'Ci' 'e11' 'p11' 'Ria'],2292.55593854406,2.2561067769249945
chicago_control_concrete_inf_schedTrue_job62,52.812989413676526,40.26134277814888,1410.490726733754,192.52939218806145,2616393.0765327746,89.97395697914656,90.98983612303536,119.47861111475099,1.00720463068323,"[ 17.58394843   3.74244666   1.00720463 -24.39641981  -1.40206731
   8.3696989 ]",[0.        0.        0.        0.7636737 0.        0.       ],['Ti0' 'Aw' 'Ci' 'e11' 'p11' 'Ria'],2048.05076513222,3.5824898791420026
chicago_control_concrete_inf_schedTrue_job185,59.08468816493759,43.804449961585014,1411.1947078545763,192.48341750562085,2613557.631348228,89.97395697914656,90.97298767913459,122.719639675077,0.9945285757436719,"[ 17.76541403   3.82406968   0.99452858 -24.12123856  -1.26791687
   8.14865496]",[0.         0.         0.         0.85855267 0.         0.        ],['Ti0' 'Aw' 'Ci' 'e11' 'p11' 'Ria'],1856.01548834276,3.9872905422470097
chicago_control_concrete_inf_schedTrue_job22,76.9239235711425,53.2181617273521,1411.3847168716723,196.76530870505448,2517431.57716193,89.97395697914656,90.99354308289689,130.359740023162,1.04146660529578,"[ 17.18248544   3.91289497   1.04146661 -24.18731641  -1.30039319
   7.67108004]","[0.00000000e+00 1.85329530e-11 6.39735376e-09 9.68045777e-01
 0.00000000e+00 0.00000000e+00]",['Ti0' 'Aw' 'Ci' 'e11' 'p11' 'Ria'],1879.3866716121697,4.423320770901995
chicago_control_concrete_inf_schedTrue_job68,53.93124714131498,40.91168791569431,1410.5923089578882,192.6097814418483,2610459.208260022,89.97395697914656,90.98110597161008,118.650457671605,0.907330018326989,"[ 17.37017441   3.62668753   0.90733002 -24.28420657  -1.35066541
   8.42811751]",[0.        0.        0.        0.8631864 0.        0.       ],['Ti0' 'Aw' 'Ci' 'e11' 'p11' 'Ria'],1981.1420072828798,3.200665271718009
chicago_control_concrete_inf_schedTrue_job137,66.34216975606938,47.72689960231619,1411.7967933111997,193.3914805774113,2635317.654652835,89.97395697914656,90.95836803209929,128.51108901335698,1.01687361321375,"[ 17.79414141   3.90358714   1.01687361 -24.29105676  -1.33880125
   7.78142966]",[0.        0.        0.        0.1576434 0.        0.       ],['Ti0' 'Aw' 'Ci' 'e11' 'p11' 'Ria'],1955.2727622044001,3.708780406772007
chicago_control_concrete_inf_schedTrue_job23,51.88462442755615,39.71682436673586,1410.3102055089569,192.46869260006105,2579057.2109390534,89.97395697914656,90.96969805468433,118.493025775495,0.855808009637082,"[ 17.42318666   3.57159876   0.85580801 -24.51701917  -1.45941817
   8.43931525]",[0.        0.        0.        0.8845849 0.        0.       ],['Ti0' 'Aw' 'Ci' 'e11' 'p11' 'Ria'],2152.24229211955,2.683115205080014
chicago_control_concrete_inf_schedTrue_job71,69.9603172426652,49.68855279562584,1411.7568602684294,195.1903127881161,2545158.4527377905,89.97395697914656,90.92884476693942,130.42792832966802,0.995494745419064,"[ 17.29011487   3.86788978   0.99549475 -24.31326644  -1.36493217
   7.66706957]",[0.         0.         0.         0.46203685 0.         0.        ],['Ti0' 'Aw' 'Ci' 'e11' 'p11' 'Ria'],2002.70993016577,3.3384064637299673
chicago_control_concrete_inf_schedTrue_job151,55.30419897456743,41.73003921800167,1410.6410184782885,193.31719492310452,2598285.226179951,89.97395697914656,90.9533777968795,119.312827952542,0.847293742761234,"[ 17.31444794   3.34452145   0.84729374 -24.24254759  -1.32264042
   8.38132846]",[0.        0.        0.        0.8562718 0.        0.       ],['Ti0' 'Aw' 'Ci' 'e11' 'p11' 'Ria'],1927.46800885573,2.9436343727190035
chicago_control_concrete_inf_schedTrue_job182,60.46838325455828,44.636935944294976,1410.901324937193,193.92485307861102,2536458.4369654404,89.97395697914656,90.90827038931454,123.73945602185199,0.72123255419818,"[ 16.91607636   3.1875469    0.72123255 -24.38161545  -1.47803202
   8.08149666]",[0.         0.         0.         0.91634269 0.         0.        ],['Ti0' 'Aw' 'Ci' 'e11' 'p11' 'Ria'],2193.05869970299,2.033492167240013
chicago_control_concrete_inf_schedTrue_job197,60.157379623368655,44.42980837890811,1410.944769567344,193.21421953689202,2597539.473395058,89.97395697914656,90.91812101425015,124.348284543739,0.804322766305663,"[ 17.10954562   3.31475      0.80432277 -24.79752881  -1.59993576
   8.04192839]",[0.         0.         0.         0.92701467 0.         0.        ],['Ti0' 'Aw' 'Ci' 'e11' 'p11' 'Ria'],2405.60562801067,2.2324771369639933
chicago_control_concrete_inf_schedTrue_job36,57.439919178531746,42.919324945359655,1410.89763513964,193.0031047517918,2580734.434447834,89.97395697914656,90.955423754632,120.660619807546,0.969719186375397,"[ 17.60746818   3.6663915    0.96971919 -24.17528581  -1.3238254
   8.28770813]",[0.         0.         0.         0.95934246 0.         0.        ],['Ti0' 'Aw' 'Ci' 'e11' 'p11' 'Ria'],1923.3872395904602,3.493849423414005
chicago_control_concrete_inf_schedTrue_job148,73.67060092896384,51.584005850554874,1411.5682236547345,195.94448789765815,2580848.5559886275,89.97395697914656,90.90101556356562,133.451385083216,0.910212282313193,"[ 16.88655029   3.76777713   0.91021228 -24.67454001  -1.51252835
   7.49336546]",[0 0 0 0 0 0],['Ti0' 'Aw' 'Ci' 'e11' 'p11' 'Ria'],2255.15481977468,2.7665709969210184
chicago_control_concrete_inf_schedTrue_job75,74.51733928804998,51.917150599917925,1412.3350434997974,194.7907141531306,2619723.275440233,89.97395697914656,90.91616900929907,130.458398839918,0.88402856220385,"[ 17.80716904   3.4528272    0.88402856 -24.34042146  -1.3659466
   7.66527881]",[0.         0.         0.         0.94289482 0.         0.        ],['Ti0' 'Aw' 'Ci' 'e11' 'p11' 'Ria'],1996.80951119715,2.8052356170410064
chicago_control_concrete_inf_schedTrue_job150,59.65450337062112,44.120770016898675,1411.1736630158493,192.55807386033547,2575657.516397197,89.97395697914656,90.97545372195893,124.43005724682502,1.02102294169194,"[ 17.80240058   3.88187872   1.02102294 -24.36350515  -1.36779692
   8.03664341]",[0.         0.         0.         0.94409008 0.         0.        ],['Ti0' 'Aw' 'Ci' 'e11' 'p11' 'Ria'],2017.69652678754,3.5024467770069805
chicago_control_concrete_inf_schedTrue_job166,67.19922766485652,48.30062505785208,1411.0959553042194,195.54649206144745,2523127.0638319044,89.97395697914656,90.94186143768535,128.250743039842,0.8613302652504559,"[ 17.20183057   3.66439494   0.86133027 -24.58641762  -1.49427944
   7.79722578]",[0.         0.         0.         0.59321493 0.         0.        ],['Ti0' 'Aw' 'Ci' 'e11' 'p11' 'Ria'],2215.7568056084697,2.593666799581996
chicago_control_concrete_inf_schedTrue_job59,65.20972852332228,47.24385588897654,1410.8250550946002,195.204477494177,2505345.9029670306,89.97395697914656,90.99320643759481,125.859196226796,1.0944030670107099,"[ 17.353456     4.01136894   1.09440307 -24.28850722  -1.32531407
   7.94538683]",[0.         0.         0.         0.93351441 0.         0.        ],['Ti0' 'Aw' 'Ci' 'e11' 'p11' 'Ria'],1944.64327179168,3.8274314449720066
chicago_control_concrete_inf_schedTrue_job102,60.341709812851754,44.557794260494155,1410.995985030344,193.7324229272056,2598853.8189760903,89.97395697914656,90.92410339096185,126.66158054292299,0.8657543468237578,"[ 17.42000842   3.6009374    0.86575435 -24.87691784  -1.6574538
   7.89505386]",[0.         0.         0.         0.88823192 0.         0.        ],['Ti0' 'Aw' 'Ci' 'e11' 'p11' 'Ria'],2494.68130911072,2.212922668128016
chicago_control_concrete_inf_schedTrue_job165,70.8052299267768,50.07823125489018,1411.7118117585949,194.66061525570962,2562016.686216115,89.97395697914656,90.93517697720121,128.096497921057,0.841521993177681,"[ 17.6360715    3.4990943    0.84152199 -24.35251898  -1.38447769
   7.80661467]",[0.         0.         0.         0.42661391 0.         0.        ],['Ti0' 'Aw' 'Ci' 'e11' 'p11' 'Ria'],2025.03151152245,2.4874617212490193
chicago_control_concrete_inf_schedTrue_job129,84.85366002643259,56.87580320007758,1412.9146143943658,196.4861613562481,2560318.51970573,89.97395697914656,90.890042092205,139.218646514142,0.947784834930373,"[ 17.01830352   3.72994811   0.94778483 -24.43264912  -1.43435327
   7.18294586]",[0.         0.         0.         0.82112038 0.         0.        ],['Ti0' 'Aw' 'Ci' 'e11' 'p11' 'Ria'],2137.45818053941,3.189051816594997
chicago_control_concrete_inf_schedTrue_job103,76.7421740863022,53.04610095263284,1412.0268582728072,195.59211864795088,2597623.514262208,89.97395697914656,90.875852979537,134.872562317278,0.7770902760589979,"[ 16.8065701    3.33527792   0.77709028 -24.93642683  -1.6832984
   7.41440648]",[0.         0.         0.         0.95048734 0.         0.        ],['Ti0' 'Aw' 'Ci' 'e11' 'p11' 'Ria'],2552.9102721732197,1.792948473789977
chicago_control_concrete_inf_schedTrue_job144,54.70651307528831,41.36331566194896,1410.605987337689,192.76226678864623,2573913.5054746238,89.97395697914656,91.00816809001611,121.244704383247,0.9867746499723941,"[ 17.39777063   3.90376709   0.98677465 -24.42753087  -1.41076862
   8.2477829 ]",[0.         0.         0.         0.93811727 0.         0.        ],['Ti0' 'Aw' 'Ci' 'e11' 'p11' 'Ria'],2085.09699628737,3.3427206898330013
chicago_control_concrete_inf_schedTrue_job87,86.52787784579806,57.81747987138327,1411.715279335087,198.7881732123226,2484288.675805437,89.97395697914656,90.89280486389963,137.768853248309,0.797415148117415,"[ 16.82679867   3.41862252   0.79741515 -24.81802115  -1.63937676
   7.25853469]",[0.         0.         0.         0.76775439 0.         0.        ],['Ti0' 'Aw' 'Ci' 'e11' 'p11' 'Ria'],2470.1886893688397,2.014203525499994
chicago_control_concrete_inf_schedTrue_job149,72.78508527950095,51.00223590694066,1412.3323994308234,193.80384194902493,2611178.0228091674,89.97395697914656,90.94079653174578,130.338025786397,0.8691382988306591,"[ 17.78954419   3.49148268   0.8691383  -24.37559998  -1.41694156
   7.67235804]",[0.         0.         0.         0.89965328 0.         0.        ],['Ti0' 'Aw' 'Ci' 'e11' 'p11' 'Ria'],2086.5309797567497,2.826667425326008
chicago_control_concrete_inf_schedTrue_job136,55.71711493261286,41.981425090000336,1410.5879489516958,193.67355000592354,2579332.4363100305,89.97395697914656,91.00182715798825,120.296442153637,1.0881003546771701,"[ 17.52473354   3.98780438   1.08810035 -24.20399174  -1.30936928
   8.3127978 ]",[0.         0.         0.         0.94242541 0.         0.        ],['Ti0' 'Aw' 'Ci' 'e11' 'p11' 'Ria'],1905.49344629513,4.144873854280007
chicago_control_concrete_inf_schedTrue_job5,54.684530384123015,41.361929904638814,1410.7068412785266,193.00362591647823,2620954.5666534025,89.97395697914656,90.99186382135262,117.25646183324801,0.8594927852131379,"[ 17.35118746   3.41939727   0.85949279 -24.20004218  -1.29196189
   8.52831464]",[0.         0.         0.         0.58126788 0.         0.        ],['Ti0' 'Aw' 'Ci' 'e11' 'p11' 'Ria'],1859.9003140432399,3.10105217960799
chicago_control_concrete_inf_schedTrue_job40,71.08245979441979,50.16623176447249,1411.7600472132142,193.9027752668846,2595946.4891254273,89.97395697914656,90.920102141888,128.587365467783,0.854798771062413,"[ 17.02308338   3.33100864   0.85479877 -24.64629884  -1.53834962
   7.77681381]",[0.         0.         0.         0.97085454 0.         0.        ],['Ti0' 'Aw' 'Ci' 'e11' 'p11' 'Ria'],2287.73419019375,2.499028016508987
chicago_control_concrete_inf_schedTrue_job131,60.104146239465585,44.485437773986675,1410.6262370131244,194.83401651066936,2552243.794255691,89.97395697914656,90.97047941265956,124.49512706488701,0.8525668129290451,"[ 17.53021109   3.43429431   0.85256681 -24.30732196  -1.36430307
   8.0324429 ]",[0.        0.        0.        0.9495437 0.        0.       ],['Ti0' 'Aw' 'Ci' 'e11' 'p11' 'Ria'],1977.9908047067602,2.679436892420995
chicago_control_concrete_inf_schedTrue_job135,62.302873621999495,45.585950702297,1411.2543675439651,193.14827025303802,2571928.1162866945,89.97395697914656,90.9633796819176,125.56528198889299,1.0105158633661802,"[ 17.41358556   3.9057201    1.01051586 -24.16787509  -1.31169323
   7.96398482]",[0.         0.         0.         0.57837977 0.         0.        ],['Ti0' 'Aw' 'Ci' 'e11' 'p11' 'Ria'],1901.2648219543398,3.7554857630630067
chicago_control_concrete_inf_schedTrue_job189,59.85487068957632,44.352527831516525,1410.6667243206393,194.9064531721418,2577902.6182665545,89.97395697914656,90.98562436392035,123.251512083643,0.9134913463601629,"[ 17.16771059   3.6525689    0.91349135 -24.26091566  -1.3409984
   8.11349072]",[0.         0.         0.         0.90070979 0.         0.        ],['Ti0' 'Aw' 'Ci' 'e11' 'p11' 'Ria'],1948.1429088554,3.2591094888420145
chicago_control_concrete_inf_schedTrue_job121,56.665820682234646,42.46742234179899,1410.8201291187802,192.62879663721455,2603280.6587064075,89.97395697914656,90.9862225496181,120.852171329842,1.06020180652043,"[ 17.517836     3.96760318   1.06020181 -24.16644874  -1.2968039
   8.27457206]",[0.         0.         0.         0.67005228 0.         0.        ],['Ti0' 'Aw' 'Ci' 'e11' 'p11' 'Ria'],1915.6377629806698,4.391027907641998
chicago_control_concrete_inf_schedTrue_job195,63.956311240238044,46.479852281054875,1411.437945724935,193.40386379851714,2588393.194682978,89.97395697914656,90.97944713629788,125.31649719852301,1.02697312622964,"[ 17.59598029   3.80504028   1.02697313 -24.10755736  -1.27779223
   7.97979534]",[0.         0.         0.         0.94123429 0.         0.        ],['Ti0' 'Aw' 'Ci' 'e11' 'p11' 'Ria'],1854.9540658331302,3.9885876768799875
chicago_control_concrete_inf_schedTrue_job51,76.3553912621211,52.767561955018365,1412.6287112824714,194.3074000893265,2616536.031489216,89.97395697914656,90.92695103581235,135.034292031071,0.98456607794376,"[ 17.10849792   3.87671      0.98456608 -24.44352685  -1.44551941
   7.40552629]",[0.         0.         0.         0.89204536 0.         0.        ],['Ti0' 'Aw' 'Ci' 'e11' 'p11' 'Ria'],2147.94682145337,3.3231864830929965
chicago_control_concrete_inf_schedTrue_job55,67.1991124600534,48.22896259278917,1411.558772683799,194.36937606537262,2562297.737754357,89.97395697914656,90.88754044981954,130.733479743794,0.807150693590413,"[ 16.90538658   3.43196696   0.80715069 -24.84486447  -1.62677418
   7.64915003]",[0.       0.       0.       0.941087 0.       0.      ],['Ti0' 'Aw' 'Ci' 'e11' 'p11' 'Ria'],2446.07532665567,2.1117439170930083
chicago_control_concrete_inf_schedTrue_job98,60.30212438470948,44.49271675408754,1411.3045207809064,192.9064197055322,2533915.8517902503,89.97395697914656,90.9833163526709,122.39486525913799,0.9826601161247359,"[ 17.34351611   3.65649083   0.98266012 -24.29573986  -1.34569467
   8.17027739]",[0.         0.         0.         0.94069864 0.         0.        ],['Ti0' 'Aw' 'Ci' 'e11' 'p11' 'Ria'],1976.7495751663603,3.4081625442360206
chicago_control_concrete_inf_schedTrue_job112,70.79844134990525,50.05133899467919,1412.0415075732144,194.29977878468716,2623603.221828503,89.97395697914656,90.91929616431439,130.012071569525,0.949566987761228,"[ 17.00429042   3.62755      0.94956699 -24.46433541  -1.44571845
   7.69159346]",[0.         0.         0.         0.41719812 0.         0.        ],['Ti0' 'Aw' 'Ci' 'e11' 'p11' 'Ria'],2122.01423898571,3.761894158213977
chicago_control_concrete_inf_schedTrue_job99,74.87731176490581,52.122534572384055,1412.1631553970153,195.2268618565306,2637139.474722359,89.97395697914656,90.91499193395886,136.176037956035,1.10514150832612,"[ 17.21979265   4.29474894   1.10514151 -24.46334279  -1.44246767
   7.34343586]",[0.         0.         0.         0.87111797 0.         0.        ],['Ti0' 'Aw' 'Ci' 'e11' 'p11' 'Ria'],2141.60773355456,3.3415165766949997
chicago_control_concrete_inf_schedTrue_job39,62.03624491481796,45.46934127358763,1411.0989519648278,193.627156326608,2592733.3774850494,89.97395697914656,90.90254828560218,126.02564418837,0.8248783031966099,"[ 17.33452925   3.40407679   0.8248783  -24.86491543  -1.63568902
   7.93489298]",[0.         0.         0.         0.82238055 0.         0.        ],['Ti0' 'Aw' 'Ci' 'e11' 'p11' 'Ria'],2467.74667922305,2.1569927892149963
chicago_control_concrete_inf_schedTrue_job147,77.64570996284931,53.52744909472576,1411.8951766615005,196.2814797359881,2569620.8058046694,89.97395697914656,90.89990020768295,135.01189710846901,0.8808728430269329,"[ 16.80377871   3.59010941   0.88087284 -24.5960571   -1.50473964
   7.40675467]",[0.         0.         0.         0.41022105 0.         0.        ],['Ti0' 'Aw' 'Ci' 'e11' 'p11' 'Ria'],2252.29487658778,2.741196373761994
chicago_control_concrete_inf_schedTrue_job56,61.33328516179152,45.18565490703539,1410.5617086246343,195.4033544496787,2568161.6501213117,89.97395697914656,90.96774041433936,125.479054118983,0.918583091052908,"[ 17.24105169   3.77321761   0.91858309 -24.21212637  -1.30255343
   7.96945759]",[0.         0.         0.         0.71314365 0.         0.        ],['Ti0' 'Aw' 'Ci' 'e11' 'p11' 'Ria'],1892.9844405541,3.3074481463209935
chicago_control_concrete_inf_schedTrue_job109,81.07514452879398,55.18756849572537,1411.8396036598263,196.94767968639619,2529452.832002448,89.97395697914656,90.98995835592414,133.594413371747,1.00538754208192,"[ 17.12825139   3.81216745   1.00538754 -24.41369201  -1.42126044
   7.48534295]",[0.         0.         0.         0.94326614 0.         0.        ],['Ti0' 'Aw' 'Ci' 'e11' 'p11' 'Ria'],2113.1320408657803,3.2999159478299873
chicago_control_concrete_inf_schedTrue_job46,74.33968544962619,51.89282328119784,1411.9776559451418,195.67573589478408,2580231.1152603207,89.97395697914656,90.92396697841166,132.712962676806,0.929804386632229,"[ 17.77047389   3.78147762   0.92980439 -24.50982043  -1.47473574
   7.53505897]",[0.         0.         0.         0.13353838 0.         0.        ],['Ti0' 'Aw' 'Ci' 'e11' 'p11' 'Ria'],2165.8314235744897,2.546576944121
chicago_control_concrete_inf_schedTrue_job45,58.46312302687596,43.465773775689826,1410.893826261402,192.565527434324,2610065.2230192698,89.97395697914656,90.93749605179657,122.22493414462,0.7781377105341629,"[ 17.26951871   3.30101894   0.77813771 -24.63133691  -1.52359491
   8.18163664]",[0.         0.         0.         0.56787691 0.         0.        ],['Ti0' 'Aw' 'Ci' 'e11' 'p11' 'Ria'],2272.88922078196,2.233823811828003
chicago_control_concrete_inf_schedTrue_job81,70.33159825773478,49.823442321963036,1412.0222736408966,194.3895681715498,2565340.4683280373,89.97395697914656,90.94484366173195,128.776603602065,0.796550072011582,"[ 16.96066031   3.3126184    0.79655007 -24.36032857  -1.40629447
   7.76538573]",[0.         0.         0.         0.89229669 0.         0.        ],['Ti0' 'Aw' 'Ci' 'e11' 'p11' 'Ria'],2055.39757027362,2.285958313845015
chicago_control_concrete_inf_schedTrue_job12,57.89988146623585,43.18340162805697,1410.7346302661026,193.16196885592618,2558708.2447662572,89.97395697914656,90.98380899047442,122.508594456047,0.9051279250849499,"[ 17.243097     3.68099646   0.90512793 -24.39808947  -1.42813904
   8.16269262]",[0.         0.         0.         0.24669332 0.         0.        ],['Ti0' 'Aw' 'Ci' 'e11' 'p11' 'Ria'],2109.6641599048003,2.8705396880520055
chicago_control_concrete_inf_schedTrue_job41,69.58144273620906,49.50067436181545,1411.729138197803,195.24592425369408,2542971.3115902618,89.97395697914656,90.93315802404555,131.04832299263902,0.9141039769121649,"[ 16.99548783   3.82829457   0.91410398 -24.24946221  -1.32063388
   7.63077296]",[0.         0.         0.         0.94440332 0.         0.        ],['Ti0' 'Aw' 'Ci' 'e11' 'p11' 'Ria'],1919.02369911297,3.1786522877799825
chicago_control_concrete_inf_schedTrue_job172,70.6207974306717,50.01411143836446,1411.6231123373827,195.09081304140526,2546395.609341374,89.97395697914656,90.93036461257364,132.903318263298,1.04920462802396,"[ 17.12880462   3.97262808   1.04920463 -24.34521784  -1.37973058
   7.52426661]",[0.        0.        0.        0.8688495 0.        0.       ],['Ti0' 'Aw' 'Ci' 'e11' 'p11' 'Ria'],2036.32134555767,3.7794425424710028
chicago_control_concrete_inf_schedTrue_job85,54.74672589544546,41.37589247711539,1410.661803338558,192.53564986581486,2593252.0031897286,89.97395697914656,90.99665593952456,119.273859097262,0.955910225916145,"[ 17.46567328   3.7016802    0.95591023 -24.12195488  -1.25770473
   8.38406678]",[0.         0.         0.         0.78910584 0.         0.        ],['Ti0' 'Aw' 'Ci' 'e11' 'p11' 'Ria'],1829.2274779844,3.491981506941997
chicago_control_concrete_inf_schedTrue_job117,62.3060932856948,45.6585401948275,1411.25637522242,194.42677249935556,2575654.1983984793,89.97395697914656,90.9724182031029,124.39480258446301,1.01403361825164,"[ 17.36224318   3.78205733   1.01403362 -24.10230072  -1.25601971
   8.03892107]",[0.         0.         0.         0.95283668 0.         0.        ],['Ti0' 'Aw' 'Ci' 'e11' 'p11' 'Ria'],1833.2430730728897,4.035509529613989
chicago_control_concrete_inf_schedTrue_job113,67.06513149121793,48.130803345225104,1411.3743930558637,193.89960730472518,2582055.847536604,89.97395697914656,90.95758315388085,124.72696190837699,0.807093707196275,"[ 17.04205606   3.26311327   0.80709371 -24.34340584  -1.38129954
   8.01751269]",[0.         0.         0.         0.42258089 0.         0.        ],['Ti0' 'Aw' 'Ci' 'e11' 'p11' 'Ria'],2000.40241532406,2.9743251553400114
chicago_control_concrete_inf_schedTrue_job94,55.35499832236077,41.768792284289695,1410.5885890880234,193.5291751326191,2617287.7706010104,89.97395697914656,90.98552558663292,120.61581618244401,0.996823091298583,"[ 17.37962731   3.67766669   0.99682309 -24.17463558  -1.28199412
   8.29078666]",[0.       0.       0.       0.662781 0.       0.      ],['Ti0' 'Aw' 'Ci' 'e11' 'p11' 'Ria'],1874.4442961122602,3.7599580300580016
chicago_control_concrete_inf_schedTrue_job73,91.09389551103632,59.81359935269215,1412.4170946531603,198.69197823333204,2498062.503058318,89.97395697914656,90.91766891736559,139.176806119498,0.905132899287114,"[ 17.03608979   3.48644964   0.9051329  -24.57353941  -1.51991477
   7.18510525]",[0.         0.         0.         0.83893505 0.         0.        ],['Ti0' 'Aw' 'Ci' 'e11' 'p11' 'Ria'],2247.7763292127697,2.5722588537550166
chicago_control_concrete_inf_schedTrue_job104,59.471630372908926,44.06888499199124,1411.0151127769586,193.48730784345864,2559436.3877416584,89.97395697914656,90.96918853658462,123.105749029918,0.9870970738355291,"[ 17.79017092   3.7552464    0.98709707 -24.25908685  -1.34558861
   8.12309748]",[0.         0.         0.         0.72930898 0.         0.        ],['Ti0' 'Aw' 'Ci' 'e11' 'p11' 'Ria'],1937.8242991804898,3.336800613549002
chicago_control_concrete_inf_schedTrue_job126,55.45517708568315,41.81532319599265,1410.5447607622314,193.30578956882226,2609219.3522845698,89.97395697914656,90.95977318786377,121.0635086804,0.892292174041693,"[ 17.78607767   3.6143873    0.89229217 -24.34033841  -1.35669592
   8.26012736]",[0.         0.         0.         0.81228089 0.         0.        ],['Ti0' 'Aw' 'Ci' 'e11' 'p11' 'Ria'],1958.5761811161499,2.9762522684579835
chicago_control_concrete_inf_schedTrue_job10,57.1984096813301,42.77174860641443,1410.8803381568362,192.74739016915436,2636687.6756487205,89.97395697914656,90.97118100344463,121.69921779253099,0.824425486566345,"[ 17.55933356   3.36802303   0.82442549 -24.695692    -1.55091835
   8.21697968]",[0.         0.         0.         0.79673272 0.         0.        ],['Ti0' 'Aw' 'Ci' 'e11' 'p11' 'Ria'],2318.76676757243,2.403870004877021
chicago_control_concrete_inf_schedTrue_job173,62.8120742122354,45.863267987955886,1411.1688412705726,193.24407591364246,2575950.3685615063,89.97395697914656,90.91592218571802,124.694663659848,0.7292543028028579,"[ 16.91762297   3.26867307   0.7292543  -24.85307564  -1.62798888
   8.01958938]",[0.         0.         0.         0.93493577 0.         0.        ],['Ti0' 'Aw' 'Ci' 'e11' 'p11' 'Ria'],2434.22824041472,1.7936155837649892
chicago_control_concrete_inf_schedTrue_job155,73.00063527527956,51.37908556463725,1411.1379743196842,197.78428029566186,2543727.714501265,89.97395697914656,90.95246506211376,134.946022780817,1.13674061376549,"[ 17.10139754   4.45480008   1.13674061 -24.36187359  -1.39384686
   7.41037031]",[0.        0.        0.        0.8541141 0.        0.       ],['Ti0' 'Aw' 'Ci' 'e11' 'p11' 'Ria'],2049.45205385298,3.9527769912660062
chicago_control_concrete_inf_schedTrue_job27,69.05809316476902,49.34137446233762,1410.8383827803355,196.94318861475082,2519135.1898884377,89.97395697914656,90.94491785102323,131.60784387178,0.9580636248830608,"[ 17.2074211    3.90940216   0.95806362 -24.57940126  -1.50927714
   7.5983313 ]",[0.         0.         0.         0.91567843 0.         0.        ],['Ti0' 'Aw' 'Ci' 'e11' 'p11' 'Ria'],2269.3985328031,2.777329876730022
chicago_control_concrete_inf_schedTrue_job152,68.56455826586281,48.94805356265307,1411.6390997020112,194.68014741363567,2554720.6315504597,89.97395697914656,90.90594385384523,129.932479700777,0.8524159968516791,"[ 17.01114136   3.47756718   0.852416   -24.80654386  -1.61248236
   7.69630505]",[0.         0.         0.         0.81076755 0.         0.        ],['Ti0' 'Aw' 'Ci' 'e11' 'p11' 'Ria'],2416.3079691455605,2.4136880398839935
chicago_control_concrete_inf_schedTrue_job79,82.37826422919552,55.82007926979959,1412.2092860250666,197.33730056763633,2526786.599109346,89.97395697914656,90.94511520399651,139.421627094461,1.17073672380581,"[ 17.15706902   4.30901333   1.17073672 -24.47202871  -1.44276238
   7.17248838]",[0.         0.         0.         0.88248068 0.         0.        ],['Ti0' 'Aw' 'Ci' 'e11' 'p11' 'Ria'],2124.62858170824,4.290996574063001
chicago_control_concrete_inf_schedTrue_job124,59.497394052272575,44.09320581040148,1410.8752667079737,193.68613018278225,2577478.598222495,89.97395697914656,90.92144820650903,124.681476615947,0.8356952715465992,"[ 17.14038032   3.49284819   0.83569527 -24.72613308  -1.57731679
   8.02043758]",[0.        0.        0.        0.9483877 0.        0.       ],['Ti0' 'Aw' 'Ci' 'e11' 'p11' 'Ria'],2362.77484842068,2.1740252356379983
chicago_control_concrete_inf_schedTrue_job108,71.76371493676737,50.570650922959025,1411.975648431745,194.87596187269918,2575006.910193786,89.97395697914656,90.92172871971529,131.101339301392,1.00129140961785,"[ 17.79290661   3.75003273   1.00129141 -24.44847676  -1.43245692
   7.62768714]",[0.         0.         0.         0.63153071 0.         0.        ],['Ti0' 'Aw' 'Ci' 'e11' 'p11' 'Ria'],2102.26030946508,3.369729078153995
chicago_control_concrete_inf_schedTrue_job157,81.52892538971383,55.230107741569455,1412.8159575016946,194.8301916624396,2600894.827104799,89.97395697914656,90.90573757347916,135.13169868499398,0.8035166887409191,"[ 16.70538175   3.1941912    0.80351669 -24.56145259  -1.49047708
   7.40018818]",[0.         0.         0.         0.55510401 0.         0.        ],['Ti0' 'Aw' 'Ci' 'e11' 'p11' 'Ria'],2205.44989168465,2.3401510440550055
chicago_control_concrete_inf_schedTrue_job83,74.1974098241822,51.70309620528807,1412.0591441963336,193.9692475795731,2564781.4202515106,89.97395697914656,90.8951524118687,130.754403282678,0.783706533784644,"[ 16.91909015   3.19742968   0.78370653 -24.81789279  -1.62330711
   7.647926  ]",[0.         0.         0.         0.91160461 0.         0.        ],['Ti0' 'Aw' 'Ci' 'e11' 'p11' 'Ria'],2442.44391552471,2.031625662180005
chicago_control_concrete_inf_schedTrue_job160,81.17775731077829,55.275514355276485,1411.7533639462995,197.46421636297475,2529024.6449131635,89.97395697914656,90.92327420886609,135.912084527132,0.950219860187345,"[ 16.95929234   3.68207475   0.95021986 -24.67672872  -1.54824809
   7.35769747]",[0.         0.         0.         0.40111189 0.         0.        ],['Ti0' 'Aw' 'Ci' 'e11' 'p11' 'Ria'],2316.3963241702104,2.7412412272140045
chicago_control_concrete_inf_schedTrue_job60,77.93613931301012,53.65953188487672,1412.1328235844192,196.19956115215282,2590811.3543123947,89.97395697914656,90.92118837730767,135.48133029149201,0.9643482180534271,"[ 16.94624618   3.74808982   0.96434822 -24.65600647  -1.54892143
   7.3810908 ]",[0.         0.         0.         0.95306976 0.         0.        ],['Ti0' 'Aw' 'Ci' 'e11' 'p11' 'Ria'],2328.19947271568,2.849664421158991
chicago_control_concrete_inf_schedTrue_job64,54.44784614966995,41.19696296166708,1410.6289159989756,192.36203800743712,2606471.775051821,89.97395697914656,90.9336773708676,122.836599260764,0.987330361136342,"[ 17.33606484   3.800199     0.98733036 -24.65997781  -1.53070364
   8.14089617]",[0.         0.         0.         0.01286073 0.         0.        ],['Ti0' 'Aw' 'Ci' 'e11' 'p11' 'Ria'],2283.7108174371397,2.9118989736590066
chicago_control_concrete_inf_schedTrue_job107,64.64994102281776,46.80529620756559,1411.5363705232128,192.72511188792697,2602660.168912279,89.97395697914656,90.94256842834369,124.032290622015,0.822934727875434,"[ 17.11479108   3.27546034   0.82293473 -24.28383158  -1.34930499
   8.06241661]",[0.         0.         0.         0.93823387 0.         0.        ],['Ti0' 'Aw' 'Ci' 'e11' 'p11' 'Ria'],1982.88960440293,2.7283331090320075
chicago_control_concrete_inf_schedTrue_job54,54.07996845309845,40.97614374379493,1410.5553164336889,192.14628296314254,2565515.0151732382,89.97395697914656,90.95094769572381,120.26102857133199,0.8501935196907741,"[ 17.3175579    3.55040434   0.85019352 -24.6399811   -1.51723748
   8.31524569]",[0.         0.         0.         0.77686834 0.         0.        ],['Ti0' 'Aw' 'Ci' 'e11' 'p11' 'Ria'],2257.0202996967,2.505882339620001
chicago_control_concrete_inf_schedTrue_job9,69.74720438508795,49.60240919267417,1410.9624088074136,195.5384856995076,2534650.7655049968,89.97395697914656,90.98262894277,126.145750167404,0.981803577276106,"[ 17.65691372   3.70823209   0.98180358 -24.26405484  -1.33644002
   7.92733801]",[0.         0.         0.         0.79745264 0.         0.        ],['Ti0' 'Aw' 'Ci' 'e11' 'p11' 'Ria'],1949.0554664490198,3.307767195959997
chicago_control_concrete_inf_schedTrue_job174,83.56350369010559,56.36179799729363,1412.1421608958206,197.3389469522047,2528475.555764104,89.97395697914656,90.94762267652008,136.11080198636,0.9643178570109271,"[ 16.95407737   3.62256425   0.96431786 -24.37423981  -1.3978083
   7.34695546]",[0.         0.         0.         0.32980213 0.         0.        ],['Ti0' 'Aw' 'Ci' 'e11' 'p11' 'Ria'],2070.80645505634,3.258705489756011
chicago_control_concrete_inf_schedTrue_job175,65.74826483626407,47.44839872420443,1411.0767563948666,193.89910834215203,2549452.775586227,89.97395697914656,90.96586021251204,125.07652238191099,0.9357075385614809,"[ 17.14437548   3.81372791   0.93570754 -24.29501575  -1.34942339
   7.99510556]",[0.         0.         0.         0.77446407 0.         0.        ],['Ti0' 'Aw' 'Ci' 'e11' 'p11' 'Ria'],1982.61930342602,3.1580395680440176
chicago_control_concrete_inf_schedTrue_job110,59.22569622046479,43.982462230982335,1410.7998229705217,194.4407708553086,2560265.5926420395,89.97395697914656,90.9730793068949,126.279592443447,1.05757910276283,"[ 17.41611197   4.0889061    1.0575791  -24.14148681  -1.3546746
   7.91893592]",[0.        0.        0.        0.8819823 0.        0.       ],['Ti0' 'Aw' 'Ci' 'e11' 'p11' 'Ria'],1991.89079071052,3.9214316831979943
chicago_control_concrete_inf_schedTrue_job114,75.07428148770953,52.17875173459614,1412.1428428581414,194.6811238776766,2602228.312301653,89.97395697914656,90.94508735552176,134.962750649889,1.09021429647585,"[ 16.94813786   4.07926337   1.0902143  -24.42598231  -1.42673683
   7.40945183]",[0.         0.         0.         0.61751761 0.         0.        ],['Ti0' 'Aw' 'Ci' 'e11' 'p11' 'Ria'],2125.4881082662196,3.770186727476016
chicago_control_concrete_inf_schedTrue_job133,66.57087065486567,47.93466193519303,1411.2173741113538,194.8733746289208,2636043.2602171977,89.97395697914656,90.93647459948508,126.43961623757099,0.893853909245141,"[ 17.2171178    3.43290518   0.89385391 -24.37036573  -1.39960001
   7.9089136 ]",[0.         0.         0.         0.38858527 0.         0.        ],['Ti0' 'Aw' 'Ci' 'e11' 'p11' 'Ria'],2059.88779827188,3.0902306583850248
chicago_control_concrete_inf_schedTrue_job122,69.69300258228442,49.427677285925846,1412.0616701172626,193.24595034998603,2591922.7152037816,89.97395697914656,90.95911423290782,126.563028032018,0.9801061028248841,"[ 17.2269771    3.54420459   0.9801061  -24.3712658   -1.39445869
   7.9012016 ]",[0.         0.         0.         0.83859832 0.         0.        ],['Ti0' 'Aw' 'Ci' 'e11' 'p11' 'Ria'],2070.6219438057997,3.5895402891130175
chicago_control_concrete_inf_schedTrue_job140,69.28725025282807,49.25464924794033,1411.4747707467718,193.7420029175629,2546539.5337939477,89.97395697914656,90.89846810023303,127.88946130014601,0.741247789473875,"[ 17.03969055   3.22039569   0.74124779 -24.69376272  -1.55911379
   7.81925258]",[0.         0.         0.         0.51309803 0.         0.        ],['Ti0' 'Aw' 'Ci' 'e11' 'p11' 'Ria'],2337.6422416621303,2.0448667803979816
chicago_control_concrete_inf_schedTrue_job16,75.39692680711396,52.42742021686639,1411.985029145089,195.97754361135426,2567814.668896182,89.97395697914656,90.92566778403132,133.215935808581,0.917982468559282,"[ 16.90878454   3.64711474   0.91798247 -24.42868837  -1.41709826
   7.50660943]",[0.         0.         0.         0.32623091 0.         0.        ],['Ti0' 'Aw' 'Ci' 'e11' 'p11' 'Ria'],2109.51444542799,2.899602910005001
chicago_control_concrete_inf_schedTrue_job159,91.12425819989934,59.88358778775068,1412.323764126379,199.3228176351997,2494065.2692891397,89.97395697914656,90.8821261109393,140.67610394691602,0.8163471721888641,"[ 16.85880587   3.35615572   0.81634717 -24.80781676  -1.61903761
   7.10852783]",[0.         0.         0.         0.10074728 0.         0.        ],['Ti0' 'Aw' 'Ci' 'e11' 'p11' 'Ria'],2450.171554089,2.0920403491959974
chicago_control_concrete_inf_schedTrue_job4,71.267940571131,50.17373050194045,1411.9789672715926,192.64229844286956,2657266.4117457354,89.97395697914656,90.89601697136095,130.45235109227502,0.820267643386072,"[ 17.24903768   3.29700101   0.82026764 -25.0382531   -1.73273348
   7.66563417]",[0.         0.         0.         0.88862779 0.         0.        ],['Ti0' 'Aw' 'Ci' 'e11' 'p11' 'Ria'],2619.2478202506895,1.9709589252719866
chicago_control_concrete_inf_schedTrue_job43,57.56126694737847,42.96774181944519,1410.9624604148166,192.6135094927761,2638598.8950033826,89.97395697914656,90.98520240192049,120.062910509074,0.9403607946640641,"[ 17.50414071   3.52341136   0.94036079 -24.35354253  -1.38788591
   8.32896684]",[0.         0.         0.         0.70212506 0.         0.        ],['Ti0' 'Aw' 'Ci' 'e11' 'p11' 'Ria'],2046.39058046647,3.2793946071709996
chicago_control_concrete_inf_schedTrue_job178,59.51645895556818,44.08089154430057,1410.979660880992,193.24551798276943,2595948.6919521224,89.97395697914656,90.993182052849,122.023748101663,0.9562049825097808,"[ 17.23123244   3.60882614   0.95620498 -24.28446911  -1.33459443
   8.19512608]",[0.        0.        0.        0.9079088 0.        0.       ],['Ti0' 'Aw' 'Ci' 'e11' 'p11' 'Ria'],1960.43118130156,3.4941449482179934
chicago_control_concrete_inf_schedTrue_job47,57.35072404917802,42.88226871948024,1410.7284302524974,193.26522604857274,2557460.2280922164,89.97395697914656,90.96958581284306,123.029276228523,0.9761964976731909,"[ 17.12470154   3.79249106   0.9761965  -24.28445756  -1.33363552
   8.12814665]",[0.         0.         0.         0.96820361 0.         0.        ],['Ti0' 'Aw' 'Ci' 'e11' 'p11' 'Ria'],1940.3372959784801,3.498365100350995
chicago_control_concrete_inf_schedTrue_job35,69.09016731766658,49.1859949075399,1411.518065428308,194.22401513914718,2581715.888286074,89.97395697914656,90.89176555070416,131.087897104524,0.875163249754463,"[ 17.07118822   3.6373369    0.87516325 -24.87592187  -1.65743628
   7.62846931]",[0.         0.         0.         0.36992152 0.         0.        ],['Ti0' 'Aw' 'Ci' 'e11' 'p11' 'Ria'],2507.5492629344103,2.3195820103910307
chicago_control_concrete_inf_schedTrue_job177,85.28807593166297,57.109296946577146,1412.5872220446909,196.9514086069808,2559709.924058708,89.97395697914656,90.91531167312814,140.579572412455,0.966024118789707,"[ 16.89871022   3.90293626   0.96602412 -24.52312551  -1.46530623
   7.11340903]",[0.         0.         0.         0.92627989 0.         0.        ],['Ti0' 'Aw' 'Ci' 'e11' 'p11' 'Ria'],2174.60897315482,3.103471768137979
