fname,hlc_mat,hlc_tot,hlc_se,hlc_si,c_tot,hlc_inf_standard,hlc_inf_current,hlc_tot_pred,c_tot_pred,estimates,probt,names,loglik,err
chicago_control_concrete_inf_schedFalse_job151,55.30419897456743,41.69790899606028,1410.5381576013465,192.63150007787868,2598285.226179951,89.97395697914656,90.87432114989024,127.276250863608,0.829637488218983,"[ 16.9190084    3.45260825   0.82963749 -25.90512003  -2.12003392
   7.85692534]",[0.         0.         0.         0.83725816 0.         0.        ],['Ti0' 'Aw' 'Ci' 'e11' 'p11' 'Ria'],3276.74121513479,1.3280712375270127
chicago_control_concrete_inf_schedFalse_job179,91.84750406761816,60.11970259347791,1412.7284354640467,198.4906812671833,2508349.3490126673,89.97395697914656,90.80367949580298,148.57812110102,0.779293557047458,"[ 16.53498705   3.3319749    0.77929356 -26.01037688  -2.17602169
   6.73046605]",[0.         0.         0.         0.93283312 0.         0.        ],['Ti0' 'Aw' 'Ci' 'e11' 'p11' 'Ria'],3369.05812033951,1.1869179164639831
chicago_control_concrete_inf_schedFalse_job161,80.79247776513917,54.97896568089509,1412.2104821685914,195.95261162309964,2594888.286998732,89.97395697914656,90.80973436781767,142.913419610786,0.7940925346938,"[ 16.60813548   3.34367331   0.79409253 -25.98560028  -2.16246628
   6.99724352]",[0.         0.         0.         0.75068507 0.         0.        ],['Ti0' 'Aw' 'Ci' 'e11' 'p11' 'Ria'],3344.85134265325,1.24886870323499
chicago_control_concrete_inf_schedFalse_job119,64.74942315976465,46.81717845728536,1411.5893887294974,192.04522847052672,2628818.692932354,89.97395697914656,90.8492592099715,131.699065388356,0.78148534913654,"[ 16.76082081   3.25890399   0.78148535 -25.89888979  -2.11771639
   7.59306831]",[0.         0.         0.         0.88516329 0.         0.        ],['Ti0' 'Aw' 'Ci' 'e11' 'p11' 'Ria'],3268.1029677012602,1.2304152962250043
chicago_control_concrete_inf_schedFalse_job24,63.87858731159141,46.45233852313238,1411.043357292513,193.6465367623094,2565817.451220548,89.97395697914656,90.84643072787446,132.095112789088,0.796421828706337,"[ 16.78290416   3.39153377   0.79642183 -25.89581307  -2.11467766
   7.57030278]",[0.         0.         0.         0.37857422 0.         0.        ],['Ti0' 'Aw' 'Ci' 'e11' 'p11' 'Ria'],3268.83128698908,1.3306152717539987
chicago_control_concrete_inf_schedFalse_job125,66.78340282795884,47.93967305181284,1411.4643460375432,193.15141067331672,2607629.9539618734,89.97395697914656,90.84842097156074,133.85653716891,0.7948432420208008,"[ 16.74419052   3.32594611   0.79484324 -25.9224085   -2.12884904
   7.47068482]",[0.         0.         0.         0.91356111 0.         0.        ],['Ti0' 'Aw' 'Ci' 'e11' 'p11' 'Ria'],3290.3494126280702,1.2715798930200037
chicago_control_concrete_inf_schedFalse_job176,70.61090651966401,49.97214868350239,1411.5536580035016,194.53022415098027,2612077.0338125792,89.97395697914656,90.82809552177463,137.108279260028,0.806141776872827,"[ 16.70785655   3.37282504   0.80614178 -25.95486048  -2.14633681
   7.29350558]",[0.         0.         0.         0.24439274 0.         0.        ],['Ti0' 'Aw' 'Ci' 'e11' 'p11' 'Ria'],3318.75825760084,1.485226752692995
chicago_control_concrete_inf_schedFalse_job56,61.33328516179152,45.1428620236471,1410.4085671208386,194.6085152450965,2568161.6501213117,89.97395697914656,90.85494437198997,132.030052445926,0.812554813651387,"[ 16.7704578    3.54501711   0.81255481 -25.8778302   -2.10414393
   7.5740332 ]",[0.         0.         0.         0.64493431 0.         0.        ],['Ti0' 'Aw' 'Ci' 'e11' 'p11' 'Ria'],3253.6094705789396,1.3606603508110027
chicago_control_concrete_inf_schedFalse_job74,55.981489765118745,42.06455865200976,1410.4932962762884,192.27208591102837,2596641.44842878,89.97395697914656,90.88294507695035,126.682638204285,0.817717136663207,"[ 16.91625213   3.42121366   0.81771714 -25.87882226  -2.10657552
   7.89374151]",[0.         0.         0.         0.93774823 0.         0.        ],['Ti0' 'Aw' 'Ci' 'e11' 'p11' 'Ria'],3253.5192372347196,1.3283278207089921
chicago_control_concrete_inf_schedFalse_job128,74.5701318006283,51.88956115621223,1411.9761331807276,194.051288926407,2592460.822704104,89.97395697914656,90.83790964576993,138.171162415954,0.800475423986942,"[ 16.6921846    3.30669919   0.80047542 -25.96507699  -2.1517863
   7.23740021]",[0.         0.         0.         0.93592335 0.         0.        ],['Ti0' 'Aw' 'Ci' 'e11' 'p11' 'Ria'],3326.6861035074103,1.247036699969982
chicago_control_concrete_inf_schedFalse_job187,87.4603078524386,58.10343067357212,1412.4566144759262,197.27977636519748,2495994.089443441,89.97395697914656,90.82532663591887,144.45051407301702,0.7661497473149841,"[ 16.61258472   3.27964687   0.76614975 -25.94645387  -2.1396587
   6.92278602]",[0.         0.         0.         0.89520987 0.         0.        ],['Ti0' 'Aw' 'Ci' 'e11' 'p11' 'Ria'],3311.64770314655,1.1696346337349723
chicago_control_concrete_inf_schedFalse_job9,69.74720438508795,49.545723511554996,1410.810769597535,194.66341265394558,2534650.7655049968,89.97395697914656,90.88168063671324,133.933674355092,0.8320360020711771,"[ 16.81104701   3.42844266   0.832036   -25.93053102  -2.13370163
   7.46638218]",[0.        0.        0.        0.9362509 0.        0.       ],['Ti0' 'Aw' 'Ci' 'e11' 'p11' 'Ria'],3302.8647174483503,1.2341802975260237
chicago_control_concrete_inf_schedFalse_job172,70.6207974306717,49.97188308245741,1411.4770658698264,194.452625440078,2546395.609341374,89.97395697914656,90.83706379847318,135.91019521638202,0.7728802844795459,"[ 16.69799602   3.34626304   0.77288028 -25.8723069   -2.10056411
   7.35779975]",[0.         0.         0.         0.86059575 0.         0.        ],['Ti0' 'Aw' 'Ci' 'e11' 'p11' 'Ria'],3246.89943053967,1.2716522781629749
chicago_control_concrete_inf_schedFalse_job8,58.246896058517635,43.37805048927225,1410.5683673757621,193.20300791189288,2531543.3238876304,89.97395697914656,90.87070732642428,128.354037246457,0.787738159825149,"[ 16.85330992   3.42326834   0.78773816 -25.8144884   -2.06927372
   7.79095088]",[0.         0.         0.         0.71121754 0.         0.        ],['Ti0' 'Aw' 'Ci' 'e11' 'p11' 'Ria'],3193.56237808913,1.3099540539840007
chicago_control_concrete_inf_schedFalse_job20,64.50317855237307,46.717172527186705,1411.5644136070582,192.53506083631117,2601441.3898418616,89.97395697914656,90.84578819329246,132.139734997881,0.7751786948796501,"[ 16.75233992   3.27127192   0.77517869 -25.88436789  -2.10832622
   7.56774637]",[0.        0.        0.        0.9376525 0.        0.       ],['Ti0' 'Aw' 'Ci' 'e11' 'p11' 'Ria'],3253.7994374153805,1.2893057762320268
chicago_control_concrete_inf_schedFalse_job167,74.36459930285736,51.79439005283683,1411.7654271502206,194.11751474740652,2532332.070928897,89.97395697914656,90.84339436431866,136.69376759433501,0.764781531951692,"[ 16.68708224   3.2762087    0.76478153 -25.88828528  -2.1097358
   7.31562249]",[0.         0.         0.         0.94106594 0.         0.        ],['Ti0' 'Aw' 'Ci' 'e11' 'p11' 'Ria'],3260.68387111398,1.236860513263963
chicago_control_concrete_inf_schedFalse_job98,60.30212438470948,44.44867947968108,1411.1395352073116,192.0843802956147,2533915.8517902503,89.97395697914656,90.86300945738573,129.10666438043899,0.76603333208008,"[ 16.78655631   3.30383719   0.76603333 -25.81254917  -2.06945578
   7.74553355]",[0.         0.         0.         0.86925912 0.         0.        ],['Ti0' 'Aw' 'Ci' 'e11' 'p11' 'Ria'],3190.36573866419,1.274512356520006
chicago_control_concrete_inf_schedFalse_job147,77.64570996284931,53.49140527882845,1411.748017112302,195.80051992097873,2569620.8058046694,89.97395697914656,90.806909207878,140.522566900023,0.763194918506521,"[ 16.60055179   3.35903118   0.76319492 -25.92224597  -2.1282372
   7.11629471]",[0.         0.         0.         0.92642172 0.         0.        ],['Ti0' 'Aw' 'Ci' 'e11' 'p11' 'Ria'],3291.7760423380605,1.187326268655994
chicago_control_concrete_inf_schedFalse_job51,76.3553912621211,52.722942944981845,1412.4456596348587,193.70719880373642,2616536.031489216,89.97395697914656,90.82022358404652,139.145226897855,0.772073116434365,"[ 16.65225714   3.21036261   0.77207312 -25.94635888  -2.1419023
   7.18673592]",[0.         0.         0.         0.71581273 0.         0.        ],['Ti0' 'Aw' 'Ci' 'e11' 'p11' 'Ria'],3306.89786543542,1.2433215775039912
chicago_control_concrete_inf_schedFalse_job72,55.30415982367842,41.6715796917017,1410.3138704161738,192.07550484072576,2540255.4073160635,89.97395697914656,90.88823511619681,125.906090398957,0.7871437668447959,"[ 16.88372735   3.41227952   0.78714377 -25.79815508  -2.06023008
   7.94242754]",[0.        0.        0.        0.8992396 0.        0.       ],['Ti0' 'Aw' 'Ci' 'e11' 'p11' 'Ria'],3174.63180348585,1.398028059016994
chicago_control_concrete_inf_schedFalse_job81,70.33159825773478,49.779347159735764,1411.8366514058034,193.7235547890644,2565340.4683280373,89.97395697914656,90.82603753603252,136.122740551671,0.7693043110646608,"[ 16.67740466   3.2875204    0.76930431 -25.88465319  -2.10775853
   7.3463111 ]",[0.        0.        0.        0.8423678 0.        0.       ],['Ti0' 'Aw' 'Ci' 'e11' 'p11' 'Ria'],3253.68612557919,1.2089463477929883
chicago_control_concrete_inf_schedFalse_job155,73.00063527527956,51.32369157337295,1410.973006001513,196.9691405849631,2543727.714501265,89.97395697914656,90.8455011956329,138.480738311295,0.8164734551806259,"[ 16.71061375   3.53389307   0.81647346 -25.97061012  -2.15419197
   7.22122089]",[0.         0.         0.         0.91775759 0.         0.        ],['Ti0' 'Aw' 'Ci' 'e11' 'p11' 'Ria'],3341.0335069500297,1.2257790155459816
chicago_control_concrete_inf_schedFalse_job41,69.58144273620906,49.4601901184729,1411.5656512046182,194.62070830637327,2542971.3115902618,89.97395697914656,90.82342823607016,136.582101723694,0.7657654957978891,"[ 16.65668947   3.36093973   0.7657655  -25.85307365  -2.09272981
   7.32160354]",[0.        0.        0.        0.3192028 0.        0.       ],['Ti0' 'Aw' 'Ci' 'e11' 'p11' 'Ria'],3231.9075738108195,1.2672880819140175
chicago_control_concrete_inf_schedFalse_job38,52.42414125859128,40.004541806723694,1410.4815728761844,191.82802408621413,2561266.3961253646,89.97395697914656,90.88156387277608,124.76902985262801,0.78687272195225,"[ 16.91536998   3.37873885   0.78687272 -25.81376385  -2.06962043
   8.01480945]",[0.         0.         0.         0.94378349 0.         0.        ],['Ti0' 'Aw' 'Ci' 'e11' 'p11' 'Ria'],3190.36502100102,1.3290457495029955
chicago_control_concrete_inf_schedFalse_job23,51.88462442755615,39.68886223537305,1410.2127001401846,191.8156083753389,2579057.2109390534,89.97395697914656,90.89019822333908,124.32186443897498,0.800633267956509,"[ 16.94685092   3.41461136   0.80063327 -25.84074177  -2.08285205
   8.04363741]",[0.         0.         0.         0.64661314 0.         0.        ],['Ti0' 'Aw' 'Ci' 'e11' 'p11' 'Ria'],3212.74731618703,1.4088886078280183
chicago_control_concrete_inf_schedFalse_job150,59.65450337062112,44.07391910932324,1411.0190446148822,191.67171204827264,2575657.516397197,89.97395697914656,90.86509849568525,127.982602139202,0.761852671012193,"[ 16.81268931   3.27967698   0.76185267 -25.82145158  -2.07398521
   7.81356203]",[0.        0.        0.        0.8929868 0.        0.       ],['Ti0' 'Aw' 'Ci' 'e11' 'p11' 'Ria'],3197.0917507268896,1.2625212699569914
chicago_control_concrete_inf_schedFalse_job192,81.89510775384716,55.57354240271524,1411.5692031106198,197.04429231122845,2490221.62678818,89.97395697914656,90.85327728554374,140.824010604563,0.7872181627421478,"[ 16.68953929   3.33888962   0.78721816 -25.92596424  -2.12839376
   7.10106178]",[0.         0.         0.         0.91314908 0.         0.        ],['Ti0' 'Aw' 'Ci' 'e11' 'p11' 'Ria'],3294.9578778159103,1.2099358980590011
chicago_control_concrete_inf_schedFalse_job141,55.29210386506697,41.70517512891637,1410.278866518103,192.93864130604985,2603274.677640708,89.97395697914656,90.8655466206103,127.76209164798901,0.8197142025993921,"[ 16.86983376   3.48423297   0.8197142  -25.88239254  -2.10697359
   7.82704781]",[0.        0.        0.        0.5304955 0.        0.       ],['Ti0' 'Aw' 'Ci' 'e11' 'p11' 'Ria'],3255.0221621452397,1.3940916156409884
chicago_control_concrete_inf_schedFalse_job47,57.35072404917802,42.847503903808054,1410.609702331412,192.5632985457413,2557460.2280922164,89.97395697914656,90.8792051523022,127.85376873624399,0.791817045243933,"[ 16.85972173   3.40117662   0.79181705 -25.84301693  -2.08414809
   7.82143546]",[0.         0.         0.         0.68951395 0.         0.        ],['Ti0' 'Aw' 'Ci' 'e11' 'p11' 'Ria'],3217.41457664195,1.3419822669140018
chicago_control_concrete_inf_schedFalse_job58,55.93415718749154,42.04518957003456,1410.4211571951316,192.42750716724962,2621401.523058013,89.97395697914656,90.87520631666912,126.947863813574,0.839061672054843,"[ 16.94262131   3.43670179   0.83906167 -25.93360355  -2.13580551
   7.87724953]",[0.         0.         0.         0.90762132 0.         0.        ],['Ti0' 'Aw' 'Ci' 'e11' 'p11' 'Ria'],3301.8091051273605,1.3393410945290043
chicago_control_concrete_inf_schedFalse_job199,60.107731603656475,44.36275154470051,1410.8143438555921,192.46211183631817,2594510.869616249,89.97395697914656,90.87009620704929,128.97754570273898,0.800067727745533,"[ 16.85132106   3.35849992   0.80006773 -25.87746548  -2.10487736
   7.75328756]",[0.         0.         0.         0.89068907 0.         0.        ],['Ti0' 'Aw' 'Ci' 'e11' 'p11' 'Ria'],3250.1834048672804,1.3280114273500203
chicago_control_concrete_inf_schedFalse_job39,62.03624491481796,45.447921221861876,1411.026754402919,193.24067302479,2592733.3774850494,89.97395697914656,90.85073880241364,130.95921836625098,0.8099747130570021,"[ 16.80928873   3.39370773   0.80997471 -25.90832205  -2.12079295
   7.63596494]",[0.         0.         0.         0.07174781 0.         0.        ],['Ti0' 'Aw' 'Ci' 'e11' 'p11' 'Ria'],3276.96259011588,1.3545005478670191
chicago_control_concrete_inf_schedFalse_job16,75.39692680711396,52.38457090699368,1411.8121641507862,195.38344916093612,2567814.668896182,89.97395697914656,90.81814370617673,139.941722301914,0.780622460338528,"[ 16.62703235   3.36181905   0.78062246 -25.92092388  -2.12717483
   7.14583173]",[0.         0.         0.         0.84776994 0.         0.        ],['Ti0' 'Aw' 'Ci' 'e11' 'p11' 'Ria'],3289.61394754947,1.2311218659299925
chicago_control_concrete_inf_schedFalse_job122,69.69300258228442,49.373273379508504,1411.8758904394253,192.42046295423717,2591922.7152037816,89.97395697914656,90.84098023336742,133.623156419238,0.761256535816681,"[ 16.72470462   3.21896557   0.76125654 -25.88985491  -2.1114957
   7.48373281]",[0.         0.         0.         0.91511901 0.         0.        ],['Ti0' 'Aw' 'Ci' 'e11' 'p11' 'Ria'],3257.91694424893,1.227315564788995
chicago_control_concrete_inf_schedFalse_job146,56.81299559355434,42.49916950329565,1410.6977785301615,191.5930546909233,2627950.9882056336,89.97395697914656,90.87741617495776,126.425773772334,0.79698879362847,"[ 16.90868993   3.33277638   0.79698879 -25.89196547  -2.11206234
   7.90977955]",[0.         0.         0.         0.95209465 0.         0.        ],['Ti0' 'Aw' 'Ci' 'e11' 'p11' 'Ria'],3261.4262308492,1.3244129186809914
chicago_control_concrete_inf_schedFalse_job13,53.15365008149436,40.43046741932569,1410.3821627323111,191.88660226247544,2531990.6087987544,89.97395697914656,90.88275461926538,125.25464648315001,0.78483049533969,"[ 16.89781395   3.3887432    0.7848305  -25.81872357  -2.07052456
   7.98373576]",[0.         0.         0.         0.91602587 0.         0.        ],['Ti0' 'Aw' 'Ci' 'e11' 'p11' 'Ria'],3192.93990871901,1.337459943121985
chicago_control_concrete_inf_schedFalse_job14,60.34399039804627,44.48970795528852,1410.8923183734191,192.43059359034999,2572500.947943663,89.97395697914656,90.86984476721075,129.780575683814,0.7965679913293939,"[ 16.79789943   3.38057799   0.79656799 -25.85378587  -2.09289715
   7.70531333]",[0.         0.         0.         0.93931555 0.         0.        ],['Ti0' 'Aw' 'Ci' 'e11' 'p11' 'Ria'],3230.46898247836,1.2981464670180003
chicago_control_concrete_inf_schedFalse_job189,59.85487068957632,44.313087983175734,1410.5130638755254,194.15001411756225,2577902.6182665545,89.97395697914656,90.86437058243752,130.668814445388,0.840158818402015,"[ 16.85402014   3.53818824   0.84015882 -25.92204484  -2.13003966
   7.65293543]",[0.         0.         0.         0.94174831 0.         0.        ],['Ti0' 'Aw' 'Ci' 'e11' 'p11' 'Ria'],3296.2542193470194,1.4185198432689958
chicago_control_concrete_inf_schedFalse_job195,63.956311240238044,46.42917294516076,1411.260092350089,192.5327185730692,2588393.194682978,89.97395697914656,90.85760938950477,131.073172810031,0.7874486698050441,"[ 16.7971953    3.30619496   0.78744867 -25.89635127  -2.11546608
   7.62932627]",[0.         0.         0.         0.93627611 0.         0.        ],['Ti0' 'Aw' 'Ci' 'e11' 'p11' 'Ria'],3267.2173406797697,1.289771670317009
chicago_control_concrete_inf_schedFalse_job137,66.34216975606938,47.68076218529054,1411.618937395732,192.6394878946555,2635317.654652835,89.97395697914656,90.84235732677605,133.333378877482,0.7850316906539521,"[ 16.75040288   3.2562418    0.78503169 -25.90978988  -2.12259477
   7.49999744]",[0.         0.         0.         0.36768866 0.         0.        ],['Ti0' 'Aw' 'Ci' 'e11' 'p11' 'Ria'],3275.72857934044,1.2275663079470007
chicago_control_concrete_inf_schedFalse_job152,68.56455826586281,48.91983910885371,1411.5484826435668,194.23631005815082,2554720.6315504597,89.97395697914656,90.84509490322327,135.221050711269,0.7888480980149879,"[ 16.73486547   3.35858604   0.7888481  -25.90892611  -2.11980279
   7.39529825]",[0.         0.         0.         0.78510751 0.         0.        ],['Ti0' 'Aw' 'Ci' 'e11' 'p11' 'Ria'],3278.80552602438,1.2639136649250133
chicago_control_concrete_inf_schedFalse_job11,73.2616424257807,51.30835660017658,1411.7076453505213,194.8583532337646,2527340.8031802457,89.97395697914656,90.84445505365566,137.490896065688,0.786438664025342,"[ 16.69694525   3.33448993   0.78643866 -25.9148193   -2.12430688
   7.27320884]",[0.         0.         0.         0.03923171 0.         0.        ],['Ti0' 'Aw' 'Ci' 'e11' 'p11' 'Ria'],3285.8152294842403,1.2505249848040023
chicago_control_concrete_inf_schedFalse_job42,61.89461038584588,45.33110222617656,1411.0915853806046,192.50232683406017,2552370.3696660916,89.97395697914656,90.86461992749399,130.678115674603,0.7839883071791759,"[ 16.76262202   3.35959123   0.78398831 -25.82778035  -2.07991788
   7.65239072]",[0.         0.         0.         0.61175944 0.         0.        ],['Ti0' 'Aw' 'Ci' 'e11' 'p11' 'Ria'],3207.92560021399,1.3153053353370012
chicago_control_concrete_inf_schedFalse_job45,58.46312302687596,43.44537619888156,1410.8019353375391,192.16752472442482,2610065.2230192698,89.97395697914656,90.86750690076872,128.70969430726998,0.799299384545261,"[ 16.83982435   3.35582761   0.79929938 -25.87485469  -2.10332541
   7.76942254]",[0.         0.         0.         0.81199781 0.         0.        ],['Ti0' 'Aw' 'Ci' 'e11' 'p11' 'Ria'],3246.9608993442403,1.3430703722690112
chicago_control_concrete_inf_schedFalse_job177,85.28807593166297,57.06834954268355,1412.4165961012257,196.4685609365193,2559709.924058708,89.97395697914656,90.81902195676588,144.311737338289,0.7822159479121171,"[ 16.599989     3.28341103   0.78221595 -25.99665025  -2.16862734
   6.92944329]",[0.         0.         0.         0.20643667 0.         0.        ],['Ti0' 'Aw' 'Ci' 'e11' 'p11' 'Ria'],3356.72562513498,1.2202968790990099
chicago_control_concrete_inf_schedFalse_job186,76.34432480858142,52.82300031997868,1411.6870114282724,195.15148460398902,2575547.755628296,89.97395697914656,90.8139629215208,138.856824275435,0.76125161817865,"[ 16.64388087   3.32109336   0.76125162 -25.91578126  -2.12448837
   7.20166261]",[0.         0.         0.         0.95665571 0.         0.        ],['Ti0' 'Aw' 'Ci' 'e11' 'p11' 'Ria'],3284.51845890165,1.235136107789998
chicago_control_concrete_inf_schedFalse_job121,56.665820682234646,42.42718430460869,1410.6722827569354,191.80641394395255,2603280.6587064075,89.97395697914656,90.87928622255536,127.267620354305,0.8169447385979409,"[ 16.8819724    3.40031558   0.81694474 -25.87809682  -2.10532132
   7.85745814]",[0.         0.         0.         0.55319586 0.         0.        ],['Ti0' 'Aw' 'Ci' 'e11' 'p11' 'Ria'],3248.72177971037,1.3595424029170147
chicago_control_concrete_inf_schedFalse_job44,65.77537789765917,47.408242193099134,1411.4498705071308,192.98947027474247,2602896.055709727,89.97395697914656,90.84134433705515,133.013320223433,0.781923016124836,"[ 16.74445172   3.29751159   0.78192302 -25.89421311  -2.11283125
   7.51804404]",[0.         0.         0.         0.93639762 0.         0.        ],['Ti0' 'Aw' 'Ci' 'e11' 'p11' 'Ria'],3262.1332213467,1.2939911414499932
chicago_control_concrete_inf_schedFalse_job113,67.06513149121793,48.089838081811976,1411.2325476540284,193.2391263681814,2582055.847536604,89.97395697914656,90.85972171501683,132.615819188481,0.7916194424966891,"[ 16.78311335   3.32337421   0.79161944 -25.91195819  -2.12400952
   7.54057854]",[0.         0.         0.         0.23557772 0.         0.        ],['Ti0' 'Aw' 'Ci' 'e11' 'p11' 'Ria'],3282.9407822719604,1.2761173938820036
chicago_control_concrete_inf_schedFalse_job21,78.03376914309425,53.76112877132035,1411.04739828298,196.96121266633529,2511841.179127334,89.97395697914656,90.86276658426225,138.68963353462098,0.8129993515137859,"[ 16.72492819   3.4216728    0.81299935 -25.92466533  -2.13322318
   7.21034424]",[0.         0.         0.         0.93286533 0.         0.        ],['Ti0' 'Aw' 'Ci' 'e11' 'p11' 'Ria'],3304.0877264518,1.2272469677170363
chicago_control_concrete_inf_schedFalse_job123,52.28860083958738,39.910130508961,1410.3892896940783,191.47391294225272,2564273.183482834,89.97395697914656,90.88449390855658,124.441773992967,0.7884186603412621,"[ 16.92074461   3.37142396   0.78841866 -25.83350858  -2.08033229
   8.03588673]",[0.         0.         0.         0.94186429 0.         0.        ],['Ti0' 'Aw' 'Ci' 'e11' 'p11' 'Ria'],3208.42588076067,1.2054972608080021
chicago_control_concrete_inf_schedFalse_job114,75.07428148770953,52.13115256592217,1411.9422126738905,194.023945916213,2602228.312301653,89.97395697914656,90.82060964818461,137.43678586071698,0.772265227083256,"[ 16.6859394    3.25412548   0.77226523 -25.93230246  -2.13406359
   7.27607237]",[0.         0.         0.         0.60832367 0.         0.        ],['Ti0' 'Aw' 'Ci' 'e11' 'p11' 'Ria'],3295.9538951262602,1.2607378982710316
chicago_control_concrete_inf_schedFalse_job67,67.18552896823465,48.18797568614516,1411.4801878068456,193.8198136321833,2603559.120362618,89.97395697914656,90.83502877112915,134.602595174282,0.8111594581676529,"[ 16.74566894   3.37198587   0.81115946 -25.94812415  -2.14437558
   7.42927726]",[0.         0.         0.         0.47616322 0.         0.        ],['Ti0' 'Aw' 'Ci' 'e11' 'p11' 'Ria'],3314.91255115641,1.2834497746350166
chicago_control_concrete_inf_schedFalse_job5,54.684530384123015,41.319896334286014,1410.5553697695887,192.09461171883441,2620954.5666534025,89.97395697914656,90.87359474197422,126.424862596138,0.8122330893090209,"[ 16.91290987   3.3955259    0.81223309 -25.89156778  -2.11288543
   7.90983656]",[0.         0.         0.         0.64511537 0.         0.        ],['Ti0' 'Aw' 'Ci' 'e11' 'p11' 'Ria'],3264.33427298149,1.348896576723007
chicago_control_concrete_inf_schedFalse_job104,59.471630372908926,44.02626795865978,1410.8786648054459,192.6710058696999,2559436.3877416584,89.97395697914656,90.87236922832687,129.25812499582,0.787542546822647,"[ 16.81265204   3.38270833   0.78754255 -25.83544181  -2.0820924
   7.73645757]",[0.        0.        0.        0.9510272 0.        0.       ],['Ti0' 'Aw' 'Ci' 'e11' 'p11' 'Ria'],3214.0828234081605,1.2597868212679941
chicago_control_concrete_inf_schedFalse_job145,64.25809462086103,46.61209621953015,1411.1486873338406,192.94685209599606,2570190.5005153683,89.97395697914656,90.86029163890619,132.12032999036398,0.782363739292093,"[ 16.74548819   3.35075341   0.78236374 -25.86133829  -2.09424656
   7.56885787]",[0.         0.         0.         0.94172547 0.         0.        ],['Ti0' 'Aw' 'Ci' 'e11' 'p11' 'Ria'],3234.31233535241,1.2495914465240219
chicago_control_concrete_inf_schedFalse_job36,57.439919178531746,42.8847133190622,1410.7786197151277,192.3073699595433,2580734.434447834,89.97395697914656,90.86832749445604,127.899591987953,0.7796782652917349,"[ 16.85008244   3.33777137   0.77967827 -25.84059183  -2.08461258
   7.81863323]",[0.         0.         0.         0.94571874 0.         0.        ],['Ti0' 'Aw' 'Ci' 'e11' 'p11' 'Ria'],3216.93843995046,1.2885265316959789
chicago_control_concrete_inf_schedFalse_job61,57.114149505653685,42.6819609074135,1410.7776918514032,191.8841965133953,2610249.0140007734,89.97395697914656,90.87345803819633,127.572013862489,0.791515968829998,"[ 16.85573435   3.35358252   0.79151597 -25.85680848  -2.09310857
   7.83870984]",[0.         0.         0.         0.93841504 0.         0.        ],['Ti0' 'Aw' 'Ci' 'e11' 'p11' 'Ria'],3230.08488373315,1.3627177642709967
chicago_control_concrete_inf_schedFalse_job190,65.22950167562419,47.221858480815634,1410.7595548121294,194.65443439997856,2540445.5347138653,89.97395697914656,90.86160732812776,133.275308138523,0.8049418916652241,"[ 16.7628622    3.4626698    0.80494189 -25.88016819  -2.10407662
   7.50326534]",[0.         0.         0.         0.89365371 0.         0.        ],['Ti0' 'Aw' 'Ci' 'e11' 'p11' 'Ria'],3255.86766569104,1.3624116700449918
chicago_control_concrete_inf_schedFalse_job129,84.85366002643259,56.828129634359186,1412.742814283478,195.92166708723943,2560318.51970573,89.97395697914656,90.79529749663642,144.636975174513,0.7511667791092191,"[ 16.54852836   3.24355645   0.75116678 -25.9108827   -2.12293255
   6.9138614 ]",[0.        0.        0.        0.9322661 0.        0.       ],['Ti0' 'Aw' 'Ci' 'e11' 'p11' 'Ria'],3278.1762921468394,1.2005982088020062
chicago_control_concrete_inf_schedFalse_job149,72.78508527950095,50.95979673370826,1412.1429015316958,193.1960204108409,2611178.0228091674,89.97395697914656,90.82726865276557,136.883949097482,0.769932470184535,"[ 16.6788871    3.22451782   0.76993247 -25.93557258  -2.13521673
   7.30545843]",[0.         0.         0.         0.93509785 0.         0.        ],['Ti0' 'Aw' 'Ci' 'e11' 'p11' 'Ria'],3298.12865975195,1.1510691085410087
chicago_control_concrete_inf_schedFalse_job27,69.05809316476902,49.302270470753584,1410.7091210414746,196.3241760744448,2519135.1898884377,89.97395697914656,90.85416752151691,135.779969552903,0.800316625643202,"[ 16.73152023   3.52164631   0.80031663 -25.88068471  -2.10442852
   7.36485656]",[0.         0.         0.         0.84422957 0.         0.        ],['Ti0' 'Aw' 'Ci' 'e11' 'p11' 'Ria'],3257.91938524049,1.285153829559988
chicago_control_concrete_inf_schedFalse_job106,82.15041704730137,55.66429773707823,1412.0360387771298,196.70145810287056,2522529.3697179323,89.97395697914656,90.8310358985613,142.436916268796,0.777554170265423,"[ 16.61505549   3.33107213   0.77755417 -25.9362796   -2.13582211
   7.02065185]",[0.         0.         0.         0.69933745 0.         0.        ],['Ti0' 'Aw' 'Ci' 'e11' 'p11' 'Ria'],3304.88567730245,1.2383043398319842
chicago_control_concrete_inf_schedFalse_job85,54.74672589544546,41.336286232446234,1410.5083203379197,191.68385997818828,2593252.0031897286,89.97395697914656,90.88004462348526,126.127456467701,0.7978843424236479,"[ 16.8844673    3.38334122   0.79788434 -25.84845292  -2.08872411
   7.9284878 ]",[0.         0.         0.         0.88870952 0.         0.        ],['Ti0' 'Aw' 'Ci' 'e11' 'p11' 'Ria'],3222.5194088366497,1.3408757067950035
chicago_control_concrete_inf_schedFalse_job196,84.83417333895737,56.82717865921308,1412.1262275166685,196.02619404848386,2530635.271867392,89.97395697914656,90.83539523515495,141.869150163755,0.77087931671364,"[ 16.64095715   3.25759147   0.77087932 -25.94959257  -2.1435387
   7.04874879]",[0.         0.         0.         0.61496799 0.         0.        ],['Ti0' 'Aw' 'Ci' 'e11' 'p11' 'Ria'],3315.9914745595597,1.1827141540329933
chicago_control_concrete_inf_schedFalse_job89,76.57589912169394,52.86929632177528,1412.2989967080462,194.26659205756488,2545743.421624439,89.97395697914656,90.82659122713179,139.23805622019898,0.752343639515728,"[ 16.62100823   3.24079516   0.75234364 -25.8834422   -2.10756894
   7.18194456]",[0.         0.         0.         0.93388237 0.         0.        ],['Ti0' 'Aw' 'Ci' 'e11' 'p11' 'Ria'],3254.5703038109496,1.221262280326016
chicago_control_concrete_inf_schedFalse_job33,73.89627659568609,51.622597897875785,1411.8220394108716,194.90991693785264,2621448.327414606,89.97395697914656,90.82593025191149,138.908169100051,0.812939609214838,"[ 16.69401169   3.36684873   0.81293961 -25.99219212  -2.16697998
   7.19900065]",[0.       0.       0.       0.855715 0.       0.      ],['Ti0' 'Aw' 'Ci' 'e11' 'p11' 'Ria'],3353.21197708732,1.2874013296430178
chicago_control_concrete_inf_schedFalse_job156,63.360241970243784,46.18555065874328,1410.91221608844,193.78853280792734,2581749.2128771334,89.97395697914656,90.86583222116172,132.071103145728,0.8272840209420571,"[ 16.82083421   3.43563655   0.82728402 -25.94325714  -2.13797278
   7.57167901]",[0.         0.         0.         0.91923582 0.         0.        ],['Ti0' 'Aw' 'Ci' 'e11' 'p11' 'Ria'],3309.0549765883698,1.3114691696119962
chicago_control_concrete_inf_schedFalse_job90,64.90233690894759,46.94273647695417,1411.3533516340462,192.8177428628169,2600056.70808017,89.97395697914656,90.85596245401831,132.524523033245,0.7946702875490841,"[ 16.76122435   3.33376677   0.79467029 -25.89558874  -2.1157312
   7.54577324]",[0.         0.         0.         0.43660008 0.         0.        ],['Ti0' 'Aw' 'Ci' 'e11' 'p11' 'Ria'],3267.34869570226,1.2870887763619976
chicago_control_concrete_inf_schedFalse_job185,59.08468816493759,43.762437184231466,1411.0485647602945,191.67753930884442,2613557.631348228,89.97395697914656,90.86737176611526,127.733010440301,0.784221683630693,"[ 16.85689396   3.28248473   0.78422168 -25.8676192   -2.10002433
   7.82882981]",[0.         0.         0.         0.90094356 0.         0.        ],['Ti0' 'Aw' 'Ci' 'e11' 'p11' 'Ria'],3238.32786352965,1.3396759226709776
chicago_control_concrete_inf_schedFalse_job130,63.82649093881657,46.331341368478114,1411.5389675932322,192.0218987135306,2599004.3575737095,89.97395697914656,90.85018133573416,131.225575998005,0.76426435933126,"[ 16.74977716   3.253417     0.76426436 -25.86858696  -2.09934527
   7.62046569]",[0.        0.        0.        0.1857408 0.        0.       ],['Ti0' 'Aw' 'Ci' 'e11' 'p11' 'Ria'],3238.90748651823,1.2561135174359777
chicago_control_concrete_inf_schedFalse_job116,62.62471883962232,45.72867849464533,1411.0292223298825,192.63083459003016,2579649.0730634495,89.97395697914656,90.86575990343674,130.974445635956,0.7922943482672149,"[ 16.77437621   3.36879815   0.79229435 -25.86577498  -2.09785731
   7.63507717]",[0.         0.         0.         0.07595544 0.         0.        ],['Ti0' 'Aw' 'Ci' 'e11' 'p11' 'Ria'],3239.67094380422,1.2499149124990083
chicago_control_concrete_inf_schedFalse_job76,67.45269286585481,48.31183298820866,1411.0137603240153,193.61281289084062,2562961.6485762615,89.97395697914656,90.87433395565344,132.81317654805798,0.8172895034940519,"[ 16.7900598    3.39909359   0.8172895  -25.91921275  -2.12644061
   7.52937341]",[0.         0.         0.         0.94128178 0.         0.        ],['Ti0' 'Aw' 'Ci' 'e11' 'p11' 'Ria'],3289.7795644431,1.2993756881900254
chicago_control_concrete_inf_schedFalse_job96,64.85276943066795,46.98297650668255,1411.0241579042581,193.94661934778762,2549862.8035598537,89.97395697914656,90.8675684805864,132.432263522832,0.7957192842656671,"[ 16.78320358   3.39563405   0.79571928 -25.87718373  -2.10354849
   7.55103004]",[0.         0.         0.         0.70420839 0.         0.        ],['Ti0' 'Aw' 'Ci' 'e11' 'p11' 'Ria'],3253.8700620299796,1.261459514031003
chicago_control_concrete_inf_schedFalse_job46,74.33968544962619,51.85214600877896,1411.8377441224163,195.1012836531604,2580231.1152603207,89.97395697914656,90.83727331206917,138.611754367763,0.804431381291692,"[ 16.7083348    3.35241538   0.80443138 -25.98144046  -2.1587861
   7.21439538]",[0.         0.         0.         0.56845373 0.         0.        ],['Ti0' 'Aw' 'Ci' 'e11' 'p11' 'Ria'],3342.96288139087,1.2662645354729989
chicago_control_concrete_inf_schedFalse_job154,69.82603824345298,49.582701389963916,1410.7308473857354,194.62194553537546,2532270.8366996762,89.97395697914656,90.88336551173745,133.238997154446,0.810660438759261,"[ 16.80395116   3.40194474   0.81066044 -25.88803333  -2.11080583
   7.50531017]",[0.         0.         0.         0.90627993 0.         0.        ],['Ti0' 'Aw' 'Ci' 'e11' 'p11' 'Ria'],3266.86938905955,1.283657336416013
chicago_control_concrete_inf_schedFalse_job164,70.16463591932809,49.70282908432805,1411.374883635332,193.8414199308328,2559731.6593829836,89.97395697914656,90.85783350621264,134.279455721218,0.7744043192960259,"[ 16.73761715   3.31827976   0.77440432 -25.87316857  -2.10290089
   7.4471556 ]",[0.         0.         0.         0.93093974 0.         0.        ],['Ti0' 'Aw' 'Ci' 'e11' 'p11' 'Ria'],3251.19288446042,1.2676665303839911
chicago_control_concrete_inf_schedFalse_job183,77.40472281933916,53.296923681761555,1412.192792002312,194.71989501984123,2566711.1633309824,89.97395697914656,90.80864816666215,140.390443803458,0.7562676164742149,"[ 16.60409236   3.25769069   0.75626762 -25.89784585  -2.1163539
   7.12299194]",[0.         0.         0.         0.73878494 0.         0.        ],['Ti0' 'Aw' 'Ci' 'e11' 'p11' 'Ria'],3267.51898375544,1.2260723313679875
chicago_control_concrete_inf_schedFalse_job143,55.51319649577477,41.76709142326677,1410.6133823849627,191.58379482505936,2590540.440886881,89.97395697914656,90.87639112628683,126.572151623678,0.789143923509109,"[ 16.86176979   3.36225601   0.78914392 -25.8278546   -2.07750404
   7.90063207]",[0.         0.         0.         0.93706814 0.         0.        ],['Ti0' 'Aw' 'Ci' 'e11' 'p11' 'Ria'],3202.50016683693,1.3007377292120026
chicago_control_concrete_inf_schedFalse_job182,60.46838325455828,44.61380141365325,1410.8255040199142,193.49037926380973,2536458.4369654404,89.97395697914656,90.85145805773912,130.673990803629,0.780445615014345,"[ 16.77214687   3.41182569   0.78044562 -25.82130074  -2.07218887
   7.65263228]",[0.         0.         0.         0.95608106 0.         0.        ],['Ti0' 'Aw' 'Ci' 'e11' 'p11' 'Ria'],3197.7713742319,1.299623842513995
chicago_control_concrete_inf_schedFalse_job140,69.28725025282807,49.22597596564199,1411.4033586852195,193.3004588121072,2546539.5337939477,89.97395697914656,90.85268538378918,133.646384681236,0.762710299666391,"[ 16.72604036   3.27982703   0.7627103  -25.8624981   -2.09560306
   7.48243211]",[0.         0.         0.         0.50028743 0.         0.        ],['Ti0' 'Aw' 'Ci' 'e11' 'p11' 'Ria'],3235.58972450575,1.1374022058020046
chicago_control_concrete_inf_schedFalse_job30,67.57417024157847,48.454570256145345,1411.0052292520327,194.90823153963424,2566983.3965714434,89.97395697914656,90.84061894874792,135.125586994835,0.799914735725541,"[ 16.70926919   3.47045939   0.79991474 -25.89905653  -2.11493802
   7.40052289]",[0.         0.         0.         0.23545848 0.         0.        ],['Ti0' 'Aw' 'Ci' 'e11' 'p11' 'Ria'],3272.0187551712397,1.3117763628499972
chicago_control_concrete_inf_schedFalse_job134,64.82228391009404,46.97206404360634,1411.226251868467,194.02961520082505,2561380.827879749,89.97395697914656,90.83698066452942,133.61955427778798,0.779143113672922,"[ 16.71840611   3.38848321   0.77914311 -25.86503805  -2.09709218
   7.48393456]",[0.         0.         0.         0.60564559 0.         0.        ],['Ti0' 'Aw' 'Ci' 'e11' 'p11' 'Ria'],3239.2754449442,1.3598456455630128
chicago_control_concrete_inf_schedFalse_job34,73.15896941098755,51.17723377156944,1412.1141541856366,193.6889744661737,2579977.0810101097,89.97395697914656,90.83077913735856,137.46091138244898,0.776933662878682,"[ 16.67418979   3.2596362    0.77693366 -25.91763982  -2.1262172
   7.27479536]",[0.         0.         0.         0.92798643 0.         0.        ],['Ti0' 'Aw' 'Ci' 'e11' 'p11' 'Ria'],3282.97606551356,1.2399341666920236
chicago_control_concrete_inf_schedFalse_job52,64.3676556120379,46.72203530484167,1411.1316306827728,193.84454209094315,2578457.4034618153,89.97395697914656,90.84689231817264,133.18538983092301,0.8042718413136491,"[ 16.75670082   3.41792768   0.80427184 -25.89762633  -2.11559319
   7.50833107]",[0.         0.         0.         0.92174371 0.         0.        ],['Ti0' 'Aw' 'Ci' 'e11' 'p11' 'Ria'],3270.9510340284696,1.2633883594699853
chicago_control_concrete_inf_schedFalse_job107,64.64994102281776,46.77044307113078,1411.4074291478535,192.13795009214482,2602660.168912279,89.97395697914656,90.85688292931987,130.90081695273898,0.786970420699962,"[ 16.79860669   3.27284553   0.78697042 -25.90604028  -2.11892125
   7.63937173]",[0.         0.         0.         0.29204017 0.         0.        ],['Ti0' 'Aw' 'Ci' 'e11' 'p11' 'Ria'],3270.0037346292897,1.9260121614950378
chicago_control_concrete_inf_schedFalse_job109,81.07514452879398,55.134429202139,1411.6264454630414,196.2767092085806,2529452.832002448,89.97395697914656,90.86019435049354,139.602669866586,0.803371562963965,"[ 16.70839785   3.34851646   0.80337156 -25.93539626  -2.13408066
   7.16318679]",[0.         0.         0.         0.56490008 0.         0.        ],['Ti0' 'Aw' 'Ci' 'e11' 'p11' 'Ria'],3302.303259887,1.2655176014519895
chicago_control_concrete_inf_schedFalse_job79,82.37826422919552,55.75928035161335,1412.0098841026315,196.58339786245045,2526786.599109346,89.97395697914656,90.83096704324157,142.330464620096,0.778577768527103,"[ 16.63746255   3.31234496   0.77857777 -25.94294468  -2.13884001
   7.02590273]",[0.         0.         0.         0.87319427 0.         0.        ],['Ti0' 'Aw' 'Ci' 'e11' 'p11' 'Ria'],3309.3609767206704,1.1856753577140182
chicago_control_concrete_inf_schedFalse_job184,75.03123755686269,52.17517518622519,1411.6813655776086,194.9300425667876,2623600.7100732997,89.97395697914656,90.82657868568646,138.463177151053,0.8131505395507191,"[ 16.71398456   3.3630811    0.81315054 -26.00872083  -2.17494394
   7.22213675]",[0.         0.         0.         0.81134367 0.         0.        ],['Ti0' 'Aw' 'Ci' 'e11' 'p11' 'Ria'],3367.28307522085,1.2938987050490027
chicago_control_concrete_inf_schedFalse_job91,57.62889342709804,43.036171033983294,1410.5668713884427,193.23946670153882,2591427.1646053963,89.97395697914656,90.86376343123645,129.039770870663,0.820585464906014,"[ 16.87153586   3.45750214   0.82058546 -25.9029903   -2.11729944
   7.74954879]",[0.         0.         0.         0.71313613 0.         0.        ],['Ti0' 'Aw' 'Ci' 'e11' 'p11' 'Ria'],3273.1573189358696,1.3599000611829979
chicago_control_concrete_inf_schedFalse_job171,63.6197105960064,46.228449236739785,1411.222694306622,192.1341535843855,2617065.3929778957,89.97395697914656,90.86123367328557,130.356177021977,0.789984993899672,"[ 16.81542186   3.29034461   0.78998499 -25.89261331  -2.11311083
   7.67128971]",[0.         0.         0.         0.83421723 0.         0.        ],['Ti0' 'Aw' 'Ci' 'e11' 'p11' 'Ria'],3259.58241604615,1.2760837936769747
chicago_control_concrete_inf_schedFalse_job100,65.27595147234346,47.18343138925328,1410.909277698304,193.59060114383274,2553410.5481190532,89.97395697914656,90.87374029491342,131.56328331682698,0.795141554790145,"[ 16.80941644   3.3774262    0.79514155 -25.88495065  -2.10761102
   7.60090486]",[0.         0.         0.         0.69790155 0.         0.        ],['Ti0' 'Aw' 'Ci' 'e11' 'p11' 'Ria'],3260.07261982391,1.307157277000016
chicago_control_concrete_inf_schedFalse_job59,65.20972852332228,47.196520474287745,1410.6607543422117,194.4020067270499,2505345.9029670306,89.97395697914656,90.87791467346653,131.729296987662,0.795024424001282,"[ 16.81566773   3.41273168   0.79502442 -25.83786556  -2.0826916
   7.59132572]",[0.         0.         0.         0.53187662 0.         0.        ],['Ti0' 'Aw' 'Ci' 'e11' 'p11' 'Ria'],3219.8836721622997,1.195340424063005
chicago_control_concrete_inf_schedFalse_job22,76.9239235711425,53.16512581867892,1411.1910892194007,196.04597313015665,2517431.57716193,89.97395697914656,90.87016817659858,137.68051435003701,0.821176544802877,"[ 16.76893725   3.3981706    0.82117654 -25.9455534   -2.14080546
   7.26319192]",[0.         0.         0.         0.91126977 0.         0.        ],['Ti0' 'Aw' 'Ci' 'e11' 'p11' 'Ria'],3313.45904876865,1.285999206024968
chicago_control_concrete_inf_schedFalse_job10,57.1984096813301,42.740285109328546,1410.751660814408,192.11246542238862,2636687.6756487205,89.97395697914656,90.87015796622504,127.164276581588,0.8054473434796651,"[ 16.9030134    3.34711015   0.80544734 -25.89441737  -2.11814268
   7.86384374]",[0.         0.         0.         0.70106008 0.         0.        ],['Ti0' 'Aw' 'Ci' 'e11' 'p11' 'Ria'],3272.28175115539,1.3881447827289861
chicago_control_concrete_inf_schedFalse_job55,67.1991124600534,48.20583872469335,1411.4829133747012,193.99577566965598,2562297.737754357,89.97395697914656,90.83635460167565,134.768772575461,0.785471695748203,"[ 16.71959492   3.36157641   0.7854717  -25.88316173  -2.10735152
   7.42011655]",[0.         0.         0.         0.77781881 0.         0.        ],['Ti0' 'Aw' 'Ci' 'e11' 'p11' 'Ria'],3254.8934595447304,1.222984225611981
chicago_control_concrete_inf_schedFalse_job7,78.11381470910628,53.87933929267725,1410.729429212517,198.0470964959121,2514356.3257742934,89.97395697914656,90.85597531100338,139.723301552668,0.837511630607698,"[ 16.72545472   3.54309534   0.83751163 -26.03141266  -2.18863719
   7.15700237]",[0.         0.         0.         0.68302042 0.         0.        ],['Ti0' 'Aw' 'Ci' 'e11' 'p11' 'Ria'],3397.20624406735,1.2574091775900058
chicago_control_concrete_inf_schedFalse_job37,87.6304717575767,58.15796269023454,1412.132336948105,197.0503328487089,2506791.4071636293,89.97395697914656,90.83631967289708,143.306842763102,0.7611522926881,"[ 16.60670498   3.25810816   0.76115229 -25.90644324  -2.11815052
   6.97803385]",[0.         0.         0.         0.88283073 0.         0.        ],['Ti0' 'Aw' 'Ci' 'e11' 'p11' 'Ria'],3274.63713050118,1.188299541421003
chicago_control_concrete_inf_schedFalse_job31,51.01645375432617,39.153149739308674,1410.3940077533111,191.19770292707128,2634950.22582816,89.97395697914656,90.89145946734384,123.797054581738,0.8236921978859079,"[ 16.98529992   3.40725813   0.8236922  -25.8918898   -2.11173363
   8.07773661]",[0.         0.         0.         0.92035073 0.         0.        ],['Ti0' 'Aw' 'Ci' 'e11' 'p11' 'Ria'],3258.6540671367998,1.362824076995011
chicago_control_concrete_inf_schedFalse_job110,59.22569622046479,43.942335037140005,1410.6416276558905,193.66194237469026,2560265.5926420395,89.97395697914656,90.85418394979322,130.40319061383698,0.805136835025105,"[ 16.80395603   3.46944771   0.80513684 -25.87725575  -2.10369809
   7.66852402]",[0.         0.         0.         0.61179749 0.         0.        ],['Ti0' 'Aw' 'Ci' 'e11' 'p11' 'Ria'],3251.2214388460998,1.3449853476950295
chicago_control_concrete_inf_schedFalse_job188,85.00554886018836,57.00763757598877,1411.9142382471146,197.26538968760903,2563740.7052267804,89.97395697914656,90.81225009838026,143.944843155854,0.7897943268162919,"[ 16.60324137   3.38151267   0.78979433 -26.02112474  -2.18152669
   6.94710542]",[0.         0.         0.         0.93841349 0.         0.        ],['Ti0' 'Aw' 'Ci' 'e11' 'p11' 'Ria'],3378.82466142149,1.2220348862580295
chicago_control_concrete_inf_schedFalse_job165,70.8052299267768,50.03761852493743,1411.5809294648363,194.05087235853202,2562016.686216115,89.97395697914656,90.85345894711021,135.86940444247801,0.799234341222446,"[ 16.71962853   3.34614298   0.79923434 -25.92970625  -2.13244619
   7.36000871]",[0.         0.         0.         0.14499978 0.         0.        ],['Ti0' 'Aw' 'Ci' 'e11' 'p11' 'Ria'],3298.28421820397,1.2915956439409797
chicago_control_concrete_inf_schedFalse_job32,72.90724924680174,51.11704308273111,1411.7464605520538,194.6075328831746,2543202.2567002582,89.97395697914656,90.83360007997757,137.623806643185,0.766477786920048,"[ 16.66671714   3.31256781   0.76647779 -25.89158826  -2.11074597
   7.26618471]",[0.        0.        0.        0.3387188 0.        0.       ],['Ti0' 'Aw' 'Ci' 'e11' 'p11' 'Ria'],3263.99751082075,1.2126063167349912
chicago_control_concrete_inf_schedFalse_job138,73.52729115486612,51.486356393162794,1411.6135763058478,195.5485390562999,2561111.3106231266,89.97395697914656,90.81570706574739,139.38003274474198,0.781858801946611,"[ 16.61457729   3.41699116   0.7818588  -25.91461152  -2.12537221
   7.17462882]",[0.         0.         0.         0.62251542 0.         0.        ],['Ti0' 'Aw' 'Ci' 'e11' 'p11' 'Ria'],3287.83506460544,1.3774404112450043
chicago_control_concrete_inf_schedFalse_job63,56.05769249380419,42.11985804105563,1410.5174827255262,192.5281439409657,2607406.1740453993,89.97395697914656,90.8750987915128,127.485333640571,0.8246901477647701,"[ 16.91078497   3.42357751   0.82469015 -25.8954606   -2.11373334
   7.84403956]",[0.        0.        0.        0.8882851 0.        0.       ],['Ti0' 'Aw' 'Ci' 'e11' 'p11' 'Ria'],3264.99788084467,1.361133764846997
chicago_control_concrete_inf_schedFalse_job191,70.8156582405373,50.120361769205,1411.0454210945047,195.23220402800624,2521172.2736736895,89.97395697914656,90.86805489045504,135.188974062569,0.7936602236826751,"[ 16.75320181   3.38987755   0.79366022 -25.87072217  -2.09954044
   7.39705295]",[0.         0.         0.         0.86746086 0.         0.        ],['Ti0' 'Aw' 'Ci' 'e11' 'p11' 'Ria'],3247.71243239455,1.2378472555299993
chicago_control_concrete_inf_schedFalse_job157,81.52892538971383,55.18701531721206,1412.649003755802,194.29816204745288,2600894.827104799,89.97395697914656,90.81236221165229,141.902716883576,0.762201500943169,"[ 16.58789144   3.20554843   0.7622015  -25.94081717  -2.13813179
   7.04708142]",[0.         0.         0.         0.91693988 0.         0.        ],['Ti0' 'Aw' 'Ci' 'e11' 'p11' 'Ria'],3301.65958626255,1.2175101223599825
chicago_control_concrete_inf_schedFalse_job99,74.87731176490581,52.07787652938354,1412.001918528591,194.60488477057092,2637139.474722359,89.97395697914656,90.81642691252804,139.135395091588,0.7989409235025791,"[ 16.68301959   3.30489065   0.79894092 -25.99235537  -2.16484673
   7.18724376]",[0.         0.         0.         0.93930709 0.         0.        ],['Ti0' 'Aw' 'Ci' 'e11' 'p11' 'Ria'],3347.3184650790304,1.2470393901449768
chicago_control_concrete_inf_schedFalse_job118,71.28659783803444,50.342236689377884,1411.4853568948859,195.0199625140136,2614500.9098652494,89.97395697914656,90.81868238018757,137.907357700696,0.791521218343182,"[ 16.65593367   3.39528164   0.79152122 -25.93970045  -2.13816693
   7.25124472]",[0.         0.         0.         0.48021017 0.         0.        ],['Ti0' 'Aw' 'Ci' 'e11' 'p11' 'Ria'],3306.04112772643,1.2810005919990033
chicago_control_concrete_inf_schedFalse_job117,62.3060932856948,45.61758831228416,1411.0833469841346,193.68961808445613,2575654.1983984793,89.97395697914656,90.84681778378071,132.146320661192,0.8094380660711709,"[ 16.78210957   3.42280622   0.80943807 -25.91023334  -2.12221362
   7.56736922]",[0.         0.         0.         0.66457974 0.         0.        ],['Ti0' 'Aw' 'Ci' 'e11' 'p11' 'Ria'],3280.9302959359698,1.2467432155499978
chicago_control_concrete_inf_schedFalse_job166,67.19922766485652,48.25322234486431,1410.9790256692406,194.77407924257042,2523127.0638319044,89.97395697914656,90.86193226415413,133.927928256231,0.788670655304005,"[ 16.7650588    3.40585148   0.78867066 -25.84979298  -2.08977414
   7.46670252]",[0.        0.        0.        0.3417628 0.        0.       ],['Ti0' 'Aw' 'Ci' 'e11' 'p11' 'Ria'],3231.5618993818202,1.241427615562003
chicago_control_concrete_inf_schedFalse_job144,54.70651307528831,41.328828830759605,1410.457580355608,192.0183218736269,2573913.5054746238,89.97395697914656,90.8884941508709,126.271988681756,0.82655007479286,"[ 16.92722283   3.44323492   0.82655007 -25.8832692   -2.10619345
   7.91941277]",[0.         0.         0.         0.74638239 0.         0.        ],['Ti0' 'Aw' 'Ci' 'e11' 'p11' 'Ria'],3251.18072673729,1.386962890771997
chicago_control_concrete_inf_schedFalse_job71,69.9603172426652,49.64653382202785,1411.6136627677506,194.54622469034214,2545158.4527377905,89.97395697914656,90.83489151269838,136.280429436455,0.7808105682871379,"[ 16.69576984   3.36249234   0.78081057 -25.88355607  -2.10658958
   7.33781075]",[0.         0.         0.         0.76559403 0.         0.        ],['Ti0' 'Aw' 'Ci' 'e11' 'p11' 'Ria'],3256.23804784558,1.162807474145012
chicago_control_concrete_inf_schedFalse_job153,60.855093563335764,44.836010635660095,1410.7978908959906,193.71571342712988,2643843.778653419,89.97395697914656,90.85065051882948,131.38628879051,0.8267019058441658,"[ 16.81900415   3.45498751   0.82670191 -25.94798563  -2.14117106
   7.61114428]",[0.         0.         0.         0.95210755 0.         0.        ],['Ti0' 'Aw' 'Ci' 'e11' 'p11' 'Ria'],3312.6914375598603,1.3119949536850015
chicago_control_concrete_inf_schedFalse_job40,71.08245979441979,50.12438957453927,1411.633354355346,193.2815261005404,2595946.4891254273,89.97395697914656,90.83941416567932,134.529916454095,0.763342973014312,"[ 16.74786404   3.22441917   0.76334297 -25.9027409   -2.11804092
   7.43329087]",[0.         0.         0.         0.65348212 0.         0.        ],['Ti0' 'Aw' 'Ci' 'e11' 'p11' 'Ria'],3270.34005270669,1.255153071658981
chicago_control_concrete_inf_schedFalse_job35,69.09016731766658,49.15845705617848,1411.432213194179,193.79695025294285,2581715.888286074,89.97395697914656,90.83376507930423,134.57549940906299,0.780807112181495,"[ 16.73111382   3.32359752   0.78080711 -25.90221735  -2.11905963
   7.43077309]",[0.         0.         0.         0.93671732 0.         0.        ],['Ti0' 'Aw' 'Ci' 'e11' 'p11' 'Ria'],3273.89172847659,1.3050343522550065
chicago_control_concrete_inf_schedFalse_job159,91.12425819989934,59.863615490058,1412.2147367750879,199.1038843330766,2494065.2692891397,89.97395697914656,90.82125145612878,146.834080251366,0.7732797660941759,"[ 16.5867871    3.35151581   0.77327977 -25.93091597  -2.13123806
   6.81040804]",[0.         0.         0.         0.85300673 0.         0.        ],['Ti0' 'Aw' 'Ci' 'e11' 'p11' 'Ria'],3295.2838998471802,1.1790851298309803
chicago_control_concrete_inf_schedFalse_job66,85.44690640420076,57.34816830593247,1411.4029227042147,198.97884783934532,2487390.4762330125,89.97395697914656,90.84251770222562,143.434206491383,0.7903220490619058,"[ 16.65271875   3.42479809   0.79032205 -25.9091756   -2.11977856
   6.97183764]",[0.         0.         0.         0.31388916 0.         0.        ],['Ti0' 'Aw' 'Ci' 'e11' 'p11' 'Ria'],3277.93110055597,1.2883781669749794
chicago_control_concrete_inf_schedFalse_job194,55.136802376216316,41.568828164137116,1410.4655314190295,191.909282068509,2620576.5504714227,89.97395697914656,90.88541001039837,126.51464326399599,0.8255495574121741,"[ 16.92343549   3.42831561   0.82554956 -25.89029119  -2.1114666
   7.90422337]",[0.         0.         0.         0.76789502 0.         0.        ],['Ti0' 'Aw' 'Ci' 'e11' 'p11' 'Ria'],3260.15524518661,1.3144563095420096
chicago_control_concrete_inf_schedFalse_job124,59.497394052272575,44.07115495226913,1410.7955729856653,193.2628662410792,2577478.598222495,89.97395697914656,90.86131573434771,130.048244402371,0.8127485995506941,"[ 16.83864668   3.43319636   0.8127486  -25.89050987  -2.11246734
   7.68945405]",[0.         0.         0.         0.41615132 0.         0.        ],['Ti0' 'Aw' 'Ci' 'e11' 'p11' 'Ria'],3265.80359335945,1.3590675571499844
chicago_control_concrete_inf_schedFalse_job197,60.157379623368655,44.40994372096163,1410.8744928281478,192.84042064628483,2597539.473395058,89.97395697914656,90.86589120801929,129.25926297929502,0.813216045255409,"[ 16.87558198   3.38199492   0.81321605 -25.9265726   -2.12749418
   7.73638946]",[0.         0.         0.         0.93844046 0.         0.        ],['Ti0' 'Aw' 'Ci' 'e11' 'p11' 'Ria'],3289.1478150053304,1.3425131106539823
chicago_control_concrete_inf_schedFalse_job163,87.08840823452275,57.98256464748326,1411.9905062858707,197.79422618858487,2529170.430627834,89.97395697914656,90.82748427903898,144.15393401193998,0.8025769314942579,"[ 16.65844317   3.35877712   0.80257693 -26.02371386  -2.18348468
   6.93702886]",[0.         0.         0.         0.80953683 0.         0.        ],['Ti0' 'Aw' 'Ci' 'e11' 'p11' 'Ria'],3382.39801138253,1.1822887814510068
chicago_control_concrete_inf_schedFalse_job43,57.56126694737847,42.93044136923681,1410.818121546645,191.86888489604047,2638598.8950033826,89.97395697914656,90.87705689786898,127.793233369056,0.8289693104536461,"[ 16.90055532   3.3869791    0.82896931 -25.91603669  -2.12695749
   7.82514045]",[0.         0.         0.         0.94799746 0.         0.        ],['Ti0' 'Aw' 'Ci' 'e11' 'p11' 'Ria'],3284.4792107646504,1.3159422589990015
chicago_control_concrete_inf_schedFalse_job87,86.52787784579806,57.788957646122036,1411.623814157202,198.45321800536212,2484288.675805437,89.97395697914656,90.83806340772851,143.318789055013,0.772378363672701,"[ 16.63743477   3.36055331   0.77237836 -25.88407076  -2.10592004
   6.9774522 ]",[0.         0.         0.         0.61203686 0.         0.        ],['Ti0' 'Aw' 'Ci' 'e11' 'p11' 'Ria'],3253.56671136828,1.1910049339809916
chicago_control_concrete_inf_schedFalse_job62,52.812989413676526,40.22084243186037,1410.3612087512702,191.60915331720085,2616393.0765327746,89.97395697914656,90.8864354355429,124.97954830256201,0.811352610083261,"[ 16.94263877   3.39344279   0.81135261 -25.86563208  -2.09852728
   8.00130912]",[0.         0.         0.         0.62433993 0.         0.        ],['Ti0' 'Aw' 'Ci' 'e11' 'p11' 'Ria'],3238.3499544968,1.3736414026259922
chicago_control_concrete_inf_schedFalse_job94,55.35499832236077,41.72544190666481,1410.4418684656152,192.60476650780944,2617287.7706010104,89.97395697914656,90.87102700188856,127.387719001483,0.8233759359433579,"[ 16.90419426   3.44392999   0.82337594 -25.90034842  -2.11659768
   7.85005029]",[0.        0.        0.        0.0162875 0.        0.       ],['Ti0' 'Aw' 'Ci' 'e11' 'p11' 'Ria'],3271.00001765552,1.3152250227069686
chicago_control_concrete_inf_schedFalse_job54,54.07996845309845,40.956249036026996,1410.467990609184,191.71121728086942,2565515.0151732382,89.97395697914656,90.87983972326194,125.75199417043301,0.7819282739108729,"[ 16.87336447   3.36943383   0.78192827 -25.80657473  -2.06551731
   7.95216018]",[0.         0.         0.         0.90933911 0.         0.        ],['Ti0' 'Aw' 'Ci' 'e11' 'p11' 'Ria'],3183.65813613286,1.3417630203770017
chicago_control_concrete_inf_schedFalse_job82,63.58551400676207,46.29920718700345,1410.7148249264178,193.68850546931301,2553995.6813968443,89.97395697914656,90.87270968457055,131.48629148324,0.8154338171648849,"[ 16.80809945   3.43004175   0.81543382 -25.91695258  -2.12334765
   7.60535558]",[0.         0.         0.         0.90105984 0.         0.        ],['Ti0' 'Aw' 'Ci' 'e11' 'p11' 'Ria'],3287.09950937234,1.2722225733209882
chicago_control_concrete_inf_schedFalse_job169,58.80531954443881,43.65214670518639,1410.8416502392126,192.5179899124409,2634185.6595059307,89.97395697914656,90.8607918255197,129.013056415186,0.811871339588773,"[ 16.85303743   3.37350229   0.81187134 -25.91222836  -2.12234825
   7.75115347]",[0.         0.         0.         0.80165347 0.         0.        ],['Ti0' 'Aw' 'Ci' 'e11' 'p11' 'Ria'],3279.2669258681103,1.4284400796929901
chicago_control_concrete_inf_schedFalse_job108,71.76371493676737,50.5321586545779,1411.819303357777,194.3085608346334,2575006.910193786,89.97395697914656,90.82130968734495,137.13586303048402,0.783462622349362,"[ 16.67266957   3.3325582    0.78346262 -25.92989704  -2.13286449
   7.29203855]",[0.         0.         0.         0.12232915 0.         0.        ],['Ti0' 'Aw' 'Ci' 'e11' 'p11' 'Ria'],3296.5203372931105,1.1333258976019636
chicago_control_concrete_inf_schedFalse_job136,55.71711493261286,41.93915737004076,1410.4275948948566,192.7802358189783,2579332.4363100305,89.97395697914656,90.87477806976686,127.521607161113,0.81563067816126,"[ 16.89249482   3.45272651   0.81563068 -25.87269099  -2.10140363
   7.84180832]",[0.         0.         0.         0.78729282 0.         0.        ],['Ti0' 'Aw' 'Ci' 'e11' 'p11' 'Ria'],3245.9030583963695,1.2941778041279974
chicago_control_concrete_inf_schedFalse_job173,62.8120742122354,45.837333787228324,1411.09219147039,192.7859205205378,2575950.3685615063,89.97395697914656,90.86228145125064,130.806866920448,0.791604552294225,"[ 16.79409485   3.35268499   0.79160455 -25.88571636  -2.1081053
   7.64485859]",[0.         0.         0.         0.94159345 0.         0.        ],['Ti0' 'Aw' 'Ci' 'e11' 'p11' 'Ria'],3257.5187562586602,1.3135412853280286
chicago_control_concrete_inf_schedFalse_job181,56.343678079773206,42.26330651841588,1410.641570472791,192.157306082591,2562577.865615584,89.97395697914656,90.87846408958033,127.143146410466,0.7859543074881999,"[ 16.85925651   3.37909293   0.78595431 -25.80878405  -2.07133212
   7.86515065]",[0.         0.         0.         0.72427526 0.         0.        ],['Ti0' 'Aw' 'Ci' 'e11' 'p11' 'Ria'],3193.7768715548,1.3124925219610049
chicago_control_concrete_inf_schedFalse_job193,72.48334390661735,50.908887593799264,1411.4631703974026,194.62151983993996,2526192.0383603815,89.97395697914656,90.8521767092269,135.63601773948798,0.7634110926491,"[ 16.72536833   3.30109056   0.76341109 -25.86731541  -2.09710583
   7.37267296]",[0.         0.         0.         0.91138027 0.         0.        ],['Ti0' 'Aw' 'Ci' 'e11' 'p11' 'Ria'],3241.964507252,1.2764380767140153
chicago_control_concrete_inf_schedFalse_job57,63.755171125514096,46.35540339237058,1411.3042033273043,193.09151437897305,2533553.1369353374,89.97395697914656,90.85322215701177,132.107460190718,0.776321271430952,"[ 16.74501456   3.33774126   0.77632127 -25.8394717   -2.08502735
   7.56959523]",[0.         0.         0.         0.72963257 0.         0.        ],['Ti0' 'Aw' 'Ci' 'e11' 'p11' 'Ria'],3217.80904133703,1.2526209045749965
chicago_control_concrete_inf_schedFalse_job120,75.98899554851587,52.58656086574775,1412.1650494508615,194.23764120928848,2546918.595159868,89.97395697914656,90.8312783764798,138.84672832198402,0.759154329582053,"[ 16.63081882   3.26295172   0.75915433 -25.89957291  -2.1155682
   7.20218627]",[0.         0.         0.         0.69656482 0.         0.        ],['Ti0' 'Aw' 'Ci' 'e11' 'p11' 'Ria'],3269.5980772695802,1.1953544389479873
chicago_control_concrete_inf_schedFalse_job131,60.104146239465585,44.444171189725324,1410.4781469092718,194.04771755164742,2552243.794255691,89.97395697914656,90.85721354695106,130.86959429874798,0.801766976308351,"[ 16.7919623    3.49026999   0.80176698 -25.84913239  -2.08753399
   7.64119432]",[0.         0.         0.         0.94327106 0.         0.        ],['Ti0' 'Aw' 'Ci' 'e11' 'p11' 'Ria'],3225.4111871849896,1.3332248283730053
chicago_control_concrete_inf_schedFalse_job4,71.267940571131,50.14764459912751,1411.8827827465757,192.26009557049463,2657266.4117457354,89.97395697914656,90.83650154310833,134.524104729567,0.77799636995516,"[ 16.7289051    3.21275904   0.77799637 -25.93406244  -2.13466367
   7.43361201]",[0.         0.         0.         0.96882977 0.         0.        ],['Ti0' 'Aw' 'Ci' 'e11' 'p11' 'Ria'],3293.31124133638,1.228327315087995
chicago_control_concrete_inf_schedFalse_job86,62.39029097734943,45.60919554953571,1410.9739610820513,192.7325208208556,2556815.4091334813,89.97395697914656,90.86636423788109,130.84029078656098,0.779360827348315,"[ 16.76133282   3.3624676    0.77936083 -25.83012641  -2.07778423
   7.64290567]",[0.        0.        0.        0.7145022 0.        0.       ],['Ti0' 'Aw' 'Ci' 'e11' 'p11' 'Ria'],3206.53910939898,1.322568512036014
chicago_control_concrete_inf_schedFalse_job160,81.17775731077829,55.23423999654388,1411.6245015114043,196.9409998433917,2529024.6449131635,89.97395697914656,90.84842063975209,141.067779854573,0.814039107573455,"[ 16.68822608   3.3791581    0.81403911 -25.97707802  -2.15891614
   7.08879094]",[0.         0.         0.         0.86764692 0.         0.        ],['Ti0' 'Aw' 'Ci' 'e11' 'p11' 'Ria'],3343.3646792699797,1.2518401863200097
chicago_control_concrete_inf_schedFalse_job105,69.48706104558728,49.2966755202641,1411.9530236135865,192.82921104033383,2594917.802663649,89.97395697914656,90.83334297236587,135.00772209872298,0.7531924739957909,"[ 16.69012951   3.214713     0.75319247 -25.8797294   -2.10631298
   7.40698372]",[0.         0.         0.         0.71069304 0.         0.        ],['Ti0' 'Aw' 'Ci' 'e11' 'p11' 'Ria'],3250.35179777823,1.2324359795900364
chicago_control_concrete_inf_schedFalse_job127,80.3962420077315,54.68333796070288,1412.616467258749,194.52197033115917,2600549.361200413,89.97395697914656,90.80411441756651,141.706280973489,0.768029559109718,"[ 16.60976616   3.20427377   0.76802956 -25.95886038  -2.14845139
   7.05685022]",[0.         0.         0.         0.24919618 0.         0.        ],['Ti0' 'Aw' 'Ci' 'e11' 'p11' 'Ria'],3318.24117053565,1.2683181296850137
chicago_control_concrete_inf_schedFalse_job6,64.66811202406053,46.81701541253593,1411.2303614632,192.76803677472242,2579005.7190123736,89.97395697914656,90.8576141964676,132.32193286184201,0.7915428380566709,"[ 16.74756797   3.34440192   0.79154284 -25.87791965  -2.10567718
   7.55732612]",[0.         0.         0.         0.82205327 0.         0.        ],['Ti0' 'Aw' 'Ci' 'e11' 'p11' 'Ria'],3251.56495819096,1.3003915454229684
chicago_control_concrete_inf_schedFalse_job180,71.33539929256287,50.35126555551569,1411.3947151294876,194.79244294066365,2575652.361601498,89.97395697914656,90.83305593448928,136.312157121546,0.7901485862756791,"[ 16.7201319    3.37582185   0.79014859 -25.92008211  -2.12668411
   7.33610282]",[0.         0.         0.         0.80841512 0.         0.        ],['Ti0' 'Aw' 'Ci' 'e11' 'p11' 'Ria'],3289.1614777375203,1.3174026904299865
chicago_control_concrete_inf_schedFalse_job12,57.89988146623585,43.15093342200677,1410.6039748381954,192.5164615309972,2558708.2447662572,89.97395697914656,90.87934333688298,128.25408567562,0.7999444385072091,"[ 16.8467006    3.41123302   0.79994444 -25.86043008  -2.09199704
   7.79702256]",[0.         0.         0.         0.47899117 0.         0.        ],['Ti0' 'Aw' 'Ci' 'e11' 'p11' 'Ria'],3230.6929560918297,1.2610448484319932
chicago_control_concrete_inf_schedFalse_job65,61.21752254168983,45.048286366644795,1410.691870731434,194.01132117666012,2595231.7186778397,89.97395697914656,90.85589284999605,131.655836527754,0.8310715979969491,"[ 16.82320354   3.48672741   0.8310716  -25.92087731  -2.12917956
   7.59556148]",[0.         0.         0.         0.91871047 0.         0.        ],['Ti0' 'Aw' 'Ci' 'e11' 'p11' 'Ria'],3293.63327777386,1.322320757025011
chicago_control_concrete_inf_schedFalse_job64,54.44784614966995,41.177574054268,1410.5572774944474,191.9413645380207,2606471.775051821,89.97395697914656,90.87692382425341,126.20496847728998,0.8115140375434649,"[ 16.91491652   3.3803871    0.81151404 -24.95218684  -2.10760991
   7.92361832]",[0.        0.        0.        0.8524166 0.        0.       ],['Ti0' 'Aw' 'Ci' 'e11' 'p11' 'Ria'],3254.36187871172,1.3435312351440274
chicago_control_concrete_inf_schedFalse_job111,72.27368621062237,50.751613014460006,1411.9593599501306,193.8256018728994,2589961.7618514644,89.97395697914656,90.82885185136104,137.067964412751,0.7824745916099151,"[ 16.68936701   3.28109712   0.78247459 -25.92414188  -2.12922636
   7.29565077]",[0.         0.         0.         0.93286468 0.         0.        ],['Ti0' 'Aw' 'Ci' 'e11' 'p11' 'Ria'],3289.07103863944,1.2763738158330113
chicago_control_concrete_inf_schedFalse_job68,53.93124714131498,40.87530291812349,1410.467592553658,191.8082757058825,2610459.208260022,89.97395697914656,90.88230658630553,125.720684782767,0.80728406436326,"[ 16.92156827   3.38710945   0.80728406 -25.86404566  -2.09731513
   7.95414058]",[0.         0.         0.         0.73641908 0.         0.        ],['Ti0' 'Aw' 'Ci' 'e11' 'p11' 'Ria'],3236.5757114634603,1.3077038282210083
chicago_control_concrete_inf_schedFalse_job60,77.93613931301012,53.61017882062226,1411.9697475669918,195.5444903306297,2590811.3543123947,89.97395697914656,90.82419979397484,140.490666410977,0.801019986280621,"[ 16.66157101   3.35697705   0.80101999 -25.99416634  -2.16688245
   7.11791057]",[0.         0.         0.         0.90835396 0.         0.        ],['Ti0' 'Aw' 'Ci' 'e11' 'p11' 'Ria'],3355.99901891128,1.2500360930109764
chicago_control_concrete_inf_schedFalse_job75,74.51733928804998,51.87398326054788,1412.1828030852002,194.18730653194163,2619723.275440233,89.97395697914656,90.82215045052443,138.633801666322,0.786857308725145,"[ 16.68236485   3.26797536   0.78685731 -25.97107898  -2.153275
   7.21324805]",[0.         0.         0.         0.26429484 0.         0.        ],['Ti0' 'Aw' 'Ci' 'e11' 'p11' 'Ria'],3328.38586904972,1.2352480662370056
chicago_control_concrete_inf_schedFalse_job132,55.33386880849611,41.685128320820354,1410.7764559126351,191.99654686195097,2548798.1632038034,89.97395697914656,90.87438636340994,126.50654435763799,0.772999052669297,"[ 16.86627894   3.33837367   0.77299905 -25.8194508   -2.07289356
   7.9047294 ]",[0.         0.         0.         0.41070973 0.         0.        ],['Ti0' 'Aw' 'Ci' 'e11' 'p11' 'Ria'],3197.74735120021,1.3105982107580019
chicago_control_concrete_inf_schedFalse_job18,65.33364347894315,47.213102021984426,1411.2605018364375,193.57617175641388,2623214.0694151004,89.97395697914656,90.84700012692618,133.32232874891898,0.8091846071006991,"[ 16.78901668   3.35804458   0.80918461 -25.92904945  -2.13452489
   7.50061906]",[0.         0.         0.         0.92936668 0.         0.        ],['Ti0' 'Aw' 'Ci' 'e11' 'p11' 'Ria'],3299.0271887173903,1.3280447767710086
chicago_control_concrete_inf_schedFalse_job170,73.34529016100946,51.298249757794494,1411.955886381131,194.119558399717,2583302.180818829,89.97395697914656,90.82233264416566,137.549865514214,0.7661797948333141,"[ 16.67453913   3.26763096   0.76617979 -25.90577199  -2.11994833
   7.27009071]",[0.         0.         0.         0.92614695 0.         0.        ],['Ti0' 'Aw' 'Ci' 'e11' 'p11' 'Ria'],3275.24696136336,1.1664961828610103
chicago_control_concrete_inf_schedFalse_job112,70.79844134990525,50.01289285917684,1411.8944922044032,193.72444278867292,2623603.221828503,89.97395697914656,90.8260086659729,136.434223951648,0.786066169568523,"[ 16.70668594   3.2746239    0.78606617 -25.94605406  -2.14180592
   7.32953925]",[0.         0.         0.         0.21524541 0.         0.        ],['Ti0' 'Aw' 'Ci' 'e11' 'p11' 'Ria'],3308.71785278388,1.2587173255519986
chicago_control_concrete_inf_schedFalse_job198,62.44469611407029,45.69795615276508,1410.5957083599585,193.80873870487252,2554001.9743869165,89.97395697914656,90.8757411515926,131.077317994045,0.8256066559576879,"[ 16.84022393   3.44463424   0.82560666 -25.91563207  -2.12422971
   7.629085  ]",[0.         0.         0.         0.95603769 0.         0.        ],['Ti0' 'Aw' 'Ci' 'e11' 'p11' 'Ria'],3287.3282399393397,1.3257514277489975
chicago_control_concrete_inf_schedFalse_job158,57.790538691329296,43.04834628952045,1410.985799789415,191.6773260220206,2578306.072866703,89.97395697914656,90.86738858367856,128.007036396264,0.781383877192022,"[ 16.81918714   3.32421137   0.78138388 -25.84391384  -2.08613439
   7.81207056]",[0.         0.         0.         0.92101322 0.         0.        ],['Ti0' 'Aw' 'Ci' 'e11' 'p11' 'Ria'],3217.35652100464,1.2494297867189914
chicago_control_concrete_inf_schedFalse_job133,66.57087065486567,47.894762246643104,1411.0679629499184,194.21844330304555,2636043.2602171977,89.97395697914656,90.83481084891513,134.327478949221,0.811768927138889,"[ 16.74089535   3.4176061    0.81176893 -25.94584972  -2.1420333
   7.44449317]",[0.         0.         0.         0.82253201 0.         0.        ],['Ti0' 'Aw' 'Ci' 'e11' 'p11' 'Ria'],3312.5053041379497,1.3126830145579902
chicago_control_concrete_inf_schedFalse_job142,60.500679959086625,44.68649661624854,1410.2213343423084,194.54206623212318,2591252.8443129305,89.97395697914656,90.8583247091847,131.22996203982,0.843403940908171,"[ 16.83085172   3.57300254   0.84340394 -25.95430795  -2.1477821
   7.620211  ]",[0.         0.         0.         0.93019857 0.         0.        ],['Ti0' 'Aw' 'Ci' 'e11' 'p11' 'Ria'],3325.21297284117,1.376433257897986
chicago_control_concrete_inf_schedFalse_job73,91.09389551103632,59.764847017130485,1412.2766257292096,198.15779179737498,2498062.503058318,89.97395697914656,90.84116211899311,145.20974516188298,0.7973872441289058,"[ 16.64086395   3.30950967   0.79738724 -25.96463834  -2.15057637
   6.88659015]",[0.         0.         0.         0.58064933 0.         0.        ],['Ti0' 'Aw' 'Ci' 'e11' 'p11' 'Ria'],3326.75339120145,1.2190635227330233
chicago_control_concrete_inf_schedFalse_job3,80.0447795699707,54.68208896994096,1411.563346180685,196.61498777925271,2514692.4985719044,89.97395697914656,90.84725275513163,139.660406860004,0.7719756051738921,"[ 16.69328026   3.325626     0.77197561 -25.89789434  -2.11303489
   7.16022545]",[0.         0.         0.         0.75028612 0.         0.        ],['Ti0' 'Aw' 'Ci' 'e11' 'p11' 'Ria'],3268.77045412899,1.230521653083997
chicago_control_concrete_inf_schedFalse_job135,62.302873621999495,45.551676806021,1411.1150316205756,192.5370632021208,2571928.1162866945,89.97395697914656,90.86246517163949,130.743431876605,0.785929285120587,"[ 16.77446694   3.34420222   0.78592929 -25.85481104  -2.09245477
   7.64856778]",[0.         0.         0.         0.76057556 0.         0.        ],['Ti0' 'Aw' 'Ci' 'e11' 'p11' 'Ria'],3229.60725669641,1.313961098492996
chicago_control_concrete_inf_schedFalse_job175,65.74826483626407,47.39933787868366,1410.9382739411817,193.085006815142,2549452.775586227,89.97395697914656,90.86962410915555,131.590979025259,0.777604578851379,"[ 16.76163358   3.34322375   0.77760458 -25.83283425  -2.07952028
   7.59930512]",[0.         0.         0.         0.46751352 0.         0.        ],['Ti0' 'Aw' 'Ci' 'e11' 'p11' 'Ria'],3209.5782131922197,1.31154621984399
chicago_control_concrete_inf_schedFalse_job92,66.55451636239437,47.91380228897036,1410.8342457441101,194.67615183110118,2548653.3209161116,89.97395697914656,90.86724822966322,133.695874649202,0.830311682116449,"[ 16.81781718   3.45626452   0.83031168 -25.96217145  -2.14922244
   7.47966235]",[0.         0.         0.         0.76770457 0.         0.        ],['Ti0' 'Aw' 'Ci' 'e11' 'p11' 'Ria'],3331.49314956856,1.3132127688359958
chicago_control_concrete_inf_schedFalse_job69,60.884527125898025,44.809276130902795,1411.0213315180945,192.9173485428431,2578043.4250418902,89.97395697914656,90.8694835248495,130.23448970661502,0.8197916155915791,"[ 16.84832302   3.39195583   0.81979162 -25.91387279  -2.12544993
   7.67845754]",[0.         0.         0.         0.68262228 0.         0.        ],['Ti0' 'Aw' 'Ci' 'e11' 'p11' 'Ria'],3285.33478096887,1.3324537183009681
chicago_control_concrete_inf_schedFalse_job168,64.99757772772661,47.03404914757116,1411.2127298472478,193.52114575080026,2573890.9810464843,89.97395697914656,90.86523019068395,132.579386350732,0.804306501327973,"[ 16.78802992   3.38372385   0.8043065  -25.91056441  -2.12229332
   7.54265069]",[0.         0.         0.         0.56187962 0.         0.        ],['Ti0' 'Aw' 'Ci' 'e11' 'p11' 'Ria'],3283.4148134156203,1.3236294715630095
chicago_control_concrete_inf_schedFalse_job70,54.82195341736101,41.3885548572318,1410.4871854888947,191.88605161951747,2610746.3325116285,89.97395697914656,90.88870037535028,125.61048496826099,0.826993733170664,"[ 16.96726031   3.4094523    0.82699373 -25.91225873  -2.12336191
   7.96111885]",[0.         0.         0.         0.86730361 0.         0.        ],['Ti0' 'Aw' 'Ci' 'e11' 'p11' 'Ria'],3280.5826490725,1.349453695495015
chicago_control_concrete_inf_schedFalse_job101,76.91705528648936,53.190750498372246,1411.7146717820738,196.42950199926972,2539124.9576308136,89.97395697914656,90.8221852416946,140.967094434501,0.781942292350895,"[ 16.61716266   3.41181747   0.78194229 -25.92183547  -2.1283265
   7.09385409]",[0.         0.         0.         0.59999484 0.         0.        ],['Ti0' 'Aw' 'Ci' 'e11' 'p11' 'Ria'],3294.8698913286603,1.2582167335860106
chicago_control_concrete_inf_schedFalse_job162,85.97019731259432,57.36011275439776,1412.658485147449,196.31345492888929,2530036.4083500896,89.97395697914656,90.82306362078361,144.276918579494,0.778944202915888,"[ 16.60558846   3.27049562   0.7789442  -25.96867459  -2.15283529
   6.93111559]",[0.        0.        0.        0.8043386 0.        0.       ],['Ti0' 'Aw' 'Ci' 'e11' 'p11' 'Ria'],3327.27033883161,1.1185074341679808
chicago_control_concrete_inf_schedFalse_job174,83.56350369010559,56.298208821696804,1411.94858186055,196.5653505225016,2528475.555764104,89.97395697914656,90.83598568964646,142.096715022423,0.781926538544725,"[ 16.63255744   3.30944645   0.78192654 -25.95478279  -2.14423627
   7.03746037]",[0.         0.         0.         0.85039294 0.         0.        ],['Ti0' 'Aw' 'Ci' 'e11' 'p11' 'Ria'],3319.17713141764,1.2481676787350011
chicago_control_concrete_inf_schedFalse_job102,60.341709812851754,44.53674557979521,1410.9078981936973,193.33679763238902,2598853.8189760903,89.97395697914656,90.856822338696,130.684280155546,0.81464648283014,"[ 16.8275075    3.42429749   0.81464648 -25.90267649  -2.11810062
   7.65202975]",[0.         0.         0.         0.92047815 0.         0.        ],['Ti0' 'Aw' 'Ci' 'e11' 'p11' 'Ria'],3274.30278216414,1.3878502359000038
chicago_control_concrete_inf_schedFalse_job148,73.67060092896384,51.54867996505708,1411.4416911580372,195.43817178807308,2580848.5559886275,89.97395697914656,90.81883212709894,138.09588500480498,0.7757500532413051,"[ 16.65940662   3.38693445   0.77575005 -25.92394044  -2.12998627
   7.24134539]",[0.         0.         0.         0.91515158 0.         0.        ],['Ti0' 'Aw' 'Ci' 'e11' 'p11' 'Ria'],3294.97273586653,1.2527207998899996
chicago_control_concrete_inf_schedFalse_job103,76.7421740863022,53.026917414038664,1411.9284406885981,195.3334452102253,2597623.514262208,89.97395697914656,90.81362161273312,139.833432537378,0.7903160821978991,"[ 16.64906247   3.35868349   0.79031608 -25.96703187  -2.15157086
   7.15136561]",[0.         0.         0.         0.49743444 0.         0.        ],['Ti0' 'Aw' 'Ci' 'e11' 'p11' 'Ria'],3328.1751121981897,1.2179864366499942
chicago_control_concrete_inf_schedFalse_job126,55.45517708568315,41.783544304336814,1410.4325891954718,192.63060918241024,2609219.3522845698,89.97395697914656,90.87179907155964,127.271149958185,0.8136354609167621,"[ 16.90101858   3.42856843   0.81363546 -25.8765626   -2.10382874
   7.85724023]",[0.         0.         0.         0.27950816 0.         0.        ],['Ti0' 'Aw' 'Ci' 'e11' 'p11' 'Ria'],3249.19675159899,1.3733955618569809
chicago_control_concrete_inf_schedFalse_job115,57.13380273876467,42.77066764720672,1410.4787447305364,193.4701133795511,2562521.5600256664,89.97395697914656,90.85845936853262,129.01291036148,0.796396089193673,"[ 16.81526869   3.4784716    0.79639609 -25.84019439  -2.08373556
   7.75116225]",[0.         0.         0.         0.66781267 0.         0.        ],['Ti0' 'Aw' 'Ci' 'e11' 'p11' 'Ria'],3217.07217362898,1.3386883989639955
chicago_control_concrete_inf_schedFalse_job139,61.608385636989006,45.19107958448789,1410.6901810461627,192.75876943599792,2584197.4186468325,89.97395697914656,90.87829769305392,129.551418863453,0.8090984438664609,"[ 16.83750598   3.39391058   0.80909844 -25.88697183  -2.11101135
   7.71894286]",[0.         0.         0.         0.06783352 0.         0.        ],['Ti0' 'Aw' 'Ci' 'e11' 'p11' 'Ria'],3262.4656763574894,1.3073486178739984
chicago_control_concrete_inf_schedFalse_job200,73.46122978778979,51.43941235765744,1411.6950360925775,195.3370862934716,2608912.2529187924,89.97395697914656,90.8142029108701,139.180500703197,0.7874545545621179,"[ 16.64635259   3.37930803   0.78745455 -25.95756212  -2.14720732
   7.18491452]",[0.         0.         0.         0.91226399 0.         0.        ],['Ti0' 'Aw' 'Ci' 'e11' 'p11' 'Ria'],3321.7230065426697,1.1888048637999873
chicago_control_concrete_inf_schedFalse_job178,59.51645895556818,44.032873573175294,1410.8181283079057,192.3290782674678,2595948.6919521224,89.97395697914656,90.87492098200701,128.625458577492,0.8132958435986669,"[ 16.86905947   3.37852946   0.81329584 -25.89817811  -2.11593312
   7.77451067]",[0.         0.         0.         0.95675254 0.         0.        ],['Ti0' 'Aw' 'Ci' 'e11' 'p11' 'Ria'],3268.8708084713503,1.274697792874008
chicago_control_concrete_inf_schedFalse_job83,74.1974098241822,51.67672175635059,1411.9646376882931,193.60033758844645,2564781.4202515106,89.97395697914656,90.8371117454704,136.42842237226802,0.771690195421967,"[ 16.70504572   3.24330741   0.7716902  -25.92386552  -2.12883894
   7.32985094]",[0.        0.        0.        0.8999018 0.        0.       ],['Ti0' 'Aw' 'Ci' 'e11' 'p11' 'Ria'],3288.31199997098,1.2443907285779972
