fname,c_tot,hlc_inf_standard,hlc_inf_current,hlc_tot_pred,c_tot_pred,estimates,probt,names,loglik,err
victoria_control_concrete_inf_schedFalse_job1,2575973.3703618953,90.12179430565158,91.05480963614626,9.32822346743197,"(0.8596298220574151, 1.43042220986099)","[ 18.13270804  17.46045696   4.4628253    1.43042221   0.85962982
 -12.31308938  -3.60531997  -0.46514346  99.05165738   7.34215961
   0.80773146]","[0.00000000e+00 0.00000000e+00 2.59413483e-07 7.88216752e-03
 8.35262970e-10 0.00000000e+00 0.00000000e+00 2.05967024e-03
 0.00000000e+00 0.00000000e+00 1.38221518e-06]",['Ti0' 'Te0' 'Aw' 'Ce' 'Ci' 'e11' 'p11' 'p22' 'Rea' 'Ria' 'Rie'],3773.1842157407,0.7657254855931299
