fname,c_tot,hlc_inf_standard,hlc_inf_current,hlc_tot_pred,c_tot_pred,estimates,probt,names,loglik,err
victoria_control_concrete_inf_schedFalse_job1,2575973.3703618953,90.12179430565158,91.05480963614626,9.32745846971859,"(0.862772268474852, 1.8695379228220201)","[ 18.1329775   17.60058539   5.03596935   1.86953792   0.86277227
 -22.89117079  -3.33680192  -0.57409616  99.31484226   7.24600555
   0.64949285]","[0.00000000e+00 0.00000000e+00 6.63273880e-11 4.24727417e-04
 0.00000000e+00 0.00000000e+00 0.00000000e+00 2.37919462e-10
 0.00000000e+00 0.00000000e+00 4.02422540e-11]",['Ti0' 'Te0' 'Aw' 'Ce' 'Ci' 'e11' 'p11' 'p22' 'Rea' 'Ria' 'Rie'],7780.57576375991,0.6391878045003594
