envelope_hlc,envelope_hlc_pred
58.050755,57.509769439697266
45.75348,45.42464065551758
41.875305,41.47300720214844
44.123188,43.93925476074219
56.68599,56.049346923828125
44.36978,44.167354583740234
43.95346,43.70775604248047
45.131714,44.83393096923828
51.61211,51.50423812866211
57.295074,56.83724594116211
45.814583,45.51948165893555
53.102184,52.7306022644043
55.538776,54.262237548828125
53.56246,52.1218376159668
51.965458,51.56949996948242
52.182358,50.793617248535156
50.802315,49.59665298461914
52.24176,51.59632110595703
47.105736,46.5671501159668
46.56418,46.29890441894531
46.99262,46.609535217285156
47.50171,46.01498031616211
43.07751,42.1220703125
42.65494,42.22478485107422
44.707966,43.971614837646484
44.111465,43.69524002075195
48.366413,47.963958740234375
46.082184,45.811954498291016
48.435837,48.21999740600586
53.484554,53.12430953979492
44.132534,43.309295654296875
45.268265,44.79109191894531
48.13916,47.77411651611328
58.745373,57.87394332885742
57.64626,57.2233772277832
50.677338,50.09916305541992
51.77617,50.32278823852539
42.907623,42.72430419921875
50.34547,49.34589767456055
46.90066,46.59894943237305
46.79914,45.738685607910156
50.257484,49.684635162353516
63.627262,62.508140563964844
59.237602,58.156288146972656
57.293,56.47636032104492
44.66923,44.29420471191406
48.11422,47.742271423339844
59.302055,57.77027130126953
55.827744,54.848655700683594
45.707504,44.61874771118164
50.851402,50.59577941894531
59.40952,57.88875198364258
55.245853,54.47237777709961
60.33802,59.03752136230469
42.33056,41.89513397216797
50.81983,49.79794692993164
48.175762,47.49882125854492
51.557014,50.658660888671875
41.900772,41.60548782348633
42.751553,42.39539337158203
53.13234,52.40840530395508
47.01353,46.540374755859375
51.29129,50.502159118652344
53.711147,53.48196792602539
53.981857,52.61013412475586
45.590454,45.23038864135742
47.360695,47.08701705932617
42.10899,41.76725387573242
51.66757,50.321353912353516
40.645,40.36634826660156
48.112556,47.74480438232422
43.422108,42.86209487915039
55.102997,53.9427375793457
50.752632,50.0697021484375
48.506134,47.57086944580078
61.354206,60.54484176635742
42.87187,42.401424407958984
45.973953,45.86175537109375
44.815533,44.139278411865234
43.10933,42.767120361328125
51.899345,51.53658676147461
39.97196,39.55587387084961
43.485664,42.54819869995117
49.764793,49.45243453979492
48.63628,48.27874755859375
42.51213,41.846168518066406
54.928474,54.14672088623047
42.30377,41.81527328491211
45.962788,45.17911911010742
53.892075,53.5231819152832
47.84708,46.82133102416992
49.955215,49.557647705078125
60.073788,59.32765197753906
43.75426,42.894622802734375
48.48201,47.72575378417969
48.8667,48.32882308959961
57.403866,56.50297164916992
40.94936,40.767852783203125
60.145905,59.053199768066406
62.889664,62.236515045166016
45.32711,44.945865631103516
43.70505,43.18553161621094
51.748684,51.47933578491211
51.02959,49.46714401245117
54.77706,53.171836853027344
53.552353,53.20000457763672
57.25726,56.35019302368164
43.492344,42.842071533203125
53.018673,52.56568908691406
41.04514,40.76640319824219
41.47194,41.12064743041992
47.060047,46.19800567626953
54.685436,54.04821014404297
49.339455,49.15977478027344
52.654564,52.08896255493164
45.517685,44.64131164550781
52.288,51.695125579833984
43.967823,43.5089225769043
49.658367,49.317142486572266
48.100063,46.67866897583008
46.615944,45.75218200683594
51.2162,50.03917694091797
44.8707,43.8486328125
50.045338,49.011539459228516
57.34214,56.03401565551758
54.65747,54.10245132446289
48.818424,48.34215545654297
55.378998,54.992706298828125
61.177757,60.16719055175781
50.89945,49.78517150878906
52.48084,52.216453552246094
47.683987,47.21783447265625
47.506435,47.13932800292969
42.71647,42.54404830932617
45.66188,45.32969665527344
42.85911,42.54819869995117
56.372364,55.357452392578125
47.722073,47.68754959106445
51.20736,50.90095520019531
52.95977,52.83646011352539
53.401627,53.084712982177734
45.996452,45.59091567993164
53.114918,51.85317611694336
51.410885,50.94469451904297
42.83871,42.340389251708984
49.5066,48.19833755493164
54.359238,54.16066360473633
50.86522,49.43172836303711
54.05818,52.84748458862305
42.81023,42.561763763427734
59.66039,58.914363861083984
46.998238,46.67795944213867
49.45391,48.98693084716797
53.648746,53.18772888183594
46.712166,46.50978469848633
55.28253,54.453617095947266
47.647682,46.48208236694336
42.47817,42.171566009521484
45.216072,44.2794075012207
51.331245,50.830440521240234
62.934834,62.35668182373047
43.158054,42.43556594848633
42.420765,41.77865982055664
45.10726,44.241233825683594
40.86362,40.545372009277344
59.182953,58.53273010253906
49.084576,49.009742736816406
56.843628,56.40642547607422
48.369522,47.8825569152832
45.611286,44.972206115722656
48.361958,47.98354721069336
48.906757,47.815460205078125
53.265575,53.02623748779297
43.91277,43.602394104003906
56.017216,55.220680236816406
53.76444,52.35686111450195
52.13094,51.79920959472656
46.421345,46.097373962402344
53.484608,52.02049255371094
48.19099,47.86611557006836
53.632732,53.21114730834961
