envelope_hlc,envelope_hlc_pred
49.752216,48.81087112426758
41.613533,41.65174102783203
43.596874,43.1279182434082
48.445957,47.843589782714844
53.333992,52.18757247924805
42.012333,41.23772430419922
44.33396,43.81732940673828
51.80981,51.4716911315918
41.697308,42.37870788574219
49.158817,47.498291015625
44.479862,44.27772903442383
55.18147,54.61897659301758
47.965786,46.9969482421875
44.658855,43.78500747680664
45.618183,45.24906921386719
56.582226,55.47002029418945
44.354015,44.104129791259766
46.274357,45.71002960205078
45.211918,44.70317077636719
57.783653,57.794803619384766
53.122456,52.097877502441406
46.97388,46.035762786865234
40.42266,39.76913833618164
40.80346,40.50315475463867
51.451763,51.05506134033203
55.24111,54.46034240722656
44.800858,44.44350051879883
54.700172,53.652103424072266
55.50899,55.31781768798828
60.232986,59.78632354736328
46.918232,46.53352737426758
44.018356,44.115272521972656
56.95479,55.89647674560547
45.337177,45.08534240722656
42.513866,41.93231201171875
46.720005,46.32127380371094
46.42822,45.59429168701172
60.34254,60.096126556396484
54.046955,53.90891647338867
57.88553,57.38945388793945
46.716923,46.390960693359375
47.830902,47.24581527709961
46.68315,45.820194244384766
50.11229,48.34088134765625
61.032856,60.23651885986328
51.609924,51.307796478271484
51.58489,51.38468551635742
49.25519,48.508262634277344
46.265827,45.07798767089844
47.63255,48.13167953491211
49.609966,48.00061798095703
42.342808,42.008949279785156
45.634613,45.312862396240234
45.64201,45.066017150878906
41.764614,42.569847106933594
42.738583,42.5518913269043
48.0949,47.45090103149414
51.899006,50.75464630126953
51.71235,51.48876953125
55.277985,53.92111587524414
44.31723,43.56206130981445
51.2201,50.90587615966797
42.957333,42.68657684326172
52.185696,50.959171295166016
43.419804,42.79798126220703
44.681683,44.34212112426758
40.817135,40.761837005615234
49.850197,49.585227966308594
53.33022,52.74488067626953
52.793575,52.378662109375
42.929462,42.16557312011719
47.129986,46.27580642700195
52.963985,52.20787811279297
51.80163,50.789283752441406
55.92767,55.617881774902344
49.748116,48.62521743774414
53.42174,52.558433532714844
41.787502,40.9218864440918
54.43441,52.159698486328125
42.733612,42.47254180908203
49.949413,49.68185806274414
55.221523,54.47945022583008
41.252308,41.20643615722656
39.822388,39.31388473510742
53.827187,52.45392608642578
42.80031,42.85476303100586
47.468533,46.416961669921875
41.961884,41.56362533569336
47.36142,47.516090393066406
52.856197,51.571128845214844
47.086857,46.131317138671875
43.867023,43.161956787109375
45.515305,44.70273208618164
42.256687,42.10437774658203
52.16374,50.6422119140625
43.68205,43.12054443359375
51.168434,50.55916213989258
49.028717,48.21571731567383
50.457676,49.183372497558594
48.662697,48.464813232421875
57.127483,55.369388580322266
45.663464,44.452484130859375
47.09274,45.85202407836914
46.671284,46.37355422973633
41.7168,41.53558349609375
41.222157,41.09442138671875
46.888924,46.79601287841797
46.10729,45.42097854614258
42.90028,42.400142669677734
49.291878,48.248512268066406
53.56148,52.45147705078125
43.44565,41.86186981201172
50.93207,50.89750671386719
56.914745,56.555419921875
46.294598,46.212257385253906
51.341797,51.24751281738281
46.77609,45.55253982543945
43.99735,42.857730865478516
49.2948,47.428565979003906
49.517418,49.758907318115234
44.625244,44.2777099609375
44.007183,44.02167892456055
42.58115,41.702545166015625
44.236443,43.3779296875
47.973362,47.087825775146484
50.042183,49.85684585571289
41.36607,40.936195373535156
41.288593,41.12446594238281
51.35012,50.90674591064453
52.44083,52.39691925048828
43.150806,42.964988708496094
51.730083,50.45787811279297
58.88891,58.36792755126953
45.292927,44.310665130615234
39.64017,39.96592712402344
39.940647,40.19192123413086
52.80026,52.40766525268555
49.65831,48.81080627441406
51.366558,50.18037414550781
40.030132,39.90241622924805
45.078915,44.90290069580078
46.892258,46.87862777709961
51.66535,50.46070098876953
44.382576,43.14632034301758
50.463673,50.31641387939453
48.16244,48.3769416809082
52.06363,51.41161346435547
41.952305,41.097991943359375
51.89387,51.80604553222656
49.097565,48.330238342285156
39.025738,39.12881851196289
47.276085,47.26266860961914
46.691864,46.184505462646484
41.642277,41.50148391723633
50.26784,50.42429733276367
48.525375,47.36412811279297
50.549923,50.26972961425781
54.80276,54.208431243896484
44.464825,44.59177017211914
45.44395,44.29528045654297
55.178623,53.87531661987305
46.11286,45.07344436645508
41.731995,41.09815979003906
43.886375,43.644779205322266
50.021793,48.29193115234375
41.38326,39.974910736083984
41.006706,40.71873092651367
57.921623,57.35610580444336
45.94746,45.97023391723633
57.044857,55.38017272949219
48.663273,48.58940124511719
50.567207,50.14944076538086
42.346977,41.19441223144531
58.69413,57.50613784790039
57.33966,56.91648864746094
50.76652,50.37187194824219
49.25127,48.25618362426758
45.751537,45.036075592041016
41.534096,40.588619232177734
