envelope_umat,envelope_umat_pred
54.746727,56.599220275878906
54.447845,56.216224670410156
73.00063,74.09371185302734
62.624718,62.70808029174805
87.63047,87.7481689453125
62.812073,62.56268310546875
58.80532,60.19615173339844
60.855095,62.46216583251953
81.17776,82.69633483886719
81.89511,83.30027770996094
66.55452,66.09420013427734
59.654503,58.68629455566406
65.74827,65.22289276123047
76.91705,77.65133666992188
77.404724,75.46916198730469
73.46123,73.43821716308594
87.460304,87.5119400024414
69.96032,70.97744750976562
69.58144,70.52247619628906
57.19841,56.90510177612305
63.36024,64.45861053466797
70.6208,72.44676208496094
65.275955,64.68714141845703
57.628895,58.30679702758789
69.74721,69.98946380615234
75.031235,74.07776641845703
68.56456,68.96348571777344
63.826492,65.09869384765625
86.52788,86.45088958740234
63.61971,63.703433990478516
60.15738,60.2277946472168
76.5759,76.35016632080078
61.608387,61.3298225402832
66.7834,67.43785095214844
76.92393,76.68817901611328
85.00555,83.51036834716797
74.57013,75.50912475585938
51.884624,54.8761100769043
85.9702,85.49964141845703
73.158966,74.01543426513672
80.79248,80.96788024902344
54.821953,55.50050354003906
82.15041,83.27124786376953
62.302876,63.643760681152344
64.66811,66.35082244873047
55.30416,56.5275993347168
76.74217,75.60645294189453
71.08246,68.91138458251953
91.8475,92.47343444824219
56.66582,57.100975036621094
60.34399,60.418792724609375
59.497395,60.648048400878906
74.19741,72.06537628173828
74.51734,74.2430191040039
87.08841,86.59122467041016
64.902336,66.34302520751953
82.378265,82.42778778076172
78.03377,79.3988037109375
76.35539,76.2846450805664
61.333286,63.52758026123047
71.76372,72.23011779785156
62.306095,63.827274322509766
67.57417,68.21163940429688
62.036243,62.29887390136719
63.878586,63.95011901855469
84.834175,84.1453857421875
55.513195,59.049560546875
62.39029,63.82612609863281
57.350723,59.24872589111328
67.18553,68.14765167236328
75.989,76.32901763916016
55.455177,56.84009552001953
67.45269,68.49078369140625
66.57087,67.38282012939453
65.20973,65.10066986083984
55.292103,56.249305725097656
72.90725,74.29420471191406
74.3646,73.3333740234375
84.85366,82.84720611572266
57.43992,59.48130416870117
52.42414,53.98542022705078
55.717113,56.40148162841797
85.44691,86.33260345458984
73.6706,72.51559448242188
54.706512,55.872352600097656
59.47163,61.59573745727539
71.2866,73.64717864990234
58.463123,59.329437255859375
56.812996,56.40882873535156
69.28725,67.99575805664062
83.56351,83.27677917480469
55.33387,55.73268127441406
58.246895,57.638980865478516
64.82228,66.11309814453125
69.48706,69.47906494140625
59.084686,59.88750076293945
64.258095,65.583251953125
70.81566,70.2104263305664
76.34432,75.22554779052734
70.80523,71.65330505371094
71.335396,71.27803802490234
52.81299,54.16157531738281
74.33968,74.86486053466797
65.33364,66.13368225097656
57.561268,57.72535705566406
85.28808,86.03595733642578
73.34529,73.71017456054688
72.483345,71.19719696044922
60.10773,59.94403839111328
64.64994,65.06886291503906
72.27369,72.87066650390625
57.11415,57.5543327331543
61.21752,62.286415100097656
54.079967,55.45058059692383
70.3316,70.85050201416016
60.884525,62.64503860473633
69.693,68.58052062988281
59.85487,61.5850715637207
65.775375,67.09921264648438
77.93614,77.1026840209961
69.05809,69.70687866210938
62.444695,63.860260009765625
67.19923,68.68633270263672
53.15365,54.02235794067383
70.79844,71.2511978149414
91.093895,89.92279052734375
64.36765,64.96597290039062
80.04478,78.8599853515625
63.95631,64.20052337646484
81.07514,79.03609466552734
73.26164,73.6197738647461
51.016453,51.77653121948242
63.585514,64.76258087158203
55.93416,56.94563293457031
64.50318,65.30120086669922
72.78509,72.81829833984375
56.343678,58.316524505615234
64.99758,67.95770263671875
52.2886,52.76935958862305
60.302124,60.788448333740234
77.645706,76.15870666503906
80.39624,78.56561279296875
57.133804,58.82035827636719
63.755173,64.95581817626953
54.684532,55.81664276123047
67.06513,67.33091735839844
70.164635,70.82002258300781
69.090164,67.62613677978516
70.61091,71.78739929199219
59.225697,61.299949645996094
57.899883,58.46602249145508
69.826035,69.14399719238281
59.51646,59.95475387573242
73.52729,73.50959014892578
67.19911,69.4187240600586
91.12426,90.72571563720703
60.104145,63.14884567260742
57.79054,60.38596725463867
64.85277,66.28247833251953
56.057693,56.661216735839844
64.74942,65.05216217041016
55.3042,58.09233474731445
71.19601,70.98704528808594
66.34217,67.9556884765625
60.34171,61.71419906616211
75.39693,76.67111206054688
75.07428,73.02983856201172
55.355,57.03618240356445
65.2295,66.46403503417969
61.89461,63.894744873046875
78.113815,78.45097351074219
73.89628,75.23973846435547
53.931248,56.04106521606445
60.50068,62.02877426147461
71.267944,70.09101867675781
55.136803,56.5085563659668
55.98149,56.63027572631836
60.468384,61.14979553222656
81.52892,81.5450668334961
69.98556,68.3146743774414
74.87731,75.12024688720703
