envelope_umat,envelope_umat_pred
57.417164,56.61717224121094
70.286674,69.07791900634766
74.29683,70.74551391601562
69.99527,66.97137451171875
84.8458,81.45968627929688
64.90808,63.31169128417969
60.807594,59.93948745727539
66.86698,64.96236419677734
55.26719,55.44268035888672
60.331444,59.05699920654297
93.00335,90.06598663330078
61.7481,60.240360260009766
66.61022,65.64119720458984
67.10037,66.0472640991211
70.68909,70.15796661376953
64.77658,62.173439025878906
76.1652,75.94686889648438
77.961365,76.65895080566406
56.622963,56.139625549316406
68.664375,67.23432159423828
55.49419,55.01502990722656
64.329865,63.67904281616211
79.9168,77.93000030517578
81.36383,81.18833923339844
64.32007,62.692626953125
67.16375,67.0602035522461
80.37572,77.59565734863281
67.651665,67.5465316772461
84.91886,81.80238342285156
63.87302,64.4759521484375
81.05092,79.21002960205078
71.29433,70.91893005371094
57.50048,56.591461181640625
65.125946,64.08061218261719
59.994656,58.50102233886719
81.45826,79.58963012695312
63.665806,63.70679473876953
54.012135,53.71092224121094
79.06316,76.76171112060547
55.91224,55.12748336791992
82.22221,80.4871597290039
74.44455,70.97425079345703
70.28179,70.05868530273438
69.75871,66.82778930664062
76.249435,72.88167572021484
70.94228,67.98639678955078
55.209793,55.36143112182617
68.89302,67.0247573852539
64.77426,63.71705627441406
72.78818,71.52703094482422
59.286606,58.97023391723633
62.479855,61.37099075317383
87.58313,85.93516540527344
69.7861,68.94290161132812
58.591057,57.187599182128906
71.32435,68.72008514404297
61.7142,61.038394927978516
67.239914,64.48533630371094
74.81958,72.6811294555664
69.323654,66.25641632080078
54.722614,53.71712875366211
69.12592,67.76781463623047
73.52603,73.4749984741211
74.11477,72.28560638427734
59.728977,59.135494232177734
73.361305,72.03539276123047
83.599495,81.82600402832031
57.74552,55.69987869262695
54.847996,53.96272277832031
74.21993,71.7186508178711
52.44684,51.18184280395508
76.765785,74.1202163696289
55.516403,55.401058197021484
65.31814,63.61505889892578
69.604294,65.58734130859375
76.92523,74.72205352783203
59.476967,58.25069046020508
78.05229,74.19808959960938
68.140724,66.76031494140625
66.6182,67.36474609375
84.702354,82.56523895263672
50.969276,49.787662506103516
62.59798,60.335811614990234
58.339558,55.97666931152344
62.09771,58.976776123046875
52.65569,52.49578094482422
75.28601,74.539794921875
64.338005,63.873504638671875
59.22354,57.49047088623047
72.94935,69.73751831054688
70.76262,68.77615356445312
53.271263,53.119041442871094
72.25856,69.30721282958984
79.88961,76.3297348022461
56.715336,54.03771209716797
77.49824,75.0428237915039
51.93655,52.05792236328125
64.62152,62.31809997558594
67.609344,66.531982421875
54.370987,53.72660446166992
76.66007,74.3367919921875
60.180378,58.46543884277344
57.11615,56.280418395996094
58.83215,57.27781295776367
53.983086,53.11886215209961
59.619774,56.276100158691406
55.386993,54.44287872314453
63.163628,63.2019157409668
72.976166,69.5828628540039
69.74487,66.57539367675781
55.333183,54.81399917602539
54.861275,54.28670120239258
59.062626,58.09971237182617
84.74809,82.89412689208984
62.2602,61.16554260253906
64.56926,64.2104721069336
90.99385,89.38545227050781
80.6522,79.37407684326172
86.42648,84.18732452392578
66.3347,63.74691390991211
71.34979,68.51971435546875
62.619286,60.82554626464844
64.89907,64.24486541748047
85.56182,83.95757293701172
71.05797,69.26590728759766
60.719856,59.6776237487793
73.38546,73.04408264160156
60.323658,60.26538848876953
57.93667,56.911781311035156
87.51878,84.69483947753906
73.158775,72.29378509521484
63.543755,63.51862716674805
86.46469,84.14794921875
57.20513,55.876346588134766
55.948326,55.018123626708984
60.254124,59.87876892089844
77.363266,74.36336517333984
74.96319,72.00066375732422
62.318016,62.207210540771484
54.91949,53.33823013305664
62.93589,61.64373779296875
73.22386,72.21220397949219
80.54091,78.06947326660156
63.741837,61.5020751953125
91.457504,88.06678009033203
74.55016,72.69252014160156
59.868366,60.01466369628906
57.706066,56.830081939697266
55.41638,56.07512664794922
61.227703,59.70542526245117
64.55198,64.43843078613281
60.329224,58.81613540649414
71.18511,70.35801696777344
71.018906,70.07565307617188
69.49047,67.72484588623047
64.69413,63.177276611328125
55.991875,55.234886169433594
64.834526,64.59232330322266
61.446404,62.351959228515625
54.65904,54.03262710571289
73.68599,72.26893615722656
73.63007,70.76832580566406
56.428135,56.107078552246094
76.79016,74.86192321777344
71.77154,69.86673736572266
59.307884,57.575294494628906
65.83213,65.27644348144531
52.355103,51.386722564697266
57.021675,55.48318862915039
55.616753,55.363643646240234
86.13865,84.018798828125
76.48696,76.07330322265625
63.821987,62.48384094238281
69.57757,69.28764343261719
60.508244,58.539649963378906
62.229496,61.396602630615234
65.68362,63.0699577331543
57.12011,57.55240249633789
73.0444,71.25762939453125
75.11073,72.16008758544922
67.765335,66.03607940673828
