envelope_umat,envelope_umat_pred
77.93614,75.50572967529297
55.136803,53.82273483276367
71.76372,70.81580352783203
77.404724,73.94658660888672
57.899883,57.57803726196289
62.812073,61.50840759277344
74.3646,71.46430969238281
60.50068,60.06993865966797
69.48706,68.52661895751953
57.561268,55.83298110961914
55.33387,53.70886993408203
80.79248,79.21495819091797
65.33364,64.33667755126953
52.42414,51.03462219238281
60.34399,60.475589752197266
64.902336,63.207061767578125
62.444695,60.999534606933594
59.47163,58.54662322998047
69.693,66.68541717529297
85.9702,84.59423828125
75.989,75.41107177734375
87.63047,85.97196960449219
80.04478,76.39550018310547
54.746727,52.99725341796875
63.826492,62.86587905883789
70.3316,69.16998291015625
70.164635,68.04510498046875
76.74217,74.5627212524414
72.90725,72.8480453491211
86.52788,83.6229019165039
71.08246,68.72117614746094
55.455177,54.09317398071289
63.61971,61.96121597290039
55.355,55.046199798583984
78.113815,75.3408203125
75.07428,71.26252746582031
60.302124,58.33435821533203
67.19923,65.89430236816406
63.878586,61.39312744140625
57.628895,56.511817932128906
74.33968,73.38104248046875
54.447845,53.92194747924805
85.44691,84.21241760253906
57.79054,57.801483154296875
60.34171,59.73347854614258
87.460304,84.9432373046875
76.35539,75.38111877441406
70.6208,71.23192596435547
73.26164,72.15573120117188
56.343678,56.771202087402344
67.57417,66.8380126953125
73.6706,72.74288177490234
57.133804,57.00592803955078
57.11415,55.494571685791016
69.58144,68.89942932128906
55.292103,54.3863639831543
58.80532,57.96603775024414
55.717113,54.426700592041016
67.06513,65.05889129638672
64.66811,65.31080627441406
76.5759,74.97805786132812
82.378265,79.6629409790039
85.00555,80.98320770263672
62.302876,61.564083099365234
64.36765,63.9484748840332
85.28808,83.72341918945312
74.51734,73.29237365722656
59.497395,58.503761291503906
63.95631,62.13114929199219
70.61091,69.30109405517578
65.2295,65.13694763183594
53.15365,51.89286804199219
52.81299,51.78428268432617
55.98149,54.795867919921875
70.80523,69.50747680664062
64.258095,63.38451385498047
83.56351,81.34639739990234
81.52892,79.4576187133789
91.093895,87.85083770751953
51.884624,52.524803161621094
87.08841,84.59907531738281
59.51646,57.632144927978516
80.39624,77.42049407958984
54.706512,53.8690299987793
58.463123,58.1700325012207
63.755173,62.68373489379883
65.74827,63.35554885864258
72.483345,70.00482940673828
69.96032,68.24917602539062
84.834175,82.850830078125
74.19741,71.67523956298828
57.350723,55.86863708496094
61.89461,61.39023208618164
91.8475,88.40348052978516
65.775375,64.33099365234375
69.74721,66.43502807617188
74.87731,73.05023193359375
75.39693,73.70278930664062
61.21752,60.84687423706055
76.92393,74.83223724365234
76.34432,74.66143035888672
73.34529,72.46992492675781
54.684532,53.53904342651367
55.3042,55.41741943359375
55.93416,54.230873107910156
63.36024,63.584774017333984
81.89511,80.8991470336914
64.85277,64.045654296875
60.884525,60.466434478759766
65.20973,62.97052001953125
77.645706,73.95736694335938
69.826035,66.5401611328125
62.306095,62.34611892700195
75.031235,72.66119384765625
82.15041,81.20646667480469
70.81566,69.1832504272461
66.34217,65.29944610595703
62.39029,60.378501892089844
56.812996,54.7388916015625
73.89628,72.53558349609375
69.090164,66.40348815917969
60.15738,58.5667610168457
58.246895,56.31431198120117
65.275955,63.22254180908203
71.267944,68.16175079345703
55.30416,54.497161865234375
64.82228,63.271888732910156
68.56456,67.62431335449219
66.57087,65.62538146972656
78.03377,76.6332778930664
71.2866,70.17061614990234
60.855095,59.71834182739258
72.78509,71.43284606933594
69.05809,68.8853988647461
74.57013,74.13082122802734
59.85487,59.61601638793945
84.85366,82.20687103271484
69.28725,67.95118713378906
51.016453,50.9649772644043
60.104145,61.15755081176758
73.46123,72.82406616210938
62.624718,60.116943359375
60.10773,59.19715881347656
81.17776,78.44683074951172
64.64994,64.35242462158203
67.18553,66.18881225585938
62.036243,59.95511245727539
59.654503,56.95942306518555
57.43992,57.01786804199219
67.45269,66.5325698852539
57.19841,56.08534240722656
73.00063,71.87421417236328
64.74942,62.544437408447266
61.608387,59.73986053466797
91.12426,89.41569519042969
55.513195,55.17292785644531
56.057693,55.520957946777344
66.55452,65.04576110839844
53.931248,53.27888107299805
72.27369,70.63264465332031
59.225697,60.16035461425781
60.468384,59.74844741821289
52.2886,51.11994934082031
67.19911,66.84556579589844
76.91705,76.83946990966797
61.333286,61.24751281738281
64.99758,64.12860107421875
81.07514,78.84555053710938
66.7834,65.55068969726562
54.079967,52.991275787353516
73.158966,70.80750274658203
56.66582,55.18541717529297
71.335396,70.01394653320312
73.52729,73.06124877929688
59.084686,57.8770751953125
64.50318,63.006385803222656
54.821953,53.23892593383789
63.585514,61.625919342041016
70.79844,69.85082244873047
