envelope_umat,envelope_umat_pred
80.39624,80.74507141113281
64.74942,63.86848449707031
74.57013,73.63031768798828
55.292103,55.76421356201172
53.15365,53.86595153808594
57.11415,56.129642486572266
73.00063,73.70205688476562
71.335396,70.07756042480469
60.10773,59.37192153930664
85.9702,86.9018783569336
59.225697,60.94620132446289
51.016453,51.53370666503906
54.706512,54.71914291381836
59.51646,57.772735595703125
73.34529,72.65847778320312
57.43992,57.11366271972656
60.15738,59.65980911254883
69.58144,70.23979187011719
59.47163,60.337242126464844
58.463123,57.79320526123047
72.90725,72.9821548461914
85.44691,84.6698226928711
69.826035,67.70223236083984
75.07428,72.87078094482422
74.3646,71.9436264038086
70.81566,70.50566864013672
64.258095,63.92829132080078
56.812996,55.52598571777344
58.80532,57.459415435791016
91.093895,87.98059844970703
60.468384,60.916046142578125
56.057693,56.26038360595703
76.34432,75.03453826904297
52.81299,54.15937805175781
60.34399,61.261539459228516
77.93614,76.39205169677734
55.513195,55.344730377197266
84.834175,82.319091796875
74.51734,75.01487731933594
63.878586,63.79952621459961
76.74217,76.1557846069336
62.036243,61.11007308959961
67.57417,68.68379974365234
52.42414,53.627315521240234
67.19923,67.66667175292969
70.80523,70.61167907714844
69.48706,68.8428955078125
66.57087,66.69637298583984
55.717113,56.04024887084961
65.74827,63.401729583740234
80.04478,79.1430892944336
69.96032,70.565185546875
61.333286,62.724021911621094
59.85487,61.22464370727539
55.93416,54.74421310424805
70.164635,69.58790588378906
84.85366,86.28740692138672
57.561268,56.05624771118164
70.61091,70.61366271972656
83.56351,81.6474838256836
81.52892,80.77320861816406
65.775375,65.88333892822266
65.33364,65.28917694091797
64.36765,64.6954345703125
59.654503,56.98250961303711
64.99758,64.54167938232422
64.66811,64.09587860107422
87.460304,86.68414306640625
57.628895,57.197227478027344
54.821953,54.00243377685547
64.82228,65.46245574951172
77.645706,76.27584075927734
55.33387,55.72395706176758
64.902336,64.21974182128906
60.302124,59.554237365722656
72.483345,71.73124694824219
63.826492,63.06298828125
87.08841,86.4716796875
69.28725,66.80277252197266
55.30416,55.01624298095703
76.35539,77.25961303710938
61.21752,61.86073303222656
74.33968,74.6531753540039
85.28808,86.52672576904297
57.19841,55.343048095703125
59.497395,60.64970397949219
60.34171,60.62165069580078
74.87731,75.41123962402344
68.56456,69.62060546875
69.090164,68.5754165649414
53.931248,53.59709930419922
73.52729,75.18875885009766
71.2866,71.66715240478516
56.343678,55.57151794433594
62.444695,63.08974075317383
69.74721,67.51774597167969
62.306095,62.59183883666992
63.95631,63.06349182128906
70.3316,70.9211654663086
57.350723,57.17063903808594
60.884525,60.68373489379883
56.66582,55.34846878051758
78.03377,77.70795440673828
75.031235,74.03385925292969
73.158966,71.50621032714844
57.899883,57.29478454589844
67.18553,66.44271087646484
59.084686,56.713623046875
91.8475,94.16836547851562
80.79248,81.45341491699219
81.89511,80.2289810180664
81.07514,78.24488067626953
67.45269,64.89434051513672
71.267944,68.66690826416016
74.19741,71.28440856933594
70.79844,70.65933227539062
73.46123,74.16304016113281
69.05809,69.6045150756836
67.06513,65.77500915527344
73.26164,73.37420654296875
63.61971,61.680992126464844
61.608387,61.4383544921875
67.19911,68.61656951904297
64.50318,64.11011505126953
69.693,66.64376068115234
60.855095,61.38935470581055
55.98149,55.80387496948242
62.39029,62.11854934692383
54.447845,54.95394515991211
76.92393,75.63826751708984
85.00555,85.8262710571289
57.133804,58.45747756958008
62.812073,62.20313262939453
73.89628,73.90065002441406
54.079967,54.41243362426758
82.15041,81.53091430664062
52.2886,51.90484619140625
55.136803,55.4752311706543
66.7834,66.26482391357422
57.79054,57.207374572753906
60.104145,60.63692855834961
78.113815,77.17534637451172
55.355,55.899784088134766
63.755173,63.97648239135742
81.17776,80.09532928466797
87.63047,85.41288757324219
54.746727,54.58894729614258
91.12426,92.0777587890625
71.08246,69.18104553222656
77.404724,76.6800765991211
75.989,76.29825592041016
60.50068,61.929595947265625
66.34217,65.61756134033203
76.91705,77.7470474243164
76.5759,75.49309539794922
65.2295,65.44014739990234
55.3042,56.279029846191406
66.55452,66.57545471191406
62.302876,61.67607116699219
55.455177,55.93741989135742
65.20973,64.68622589111328
72.78509,71.29322052001953
65.275955,64.09109497070312
71.76372,70.33370208740234
64.64994,62.853328704833984
86.52788,85.13109588623047
54.684532,55.03145980834961
63.585514,62.92828369140625
73.6706,72.88007354736328
51.884624,52.07335662841797
64.85277,65.21334838867188
58.246895,58.06662368774414
63.36024,64.12129211425781
61.89461,61.401851654052734
82.378265,81.7208251953125
72.27369,71.0885238647461
62.624718,62.05427169799805
70.6208,70.25352478027344
75.39693,76.05901336669922
