envelope_umat,envelope_umat_pred
82.378265,83.85423278808594
70.3316,71.13572692871094
63.36024,64.44216918945312
80.39624,80.02693939208984
51.884624,55.0449104309082
57.19841,56.210243225097656
76.91705,80.34066772460938
61.333286,63.80305862426758
70.80523,71.02922821044922
56.057693,57.19649887084961
64.66811,64.25316619873047
64.74942,62.757835388183594
56.66582,56.07564163208008
69.98556,66.22708129882812
87.460304,86.48197937011719
76.35539,77.02051544189453
60.15738,60.9511604309082
75.07428,71.91067504882812
81.17776,82.58103942871094
65.775375,66.26289367675781
56.812996,55.041133880615234
71.267944,68.84002685546875
67.57417,68.9908447265625
61.608387,62.726741790771484
91.093895,89.173583984375
82.15041,83.92577362060547
70.81566,72.78534698486328
69.96032,71.30987548828125
67.45269,66.87679290771484
85.00555,85.53773498535156
87.63047,86.05412292480469
60.468384,63.783355712890625
76.34432,76.19546508789062
70.6208,71.28396606445312
66.57087,66.5337142944336
87.08841,85.68760681152344
57.79054,59.063167572021484
53.15365,55.43899917602539
73.6706,74.04246520996094
61.89461,63.96474838256836
63.585514,63.94521713256836
85.44691,87.71393585205078
73.158966,72.12736511230469
71.335396,70.99427795410156
69.28725,67.4281997680664
59.85487,62.63778305053711
58.80532,59.52414321899414
60.10773,59.85164260864258
59.51646,59.5419921875
75.39693,77.57322692871094
78.113815,81.18328857421875
54.447845,55.5697135925293
55.717113,57.15748977661133
54.821953,55.21376037597656
63.878586,63.2130012512207
69.58144,71.57647705078125
60.855095,61.82520294189453
65.74827,64.40326690673828
73.89628,77.02716064453125
69.693,66.14511108398438
72.27369,71.62018585205078
73.52729,76.82538604736328
57.133804,59.176910400390625
52.81299,55.197078704833984
64.99758,66.55195617675781
55.33387,56.4583854675293
63.755173,63.52115249633789
69.48706,69.49662780761719
55.513195,56.21192932128906
62.444695,63.07425308227539
70.61091,72.28748321533203
74.57013,75.51884460449219
62.812073,62.44289016723633
69.74721,70.4749755859375
62.39029,64.3710708618164
67.19911,68.1170425415039
64.258095,63.33818435668945
71.2866,72.84869384765625
52.42414,54.61008071899414
64.64994,61.3521728515625
64.36765,66.5511703491211
57.11415,57.65068817138672
59.497395,61.98566818237305
78.03377,79.74536895751953
60.34171,62.479671478271484
69.05809,72.8564224243164
52.2886,53.552303314208984
86.52788,87.58135223388672
74.19741,71.71623992919922
73.26164,75.1943359375
59.225697,61.46049880981445
61.21752,61.96695327758789
62.624718,62.758602142333984
91.8475,93.57756042480469
81.89511,82.8333740234375
85.28808,84.96986389160156
74.87731,76.69710540771484
57.350723,59.06582260131836
80.79248,81.81906127929688
67.06513,66.7675552368164
75.989,77.602783203125
66.7834,66.76461791992188
62.302876,63.16128921508789
73.34529,72.55073547363281
77.404724,77.34848022460938
62.036243,62.344200134277344
65.33364,66.11875915527344
91.12426,92.7648696899414
67.19923,69.14636993408203
55.98149,55.06755447387695
76.5759,77.3614501953125
67.18553,67.84537506103516
59.084686,58.866085052490234
66.55452,68.29541015625
62.306095,61.89223098754883
60.104145,63.61406326293945
57.899883,60.70791244506836
68.56456,70.71995544433594
71.76372,72.29161834716797
55.136803,55.08377456665039
77.645706,77.30718231201172
65.275955,64.16764831542969
58.463123,59.556392669677734
84.85366,85.10688018798828
57.628895,59.13715744018555
70.79844,70.09764099121094
73.46123,76.01657104492188
55.93416,54.59126663208008
60.50068,62.759464263916016
69.090164,68.2729721069336
70.164635,68.67317199707031
64.902336,64.70738220214844
83.56351,83.89649963378906
54.746727,56.377681732177734
54.706512,55.79750442504883
77.93614,79.37383270263672
55.30416,57.46204376220703
54.079967,57.42068862915039
76.92393,78.49321746826172
58.246895,59.06379318237305
54.684532,55.42869567871094
85.9702,84.70413208007812
64.82228,66.58247375488281
66.34217,66.38145446777344
65.2295,67.67929077148438
76.74217,77.28738403320312
74.33968,77.23493194580078
69.826035,69.48292541503906
74.51734,76.16144561767578
55.3042,56.091209411621094
73.00063,77.2751235961914
53.931248,55.458499908447266
55.355,56.18523406982422
51.016453,52.89266586303711
74.3646,72.22797393798828
55.455177,55.569210052490234
57.43992,58.3502082824707
72.78509,70.98347473144531
55.292103,56.387451171875
75.031235,75.4261703491211
59.47163,61.13859176635742
59.654503,59.351051330566406
60.302124,60.57942199707031
80.04478,81.20978546142578
60.884525,62.5883903503418
64.50318,63.92008590698242
57.561268,59.217403411865234
65.20973,65.581787109375
64.85277,66.9116439819336
56.343678,56.06842803955078
84.834175,83.5433349609375
71.08246,68.81342315673828
60.34399,62.909156799316406
63.95631,61.446983337402344
72.483345,72.07085418701172
81.07514,80.30921936035156
63.61971,62.207332611083984
81.52892,80.62688446044922
63.826492,61.658958435058594
72.90725,73.55902862548828
