envelope_inf_hlc,envelope_inf_hlc_pred
150.51569,150.30648803710938
144.17809,143.78953552246094
140.36128,140.654296875
149.41553,148.5829620361328
133.5191,133.81004333496094
136.73619,136.01998901367188
147.77866,147.8037109375
139.24747,139.5345916748047
144.45232,144.44378662109375
136.07837,136.12911987304688
141.04663,140.85450744628906
141.05342,140.20497131347656
136.41191,136.29025268554688
143.90976,141.8009796142578
153.01364,152.43101501464844
147.3253,146.72811889648438
138.49132,137.8417510986328
146.68593,145.02113342285156
149.93044,149.8013153076172
141.66577,141.19198608398438
136.49042,135.66632080078125
144.59766,142.85467529296875
142.75584,142.59820556640625
139.3241,138.94912719726562
154.74977,154.02352905273438
150.41287,150.2640838623047
144.514,144.748046875
144.0249,144.02413940429688
142.62462,142.44325256347656
151.86237,150.5699462890625
153.06322,151.9973907470703
138.69603,138.69166564941406
147.41095,145.74746704101562
144.37183,143.88453674316406
142.17238,141.6973876953125
152.87428,151.88453674316406
137.06514,136.67404174804688
134.29892,134.40426635742188
146.04839,144.8289794921875
139.47333,139.3589324951172
140.48314,140.58621215820312
152.16068,151.86083984375
145.67151,145.33187866210938
144.77539,143.90176391601562
143.5985,142.4665069580078
138.37169,138.460693359375
137.69351,137.29876708984375
138.44795,137.85609436035156
138.10138,137.66671752929688
146.93288,146.76193237304688
148.46065,148.04501342773438
135.0904,135.16439819335938
135.8796,136.05447387695312
135.3135,135.04302978515625
140.64505,140.00181579589844
143.82729,143.73904418945312
138.93404,138.9190673828125
141.66333,141.0043182373047
146.12846,146.05618286132812
143.76651,142.09823608398438
145.21469,144.84017944335938
145.97714,145.7560272216797
136.75015,136.78892517089844
134.08705,134.345947265625
141.26581,141.40728759765625
135.62073,135.46029663085938
140.54773,140.49916076660156
143.67694,143.21067810058594
135.71437,135.53524780273438
139.84238,140.28414916992188
144.37457,144.38763427734375
146.42564,146.09080505371094
140.00365,139.39559936523438
143.90646,144.14144897460938
139.76437,139.67813110351562
142.50311,142.43789672851562
140.82663,140.72897338867188
144.7654,144.50477600097656
133.85078,133.98191833496094
141.00592,139.61712646484375
140.92848,141.04891967773438
136.67863,136.37391662597656
138.12628,138.1375274658203
148.34914,148.14227294921875
138.61917,138.62770080566406
143.63303,143.91651916503906
133.7574,133.79299926757812
152.64609,151.83392333984375
146.20575,144.66329956054688
145.79048,145.73883056640625
137.98747,138.097412109375
139.15479,139.267578125
139.89359,139.68365478515625
155.17125,155.18814086914062
150.28947,149.93218994140625
151.92847,151.72433471679688
146.62074,146.170654296875
136.84341,136.80471801757812
149.70633,149.3605499267578
142.39343,141.49984741210938
147.1657,146.6370391845703
142.23157,142.11508178710938
139.70557,139.37161254882812
145.7922,145.11026000976562
147.92174,147.17572021484375
139.58612,138.9080810546875
141.45511,141.2534942626953
154.8668,154.46788024902344
142.53923,142.79342651367188
136.02043,135.8273468017578
147.46852,146.94908142089844
142.48605,142.2678680419922
137.8224,136.74630737304688
142.1807,142.5787353515625
139.76062,139.8377227783203
138.51195,138.72291564941406
137.16592,137.2779541015625
143.25769,143.27035522460938
144.97166,144.3223419189453
135.50522,135.61868286132812
148.12,146.7901611328125
141.42346,141.06790161132812
137.48085,137.33041381835938
151.69505,150.93850708007812
137.0364,136.9510955810547
144.42975,144.0562744140625
145.9311,145.58566284179688
135.99939,135.65499877929688
138.76662,138.557373046875
143.51942,142.41995239257812
144.09756,143.2576446533203
141.17976,140.94325256347656
151.0868,150.37164306640625
135.25958,135.18057250976562
135.2485,135.5269012451172
148.23975,147.72816467285156
135.605,135.39259338378906
134.85645,134.85716247558594
147.73192,147.50096130371094
137.39172,136.97080993652344
135.23691,135.1520233154297
152.2412,151.91270446777344
141.19127,141.15438842773438
141.96269,141.65936279296875
141.44812,141.75216674804688
147.62558,146.44422912597656
146.36722,146.3938751220703
143.94307,143.74652099609375
146.40869,146.0517578125
135.62863,135.78453063964844
145.7785,146.0082244873047
134.77487,134.85401916503906
135.65866,135.73941040039062
132.96947,133.30271911621094
146.32103,145.1272430419922
135.72052,135.68206787109375
136.8847,136.55670166015625
145.44676,144.82408142089844
135.63307,135.64625549316406
146.7182,145.7549285888672
138.08803,138.11367797851562
138.14821,136.88034057617188
138.53789,137.8990020751953
149.35616,148.50604248046875
138.91412,139.0324249267578
140.93758,140.50006103515625
136.94359,136.84352111816406
141.41446,141.533203125
141.20328,141.47621154785156
136.23247,136.1187286376953
151.66728,150.25552368164062
144.55627,143.01339721679688
138.58401,138.50775146484375
140.6354,139.66180419921875
145.36867,144.5256805419922
149.83257,149.14186096191406
140.4309,139.2076416015625
149.95523,149.14120483398438
140.53493,139.7559814453125
145.59068,145.3967742919922
