envelope_inf_hlc,envelope_inf_hlc_pred
53.592983,53.99884796142578
41.515247,43.31182098388672
50.542774,52.02888488769531
53.2877,55.081398010253906
43.11201,46.043312072753906
45.74916,47.70414352416992
51.709858,53.874393463134766
44.737602,46.497493743896484
49.232086,51.64794921875
42.88869,44.496639251708984
41.64143,43.311767578125
54.95988,59.45990753173828
47.150364,49.71454620361328
39.9898,41.26879119873047
44.462826,47.82752990722656
46.91138,48.72507095336914
45.702084,47.34090042114258
43.99417,45.604896545410156
49.340305,49.59495162963867
57.273094,59.35983657836914
52.55934,55.08335494995117
58.14689,57.971614837646484
54.724518,57.30201721191406
41.298428,43.096343994140625
46.259293,48.97317123413086
49.760098,51.924949645996094
49.68277,51.41659927368164
53.0187,54.74787139892578
51.01939,51.90287780761719
57.82886,58.787601470947266
50.055134,51.06560134887695
41.77866,43.3981819152832
46.16698,47.25481414794922
41.73406,43.9281120300293
53.963444,56.74671173095703
52.13277,53.673282623291016
44.41353,47.0961799621582
48.259445,49.932945251464844
46.467663,47.06394577026367
43.014866,45.1688232421875
51.788548,55.00010299682617
41.11579,44.26430892944336
57.440174,60.03669738769531
43.005917,45.735198974609375
44.503468,45.6257438659668
58.082905,60.7109260559082
52.675446,55.160343170166016
49.946228,52.44855499267578
51.287224,53.44893264770508
42.216053,44.53901672363281
48.445347,50.36408615112305
51.5731,53.2415771484375
42.765175,44.166934967041016
42.603428,45.62266159057617
49.488693,53.36851501464844
41.728455,43.85880661010742
43.65509,45.556705474853516
41.943718,43.15696334838867
48.031338,50.13301086425781
46.76733,49.363922119140625
52.776867,53.78841018676758
55.745678,57.85441589355469
57.061424,58.19551467895508
45.497955,48.88227844238281
46.708706,49.15060043334961
56.992706,60.411808013916016
51.80258,55.45933532714844
44.02485,45.94540786743164
46.390976,48.315208435058594
49.96528,52.131591796875
47.240566,49.41263198852539
40.394306,42.35087585449219
40.186665,42.605411529541016
42.02841,43.34917068481445
49.988564,51.4746208190918
46.573185,48.8275260925293
56.298336,57.800437927246094
55.123787,56.72321319580078
59.744884,60.89889144897461
39.63848,42.310489654541016
57.96099,60.428672790527344
44.001434,45.38222122192383
54.64267,56.06907272338867
41.29416,42.93018341064453
43.368572,45.87200927734375
46.302505,48.25490188598633
47.387344,48.20457458496094
50.899097,52.04592514038086
49.642838,51.77778244018555
56.778233,59.824581146240234
51.5815,52.19258499145508
42.808807,45.69367218017578
45.2787,48.04071807861328
60.132156,61.93575668334961
47.340496,49.4020881652832
49.581497,49.84666061401367
52.077267,54.792144775390625
52.38059,54.6322021484375
45.062843,46.964839935302734
53.196434,53.038944244384766
52.857597,55.30626678466797
51.258457,54.368045806884766
41.313744,43.58286666870117
41.681725,44.958892822265625
42.049473,42.66279220581055
46.134804,47.88457107543945
55.526035,56.680240631103516
46.93807,48.488861083984375
44.764378,48.02550506591797
47.24514,48.88185501098633
53.525517,55.190608978271484
49.618805,49.324642181396484
45.643017,47.591915130615234
52.15749,54.325069427490234
55.64855,57.741127014160156
50.149944,51.748565673828125
47.64558,50.173831939697266
45.54369,47.312923431396484
42.458015,44.29583740234375
51.597576,53.75727844238281
49.12412,50.48909378051758
44.340687,44.91538619995117
43.35979,45.64999771118164
47.17503,48.641292572021484
50.076633,50.32976531982422
41.6193,43.73906707763672
46.98508,48.8577766418457
48.85062,51.389991760253906
47.927753,50.0570068359375
53.83692,56.262786865234375
50.395096,52.37942886352539
44.847305,46.97848129272461
50.89945,53.62012481689453
49.37268,51.06535339355469
51.79933,53.566036224365234
44.338684,46.52761459350586
56.797245,59.47585678100586
49.146492,51.4768180847168
39.131054,41.514774322509766
44.469948,45.560245513916016
51.43707,54.341976165771484
45.704906,47.266822814941406
44.31864,47.745243072509766
55.23948,56.257354736328125
46.723335,47.0004768371582
48.162064,49.92301559448242
45.423107,45.57020950317383
44.0437,45.87371063232422
42.841988,45.59364700317383
48.318554,49.06227493286133
42.708477,44.400787353515625
51.4075,53.606204986572266
46.782955,48.06827926635742
45.16877,46.821346282958984
59.868023,61.17472457885742
41.7273,44.81084060668945
42.092514,44.473663330078125
47.95297,49.25639724731445
40.839645,42.83597946166992
50.718525,53.43007278442383
43.97653,46.22911834716797
44.595276,46.862545013427734
39.83637,41.2064323425293
48.1707,50.71183395385742
53.175972,55.74361801147461
45.187588,48.662784576416016
47.000076,48.1672477722168
55.147804,55.774436950683594
47.88471,49.43149948120117
40.88964,43.087406158447266
51.141926,52.71479797363281
42.393333,44.794803619384766
50.374084,51.519317626953125
51.499893,53.7416877746582
43.74227,46.40521240234375
46.654118,48.073978424072266
41.31477,45.22377014160156
46.2863,48.53926467895508
49.974255,52.29816436767578
