envelope_inf_hlc,envelope_inf_hlc_pred
52.070618,55.28280258178711
43.99436,46.48564529418945
50.803925,50.53301239013672
45.76587,47.397396087646484
43.369297,43.75284194946289
47.2352,47.49338150024414
40.997227,42.84526443481445
45.413795,47.057830810546875
46.179497,47.36838150024414
55.109,57.01620864868164
46.81448,47.02149200439453
51.3329,55.276187896728516
51.326458,53.27372741699219
45.445393,47.99563980102539
42.690254,44.423179626464844
46.756283,49.22888946533203
48.10664,50.40027618408203
50.502613,51.52782440185547
45.37744,47.09117889404297
47.250896,46.82180404663086
46.54047,46.355857849121094
40.802254,42.34537124633789
42.647083,44.51691436767578
41.686264,44.63966369628906
45.30358,47.28404235839844
50.84228,52.04210662841797
54.577534,55.13017654418945
47.926968,47.735015869140625
53.161316,56.728118896484375
43.01633,44.61661148071289
52.623825,55.10953140258789
59.831425,62.940372467041016
40.642536,43.06816101074219
53.218678,54.73817825317383
45.00079,46.570980072021484
42.922462,46.20419692993164
55.31695,58.344913482666016
56.252274,57.5687255859375
45.035107,45.71574020385742
59.592876,62.0526123046875
58.8208,59.61314010620117
54.154373,55.91108703613281
45.041622,45.87581253051758
53.066986,55.49922561645508
43.11096,44.668251037597656
51.243176,53.18855285644531
42.618427,44.61222839355469
53.073486,53.88614273071289
46.770775,47.01118469238281
42.205437,45.039554595947266
48.838398,50.16009521484375
41.73146,44.46738052368164
52.35498,54.89188766479492
54.703434,57.476566314697266
47.612694,48.78970718383789
42.492138,45.47053909301758
47.662407,51.35417938232422
49.05618,52.23176574707031
52.21332,53.118953704833984
56.78695,59.234554290771484
40.4229,43.7708740234375
47.850246,49.524715423583984
48.403976,52.83030319213867
50.92744,51.47890090942383
42.85067,42.84341812133789
55.128,56.82311248779297
48.191612,51.71308135986328
41.997025,44.018096923828125
47.856205,51.906978607177734
44.728783,47.517555236816406
49.13726,49.67525100708008
43.724102,44.29458236694336
42.138973,42.947139739990234
46.307945,48.93219757080078
45.659378,49.505672454833984
48.323494,50.106815338134766
43.522923,43.399356842041016
48.38857,48.66854476928711
44.040092,47.020809173583984
41.220905,44.52539825439453
54.592335,55.601192474365234
43.28877,44.90766525268555
54.22257,54.19974899291992
42.963856,43.02313232421875
52.270317,55.01577377319336
53.852646,57.895057678222656
58.648907,60.952571868896484
44.329456,47.15797424316406
52.831715,53.501644134521484
43.74737,45.747684478759766
58.949112,61.21463394165039
53.01281,54.0168342590332
53.60599,53.778541564941406
50.840855,57.713443756103516
47.869682,49.86310577392578
53.618744,55.701194763183594
61.77121,64.94392395019531
51.355396,53.1961669921875
45.800724,48.89842224121094
46.282516,48.98836898803711
51.953213,55.659000396728516
49.478905,52.192996978759766
54.40244,56.0356559753418
51.47278,54.167240142822266
51.246525,53.09382629394531
50.940178,52.583499908447266
49.702866,51.462703704833984
52.665867,52.91011047363281
51.436325,55.60612869262695
50.749416,51.61190414428711
53.56403,55.12531661987305
55.524807,55.981719970703125
59.187603,60.41146469116211
49.472797,51.36179733276367
39.9005,41.66685485839844
51.091713,52.505191802978516
52.502094,53.54477310180664
42.523254,44.790470123291016
43.655556,44.8388557434082
62.06047,63.7456169128418
42.379257,45.0776252746582
44.34811,47.004215240478516
56.595932,61.36709213256836
49.186527,51.14345932006836
48.50624,47.945613861083984
45.545025,47.39909362792969
52.971333,55.40443801879883
56.272297,57.48598098754883
58.545746,60.18661880493164
45.519432,48.31943130493164
50.43619,50.546058654785156
48.29404,49.6205940246582
59.79007,63.48813247680664
45.930904,46.99296569824219
43.963326,44.86736297607422
47.395966,50.042564392089844
48.52957,49.93294906616211
59.721436,60.520103454589844
44.959217,46.56599807739258
56.731384,57.67084503173828
57.333202,58.26949691772461
48.06677,51.01423263549805
42.584217,46.319801330566406
56.649178,56.02734375
42.65523,46.028236389160156
46.59407,47.86249923706055
46.741043,49.30970001220703
50.608917,51.68496322631836
53.167625,55.25084686279297
52.92094,54.350528717041016
50.08988,51.87442398071289
57.24025,59.15568161010742
43.778698,46.71249008178711
58.398037,59.950443267822266
42.15806,44.61369323730469
43.807743,43.824832916259766
54.835377,56.57608413696289
53.97551,56.48518753051758
47.798824,48.800193786621094
49.202347,51.7987174987793
47.478134,50.64189529418945
49.42376,52.788875579833984
57.89605,59.738277435302734
44.96219,46.09998321533203
57.069107,59.24053192138672
44.65628,45.826202392578125
48.01307,47.587005615234375
47.376915,48.365604400634766
45.35408,46.04288864135742
61.51923,61.79049301147461
50.69388,53.05659866333008
46.13515,47.81275939941406
51.725178,52.19005584716797
42.163837,44.39962387084961
51.809814,53.21234130859375
51.411472,50.55329513549805
50.366077,52.24757766723633
49.439674,51.42979049682617
52.94968,54.30858612060547
47.381065,48.097476959228516
46.544327,48.638877868652344
