envelope_hlc,envelope_hlc_pred,md
41.465816,42.08980178833008,"[b'chicago', b'control_wood_inf', b'True', b'job144']"
53.090782,53.13679504394531,"[b'chicago', b'control_wood_inf', b'True', b'job89']"
50.130257,51.55455017089844,"[b'chicago', b'control_wood_inf', b'True', b'job176']"
46.199566,46.65013122558594,"[b'chicago', b'control_wood_inf', b'True', b'job82']"
55.209934,54.9712028503418,"[b'chicago', b'control_wood_inf', b'True', b'job3']"
46.81524,46.798309326171875,"[b'chicago', b'control_wood_inf', b'True', b'job20']"
42.700787,42.448509216308594,"[b'chicago', b'control_wood_inf', b'True', b'job10']"
45.71535,46.32952117919922,"[b'chicago', b'control_wood_inf', b'True', b'job198']"
47.268173,47.66006851196289,"[b'chicago', b'control_wood_inf', b'True', b'job18']"
40.931488,41.582237243652344,"[b'chicago', b'control_wood_inf', b'True', b'job54']"
45.328316,46.31404495239258,"[b'chicago', b'control_wood_inf', b'True', b'job42']"
54.86467,55.49385452270508,"[b'chicago', b'control_wood_inf', b'True', b'job192']"
55.93755,56.06346130371094,"[b'chicago', b'control_wood_inf', b'True', b'job79']"
57.779625,58.57156753540039,"[b'chicago', b'control_wood_inf', b'True', b'job187']"
46.40886,47.12249755859375,"[b'chicago', b'control_wood_inf', b'True', b'job57']"
53.424644,53.740238189697266,"[b'chicago', b'control_wood_inf', b'True', b'job183']"
50.461014,51.31850051879883,"[b'chicago', b'control_wood_inf', b'True', b'job118']"
41.801617,43.1303596496582,"[b'chicago', b'control_wood_inf', b'True', b'job151']"
39.107708,40.018531799316406,"[b'chicago', b'control_wood_inf', b'True', b'job31']"
51.887505,52.2956657409668,"[b'chicago', b'control_wood_inf', b'True', b'job33']"
46.960514,47.61634826660156,"[b'chicago', b'control_wood_inf', b'True', b'job96']"
41.747093,42.07320022583008,"[b'chicago', b'control_wood_inf', b'True', b'job132']"
57.122646,56.85155487060547,"[b'chicago', b'control_wood_inf', b'True', b'job196']"
44.854187,45.00659942626953,"[b'chicago', b'control_wood_inf', b'True', b'job153']"
39.946472,40.42582702636719,"[b'chicago', b'control_wood_inf', b'True', b'job123']"
43.049335,43.008663177490234,"[b'chicago', b'control_wood_inf', b'True', b'job43']"
40.9189,41.77762985229492,"[b'chicago', b'control_wood_inf', b'True', b'job68']"
47.03505,47.24343490600586,"[b'chicago', b'control_wood_inf', b'True', b'job134']"
49.861576,50.165489196777344,"[b'chicago', b'control_wood_inf', b'True', b'job81']"
54.814686,55.203025817871094,"[b'chicago', b'control_wood_inf', b'True', b'job127']"
53.397423,53.51778793334961,"[b'chicago', b'control_wood_inf', b'True', b'job22']"
55.07136,54.64785385131836,"[b'chicago', b'control_wood_inf', b'True', b'job7']"
43.982758,44.727664947509766,"[b'chicago', b'control_wood_inf', b'True', b'job104']"
50.872086,51.34354782104492,"[b'chicago', b'control_wood_inf', b'True', b'job111']"
49.708942,50.03015899658203,"[b'chicago', b'control_wood_inf', b'True', b'job71']"
41.319496,41.79075622558594,"[b'chicago', b'control_wood_inf', b'True', b'job5']"
46.385483,46.14520263671875,"[b'chicago', b'control_wood_inf', b'True', b'job195']"
53.351833,54.093849182128906,"[b'chicago', b'control_wood_inf', b'True', b'job101']"
52.01558,51.569969177246094,"[b'chicago', b'control_wood_inf', b'True', b'job167']"
41.830173,42.913490295410156,"[b'chicago', b'control_wood_inf', b'True', b'job126']"
47.34414,48.776123046875,"[b'chicago', b'control_wood_inf', b'True', b'job190']"
45.62699,46.3293342590332,"[b'chicago', b'control_wood_inf', b'True', b'job86']"
49.11111,49.47795486450195,"[b'chicago', b'control_wood_inf', b'True', b'job152']"
46.410076,47.682376861572266,"[b'chicago', b'control_wood_inf', b'True', b'job130']"
44.677864,45.34906768798828,"[b'chicago', b'control_wood_inf', b'True', b'job142']"
45.525475,45.84320831298828,"[b'chicago', b'control_wood_inf', b'True', b'job39']"
50.25569,50.16210174560547,"[b'chicago', b'control_wood_inf', b'True', b'job4']"
44.570618,45.402740478515625,"[b'chicago', b'control_wood_inf', b'True', b'job14']"
53.573765,53.62862014770508,"[b'chicago', b'control_wood_inf', b'True', b'job147']"
45.83632,45.6158561706543,"[b'chicago', b'control_wood_inf', b'True', b'job116']"
51.454468,51.884517669677734,"[b'chicago', b'control_wood_inf', b'True', b'job170']"
43.052063,44.10947036743164,"[b'chicago', b'control_wood_inf', b'True', b'job158']"
45.33977,46.116943359375,"[b'chicago', b'control_wood_inf', b'True', b'job56']"
55.550297,56.2267951965332,"[b'chicago', b'control_wood_inf', b'True', b'job106']"
51.68569,52.34562301635742,"[b'chicago', b'control_wood_inf', b'True', b'job46']"
39.738377,40.85948181152344,"[b'chicago', b'control_wood_inf', b'True', b'job23']"
41.873062,42.009857177734375,"[b'chicago', b'control_wood_inf', b'True', b'job136']"
47.499958,48.06513977050781,"[b'chicago', b'control_wood_inf', b'True', b'job44']"
55.313126,55.58039474487305,"[b'chicago', b'control_wood_inf', b'True', b'job161']"
44.12673,44.97831344604492,"[b'chicago', b'control_wood_inf', b'True', b'job124']"
51.498398,52.256160736083984,"[b'chicago', b'control_wood_inf', b'True', b'job200']"
57.04138,57.19729232788086,"[b'chicago', b'control_wood_inf', b'True', b'job129']"
46.24276,46.63290023803711,"[b'chicago', b'control_wood_inf', b'True', b'job171']"
50.648346,51.179039001464844,"[b'chicago', b'control_wood_inf', b'True', b'job108']"
49.26512,48.98338317871094,"[b'chicago', b'control_wood_inf', b'True', b'job35']"
58.62148,58.373287200927734,"[b'chicago', b'control_wood_inf', b'True', b'job87']"
48.566383,48.759586334228516,"[b'chicago', b'control_wood_inf', b'True', b'job76']"
47.953514,48.578224182128906,"[b'chicago', b'control_wood_inf', b'True', b'job125']"
44.512352,44.56666564941406,"[b'chicago', b'control_wood_inf', b'True', b'job197']"
52.16092,52.435829162597656,"[b'chicago', b'control_wood_inf', b'True', b'job99']"
47.518444,47.051639556884766,"[b'chicago', b'control_wood_inf', b'True', b'job175']"
44.09931,43.90542984008789,"[b'chicago', b'control_wood_inf', b'True', b'job150']"
52.0148,52.325965881347656,"[b'chicago', b'control_wood_inf', b'True', b'job75']"
44.40928,46.10515594482422,"[b'chicago', b'control_wood_inf', b'True', b'job131']"
42.99321,43.699222564697266,"[b'chicago', b'control_wood_inf', b'True', b'job91']"
45.380272,45.163578033447266,"[b'chicago', b'control_wood_inf', b'True', b'job139']"
50.075417,50.59656524658203,"[b'chicago', b'control_wood_inf', b'True', b'job112']"
44.357487,44.61396408081055,"[b'chicago', b'control_wood_inf', b'True', b'job199']"
51.397125,51.905128479003906,"[b'chicago', b'control_wood_inf', b'True', b'job11']"
45.743687,46.453250885009766,"[b'chicago', b'control_wood_inf', b'True', b'job135']"
41.854916,43.48626708984375,"[b'chicago', b'control_wood_inf', b'True', b'job143']"
46.04955,46.69960021972656,"[b'chicago', b'control_wood_inf', b'True', b'job156']"
42.12072,42.46358871459961,"[b'chicago', b'control_wood_inf', b'True', b'job74']"
48.688637,49.793514251708984,"[b'chicago', b'control_wood_inf', b'True', b'job166']"
57.968773,57.71382141113281,"[b'chicago', b'control_wood_inf', b'True', b'job163']"
57.444077,57.425743103027344,"[b'chicago', b'control_wood_inf', b'True', b'job177']"
53.182503,52.93269348144531,"[b'chicago', b'control_wood_inf', b'True', b'job103']"
51.8567,52.37624740600586,"[b'chicago', b'control_wood_inf', b'True', b'job128']"
42.836483,43.418540954589844,"[b'chicago', b'control_wood_inf', b'True', b'job47']"
46.806526,46.67354965209961,"[b'chicago', b'control_wood_inf', b'True', b'job107']"
45.79776,45.97848129272461,"[b'chicago', b'control_wood_inf', b'True', b'job173']"
47.03959,47.53327178955078,"[b'chicago', b'control_wood_inf', b'True', b'job90']"
42.053707,42.664268493652344,"[b'chicago', b'control_wood_inf', b'True', b'job58']"
41.42035,41.32371520996094,"[b'chicago', b'control_wood_inf', b'True', b'job70']"
51.073257,51.294219970703125,"[b'chicago', b'control_wood_inf', b'True', b'job149']"
52.9247,52.82564163208008,"[b'chicago', b'control_wood_inf', b'True', b'job186']"
52.51136,53.03886795043945,"[b'chicago', b'control_wood_inf', b'True', b'job16']"
48.102383,47.97764205932617,"[b'chicago', b'control_wood_inf', b'True', b'job113']"
47.12944,46.8754768371582,"[b'chicago', b'control_wood_inf', b'True', b'job100']"
44.58773,45.08683776855469,"[b'chicago', b'control_wood_inf', b'True', b'job102']"
50.34345,51.45513916015625,"[b'chicago', b'control_wood_inf', b'True', b'job165']"
41.497925,41.42182159423828,"[b'chicago', b'control_wood_inf', b'True', b'job72']"
51.86535,51.30296325683594,"[b'chicago', b'control_wood_inf', b'True', b'job83']"
49.384754,49.05439758300781,"[b'chicago', b'control_wood_inf', b'True', b'job140']"
44.794403,45.61189651489258,"[b'chicago', b'control_wood_inf', b'True', b'job69']"
46.801235,47.54418182373047,"[b'chicago', b'control_wood_inf', b'True', b'job52']"
43.519295,42.99858474731445,"[b'chicago', b'control_wood_inf', b'True', b'job8']"
42.07739,42.465091705322266,"[b'chicago', b'control_wood_inf', b'True', b'job63']"
49.73767,49.11098098754883,"[b'chicago', b'control_wood_inf', b'True', b'job9']"
41.702705,42.355186462402344,"[b'chicago', b'control_wood_inf', b'True', b'job94']"
42.454033,42.26957321166992,"[b'chicago', b'control_wood_inf', b'True', b'job146']"
40.131943,40.73007583618164,"[b'chicago', b'control_wood_inf', b'True', b'job62']"
58.74526,59.11400604248047,"[b'chicago', b'control_wood_inf', b'True', b'job66']"
47.016403,47.48934555053711,"[b'chicago', b'control_wood_inf', b'True', b'job6']"
57.014294,57.62354278564453,"[b'chicago', b'control_wood_inf', b'True', b'job162']"
53.86939,53.56914138793945,"[b'chicago', b'control_wood_inf', b'True', b'job60']"
44.34496,44.62974548339844,"[b'chicago', b'control_wood_inf', b'True', b'job189']"
50.150143,49.96738815307617,"[b'chicago', b'control_wood_inf', b'True', b'job40']"
52.282654,52.14250564575195,"[b'chicago', b'control_wood_inf', b'True', b'job184']"
44.441357,44.3402214050293,"[b'chicago', b'control_wood_inf', b'True', b'job98']"
43.551968,44.39188766479492,"[b'chicago', b'control_wood_inf', b'True', b'job45']"
41.769424,41.99070739746094,"[b'chicago', b'control_wood_inf', b'True', b'job141']"
40.524776,40.983787536621094,"[b'chicago', b'control_wood_inf', b'True', b'job13']"
60.28755,61.160186767578125,"[b'chicago', b'control_wood_inf', b'True', b'job179']"
46.776005,47.90945816040039,"[b'chicago', b'control_wood_inf', b'True', b'job145']"
49.2965,49.109375,"[b'chicago', b'control_wood_inf', b'True', b'job154']"
46.499615,46.14213562011719,"[b'chicago', b'control_wood_inf', b'True', b'job24']"
52.875782,53.42893981933594,"[b'chicago', b'control_wood_inf', b'True', b'job120']"
48.28361,49.36945724487305,"[b'chicago', b'control_wood_inf', b'True', b'job55']"
54.406837,54.280826568603516,"[b'chicago', b'control_wood_inf', b'True', b'job109']"
49.661182,49.62433624267578,"[b'chicago', b'control_wood_inf', b'True', b'job164']"
51.303818,51.65735626220703,"[b'chicago', b'control_wood_inf', b'True', b'job32']"
42.905155,43.599063873291016,"[b'chicago', b'control_wood_inf', b'True', b'job36']"
60.18122,60.540470123291016,"[b'chicago', b'control_wood_inf', b'True', b'job159']"
57.89512,57.729209899902344,"[b'chicago', b'control_wood_inf', b'True', b'job37']"
56.588306,56.49723434448242,"[b'chicago', b'control_wood_inf', b'True', b'job174']"
50.499374,50.27577209472656,"[b'chicago', b'control_wood_inf', b'True', b'job180']"
49.951363,50.70850372314453,"[b'chicago', b'control_wood_inf', b'True', b'job172']"
51.375713,50.798831939697266,"[b'chicago', b'control_wood_inf', b'True', b'job193']"
51.32061,51.93930435180664,"[b'chicago', b'control_wood_inf', b'True', b'job34']"
52.92092,53.24464797973633,"[b'chicago', b'control_wood_inf', b'True', b'job51']"
45.1336,45.531982421875,"[b'chicago', b'control_wood_inf', b'True', b'job65']"
41.1291,41.99195861816406,"[b'chicago', b'control_wood_inf', b'True', b'job64']"
51.651264,52.79364776611328,"[b'chicago', b'control_wood_inf', b'True', b'job138']"
43.770184,44.188690185546875,"[b'chicago', b'control_wood_inf', b'True', b'job185']"
55.329395,55.29447937011719,"[b'chicago', b'control_wood_inf', b'True', b'job157']"
50.54799,50.9843864440918,"[b'chicago', b'control_wood_inf', b'True', b'job191']"
46.801594,47.2469596862793,"[b'chicago', b'control_wood_inf', b'True', b'job168']"
41.642906,41.505733489990234,"[b'chicago', b'control_wood_inf', b'True', b'job194']"
49.59037,50.81626892089844,"[b'chicago', b'control_wood_inf', b'True', b'job41']"
52.26579,51.49277877807617,"[b'chicago', b'control_wood_inf', b'True', b'job114']"
42.447536,42.520877838134766,"[b'chicago', b'control_wood_inf', b'True', b'job121']"
47.089893,47.2132682800293,"[b'chicago', b'control_wood_inf', b'True', b'job59']"
44.04894,44.60040283203125,"[b'chicago', b'control_wood_inf', b'True', b'job110']"
51.701138,52.40021896362305,"[b'chicago', b'control_wood_inf', b'True', b'job155']"
45.69618,46.3031120300293,"[b'chicago', b'control_wood_inf', b'True', b'job117']"
43.97445,44.131927490234375,"[b'chicago', b'control_wood_inf', b'True', b'job178']"
48.208347,48.7374153137207,"[b'chicago', b'control_wood_inf', b'True', b'job67']"
54.0134,55.1968879699707,"[b'chicago', b'control_wood_inf', b'True', b'job21']"
42.366447,43.20243453979492,"[b'chicago', b'control_wood_inf', b'True', b'job181']"
48.718437,49.52301025390625,"[b'chicago', b'control_wood_inf', b'True', b'job30']"
43.25142,43.62397003173828,"[b'chicago', b'control_wood_inf', b'True', b'job12']"
60.968407,60.643985748291016,"[b'chicago', b'control_wood_inf', b'True', b'job73']"
49.3927,49.80085372924805,"[b'chicago', b'control_wood_inf', b'True', b'job105']"
43.699455,44.06924819946289,"[b'chicago', b'control_wood_inf', b'True', b'job169']"
40.032047,40.61707305908203,"[b'chicago', b'control_wood_inf', b'True', b'job38']"
41.34918,42.14247131347656,"[b'chicago', b'control_wood_inf', b'True', b'job85']"
42.647564,43.20733642578125,"[b'chicago', b'control_wood_inf', b'True', b'job61']"
55.241253,55.576499938964844,"[b'chicago', b'control_wood_inf', b'True', b'job160']"
47.994835,48.481773376464844,"[b'chicago', b'control_wood_inf', b'True', b'job133']"
49.046604,49.23908996582031,"[b'chicago', b'control_wood_inf', b'True', b'job27']"
47.74415,47.890472412109375,"[b'chicago', b'control_wood_inf', b'True', b'job137']"
48.450123,48.047218322753906,"[b'chicago', b'control_wood_inf', b'True', b'job92']"
46.889393,46.621726989746094,"[b'chicago', b'control_wood_inf', b'True', b'job119']"
49.419865,48.53327178955078,"[b'chicago', b'control_wood_inf', b'True', b'job122']"
51.672882,51.70696258544922,"[b'chicago', b'control_wood_inf', b'True', b'job148']"
42.813366,44.0199089050293,"[b'chicago', b'control_wood_inf', b'True', b'job115']"
57.10644,56.6701774597168,"[b'chicago', b'control_wood_inf', b'True', b'job188']"
44.713257,45.78459930419922,"[b'chicago', b'control_wood_inf', b'True', b'job182']"
