envelope_hlc,envelope_hlc_pred,md
58.050755,58.30403137207031,"[b'victoria', b'control_wood', b'False', b'job79']"
45.75348,45.439212799072266,"[b'victoria', b'control_wood', b'False', b'job14']"
41.875305,41.212135314941406,"[b'victoria', b'control_wood', b'False', b'job68']"
44.123188,44.05105209350586,"[b'victoria', b'control_wood', b'False', b'job158']"
56.68599,55.81858444213867,"[b'victoria', b'control_wood', b'False', b'job127']"
44.36978,45.23279571533203,"[b'victoria', b'control_wood', b'False', b'job12']"
43.95346,43.72125244140625,"[b'victoria', b'control_wood', b'False', b'job115']"
45.131714,44.76460266113281,"[b'victoria', b'control_wood', b'False', b'job104']"
51.61211,50.81703567504883,"[b'victoria', b'control_wood', b'False', b'job112']"
57.295074,57.66635513305664,"[b'victoria', b'control_wood', b'False', b'job160']"
45.814583,46.39493179321289,"[b'victoria', b'control_wood', b'False', b'job102']"
53.102184,52.239768981933594,"[b'victoria', b'control_wood', b'False', b'job11']"
55.538776,54.27720642089844,"[b'victoria', b'control_wood', b'False', b'job147']"
53.56246,52.81551742553711,"[b'victoria', b'control_wood', b'False', b'job83']"
51.965458,51.92927932739258,"[b'victoria', b'control_wood', b'False', b'job165']"
52.182358,51.0123291015625,"[b'victoria', b'control_wood', b'False', b'job180']"
50.802315,49.899261474609375,"[b'victoria', b'control_wood', b'False', b'job35']"
52.24176,52.778236389160156,"[b'victoria', b'control_wood', b'False', b'job191']"
47.105736,47.78927993774414,"[b'victoria', b'control_wood', b'False', b'job116']"
46.56418,46.72216033935547,"[b'victoria', b'control_wood', b'False', b'job42']"
46.99262,46.610450744628906,"[b'victoria', b'control_wood', b'False', b'job117']"
47.50171,47.08890151977539,"[b'victoria', b'control_wood', b'False', b'job171']"
43.07751,44.26736831665039,"[b'victoria', b'control_wood', b'False', b'job58']"
42.65494,42.35070037841797,"[b'victoria', b'control_wood', b'False', b'job194']"
44.707966,45.47126007080078,"[b'victoria', b'control_wood', b'False', b'job8']"
44.111465,44.307682037353516,"[b'victoria', b'control_wood', b'False', b'job91']"
48.366413,47.984031677246094,"[b'victoria', b'control_wood', b'False', b'job6']"
46.082184,45.85357666015625,"[b'victoria', b'control_wood', b'False', b'job153']"
48.435837,48.3229866027832,"[b'victoria', b'control_wood', b'False', b'job134']"
53.484554,53.05827331542969,"[b'victoria', b'control_wood', b'False', b'job138']"
44.132534,43.71183395385742,"[b'victoria', b'control_wood', b'False', b'job43']"
45.268265,44.73069763183594,"[b'victoria', b'control_wood', b'False', b'job110']"
48.13916,48.03189468383789,"[b'victoria', b'control_wood', b'False', b'job168']"
58.745373,57.93276596069336,"[b'victoria', b'control_wood', b'False', b'job174']"
57.64626,57.5080680847168,"[b'victoria', b'control_wood', b'False', b'job106']"
50.677338,50.69382858276367,"[b'victoria', b'control_wood', b'False', b'job152']"
51.77617,51.52872085571289,"[b'victoria', b'control_wood', b'False', b'job4']"
42.907623,42.82845687866211,"[b'victoria', b'control_wood', b'False', b'job136']"
50.34547,50.60298156738281,"[b'victoria', b'control_wood', b'False', b'job30']"
46.90066,47.01783752441406,"[b'victoria', b'control_wood', b'False', b'job86']"
46.79914,45.853111267089844,"[b'victoria', b'control_wood', b'False', b'job39']"
50.257484,50.85697937011719,"[b'victoria', b'control_wood', b'False', b'job166']"
63.627262,62.86204528808594,"[b'victoria', b'control_wood', b'False', b'job73']"
59.237602,57.83901596069336,"[b'victoria', b'control_wood', b'False', b'job129']"
57.293,55.80439376831055,"[b'victoria', b'control_wood', b'False', b'job7']"
44.66923,44.96146011352539,"[b'victoria', b'control_wood', b'False', b'job45']"
48.11422,47.696075439453125,"[b'victoria', b'control_wood', b'False', b'job20']"
59.302055,57.32065200805664,"[b'victoria', b'control_wood', b'False', b'job196']"
55.827744,55.549800872802734,"[b'victoria', b'control_wood', b'False', b'job60']"
45.707504,43.9914436340332,"[b'victoria', b'control_wood', b'False', b'job197']"
50.851402,51.508480072021484,"[b'victoria', b'control_wood', b'False', b'job105']"
59.40952,57.01948547363281,"[b'victoria', b'control_wood', b'False', b'job188']"
55.245853,55.729087829589844,"[b'victoria', b'control_wood', b'False', b'job183']"
60.33802,59.35776138305664,"[b'victoria', b'control_wood', b'False', b'job163']"
42.33056,42.28750228881836,"[b'victoria', b'control_wood', b'False', b'job85']"
50.81983,48.83202362060547,"[b'victoria', b'control_wood', b'False', b'job154']"
48.175762,47.85050582885742,"[b'victoria', b'control_wood', b'False', b'job119']"
51.557014,50.885902404785156,"[b'victoria', b'control_wood', b'False', b'job172']"
41.900772,43.13224792480469,"[b'victoria', b'control_wood', b'False', b'job54']"
42.751553,43.576881408691406,"[b'victoria', b'control_wood', b'False', b'job132']"
53.13234,53.0253791809082,"[b'victoria', b'control_wood', b'False', b'job170']"
47.01353,47.366127014160156,"[b'victoria', b'control_wood', b'False', b'job135']"
51.29129,49.974796295166016,"[b'victoria', b'control_wood', b'False', b'job9']"
53.711147,54.091209411621094,"[b'victoria', b'control_wood', b'False', b'job75']"
53.981857,52.537384033203125,"[b'victoria', b'control_wood', b'False', b'job114']"
45.590454,44.98773956298828,"[b'victoria', b'control_wood', b'False', b'job98']"
47.360695,47.32560348510742,"[b'victoria', b'control_wood', b'False', b'job156']"
42.10899,42.02450942993164,"[b'victoria', b'control_wood', b'False', b'job64']"
51.66757,49.839210510253906,"[b'victoria', b'control_wood', b'False', b'job40']"
40.645,40.77782440185547,"[b'victoria', b'control_wood', b'False', b'job23']"
48.112556,48.215301513671875,"[b'victoria', b'control_wood', b'False', b'job145']"
43.422108,43.21700668334961,"[b'victoria', b'control_wood', b'False', b'job181']"
55.102997,54.596065521240234,"[b'victoria', b'control_wood', b'False', b'job103']"
50.752632,50.294776916503906,"[b'victoria', b'control_wood', b'False', b'job27']"
48.506134,47.40403747558594,"[b'victoria', b'control_wood', b'False', b'job100']"
61.354206,59.924110412597656,"[b'victoria', b'control_wood', b'False', b'job66']"
42.87187,43.78904724121094,"[b'victoria', b'control_wood', b'False', b'job143']"
45.973953,46.04059600830078,"[b'victoria', b'control_wood', b'False', b'job182']"
44.815533,44.847251892089844,"[b'victoria', b'control_wood', b'False', b'job169']"
43.10933,43.13698196411133,"[b'victoria', b'control_wood', b'False', b'job63']"
51.899345,50.88093566894531,"[b'victoria', b'control_wood', b'False', b'job1']"
39.97196,40.24267578125,"[b'victoria', b'control_wood', b'False', b'job31']"
43.485664,42.896934509277344,"[b'victoria', b'control_wood', b'False', b'job146']"
49.764793,49.565330505371094,"[b'victoria', b'control_wood', b'False', b'job55']"
48.63628,49.517822265625,"[b'victoria', b'control_wood', b'False', b'job18']"
42.51213,42.402469635009766,"[b'victoria', b'control_wood', b'False', b'job72']"
54.928474,54.703792572021484,"[b'victoria', b'control_wood', b'False', b'job89']"
42.30377,41.06052780151367,"[b'victoria', b'control_wood', b'False', b'job5']"
45.962788,45.88798522949219,"[b'victoria', b'control_wood', b'False', b'job142']"
53.892075,54.4190788269043,"[b'victoria', b'control_wood', b'False', b'job99']"
47.84708,46.93682098388672,"[b'victoria', b'control_wood', b'False', b'job24']"
49.955215,49.40470504760742,"[b'victoria', b'control_wood', b'False', b'job92']"
60.073788,61.16533660888672,"[b'victoria', b'control_wood', b'False', b'job187']"
43.75426,42.91947937011719,"[b'victoria', b'control_wood', b'False', b'job10']"
48.48201,46.59404373168945,"[b'victoria', b'control_wood', b'False', b'job59']"
48.8667,48.53437042236328,"[b'victoria', b'control_wood', b'False', b'job44']"
57.403866,56.78773498535156,"[b'victoria', b'control_wood', b'False', b'job161']"
40.94936,41.09016418457031,"[b'victoria', b'control_wood', b'False', b'job38']"
60.145905,60.21112060546875,"[b'victoria', b'control_wood', b'False', b'job37']"
62.889664,61.76540756225586,"[b'victoria', b'control_wood', b'False', b'job159']"
45.32711,45.1142463684082,"[b'victoria', b'control_wood', b'False', b'job124']"
43.70505,43.567413330078125,"[b'victoria', b'control_wood', b'False', b'job61']"
51.748684,51.39274597167969,"[b'victoria', b'control_wood', b'False', b'job176']"
51.02959,50.002777099609375,"[b'victoria', b'control_wood', b'False', b'job2']"
54.77706,52.55968475341797,"[b'victoria', b'control_wood', b'False', b'job186']"
53.552353,53.02376174926758,"[b'victoria', b'control_wood', b'False', b'job128']"
57.25726,57.00873565673828,"[b'victoria', b'control_wood', b'False', b'job157']"
43.492344,43.035125732421875,"[b'victoria', b'control_wood', b'False', b'job121']"
53.018673,51.8702392578125,"[b'victoria', b'control_wood', b'False', b'job32']"
41.04514,40.99372863769531,"[b'victoria', b'control_wood', b'False', b'job62']"
41.47194,42.603885650634766,"[b'victoria', b'control_wood', b'False', b'job13']"
47.060047,46.649593353271484,"[b'victoria', b'control_wood', b'False', b'job173']"
54.685436,54.50870895385742,"[b'victoria', b'control_wood', b'False', b'job120']"
49.339455,49.72746276855469,"[b'victoria', b'control_wood', b'False', b'job125']"
52.654564,52.88722229003906,"[b'victoria', b'control_wood', b'False', b'job149']"
45.517685,44.316551208496094,"[b'victoria', b'control_wood', b'False', b'job199']"
52.288,52.83682632446289,"[b'victoria', b'control_wood', b'False', b'job108']"
43.967823,44.482521057128906,"[b'victoria', b'control_wood', b'False', b'job36']"
49.658367,49.563995361328125,"[b'victoria', b'control_wood', b'False', b'job67']"
48.100063,47.24480438232422,"[b'victoria', b'control_wood', b'False', b'job107']"
46.615944,45.94209289550781,"[b'victoria', b'control_wood', b'False', b'job139']"
51.2162,50.93423843383789,"[b'victoria', b'control_wood', b'False', b'job164']"
44.8707,44.70473098754883,"[b'victoria', b'control_wood', b'False', b'job185']"
50.045338,50.06936264038086,"[b'victoria', b'control_wood', b'False', b'job76']"
57.34214,55.298885345458984,"[b'victoria', b'control_wood', b'False', b'job3']"
54.65747,55.041542053222656,"[b'victoria', b'control_wood', b'False', b'job51']"
48.818424,49.384212493896484,"[b'victoria', b'control_wood', b'False', b'job190']"
55.378998,54.67862319946289,"[b'victoria', b'control_wood', b'False', b'job101']"
61.177757,61.181480407714844,"[b'victoria', b'control_wood', b'False', b'job87']"
50.89945,49.97306442260742,"[b'victoria', b'control_wood', b'False', b'job140']"
52.48084,52.25416564941406,"[b'victoria', b'control_wood', b'False', b'job111']"
47.683987,48.0180549621582,"[b'victoria', b'control_wood', b'False', b'job130']"
47.506435,47.34844970703125,"[b'victoria', b'control_wood', b'False', b'job82']"
42.71647,43.447105407714844,"[b'victoria', b'control_wood', b'False', b'job94']"
45.66188,46.00684356689453,"[b'victoria', b'control_wood', b'False', b'job131']"
42.85911,42.36042022705078,"[b'victoria', b'control_wood', b'False', b'job126']"
56.372364,55.81986999511719,"[b'victoria', b'control_wood', b'False', b'job109']"
47.722073,47.6840934753418,"[b'victoria', b'control_wood', b'False', b'job57']"
51.20736,51.36963653564453,"[b'victoria', b'control_wood', b'False', b'job41']"
52.95977,52.676212310791016,"[b'victoria', b'control_wood', b'False', b'job34']"
53.401627,53.41584014892578,"[b'victoria', b'control_wood', b'False', b'job46']"
45.996452,45.93320846557617,"[b'victoria', b'control_wood', b'False', b'job69']"
53.114918,51.882080078125,"[b'victoria', b'control_wood', b'False', b'job193']"
51.410885,51.179656982421875,"[b'victoria', b'control_wood', b'False', b'job81']"
42.83871,43.25511932373047,"[b'victoria', b'control_wood', b'False', b'job151']"
49.5066,48.671077728271484,"[b'victoria', b'control_wood', b'False', b'job113']"
54.359238,54.06427001953125,"[b'victoria', b'control_wood', b'False', b'job16']"
50.86522,50.515830993652344,"[b'victoria', b'control_wood', b'False', b'job122']"
54.05818,52.06442642211914,"[b'victoria', b'control_wood', b'False', b'job184']"
42.81023,42.65637969970703,"[b'victoria', b'control_wood', b'False', b'job141']"
59.66039,59.34864807128906,"[b'victoria', b'control_wood', b'False', b'job177']"
46.998238,46.938446044921875,"[b'victoria', b'control_wood', b'False', b'job198']"
49.45391,49.510101318359375,"[b'victoria', b'control_wood', b'False', b'job133']"
53.648746,54.67027282714844,"[b'victoria', b'control_wood', b'False', b'job33']"
46.712166,46.76722717285156,"[b'victoria', b'control_wood', b'False', b'job56']"
55.28253,55.482479095458984,"[b'victoria', b'control_wood', b'False', b'job22']"
47.647682,46.948829650878906,"[b'victoria', b'control_wood', b'False', b'job195']"
42.47817,42.83132553100586,"[b'victoria', b'control_wood', b'False', b'job144']"
45.216072,44.84941101074219,"[b'victoria', b'control_wood', b'False', b'job150']"
51.331245,51.75050735473633,"[b'victoria', b'control_wood', b'False', b'job71']"
62.934834,62.1553955078125,"[b'victoria', b'control_wood', b'False', b'job179']"
43.158054,42.95906066894531,"[b'victoria', b'control_wood', b'False', b'job74']"
42.420765,42.026451110839844,"[b'victoria', b'control_wood', b'False', b'job70']"
45.10726,44.010032653808594,"[b'victoria', b'control_wood', b'False', b'job178']"
40.86362,41.15966796875,"[b'victoria', b'control_wood', b'False', b'job123']"
59.182953,58.51070785522461,"[b'victoria', b'control_wood', b'False', b'job162']"
49.084576,49.486106872558594,"[b'victoria', b'control_wood', b'False', b'job137']"
56.843628,56.476539611816406,"[b'victoria', b'control_wood', b'False', b'job192']"
48.369522,48.56690979003906,"[b'victoria', b'control_wood', b'False', b'job90']"
45.611286,45.443748474121094,"[b'victoria', b'control_wood', b'False', b'job189']"
48.361958,48.5403938293457,"[b'victoria', b'control_wood', b'False', b'job96']"
48.906757,46.945228576660156,"[b'victoria', b'control_wood', b'False', b'job175']"
53.265575,52.913818359375,"[b'victoria', b'control_wood', b'False', b'job200']"
43.91277,43.418357849121094,"[b'victoria', b'control_wood', b'False', b'job47']"
56.017216,55.51642608642578,"[b'victoria', b'control_wood', b'False', b'job21']"
53.76444,52.4781379699707,"[b'victoria', b'control_wood', b'False', b'job167']"
52.13094,52.13669204711914,"[b'victoria', b'control_wood', b'False', b'job118']"
46.421345,46.02013397216797,"[b'victoria', b'control_wood', b'False', b'job65']"
53.484608,51.683135986328125,"[b'victoria', b'control_wood', b'False', b'job148']"
48.19099,47.675296783447266,"[b'victoria', b'control_wood', b'False', b'job52']"
53.632732,53.1226806640625,"[b'victoria', b'control_wood', b'False', b'job155']"
