envelope_umat,envelope_umat_pred,md
57.417164,55.84299087524414,"[b'victoria', b'control_wood', b'True', b'job36']"
70.286674,70.05240631103516,"[b'victoria', b'control_wood', b'True', b'job81']"
74.29683,73.4094467163086,"[b'victoria', b'control_wood', b'True', b'job83']"
69.99527,65.61726379394531,"[b'victoria', b'control_wood', b'True', b'job2']"
84.8458,83.36554718017578,"[b'victoria', b'control_wood', b'True', b'job129']"
64.90808,63.29713821411133,"[b'victoria', b'control_wood', b'True', b'job100']"
60.807594,64.02568054199219,"[b'victoria', b'control_wood', b'True', b'job153']"
66.86698,65.68761444091797,"[b'victoria', b'control_wood', b'True', b'job113']"
55.26719,51.4903678894043,"[b'victoria', b'control_wood', b'True', b'job94']"
60.331444,60.91630172729492,"[b'victoria', b'control_wood', b'True', b'job102']"
93.00335,90.04974365234375,"[b'victoria', b'control_wood', b'True', b'job73']"
61.7481,61.34160232543945,"[b'victoria', b'control_wood', b'True', b'job139']"
66.61022,64.59126281738281,"[b'victoria', b'control_wood', b'True', b'job133']"
67.10037,69.10161590576172,"[b'victoria', b'control_wood', b'True', b'job67']"
70.68909,73.4451675415039,"[b'victoria', b'control_wood', b'True', b'job176']"
64.77658,63.07591247558594,"[b'victoria', b'control_wood', b'True', b'job119']"
76.1652,78.03559875488281,"[b'victoria', b'control_wood', b'True', b'job120']"
77.961365,79.73786163330078,"[b'victoria', b'control_wood', b'True', b'job21']"
56.622963,56.544795989990234,"[b'victoria', b'control_wood', b'True', b'job121']"
68.664375,67.64384460449219,"[b'victoria', b'control_wood', b'True', b'job152']"
55.49419,56.80946731567383,"[b'victoria', b'control_wood', b'True', b'job126']"
64.329865,64.04845428466797,"[b'victoria', b'control_wood', b'True', b'job145']"
79.9168,79.76951599121094,"[b'victoria', b'control_wood', b'True', b'job192']"
81.36383,80.63863372802734,"[b'victoria', b'control_wood', b'True', b'job106']"
64.32007,63.056175231933594,"[b'victoria', b'control_wood', b'True', b'job52']"
67.16375,68.52442169189453,"[b'victoria', b'control_wood', b'True', b'job55']"
80.37572,79.8884048461914,"[b'victoria', b'control_wood', b'True', b'job127']"
67.651665,70.33216094970703,"[b'victoria', b'control_wood', b'True', b'job166']"
84.91886,84.68115234375,"[b'victoria', b'control_wood', b'True', b'job196']"
63.87302,63.349266052246094,"[b'victoria', b'control_wood', b'True', b'job130']"
81.05092,81.974365234375,"[b'victoria', b'control_wood', b'True', b'job161']"
71.29433,72.00166320800781,"[b'victoria', b'control_wood', b'True', b'job118']"
57.50048,57.96121597290039,"[b'victoria', b'control_wood', b'True', b'job91']"
65.125946,67.52023315429688,"[b'victoria', b'control_wood', b'True', b'job190']"
59.994656,59.06520080566406,"[b'victoria', b'control_wood', b'True', b'job199']"
81.45826,78.83802795410156,"[b'victoria', b'control_wood', b'True', b'job157']"
63.665806,64.32929992675781,"[b'victoria', b'control_wood', b'True', b'job57']"
54.012135,54.8504524230957,"[b'victoria', b'control_wood', b'True', b'job54']"
79.06316,75.46842193603516,"[b'victoria', b'control_wood', b'True', b'job109']"
55.91224,56.06770706176758,"[b'victoria', b'control_wood', b'True', b'job58']"
82.22221,79.1566390991211,"[b'victoria', b'control_wood', b'True', b'job79']"
74.44455,69.57279205322266,"[b'victoria', b'control_wood', b'True', b'job167']"
70.28179,66.52456665039062,"[b'victoria', b'control_wood', b'True', b'job172']"
69.75871,69.24574279785156,"[b'victoria', b'control_wood', b'True', b'job164']"
76.249435,75.28323364257812,"[b'victoria', b'control_wood', b'True', b'job186']"
70.94228,68.2428207397461,"[b'victoria', b'control_wood', b'True', b'job40']"
55.209793,54.98191833496094,"[b'victoria', b'control_wood', b'True', b'job194']"
68.89302,67.46600341796875,"[b'victoria', b'control_wood', b'True', b'job154']"
64.77426,66.33678436279297,"[b'victoria', b'control_wood', b'True', b'job134']"
72.78818,70.30451202392578,"[b'victoria', b'control_wood', b'True', b'job149']"
59.286606,60.52248001098633,"[b'victoria', b'control_wood', b'True', b'job110']"
62.479855,62.023841857910156,"[b'victoria', b'control_wood', b'True', b'job135']"
87.58313,86.71073913574219,"[b'victoria', b'control_wood', b'True', b'job66']"
69.7861,68.22438049316406,"[b'victoria', b'control_wood', b'True', b'job71']"
58.591057,59.23478698730469,"[b'victoria', b'control_wood', b'True', b'job45']"
71.32435,68.79779052734375,"[b'victoria', b'control_wood', b'True', b'job180']"
61.7142,62.57400131225586,"[b'victoria', b'control_wood', b'True', b'job42']"
67.239914,67.17168426513672,"[b'victoria', b'control_wood', b'True', b'job92']"
74.81958,73.06072998046875,"[b'victoria', b'control_wood', b'True', b'job99']"
69.323654,69.47338104248047,"[b'victoria', b'control_wood', b'True', b'job140']"
54.722614,53.763282775878906,"[b'victoria', b'control_wood', b'True', b'job85']"
69.12592,66.54264068603516,"[b'victoria', b'control_wood', b'True', b'job35']"
73.52603,74.10201263427734,"[b'victoria', b'control_wood', b'True', b'job138']"
74.11477,73.28480529785156,"[b'victoria', b'control_wood', b'True', b'job33']"
59.728977,60.65351486206055,"[b'victoria', b'control_wood', b'True', b'job189']"
73.361305,72.15424346923828,"[b'victoria', b'control_wood', b'True', b'job200']"
83.599495,81.46089172363281,"[b'victoria', b'control_wood', b'True', b'job174']"
57.74552,58.598506927490234,"[b'victoria', b'control_wood', b'True', b'job158']"
54.847996,52.04987716674805,"[b'victoria', b'control_wood', b'True', b'job70']"
74.21993,74.57862091064453,"[b'victoria', b'control_wood', b'True', b'job128']"
52.44684,51.98343276977539,"[b'victoria', b'control_wood', b'True', b'job38']"
76.765785,76.1587142944336,"[b'victoria', b'control_wood', b'True', b'job103']"
55.516403,55.0629768371582,"[b'victoria', b'control_wood', b'True', b'job136']"
65.31814,63.888954162597656,"[b'victoria', b'control_wood', b'True', b'job18']"
69.604294,66.88325500488281,"[b'victoria', b'control_wood', b'True', b'job122']"
76.92523,77.27568054199219,"[b'victoria', b'control_wood', b'True', b'job22']"
59.476967,57.10001754760742,"[b'victoria', b'control_wood', b'True', b'job124']"
78.05229,77.28262329101562,"[b'victoria', b'control_wood', b'True', b'job60']"
68.140724,69.69670867919922,"[b'victoria', b'control_wood', b'True', b'job27']"
66.6182,67.36722564697266,"[b'victoria', b'control_wood', b'True', b'job125']"
84.702354,82.62919616699219,"[b'victoria', b'control_wood', b'True', b'job188']"
50.969276,52.491058349609375,"[b'victoria', b'control_wood', b'True', b'job31']"
62.59798,61.65583419799805,"[b'victoria', b'control_wood', b'True', b'job173']"
58.339558,56.06842803955078,"[b'victoria', b'control_wood', b'True', b'job8']"
62.09771,60.35201644897461,"[b'victoria', b'control_wood', b'True', b'job39']"
52.65569,53.146934509277344,"[b'victoria', b'control_wood', b'True', b'job62']"
75.28601,77.1869125366211,"[b'victoria', b'control_wood', b'True', b'job16']"
64.338005,63.67695236206055,"[b'victoria', b'control_wood', b'True', b'job168']"
59.22354,58.29981994628906,"[b'victoria', b'control_wood', b'True', b'job104']"
72.94935,74.10556030273438,"[b'victoria', b'control_wood', b'True', b'job32']"
70.76262,71.90753173828125,"[b'victoria', b'control_wood', b'True', b'job112']"
53.271263,54.009395599365234,"[b'victoria', b'control_wood', b'True', b'job13']"
72.25856,70.451171875,"[b'victoria', b'control_wood', b'True', b'job111']"
79.88961,79.01606750488281,"[b'victoria', b'control_wood', b'True', b'job7']"
56.715336,55.605037689208984,"[b'victoria', b'control_wood', b'True', b'job146']"
77.49824,75.53610229492188,"[b'victoria', b'control_wood', b'True', b'job147']"
51.93655,52.3632698059082,"[b'victoria', b'control_wood', b'True', b'job23']"
64.62152,64.31463623046875,"[b'victoria', b'control_wood', b'True', b'job107']"
67.609344,69.64057922363281,"[b'victoria', b'control_wood', b'True', b'job76']"
54.370987,53.92436218261719,"[b'victoria', b'control_wood', b'True', b'job64']"
76.66007,77.54999542236328,"[b'victoria', b'control_wood', b'True', b'job89']"
60.180378,60.19767379760742,"[b'victoria', b'control_wood', b'True', b'job98']"
57.11615,55.28267288208008,"[b'victoria', b'control_wood', b'True', b'job10']"
58.83215,58.1700439453125,"[b'victoria', b'control_wood', b'True', b'job169']"
53.983086,53.75920486450195,"[b'victoria', b'control_wood', b'True', b'job68']"
59.619774,58.78074645996094,"[b'victoria', b'control_wood', b'True', b'job150']"
55.386993,55.3336181640625,"[b'victoria', b'control_wood', b'True', b'job132']"
63.163628,59.99745559692383,"[b'victoria', b'control_wood', b'True', b'job82']"
72.976166,71.79424285888672,"[b'victoria', b'control_wood', b'True', b'job193']"
69.74487,68.50993347167969,"[b'victoria', b'control_wood', b'True', b'job9']"
55.333183,54.41294479370117,"[b'victoria', b'control_wood', b'True', b'job141']"
54.861275,56.845829010009766,"[b'victoria', b'control_wood', b'True', b'job144']"
59.062626,57.87045669555664,"[b'victoria', b'control_wood', b'True', b'job185']"
84.74809,83.03876495361328,"[b'victoria', b'control_wood', b'True', b'job162']"
62.2602,62.67140197753906,"[b'victoria', b'control_wood', b'True', b'job198']"
64.56926,63.127925872802734,"[b'victoria', b'control_wood', b'True', b'job20']"
90.99385,93.63043212890625,"[b'victoria', b'control_wood', b'True', b'job159']"
80.6522,78.67508697509766,"[b'victoria', b'control_wood', b'True', b'job160']"
86.42648,88.5835952758789,"[b'victoria', b'control_wood', b'True', b'job37']"
66.3347,64.69881439208984,"[b'victoria', b'control_wood', b'True', b'job137']"
71.34979,69.37281799316406,"[b'victoria', b'control_wood', b'True', b'job4']"
62.619286,62.48081970214844,"[b'victoria', b'control_wood', b'True', b'job116']"
64.89907,64.38945770263672,"[b'victoria', b'control_wood', b'True', b'job90']"
85.56182,84.24297332763672,"[b'victoria', b'control_wood', b'True', b'job177']"
71.05797,68.17738342285156,"[b'victoria', b'control_wood', b'True', b'job165']"
60.719856,61.75175094604492,"[b'victoria', b'control_wood', b'True', b'job69']"
73.38546,73.4659652709961,"[b'victoria', b'control_wood', b'True', b'job170']"
60.323658,62.8238410949707,"[b'victoria', b'control_wood', b'True', b'job14']"
57.93667,58.81175231933594,"[b'victoria', b'control_wood', b'True', b'job12']"
87.51878,87.03225708007812,"[b'victoria', b'control_wood', b'True', b'job87']"
73.158775,73.03727722167969,"[b'victoria', b'control_wood', b'True', b'job34']"
63.543755,62.62282943725586,"[b'victoria', b'control_wood', b'True', b'job171']"
86.46469,84.49481201171875,"[b'victoria', b'control_wood', b'True', b'job163']"
57.20513,58.42696762084961,"[b'victoria', b'control_wood', b'True', b'job47']"
55.948326,57.62724685668945,"[b'victoria', b'control_wood', b'True', b'job63']"
60.254124,56.07112503051758,"[b'victoria', b'control_wood', b'True', b'job197']"
77.363266,75.6775131225586,"[b'victoria', b'control_wood', b'True', b'job183']"
74.96319,74.93756103515625,"[b'victoria', b'control_wood', b'True', b'job184']"
62.318016,59.60227584838867,"[b'victoria', b'control_wood', b'True', b'job117']"
54.91949,53.04045104980469,"[b'victoria', b'control_wood', b'True', b'job72']"
62.93589,63.431217193603516,"[b'victoria', b'control_wood', b'True', b'job156']"
73.22386,72.54827117919922,"[b'victoria', b'control_wood', b'True', b'job155']"
80.54091,79.9068603515625,"[b'victoria', b'control_wood', b'True', b'job3']"
63.741837,58.010215759277344,"[b'victoria', b'control_wood', b'True', b'job195']"
91.457504,91.12448120117188,"[b'victoria', b'control_wood', b'True', b'job179']"
74.55016,73.39743041992188,"[b'victoria', b'control_wood', b'True', b'job75']"
59.868366,60.10233688354492,"[b'victoria', b'control_wood', b'True', b'job131']"
57.706066,59.58803939819336,"[b'victoria', b'control_wood', b'True', b'job43']"
55.41638,58.04387283325195,"[b'victoria', b'control_wood', b'True', b'job151']"
61.227703,61.089115142822266,"[b'victoria', b'control_wood', b'True', b'job65']"
64.55198,63.30641174316406,"[b'victoria', b'control_wood', b'True', b'job96']"
60.329224,63.25808334350586,"[b'victoria', b'control_wood', b'True', b'job142']"
71.18511,70.61988830566406,"[b'victoria', b'control_wood', b'True', b'job191']"
71.018906,71.5878677368164,"[b'victoria', b'control_wood', b'True', b'job1']"
69.49047,67.36807250976562,"[b'victoria', b'control_wood', b'True', b'job105']"
64.69413,65.96502685546875,"[b'victoria', b'control_wood', b'True', b'job59']"
55.991875,55.591495513916016,"[b'victoria', b'control_wood', b'True', b'job74']"
64.834526,65.13733673095703,"[b'victoria', b'control_wood', b'True', b'job6']"
61.446404,61.89063262939453,"[b'victoria', b'control_wood', b'True', b'job56']"
54.65904,53.40800476074219,"[b'victoria', b'control_wood', b'True', b'job5']"
73.68599,75.17591857910156,"[b'victoria', b'control_wood', b'True', b'job46']"
73.63007,72.61398315429688,"[b'victoria', b'control_wood', b'True', b'job148']"
56.428135,57.25422286987305,"[b'victoria', b'control_wood', b'True', b'job181']"
76.79016,79.8021011352539,"[b'victoria', b'control_wood', b'True', b'job101']"
71.77154,70.38775634765625,"[b'victoria', b'control_wood', b'True', b'job108']"
59.307884,57.54042053222656,"[b'victoria', b'control_wood', b'True', b'job178']"
65.83213,63.32126235961914,"[b'victoria', b'control_wood', b'True', b'job44']"
52.355103,51.65182113647461,"[b'victoria', b'control_wood', b'True', b'job123']"
57.021675,55.64895248413086,"[b'victoria', b'control_wood', b'True', b'job61']"
55.616753,57.63100814819336,"[b'victoria', b'control_wood', b'True', b'job143']"
86.13865,86.07665252685547,"[b'victoria', b'control_wood', b'True', b'job187']"
76.48696,74.8072509765625,"[b'victoria', b'control_wood', b'True', b'job51']"
63.821987,64.38583374023438,"[b'victoria', b'control_wood', b'True', b'job24']"
69.57757,70.91543579101562,"[b'victoria', b'control_wood', b'True', b'job41']"
60.508244,62.406333923339844,"[b'victoria', b'control_wood', b'True', b'job182']"
62.229496,61.56993103027344,"[b'victoria', b'control_wood', b'True', b'job86']"
65.68362,63.068302154541016,"[b'victoria', b'control_wood', b'True', b'job175']"
57.12011,58.14529800415039,"[b'victoria', b'control_wood', b'True', b'job115']"
73.0444,72.7207260131836,"[b'victoria', b'control_wood', b'True', b'job11']"
75.11073,72.9756088256836,"[b'victoria', b'control_wood', b'True', b'job114']"
67.765335,67.0528793334961,"[b'victoria', b'control_wood', b'True', b'job30']"
