envelope_umat,envelope_umat_pred,md
54.746727,54.45537185668945,"[b'victoria', b'control_concrete_inf', b'True', b'job85']"
54.447845,55.46048355102539,"[b'victoria', b'control_concrete_inf', b'True', b'job64']"
73.00063,75.19364166259766,"[b'victoria', b'control_concrete_inf', b'True', b'job155']"
62.624718,61.08164978027344,"[b'victoria', b'control_concrete_inf', b'True', b'job116']"
87.63047,86.2127685546875,"[b'victoria', b'control_concrete_inf', b'True', b'job37']"
62.812073,64.59686279296875,"[b'victoria', b'control_concrete_inf', b'True', b'job173']"
58.80532,56.761444091796875,"[b'victoria', b'control_concrete_inf', b'True', b'job169']"
60.855095,62.74661636352539,"[b'victoria', b'control_concrete_inf', b'True', b'job153']"
81.17776,82.5724868774414,"[b'victoria', b'control_concrete_inf', b'True', b'job160']"
81.89511,81.18695068359375,"[b'victoria', b'control_concrete_inf', b'True', b'job192']"
66.55452,63.11555862426758,"[b'victoria', b'control_concrete_inf', b'True', b'job92']"
59.654503,57.25864791870117,"[b'victoria', b'control_concrete_inf', b'True', b'job150']"
65.74827,60.40730667114258,"[b'victoria', b'control_concrete_inf', b'True', b'job175']"
76.91705,77.01174926757812,"[b'victoria', b'control_concrete_inf', b'True', b'job101']"
77.404724,74.17654418945312,"[b'victoria', b'control_concrete_inf', b'True', b'job183']"
73.46123,69.99612426757812,"[b'victoria', b'control_concrete_inf', b'True', b'job200']"
87.460304,88.0909194946289,"[b'victoria', b'control_concrete_inf', b'True', b'job187']"
69.96032,70.365234375,"[b'victoria', b'control_concrete_inf', b'True', b'job71']"
69.58144,68.2039794921875,"[b'victoria', b'control_concrete_inf', b'True', b'job41']"
57.19841,56.0810432434082,"[b'victoria', b'control_concrete_inf', b'True', b'job10']"
63.36024,67.79788208007812,"[b'victoria', b'control_concrete_inf', b'True', b'job156']"
70.6208,69.53641510009766,"[b'victoria', b'control_concrete_inf', b'True', b'job172']"
65.275955,67.01911163330078,"[b'victoria', b'control_concrete_inf', b'True', b'job100']"
57.628895,59.034053802490234,"[b'victoria', b'control_concrete_inf', b'True', b'job91']"
69.74721,68.73876190185547,"[b'victoria', b'control_concrete_inf', b'True', b'job9']"
75.031235,75.48629760742188,"[b'victoria', b'control_concrete_inf', b'True', b'job184']"
68.56456,68.74501037597656,"[b'victoria', b'control_concrete_inf', b'True', b'job152']"
63.826492,61.33877182006836,"[b'victoria', b'control_concrete_inf', b'True', b'job130']"
86.52788,88.59367370605469,"[b'victoria', b'control_concrete_inf', b'True', b'job87']"
63.61971,60.173458099365234,"[b'victoria', b'control_concrete_inf', b'True', b'job171']"
60.15738,61.671024322509766,"[b'victoria', b'control_concrete_inf', b'True', b'job197']"
76.5759,72.80928802490234,"[b'victoria', b'control_concrete_inf', b'True', b'job89']"
61.608387,58.431304931640625,"[b'victoria', b'control_concrete_inf', b'True', b'job139']"
66.7834,66.73089599609375,"[b'victoria', b'control_concrete_inf', b'True', b'job125']"
76.92393,76.82303619384766,"[b'victoria', b'control_concrete_inf', b'True', b'job22']"
85.00555,80.75642395019531,"[b'victoria', b'control_concrete_inf', b'True', b'job188']"
74.57013,70.739013671875,"[b'victoria', b'control_concrete_inf', b'True', b'job128']"
51.884624,53.188350677490234,"[b'victoria', b'control_concrete_inf', b'True', b'job23']"
85.9702,83.4627685546875,"[b'victoria', b'control_concrete_inf', b'True', b'job162']"
73.158966,70.16559600830078,"[b'victoria', b'control_concrete_inf', b'True', b'job34']"
80.79248,76.13704681396484,"[b'victoria', b'control_concrete_inf', b'True', b'job161']"
54.821953,54.88759231567383,"[b'victoria', b'control_concrete_inf', b'True', b'job70']"
82.15041,84.78157043457031,"[b'victoria', b'control_concrete_inf', b'True', b'job106']"
62.302876,61.25648498535156,"[b'victoria', b'control_concrete_inf', b'True', b'job135']"
64.66811,65.70398712158203,"[b'victoria', b'control_concrete_inf', b'True', b'job6']"
55.30416,56.36626434326172,"[b'victoria', b'control_concrete_inf', b'True', b'job72']"
76.74217,74.82807922363281,"[b'victoria', b'control_concrete_inf', b'True', b'job103']"
71.08246,64.35427856445312,"[b'victoria', b'control_concrete_inf', b'True', b'job40']"
91.8475,94.06111907958984,"[b'victoria', b'control_concrete_inf', b'True', b'job179']"
56.66582,57.528419494628906,"[b'victoria', b'control_concrete_inf', b'True', b'job121']"
60.34399,57.71571731567383,"[b'victoria', b'control_concrete_inf', b'True', b'job14']"
59.497395,62.73421859741211,"[b'victoria', b'control_concrete_inf', b'True', b'job124']"
74.19741,72.4057846069336,"[b'victoria', b'control_concrete_inf', b'True', b'job83']"
74.51734,72.83094787597656,"[b'victoria', b'control_concrete_inf', b'True', b'job75']"
87.08841,81.6380844116211,"[b'victoria', b'control_concrete_inf', b'True', b'job163']"
64.902336,64.25262451171875,"[b'victoria', b'control_concrete_inf', b'True', b'job90']"
82.378265,84.64253234863281,"[b'victoria', b'control_concrete_inf', b'True', b'job79']"
78.03377,75.92768096923828,"[b'victoria', b'control_concrete_inf', b'True', b'job21']"
76.35539,78.40744018554688,"[b'victoria', b'control_concrete_inf', b'True', b'job51']"
61.333286,61.0973014831543,"[b'victoria', b'control_concrete_inf', b'True', b'job56']"
71.76372,68.76848602294922,"[b'victoria', b'control_concrete_inf', b'True', b'job108']"
62.306095,59.927459716796875,"[b'victoria', b'control_concrete_inf', b'True', b'job117']"
67.57417,67.0759506225586,"[b'victoria', b'control_concrete_inf', b'True', b'job30']"
62.036243,58.61949920654297,"[b'victoria', b'control_concrete_inf', b'True', b'job39']"
63.878586,63.396514892578125,"[b'victoria', b'control_concrete_inf', b'True', b'job24']"
84.834175,84.34856414794922,"[b'victoria', b'control_concrete_inf', b'True', b'job196']"
55.513195,58.56795120239258,"[b'victoria', b'control_concrete_inf', b'True', b'job143']"
62.39029,63.96181869506836,"[b'victoria', b'control_concrete_inf', b'True', b'job86']"
57.350723,57.37083053588867,"[b'victoria', b'control_concrete_inf', b'True', b'job47']"
67.18553,65.5023193359375,"[b'victoria', b'control_concrete_inf', b'True', b'job67']"
75.989,77.29364013671875,"[b'victoria', b'control_concrete_inf', b'True', b'job120']"
55.455177,54.29986572265625,"[b'victoria', b'control_concrete_inf', b'True', b'job126']"
67.45269,67.16888427734375,"[b'victoria', b'control_concrete_inf', b'True', b'job76']"
66.57087,62.57528305053711,"[b'victoria', b'control_concrete_inf', b'True', b'job133']"
65.20973,68.03456115722656,"[b'victoria', b'control_concrete_inf', b'True', b'job59']"
55.292103,55.66563034057617,"[b'victoria', b'control_concrete_inf', b'True', b'job141']"
72.90725,73.90582275390625,"[b'victoria', b'control_concrete_inf', b'True', b'job32']"
74.3646,68.80722045898438,"[b'victoria', b'control_concrete_inf', b'True', b'job167']"
84.85366,87.11162567138672,"[b'victoria', b'control_concrete_inf', b'True', b'job129']"
57.43992,57.87329864501953,"[b'victoria', b'control_concrete_inf', b'True', b'job36']"
52.42414,54.100364685058594,"[b'victoria', b'control_concrete_inf', b'True', b'job38']"
55.717113,53.68867111206055,"[b'victoria', b'control_concrete_inf', b'True', b'job136']"
85.44691,83.90969848632812,"[b'victoria', b'control_concrete_inf', b'True', b'job66']"
73.6706,72.0999755859375,"[b'victoria', b'control_concrete_inf', b'True', b'job148']"
54.706512,58.45199203491211,"[b'victoria', b'control_concrete_inf', b'True', b'job144']"
59.47163,58.24613571166992,"[b'victoria', b'control_concrete_inf', b'True', b'job104']"
71.2866,69.79926300048828,"[b'victoria', b'control_concrete_inf', b'True', b'job118']"
58.463123,59.95198059082031,"[b'victoria', b'control_concrete_inf', b'True', b'job45']"
56.812996,54.313087463378906,"[b'victoria', b'control_concrete_inf', b'True', b'job146']"
69.28725,68.2498779296875,"[b'victoria', b'control_concrete_inf', b'True', b'job140']"
83.56351,83.17499542236328,"[b'victoria', b'control_concrete_inf', b'True', b'job174']"
55.33387,56.62676239013672,"[b'victoria', b'control_concrete_inf', b'True', b'job132']"
58.246895,60.07851028442383,"[b'victoria', b'control_concrete_inf', b'True', b'job8']"
64.82228,66.29420471191406,"[b'victoria', b'control_concrete_inf', b'True', b'job134']"
69.48706,68.64804077148438,"[b'victoria', b'control_concrete_inf', b'True', b'job105']"
59.084686,58.647457122802734,"[b'victoria', b'control_concrete_inf', b'True', b'job185']"
64.258095,59.6061897277832,"[b'victoria', b'control_concrete_inf', b'True', b'job145']"
70.81566,70.60163116455078,"[b'victoria', b'control_concrete_inf', b'True', b'job191']"
76.34432,77.30461120605469,"[b'victoria', b'control_concrete_inf', b'True', b'job186']"
70.80523,70.00557708740234,"[b'victoria', b'control_concrete_inf', b'True', b'job165']"
71.335396,68.60082244873047,"[b'victoria', b'control_concrete_inf', b'True', b'job180']"
52.81299,53.94896697998047,"[b'victoria', b'control_concrete_inf', b'True', b'job62']"
74.33968,75.90037536621094,"[b'victoria', b'control_concrete_inf', b'True', b'job46']"
65.33364,65.6177978515625,"[b'victoria', b'control_concrete_inf', b'True', b'job18']"
57.561268,57.70783233642578,"[b'victoria', b'control_concrete_inf', b'True', b'job43']"
85.28808,87.2538833618164,"[b'victoria', b'control_concrete_inf', b'True', b'job177']"
73.34529,71.85342407226562,"[b'victoria', b'control_concrete_inf', b'True', b'job170']"
72.483345,72.64915466308594,"[b'victoria', b'control_concrete_inf', b'True', b'job193']"
60.10773,60.27931213378906,"[b'victoria', b'control_concrete_inf', b'True', b'job199']"
64.64994,63.93502426147461,"[b'victoria', b'control_concrete_inf', b'True', b'job107']"
72.27369,65.77801513671875,"[b'victoria', b'control_concrete_inf', b'True', b'job111']"
57.11415,53.63528823852539,"[b'victoria', b'control_concrete_inf', b'True', b'job61']"
61.21752,59.207191467285156,"[b'victoria', b'control_concrete_inf', b'True', b'job65']"
54.079967,56.45682144165039,"[b'victoria', b'control_concrete_inf', b'True', b'job54']"
70.3316,70.24319458007812,"[b'victoria', b'control_concrete_inf', b'True', b'job81']"
60.884525,61.27742385864258,"[b'victoria', b'control_concrete_inf', b'True', b'job69']"
69.693,62.874229431152344,"[b'victoria', b'control_concrete_inf', b'True', b'job122']"
59.85487,60.72761154174805,"[b'victoria', b'control_concrete_inf', b'True', b'job189']"
65.775375,65.73475646972656,"[b'victoria', b'control_concrete_inf', b'True', b'job44']"
77.93614,74.28119659423828,"[b'victoria', b'control_concrete_inf', b'True', b'job60']"
69.05809,69.75318145751953,"[b'victoria', b'control_concrete_inf', b'True', b'job27']"
62.444695,65.59635925292969,"[b'victoria', b'control_concrete_inf', b'True', b'job198']"
67.19923,66.59657287597656,"[b'victoria', b'control_concrete_inf', b'True', b'job166']"
53.15365,54.89951705932617,"[b'victoria', b'control_concrete_inf', b'True', b'job13']"
70.79844,66.48123931884766,"[b'victoria', b'control_concrete_inf', b'True', b'job112']"
91.093895,85.3262710571289,"[b'victoria', b'control_concrete_inf', b'True', b'job73']"
64.36765,68.06975555419922,"[b'victoria', b'control_concrete_inf', b'True', b'job52']"
80.04478,74.09707641601562,"[b'victoria', b'control_concrete_inf', b'True', b'job3']"
63.95631,62.1876335144043,"[b'victoria', b'control_concrete_inf', b'True', b'job195']"
81.07514,79.54695892333984,"[b'victoria', b'control_concrete_inf', b'True', b'job109']"
73.26164,71.73609161376953,"[b'victoria', b'control_concrete_inf', b'True', b'job11']"
51.016453,49.82761764526367,"[b'victoria', b'control_concrete_inf', b'True', b'job31']"
63.585514,65.86482238769531,"[b'victoria', b'control_concrete_inf', b'True', b'job82']"
55.93416,58.69926452636719,"[b'victoria', b'control_concrete_inf', b'True', b'job58']"
64.50318,67.21513366699219,"[b'victoria', b'control_concrete_inf', b'True', b'job20']"
72.78509,70.91448974609375,"[b'victoria', b'control_concrete_inf', b'True', b'job149']"
56.343678,55.853355407714844,"[b'victoria', b'control_concrete_inf', b'True', b'job181']"
64.99758,62.91073989868164,"[b'victoria', b'control_concrete_inf', b'True', b'job168']"
52.2886,53.28016662597656,"[b'victoria', b'control_concrete_inf', b'True', b'job123']"
60.302124,59.67763137817383,"[b'victoria', b'control_concrete_inf', b'True', b'job98']"
77.645706,78.1189193725586,"[b'victoria', b'control_concrete_inf', b'True', b'job147']"
80.39624,71.32958984375,"[b'victoria', b'control_concrete_inf', b'True', b'job127']"
57.133804,59.253902435302734,"[b'victoria', b'control_concrete_inf', b'True', b'job115']"
63.755173,65.13687896728516,"[b'victoria', b'control_concrete_inf', b'True', b'job57']"
54.684532,55.55501937866211,"[b'victoria', b'control_concrete_inf', b'True', b'job5']"
67.06513,67.24139404296875,"[b'victoria', b'control_concrete_inf', b'True', b'job113']"
70.164635,71.22775268554688,"[b'victoria', b'control_concrete_inf', b'True', b'job164']"
69.090164,69.12564086914062,"[b'victoria', b'control_concrete_inf', b'True', b'job35']"
70.61091,72.27606964111328,"[b'victoria', b'control_concrete_inf', b'True', b'job176']"
59.225697,56.63929748535156,"[b'victoria', b'control_concrete_inf', b'True', b'job110']"
57.899883,57.742881774902344,"[b'victoria', b'control_concrete_inf', b'True', b'job12']"
69.826035,67.14442443847656,"[b'victoria', b'control_concrete_inf', b'True', b'job154']"
59.51646,59.21339797973633,"[b'victoria', b'control_concrete_inf', b'True', b'job178']"
73.52729,75.11965942382812,"[b'victoria', b'control_concrete_inf', b'True', b'job138']"
67.19911,68.55136108398438,"[b'victoria', b'control_concrete_inf', b'True', b'job55']"
91.12426,87.42021942138672,"[b'victoria', b'control_concrete_inf', b'True', b'job159']"
60.104145,59.838626861572266,"[b'victoria', b'control_concrete_inf', b'True', b'job131']"
57.79054,57.51217269897461,"[b'victoria', b'control_concrete_inf', b'True', b'job158']"
64.85277,66.55814361572266,"[b'victoria', b'control_concrete_inf', b'True', b'job96']"
56.057693,57.963619232177734,"[b'victoria', b'control_concrete_inf', b'True', b'job63']"
64.74942,64.82096099853516,"[b'victoria', b'control_concrete_inf', b'True', b'job119']"
55.3042,56.53445053100586,"[b'victoria', b'control_concrete_inf', b'True', b'job151']"
71.19601,70.256591796875,"[b'victoria', b'control_concrete_inf', b'True', b'job1']"
66.34217,63.864566802978516,"[b'victoria', b'control_concrete_inf', b'True', b'job137']"
60.34171,59.55241012573242,"[b'victoria', b'control_concrete_inf', b'True', b'job102']"
75.39693,76.50486755371094,"[b'victoria', b'control_concrete_inf', b'True', b'job16']"
75.07428,72.1992416381836,"[b'victoria', b'control_concrete_inf', b'True', b'job114']"
55.355,55.074161529541016,"[b'victoria', b'control_concrete_inf', b'True', b'job94']"
65.2295,64.67799377441406,"[b'victoria', b'control_concrete_inf', b'True', b'job190']"
61.89461,64.21514892578125,"[b'victoria', b'control_concrete_inf', b'True', b'job42']"
78.113815,76.32054138183594,"[b'victoria', b'control_concrete_inf', b'True', b'job7']"
73.89628,73.9575424194336,"[b'victoria', b'control_concrete_inf', b'True', b'job33']"
53.931248,54.63154602050781,"[b'victoria', b'control_concrete_inf', b'True', b'job68']"
60.50068,64.88777160644531,"[b'victoria', b'control_concrete_inf', b'True', b'job142']"
71.267944,65.03336334228516,"[b'victoria', b'control_concrete_inf', b'True', b'job4']"
55.136803,54.25043869018555,"[b'victoria', b'control_concrete_inf', b'True', b'job194']"
55.98149,54.33228302001953,"[b'victoria', b'control_concrete_inf', b'True', b'job74']"
60.468384,60.758140563964844,"[b'victoria', b'control_concrete_inf', b'True', b'job182']"
81.52892,80.640869140625,"[b'victoria', b'control_concrete_inf', b'True', b'job157']"
69.98556,63.96006393432617,"[b'victoria', b'control_concrete_inf', b'True', b'job2']"
74.87731,78.21204376220703,"[b'victoria', b'control_concrete_inf', b'True', b'job99']"
