envelope_umat,envelope_umat_pred,md
69.7861,73.22692108154297,"[b'chicago', b'control_wood_inf', b'False', b'job71']"
57.021675,57.911190032958984,"[b'chicago', b'control_wood_inf', b'False', b'job61']"
62.93589,64.77880859375,"[b'chicago', b'control_wood_inf', b'False', b'job156']"
73.361305,75.80650329589844,"[b'chicago', b'control_wood_inf', b'False', b'job200']"
52.44684,56.31074905395508,"[b'chicago', b'control_wood_inf', b'False', b'job38']"
62.479855,64.20293426513672,"[b'chicago', b'control_wood_inf', b'False', b'job135']"
74.11477,75.69930267333984,"[b'chicago', b'control_wood_inf', b'False', b'job33']"
76.765785,77.27250671386719,"[b'chicago', b'control_wood_inf', b'False', b'job103']"
86.13865,87.69581604003906,"[b'chicago', b'control_wood_inf', b'False', b'job187']"
58.83215,60.45664596557617,"[b'chicago', b'control_wood_inf', b'False', b'job169']"
56.622963,57.37016677856445,"[b'chicago', b'control_wood_inf', b'False', b'job121']"
79.9168,82.15681457519531,"[b'chicago', b'control_wood_inf', b'False', b'job192']"
90.99385,89.827880859375,"[b'chicago', b'control_wood_inf', b'False', b'job159']"
63.665806,65.12321472167969,"[b'chicago', b'control_wood_inf', b'False', b'job57']"
59.062626,60.06806564331055,"[b'chicago', b'control_wood_inf', b'False', b'job185']"
57.93667,60.08505630493164,"[b'chicago', b'control_wood_inf', b'False', b'job12']"
82.22221,84.86720275878906,"[b'chicago', b'control_wood_inf', b'False', b'job79']"
79.06316,77.90401458740234,"[b'chicago', b'control_wood_inf', b'False', b'job109']"
60.180378,60.993492126464844,"[b'chicago', b'control_wood_inf', b'False', b'job98']"
59.286606,61.96095275878906,"[b'chicago', b'control_wood_inf', b'False', b'job110']"
59.728977,62.31232833862305,"[b'chicago', b'control_wood_inf', b'False', b'job189']"
62.2602,64.0357894897461,"[b'chicago', b'control_wood_inf', b'False', b'job198']"
70.28179,71.32427215576172,"[b'chicago', b'control_wood_inf', b'False', b'job172']"
74.55016,75.81333923339844,"[b'chicago', b'control_wood_inf', b'False', b'job75']"
61.7481,62.664920806884766,"[b'chicago', b'control_wood_inf', b'False', b'job139']"
63.163628,64.59384155273438,"[b'chicago', b'control_wood_inf', b'False', b'job82']"
69.12592,70.03177642822266,"[b'chicago', b'control_wood_inf', b'False', b'job35']"
84.702354,83.74344635009766,"[b'chicago', b'control_wood_inf', b'False', b'job188']"
58.339558,60.81790542602539,"[b'chicago', b'control_wood_inf', b'False', b'job8']"
58.591057,60.377254486083984,"[b'chicago', b'control_wood_inf', b'False', b'job45']"
81.45826,81.34904479980469,"[b'chicago', b'control_wood_inf', b'False', b'job157']"
77.961365,78.9530029296875,"[b'chicago', b'control_wood_inf', b'False', b'job21']"
65.125946,66.21467590332031,"[b'chicago', b'control_wood_inf', b'False', b'job190']"
87.58313,89.22515869140625,"[b'chicago', b'control_wood_inf', b'False', b'job66']"
64.77426,66.86849212646484,"[b'chicago', b'control_wood_inf', b'False', b'job134']"
76.66007,78.32938385009766,"[b'chicago', b'control_wood_inf', b'False', b'job89']"
53.983086,56.02997970581055,"[b'chicago', b'control_wood_inf', b'False', b'job68']"
60.329224,62.37085723876953,"[b'chicago', b'control_wood_inf', b'False', b'job142']"
55.333183,58.1549186706543,"[b'chicago', b'control_wood_inf', b'False', b'job141']"
73.68599,75.95155334472656,"[b'chicago', b'control_wood_inf', b'False', b'job46']"
72.976166,72.44649505615234,"[b'chicago', b'control_wood_inf', b'False', b'job193']"
59.307884,60.286067962646484,"[b'chicago', b'control_wood_inf', b'False', b'job178']"
57.417164,58.7132568359375,"[b'chicago', b'control_wood_inf', b'False', b'job36']"
54.012135,58.45896911621094,"[b'chicago', b'control_wood_inf', b'False', b'job54']"
68.89302,69.07855987548828,"[b'chicago', b'control_wood_inf', b'False', b'job154']"
60.719856,63.070674896240234,"[b'chicago', b'control_wood_inf', b'False', b'job69']"
59.476967,62.1430549621582,"[b'chicago', b'control_wood_inf', b'False', b'job124']"
91.457504,91.0140609741211,"[b'chicago', b'control_wood_inf', b'False', b'job179']"
81.05092,83.42713165283203,"[b'chicago', b'control_wood_inf', b'False', b'job161']"
61.446404,64.51944732666016,"[b'chicago', b'control_wood_inf', b'False', b'job56']"
62.59798,64.49239349365234,"[b'chicago', b'control_wood_inf', b'False', b'job173']"
73.0444,74.90884399414062,"[b'chicago', b'control_wood_inf', b'False', b'job11']"
64.834526,65.89115905761719,"[b'chicago', b'control_wood_inf', b'False', b'job6']"
67.765335,70.45728302001953,"[b'chicago', b'control_wood_inf', b'False', b'job30']"
64.56926,67.0105972290039,"[b'chicago', b'control_wood_inf', b'False', b'job20']"
93.00335,89.58285522460938,"[b'chicago', b'control_wood_inf', b'False', b'job73']"
54.861275,56.797874450683594,"[b'chicago', b'control_wood_inf', b'False', b'job144']"
64.69413,67.94921875,"[b'chicago', b'control_wood_inf', b'False', b'job59']"
57.11615,57.3806037902832,"[b'chicago', b'control_wood_inf', b'False', b'job10']"
71.29433,73.42993927001953,"[b'chicago', b'control_wood_inf', b'False', b'job118']"
64.77658,65.57343292236328,"[b'chicago', b'control_wood_inf', b'False', b'job119']"
61.7142,64.40272521972656,"[b'chicago', b'control_wood_inf', b'False', b'job42']"
66.3347,68.92540740966797,"[b'chicago', b'control_wood_inf', b'False', b'job137']"
69.323654,69.35601806640625,"[b'chicago', b'control_wood_inf', b'False', b'job140']"
63.543755,63.56443786621094,"[b'chicago', b'control_wood_inf', b'False', b'job171']"
55.209793,56.479366302490234,"[b'chicago', b'control_wood_inf', b'False', b'job194']"
65.31814,66.52828979492188,"[b'chicago', b'control_wood_inf', b'False', b'job18']"
74.96319,75.31713104248047,"[b'chicago', b'control_wood_inf', b'False', b'job184']"
55.516403,58.070796966552734,"[b'chicago', b'control_wood_inf', b'False', b'job136']"
63.821987,64.6959457397461,"[b'chicago', b'control_wood_inf', b'False', b'job24']"
57.50048,58.80995559692383,"[b'chicago', b'control_wood_inf', b'False', b'job91']"
70.68909,73.31809997558594,"[b'chicago', b'control_wood_inf', b'False', b'job176']"
60.331444,63.61989974975586,"[b'chicago', b'control_wood_inf', b'False', b'job102']"
84.74809,84.84034729003906,"[b'chicago', b'control_wood_inf', b'False', b'job162']"
54.847996,55.64444351196289,"[b'chicago', b'control_wood_inf', b'False', b'job70']"
50.969276,54.41304016113281,"[b'chicago', b'control_wood_inf', b'False', b'job31']"
55.49419,57.639286041259766,"[b'chicago', b'control_wood_inf', b'False', b'job126']"
87.51878,90.1766357421875,"[b'chicago', b'control_wood_inf', b'False', b'job87']"
72.78818,74.86796569824219,"[b'chicago', b'control_wood_inf', b'False', b'job149']"
60.323658,61.78817367553711,"[b'chicago', b'control_wood_inf', b'False', b'job14']"
74.21993,75.40451049804688,"[b'chicago', b'control_wood_inf', b'False', b'job128']"
63.87302,65.36807250976562,"[b'chicago', b'control_wood_inf', b'False', b'job130']"
67.651665,70.87026977539062,"[b'chicago', b'control_wood_inf', b'False', b'job166']"
60.807594,63.53872299194336,"[b'chicago', b'control_wood_inf', b'False', b'job153']"
68.664375,70.39815521240234,"[b'chicago', b'control_wood_inf', b'False', b'job152']"
59.619774,60.17830276489258,"[b'chicago', b'control_wood_inf', b'False', b'job150']"
60.508244,62.79637145996094,"[b'chicago', b'control_wood_inf', b'False', b'job182']"
81.36383,84.8128662109375,"[b'chicago', b'control_wood_inf', b'False', b'job106']"
76.92523,77.68344116210938,"[b'chicago', b'control_wood_inf', b'False', b'job22']"
74.44455,75.52143859863281,"[b'chicago', b'control_wood_inf', b'False', b'job167']"
80.54091,80.36244201660156,"[b'chicago', b'control_wood_inf', b'False', b'job3']"
72.25856,75.08824920654297,"[b'chicago', b'control_wood_inf', b'False', b'job111']"
70.286674,71.56055450439453,"[b'chicago', b'control_wood_inf', b'False', b'job81']"
59.868366,62.46120834350586,"[b'chicago', b'control_wood_inf', b'False', b'job131']"
80.6522,83.40940856933594,"[b'chicago', b'control_wood_inf', b'False', b'job160']"
66.86698,66.07110595703125,"[b'chicago', b'control_wood_inf', b'False', b'job113']"
56.715336,56.81570816040039,"[b'chicago', b'control_wood_inf', b'False', b'job146']"
65.83213,67.48550415039062,"[b'chicago', b'control_wood_inf', b'False', b'job44']"
84.91886,83.78264617919922,"[b'chicago', b'control_wood_inf', b'False', b'job196']"
76.249435,76.59305572509766,"[b'chicago', b'control_wood_inf', b'False', b'job186']"
54.370987,57.09491729736328,"[b'chicago', b'control_wood_inf', b'False', b'job64']"
69.75871,70.2971420288086,"[b'chicago', b'control_wood_inf', b'False', b'job164']"
64.329865,65.50210571289062,"[b'chicago', b'control_wood_inf', b'False', b'job145']"
66.61022,68.33211517333984,"[b'chicago', b'control_wood_inf', b'False', b'job133']"
57.20513,59.34731674194336,"[b'chicago', b'control_wood_inf', b'False', b'job47']"
78.05229,80.13172912597656,"[b'chicago', b'control_wood_inf', b'False', b'job60']"
62.229496,64.67665100097656,"[b'chicago', b'control_wood_inf', b'False', b'job86']"
57.706066,58.97254943847656,"[b'chicago', b'control_wood_inf', b'False', b'job43']"
71.05797,73.14556884765625,"[b'chicago', b'control_wood_inf', b'False', b'job165']"
73.52603,76.18840789794922,"[b'chicago', b'control_wood_inf', b'False', b'job138']"
73.38546,76.38003540039062,"[b'chicago', b'control_wood_inf', b'False', b'job170']"
70.76262,74.10843658447266,"[b'chicago', b'control_wood_inf', b'False', b'job112']"
55.41638,56.7620964050293,"[b'chicago', b'control_wood_inf', b'False', b'job151']"
55.26719,56.7246208190918,"[b'chicago', b'control_wood_inf', b'False', b'job94']"
72.94935,75.41358947753906,"[b'chicago', b'control_wood_inf', b'False', b'job32']"
80.37572,81.2398910522461,"[b'chicago', b'control_wood_inf', b'False', b'job127']"
71.34979,71.52230834960938,"[b'chicago', b'control_wood_inf', b'False', b'job4']"
71.18511,74.94386291503906,"[b'chicago', b'control_wood_inf', b'False', b'job191']"
68.140724,71.94219207763672,"[b'chicago', b'control_wood_inf', b'False', b'job27']"
64.32007,65.84577178955078,"[b'chicago', b'control_wood_inf', b'False', b'job52']"
53.271263,57.745845794677734,"[b'chicago', b'control_wood_inf', b'False', b'job13']"
55.386993,58.48847961425781,"[b'chicago', b'control_wood_inf', b'False', b'job132']"
64.62152,64.27191162109375,"[b'chicago', b'control_wood_inf', b'False', b'job107']"
65.68362,66.2244873046875,"[b'chicago', b'control_wood_inf', b'False', b'job175']"
75.28601,78.3298110961914,"[b'chicago', b'control_wood_inf', b'False', b'job16']"
66.6182,69.17021179199219,"[b'chicago', b'control_wood_inf', b'False', b'job125']"
76.79016,79.10174560546875,"[b'chicago', b'control_wood_inf', b'False', b'job101']"
59.22354,61.687950134277344,"[b'chicago', b'control_wood_inf', b'False', b'job104']"
73.158775,75.55390930175781,"[b'chicago', b'control_wood_inf', b'False', b'job34']"
62.09771,63.533668518066406,"[b'chicago', b'control_wood_inf', b'False', b'job39']"
74.81958,76.10863494873047,"[b'chicago', b'control_wood_inf', b'False', b'job99']"
67.239914,69.42362976074219,"[b'chicago', b'control_wood_inf', b'False', b'job92']"
77.363266,79.64982604980469,"[b'chicago', b'control_wood_inf', b'False', b'job183']"
54.65904,56.44657516479492,"[b'chicago', b'control_wood_inf', b'False', b'job5']"
69.604294,69.43744659423828,"[b'chicago', b'control_wood_inf', b'False', b'job122']"
60.254124,61.77606964111328,"[b'chicago', b'control_wood_inf', b'False', b'job197']"
69.74487,72.18559265136719,"[b'chicago', b'control_wood_inf', b'False', b'job9']"
62.619286,64.07723999023438,"[b'chicago', b'control_wood_inf', b'False', b'job116']"
62.318016,64.68856811523438,"[b'chicago', b'control_wood_inf', b'False', b'job117']"
55.616753,57.428218841552734,"[b'chicago', b'control_wood_inf', b'False', b'job143']"
52.65569,55.323612213134766,"[b'chicago', b'control_wood_inf', b'False', b'job62']"
71.77154,74.83707427978516,"[b'chicago', b'control_wood_inf', b'False', b'job108']"
55.91224,56.80723190307617,"[b'chicago', b'control_wood_inf', b'False', b'job58']"
86.42648,86.55410766601562,"[b'chicago', b'control_wood_inf', b'False', b'job37']"
57.74552,60.090267181396484,"[b'chicago', b'control_wood_inf', b'False', b'job158']"
64.338005,65.82425689697266,"[b'chicago', b'control_wood_inf', b'False', b'job168']"
67.609344,68.67891693115234,"[b'chicago', b'control_wood_inf', b'False', b'job76']"
64.89907,65.34355926513672,"[b'chicago', b'control_wood_inf', b'False', b'job90']"
64.55198,66.69734954833984,"[b'chicago', b'control_wood_inf', b'False', b'job96']"
55.991875,56.987388610839844,"[b'chicago', b'control_wood_inf', b'False', b'job74']"
74.29683,73.94319915771484,"[b'chicago', b'control_wood_inf', b'False', b'job83']"
71.32435,71.50379180908203,"[b'chicago', b'control_wood_inf', b'False', b'job180']"
84.8458,85.89270782470703,"[b'chicago', b'control_wood_inf', b'False', b'job129']"
56.428135,58.24163055419922,"[b'chicago', b'control_wood_inf', b'False', b'job181']"
57.12011,59.27861404418945,"[b'chicago', b'control_wood_inf', b'False', b'job115']"
79.88961,81.89848327636719,"[b'chicago', b'control_wood_inf', b'False', b'job7']"
51.93655,56.32356262207031,"[b'chicago', b'control_wood_inf', b'False', b'job23']"
54.91949,58.73160171508789,"[b'chicago', b'control_wood_inf', b'False', b'job72']"
52.355103,55.98976516723633,"[b'chicago', b'control_wood_inf', b'False', b'job123']"
86.46469,87.19682312011719,"[b'chicago', b'control_wood_inf', b'False', b'job163']"
70.94228,71.04902648925781,"[b'chicago', b'control_wood_inf', b'False', b'job40']"
67.10037,69.156005859375,"[b'chicago', b'control_wood_inf', b'False', b'job67']"
55.948326,57.43024826049805,"[b'chicago', b'control_wood_inf', b'False', b'job63']"
69.49047,71.27732849121094,"[b'chicago', b'control_wood_inf', b'False', b'job105']"
61.227703,64.1651611328125,"[b'chicago', b'control_wood_inf', b'False', b'job65']"
73.63007,74.61701965332031,"[b'chicago', b'control_wood_inf', b'False', b'job148']"
64.90808,65.6539535522461,"[b'chicago', b'control_wood_inf', b'False', b'job100']"
85.56182,85.69393920898438,"[b'chicago', b'control_wood_inf', b'False', b'job177']"
54.722614,56.557220458984375,"[b'chicago', b'control_wood_inf', b'False', b'job85']"
77.49824,79.38060760498047,"[b'chicago', b'control_wood_inf', b'False', b'job147']"
63.741837,64.54544830322266,"[b'chicago', b'control_wood_inf', b'False', b'job195']"
83.599495,86.4169692993164,"[b'chicago', b'control_wood_inf', b'False', b'job174']"
73.22386,77.35985565185547,"[b'chicago', b'control_wood_inf', b'False', b'job155']"
69.57757,71.3397216796875,"[b'chicago', b'control_wood_inf', b'False', b'job41']"
59.994656,60.36205291748047,"[b'chicago', b'control_wood_inf', b'False', b'job199']"
75.11073,74.86724090576172,"[b'chicago', b'control_wood_inf', b'False', b'job114']"
67.16375,70.20556640625,"[b'chicago', b'control_wood_inf', b'False', b'job55']"
76.1652,77.89131927490234,"[b'chicago', b'control_wood_inf', b'False', b'job120']"
76.48696,77.15560913085938,"[b'chicago', b'control_wood_inf', b'False', b'job51']"
