envelope_inf_hlc,envelope_inf_hlc_pred,md
143.82611,143.05422973632812,"[b'victoria', b'control_wood_inf', b'True', b'job105']"
146.02579,145.8863525390625,"[b'victoria', b'control_wood_inf', b'True', b'job34']"
144.02838,142.90753173828125,"[b'victoria', b'control_wood_inf', b'True', b'job2']"
151.09747,150.61985778808594,"[b'victoria', b'control_wood_inf', b'True', b'job79']"
137.07579,137.14523315429688,"[b'victoria', b'control_wood_inf', b'True', b'job91']"
133.01984,133.5662384033203,"[b'victoria', b'control_wood_inf', b'True', b'job31']"
143.92517,143.18902587890625,"[b'victoria', b'control_wood_inf', b'True', b'job154']"
140.71947,140.0570526123047,"[b'victoria', b'control_wood_inf', b'True', b'job195']"
145.2186,143.80616760253906,"[b'victoria', b'control_wood_inf', b'True', b'job180']"
136.4303,136.21224975585938,"[b'victoria', b'control_wood_inf', b'True', b'job181']"
154.30392,153.54957580566406,"[b'victoria', b'control_wood_inf', b'True', b'job66']"
146.6411,146.1978759765625,"[b'victoria', b'control_wood_inf', b'True', b'job155']"
141.42647,141.37123107910156,"[b'victoria', b'control_wood_inf', b'True', b'job90']"
136.69182,135.45362854003906,"[b'victoria', b'control_wood_inf', b'True', b'job10']"
155.93237,155.22952270507812,"[b'victoria', b'control_wood_inf', b'True', b'job179']"
133.63687,134.23989868164062,"[b'victoria', b'control_wood_inf', b'True', b'job23']"
155.82907,154.35882568359375,"[b'victoria', b'control_wood_inf', b'True', b'job159']"
135.77647,136.3826141357422,"[b'victoria', b'control_wood_inf', b'True', b'job94']"
141.55386,141.06924438476562,"[b'victoria', b'control_wood_inf', b'True', b'job18']"
144.22104,142.84423828125,"[b'victoria', b'control_wood_inf', b'True', b'job164']"
138.81775,139.4869384765625,"[b'victoria', b'control_wood_inf', b'True', b'job14']"
137.60269,136.7049560546875,"[b'victoria', b'control_wood_inf', b'True', b'job45']"
144.73106,145.20477294921875,"[b'victoria', b'control_wood_inf', b'True', b'job176']"
144.54488,144.4402313232422,"[b'victoria', b'control_wood_inf', b'True', b'job172']"
144.35101,144.0308074951172,"[b'victoria', b'control_wood_inf', b'True', b'job71']"
135.97319,135.28994750976562,"[b'victoria', b'control_wood_inf', b'True', b'job136']"
146.47636,144.81370544433594,"[b'victoria', b'control_wood_inf', b'True', b'job83']"
134.52397,134.86978149414062,"[b'victoria', b'control_wood_inf', b'True', b'job13']"
153.25095,151.61276245117188,"[b'victoria', b'control_wood_inf', b'True', b'job163']"
152.25381,150.58935546875,"[b'victoria', b'control_wood_inf', b'True', b'job196']"
152.10323,151.6925811767578,"[b'victoria', b'control_wood_inf', b'True', b'job162']"
140.52716,140.261474609375,"[b'victoria', b'control_wood_inf', b'True', b'job82']"
136.1559,135.89846801757812,"[b'victoria', b'control_wood_inf', b'True', b'job58']"
141.16188,141.29931640625,"[b'victoria', b'control_wood_inf', b'True', b'job168']"
148.27353,147.4918670654297,"[b'victoria', b'control_wood_inf', b'True', b'job101']"
143.9371,142.3112335205078,"[b'victoria', b'control_wood_inf', b'True', b'job122']"
156.61842,154.8080291748047,"[b'victoria', b'control_wood_inf', b'True', b'job73']"
150.39458,149.97171020507812,"[b'victoria', b'control_wood_inf', b'True', b'job161']"
146.64482,146.6645050048828,"[b'victoria', b'control_wood_inf', b'True', b'job33']"
135.42058,134.03762817382812,"[b'victoria', b'control_wood_inf', b'True', b'job72']"
146.21194,145.23788452148438,"[b'victoria', b'control_wood_inf', b'True', b'job193']"
146.18422,145.71951293945312,"[b'victoria', b'control_wood_inf', b'True', b'job170']"
136.99495,137.22866821289062,"[b'victoria', b'control_wood_inf', b'True', b'job36']"
141.97928,141.31341552734375,"[b'victoria', b'control_wood_inf', b'True', b'job175']"
139.64836,139.16835021972656,"[b'victoria', b'control_wood_inf', b'True', b'job139']"
143.72772,142.43994140625,"[b'victoria', b'control_wood_inf', b'True', b'job35']"
140.28299,139.1750030517578,"[b'victoria', b'control_wood_inf', b'True', b'job156']"
151.76886,150.3587646484375,"[b'victoria', b'control_wood_inf', b'True', b'job174']"
138.18163,138.90379333496094,"[b'victoria', b'control_wood_inf', b'True', b'job104']"
148.49995,146.75563049316406,"[b'victoria', b'control_wood_inf', b'True', b'job147']"
141.05838,140.3441162109375,"[b'victoria', b'control_wood_inf', b'True', b'job20']"
137.94028,137.88836669921875,"[b'victoria', b'control_wood_inf', b'True', b'job185']"
147.35425,147.20716857910156,"[b'victoria', b'control_wood_inf', b'True', b'job16']"
145.1867,145.35968017578125,"[b'victoria', b'control_wood_inf', b'True', b'job118']"
136.57042,136.39187622070312,"[b'victoria', b'control_wood_inf', b'True', b'job121']"
146.15121,146.23651123046875,"[b'victoria', b'control_wood_inf', b'True', b'job11']"
141.34207,141.35670471191406,"[b'victoria', b'control_wood_inf', b'True', b'job134']"
146.17883,145.6032257080078,"[b'victoria', b'control_wood_inf', b'True', b'job200']"
145.52083,145.35806274414062,"[b'victoria', b'control_wood_inf', b'True', b'job111']"
140.46669,138.98373413085938,"[b'victoria', b'control_wood_inf', b'True', b'job171']"
145.30794,145.51296997070312,"[b'victoria', b'control_wood_inf', b'True', b'job191']"
135.8341,136.01272583007812,"[b'victoria', b'control_wood_inf', b'True', b'job151']"
135.62894,134.54005432128906,"[b'victoria', b'control_wood_inf', b'True', b'job194']"
139.96524,138.55337524414062,"[b'victoria', b'control_wood_inf', b'True', b'job173']"
148.80966,147.71475219726562,"[b'victoria', b'control_wood_inf', b'True', b'job60']"
141.78952,141.0749969482422,"[b'victoria', b'control_wood_inf', b'True', b'job44']"
135.85654,135.85975646972656,"[b'victoria', b'control_wood_inf', b'True', b'job126']"
149.40775,148.03604125976562,"[b'victoria', b'control_wood_inf', b'True', b'job109']"
143.82437,142.8326416015625,"[b'victoria', b'control_wood_inf', b'True', b'job140']"
135.49213,135.21697998046875,"[b'victoria', b'control_wood_inf', b'True', b'job144']"
139.02216,139.1240997314453,"[b'victoria', b'control_wood_inf', b'True', b'job69']"
139.41307,139.2606964111328,"[b'victoria', b'control_wood_inf', b'True', b'job65']"
134.06012,134.43865966796875,"[b'victoria', b'control_wood_inf', b'True', b'job62']"
152.41913,150.44943237304688,"[b'victoria', b'control_wood_inf', b'True', b'job188']"
150.28766,149.29727172851562,"[b'victoria', b'control_wood_inf', b'True', b'job160']"
138.25835,137.6265869140625,"[b'victoria', b'control_wood_inf', b'True', b'job124']"
153.16957,152.64291381835938,"[b'victoria', b'control_wood_inf', b'True', b'job187']"
140.8727,140.76976013183594,"[b'victoria', b'control_wood_inf', b'True', b'job24']"
147.87337,146.5946807861328,"[b'victoria', b'control_wood_inf', b'True', b'job89']"
149.77333,149.27818298339844,"[b'victoria', b'control_wood_inf', b'True', b'job192']"
147.98871,146.30191040039062,"[b'victoria', b'control_wood_inf', b'True', b'job103']"
138.65764,137.67633056640625,"[b'victoria', b'control_wood_inf', b'True', b'job98']"
148.28789,147.133544921875,"[b'victoria', b'control_wood_inf', b'True', b'job183']"
139.00589,138.76251220703125,"[b'victoria', b'control_wood_inf', b'True', b'job142']"
141.58835,141.1973876953125,"[b'victoria', b'control_wood_inf', b'True', b'job59']"
136.63461,135.6600341796875,"[b'victoria', b'control_wood_inf', b'True', b'job61']"
146.42128,146.58409118652344,"[b'victoria', b'control_wood_inf', b'True', b'job138']"
143.70142,143.43991088867188,"[b'victoria', b'control_wood_inf', b'True', b'job27']"
146.45943,145.9708251953125,"[b'victoria', b'control_wood_inf', b'True', b'job128']"
150.2127,149.0350341796875,"[b'victoria', b'control_wood_inf', b'True', b'job157']"
141.08319,140.928955078125,"[b'victoria', b'control_wood_inf', b'True', b'job107']"
134.84854,134.63504028320312,"[b'victoria', b'control_wood_inf', b'True', b'job54']"
144.6529,142.78895568847656,"[b'victoria', b'control_wood_inf', b'True', b'job40']"
136.08585,135.9495849609375,"[b'victoria', b'control_wood_inf', b'True', b'job63']"
139.71825,138.4597930908203,"[b'victoria', b'control_wood_inf', b'True', b'job39']"
143.23672,143.00299072265625,"[b'victoria', b'control_wood_inf', b'True', b'job30']"
142.6602,142.50668334960938,"[b'victoria', b'control_wood_inf', b'True', b'job55']"
144.21568,144.9578399658203,"[b'victoria', b'control_wood_inf', b'True', b'job41']"
135.34836,134.475341796875,"[b'victoria', b'control_wood_inf', b'True', b'job70']"
148.37492,148.111572265625,"[b'victoria', b'control_wood_inf', b'True', b'job22']"
136.87535,136.80502319335938,"[b'victoria', b'control_wood_inf', b'True', b'job115']"
136.17052,136.59666442871094,"[b'victoria', b'control_wood_inf', b'True', b'job74']"
149.71394,149.1282501220703,"[b'victoria', b'control_wood_inf', b'True', b'job127']"
144.37079,143.64480590820312,"[b'victoria', b'control_wood_inf', b'True', b'job9']"
137.63664,136.53463745117188,"[b'victoria', b'control_wood_inf', b'True', b'job8']"
140.60713,140.5330810546875,"[b'victoria', b'control_wood_inf', b'True', b'job130']"
143.59906,142.41050720214844,"[b'victoria', b'control_wood_inf', b'True', b'job152']"
139.83424,139.2146759033203,"[b'victoria', b'control_wood_inf', b'True', b'job86']"
142.55354,142.2556610107422,"[b'victoria', b'control_wood_inf', b'True', b'job67']"
138.61232,137.99008178710938,"[b'victoria', b'control_wood_inf', b'True', b'job189']"
143.08708,142.9056854248047,"[b'victoria', b'control_wood_inf', b'True', b'job76']"
135.36188,135.1181640625,"[b'victoria', b'control_wood_inf', b'True', b'job5']"
141.79338,141.81703186035156,"[b'victoria', b'control_wood_inf', b'True', b'job190']"
135.87563,135.63279724121094,"[b'victoria', b'control_wood_inf', b'True', b'job141']"
145.31271,144.62060546875,"[b'victoria', b'control_wood_inf', b'True', b'job108']"
137.36195,137.54229736328125,"[b'victoria', b'control_wood_inf', b'True', b'job12']"
145.93344,145.3329315185547,"[b'victoria', b'control_wood_inf', b'True', b'job32']"
138.24722,137.29591369628906,"[b'victoria', b'control_wood_inf', b'True', b'job150']"
153.15358,152.6973876953125,"[b'victoria', b'control_wood_inf', b'True', b'job37']"
152.23944,151.65548706054688,"[b'victoria', b'control_wood_inf', b'True', b'job129']"
141.18793,141.44569396972656,"[b'victoria', b'control_wood_inf', b'True', b'job52']"
144.68477,142.98167419433594,"[b'victoria', b'control_wood_inf', b'True', b'job4']"
140.06088,140.13414001464844,"[b'victoria', b'control_wood_inf', b'True', b'job117']"
135.8015,136.34512329101562,"[b'victoria', b'control_wood_inf', b'True', b'job132']"
140.01564,139.8815460205078,"[b'victoria', b'control_wood_inf', b'True', b'job135']"
139.5232,139.6838836669922,"[b'victoria', b'control_wood_inf', b'True', b'job42']"
138.73505,138.63623046875,"[b'victoria', b'control_wood_inf', b'True', b'job102']"
137.90019,137.6640625,"[b'victoria', b'control_wood_inf', b'True', b'job169']"
133.77576,133.11932373046875,"[b'victoria', b'control_wood_inf', b'True', b'job123']"
141.2259,140.4349822998047,"[b'victoria', b'control_wood_inf', b'True', b'job119']"
140.721,141.16607666015625,"[b'victoria', b'control_wood_inf', b'True', b'job57']"
138.6097,139.50196838378906,"[b'victoria', b'control_wood_inf', b'True', b'job131']"
138.5463,137.66188049316406,"[b'victoria', b'control_wood_inf', b'True', b'job199']"
146.99654,145.57310485839844,"[b'victoria', b'control_wood_inf', b'True', b'job114']"
138.61548,137.17764282226562,"[b'victoria', b'control_wood_inf', b'True', b'job197']"
134.90309,134.17466735839844,"[b'victoria', b'control_wood_inf', b'True', b'job68']"
138.15672,137.14768981933594,"[b'victoria', b'control_wood_inf', b'True', b'job178']"
134.0218,133.9193572998047,"[b'victoria', b'control_wood_inf', b'True', b'job38']"
140.20003,140.0160369873047,"[b'victoria', b'control_wood_inf', b'True', b'job116']"
147.04407,146.3484649658203,"[b'victoria', b'control_wood_inf', b'True', b'job184']"
145.64905,144.8899383544922,"[b'victoria', b'control_wood_inf', b'True', b'job149']"
141.33398,141.67257690429688,"[b'victoria', b'control_wood_inf', b'True', b'job6']"
142.31703,142.3148651123047,"[b'victoria', b'control_wood_inf', b'True', b'job125']"
136.91618,136.56832885742188,"[b'victoria', b'control_wood_inf', b'True', b'job47']"
143.06764,143.21929931640625,"[b'victoria', b'control_wood_inf', b'True', b'job92']"
149.02043,149.42877197265625,"[b'victoria', b'control_wood_inf', b'True', b'job21']"
142.46547,141.6942901611328,"[b'victoria', b'control_wood_inf', b'True', b'job133']"
146.43982,145.07603454589844,"[b'victoria', b'control_wood_inf', b'True', b'job148']"
142.49611,141.42251586914062,"[b'victoria', b'control_wood_inf', b'True', b'job113']"
146.66689,145.33470153808594,"[b'victoria', b'control_wood_inf', b'True', b'job167']"
154.07301,152.6636199951172,"[b'victoria', b'control_wood_inf', b'True', b'job87']"
150.32709,148.72315979003906,"[b'victoria', b'control_wood_inf', b'True', b'job3']"
147.65807,147.21717834472656,"[b'victoria', b'control_wood_inf', b'True', b'job51']"
141.08107,140.69827270507812,"[b'victoria', b'control_wood_inf', b'True', b'job145']"
136.51695,135.55935668945312,"[b'victoria', b'control_wood_inf', b'True', b'job146']"
141.29663,141.10923767089844,"[b'victoria', b'control_wood_inf', b'True', b'job96']"
150.61302,149.96343994140625,"[b'victoria', b'control_wood_inf', b'True', b'job106']"
142.11095,142.3111114501953,"[b'victoria', b'control_wood_inf', b'True', b'job137']"
144.59538,143.9620819091797,"[b'victoria', b'control_wood_inf', b'True', b'job112']"
141.51845,140.4989013671875,"[b'victoria', b'control_wood_inf', b'True', b'job100']"
146.71965,146.61253356933594,"[b'victoria', b'control_wood_inf', b'True', b'job75']"
137.15411,136.46408081054688,"[b'victoria', b'control_wood_inf', b'True', b'job43']"
139.70325,139.88638305664062,"[b'victoria', b'control_wood_inf', b'True', b'job56']"
150.19157,148.39056396484375,"[b'victoria', b'control_wood_inf', b'True', b'job7']"
144.98009,145.4152374267578,"[b'victoria', b'control_wood_inf', b'True', b'job165']"
147.7835,146.98939514160156,"[b'victoria', b'control_wood_inf', b'True', b'job186']"
139.0268,138.63528442382812,"[b'victoria', b'control_wood_inf', b'True', b'job153']"
135.89255,136.51870727539062,"[b'victoria', b'control_wood_inf', b'True', b'job143']"
147.68312,147.0981903076172,"[b'victoria', b'control_wood_inf', b'True', b'job120']"
135.38115,135.5557098388672,"[b'victoria', b'control_wood_inf', b'True', b'job85']"
143.23,142.93841552734375,"[b'victoria', b'control_wood_inf', b'True', b'job166']"
137.14105,137.28652954101562,"[b'victoria', b'control_wood_inf', b'True', b'job158']"
152.63821,152.1588897705078,"[b'victoria', b'control_wood_inf', b'True', b'job177']"
139.99167,140.26560974121094,"[b'victoria', b'control_wood_inf', b'True', b'job198']"
146.92152,146.52552795410156,"[b'victoria', b'control_wood_inf', b'True', b'job99']"
138.87627,138.62681579589844,"[b'victoria', b'control_wood_inf', b'True', b'job182']"
144.38498,143.6230926513672,"[b'victoria', b'control_wood_inf', b'True', b'job81']"
146.37991,146.72216796875,"[b'victoria', b'control_wood_inf', b'True', b'job46']"
135.0509,134.73641967773438,"[b'victoria', b'control_wood_inf', b'True', b'job64']"
138.29816,138.82652282714844,"[b'victoria', b'control_wood_inf', b'True', b'job110']"
