envelope_inf_hlc,envelope_inf_hlc_pred,md
53.592983,52.67674255371094,"[b'chicago', b'control_concrete', b'True', b'job60']"
41.515247,40.86207580566406,"[b'chicago', b'control_concrete', b'True', b'job194']"
50.542774,49.64027404785156,"[b'chicago', b'control_concrete', b'True', b'job108']"
53.2877,51.690101623535156,"[b'chicago', b'control_concrete', b'True', b'job183']"
43.11201,43.31419372558594,"[b'chicago', b'control_concrete', b'True', b'job12']"
45.74916,44.83674240112305,"[b'chicago', b'control_concrete', b'True', b'job173']"
51.709858,49.913330078125,"[b'chicago', b'control_concrete', b'True', b'job167']"
44.737602,43.66069412231445,"[b'chicago', b'control_concrete', b'True', b'job142']"
49.232086,47.6027717590332,"[b'chicago', b'control_concrete', b'True', b'job105']"
42.88869,41.65697479248047,"[b'chicago', b'control_concrete', b'True', b'job43']"
41.64143,41.400386810302734,"[b'chicago', b'control_concrete', b'True', b'job132']"
54.95988,54.023624420166016,"[b'chicago', b'control_concrete', b'True', b'job161']"
47.150364,46.30073928833008,"[b'chicago', b'control_concrete', b'True', b'job18']"
39.9898,39.63833236694336,"[b'chicago', b'control_concrete', b'True', b'job38']"
44.462826,44.30470657348633,"[b'chicago', b'control_concrete', b'True', b'job14']"
46.91138,46.08367156982422,"[b'chicago', b'control_concrete', b'True', b'job90']"
45.702084,44.88934326171875,"[b'chicago', b'control_concrete', b'True', b'job198']"
43.99417,43.5734977722168,"[b'chicago', b'control_concrete', b'True', b'job104']"
49.340305,47.89853286743164,"[b'chicago', b'control_concrete', b'True', b'job122']"
57.273094,55.81010437011719,"[b'chicago', b'control_concrete', b'True', b'job162']"
52.55934,51.82664489746094,"[b'chicago', b'control_concrete', b'True', b'job120']"
58.14689,56.96364974975586,"[b'chicago', b'control_concrete', b'True', b'job37']"
54.724518,53.2474365234375,"[b'chicago', b'control_concrete', b'True', b'job3']"
41.298428,40.622520446777344,"[b'chicago', b'control_concrete', b'True', b'job85']"
46.259293,45.89643859863281,"[b'chicago', b'control_concrete', b'True', b'job130']"
49.760098,48.75637435913086,"[b'chicago', b'control_concrete', b'True', b'job81']"
49.68277,48.07655715942383,"[b'chicago', b'control_concrete', b'True', b'job164']"
53.0187,51.27523422241211,"[b'chicago', b'control_concrete', b'True', b'job103']"
51.01939,50.26301574707031,"[b'chicago', b'control_concrete', b'True', b'job32']"
57.82886,56.41181564331055,"[b'chicago', b'control_concrete', b'True', b'job87']"
50.055134,48.4926643371582,"[b'chicago', b'control_concrete', b'True', b'job40']"
41.77866,41.08021545410156,"[b'chicago', b'control_concrete', b'True', b'job126']"
46.16698,44.427947998046875,"[b'chicago', b'control_concrete', b'True', b'job171']"
41.73406,41.960540771484375,"[b'chicago', b'control_concrete', b'True', b'job94']"
53.963444,52.28630065917969,"[b'chicago', b'control_concrete', b'True', b'job7']"
52.13277,49.708412170410156,"[b'chicago', b'control_concrete', b'True', b'job114']"
44.41353,43.571807861328125,"[b'chicago', b'control_concrete', b'True', b'job98']"
48.259445,47.885353088378906,"[b'chicago', b'control_concrete', b'True', b'job166']"
46.467663,45.085689544677734,"[b'chicago', b'control_concrete', b'True', b'job24']"
43.014866,42.580684661865234,"[b'chicago', b'control_concrete', b'True', b'job91']"
51.788548,51.260372161865234,"[b'chicago', b'control_concrete', b'True', b'job46']"
41.11579,41.06367492675781,"[b'chicago', b'control_concrete', b'True', b'job64']"
57.440174,56.341522216796875,"[b'chicago', b'control_concrete', b'True', b'job66']"
43.005917,43.17082595825195,"[b'chicago', b'control_concrete', b'True', b'job158']"
44.503468,43.976253509521484,"[b'chicago', b'control_concrete', b'True', b'job102']"
58.082905,57.24161148071289,"[b'chicago', b'control_concrete', b'True', b'job187']"
52.675446,51.51707458496094,"[b'chicago', b'control_concrete', b'True', b'job51']"
49.946228,49.48961639404297,"[b'chicago', b'control_concrete', b'True', b'job172']"
51.287224,50.97944641113281,"[b'chicago', b'control_concrete', b'True', b'job11']"
42.216053,41.95817947387695,"[b'chicago', b'control_concrete', b'True', b'job181']"
48.445347,47.99848556518555,"[b'chicago', b'control_concrete', b'True', b'job30']"
51.5731,50.27326965332031,"[b'chicago', b'control_concrete', b'True', b'job148']"
42.765175,42.52122116088867,"[b'chicago', b'control_concrete', b'True', b'job115']"
42.603428,41.77168273925781,"[b'chicago', b'control_concrete', b'True', b'job61']"
49.488693,49.735877990722656,"[b'chicago', b'control_concrete', b'True', b'job41']"
41.728455,41.140869140625,"[b'chicago', b'control_concrete', b'True', b'job141']"
43.65509,42.7477912902832,"[b'chicago', b'control_concrete', b'True', b'job169']"
41.943718,41.49113464355469,"[b'chicago', b'control_concrete', b'True', b'job136']"
48.031338,47.47663497924805,"[b'chicago', b'control_concrete', b'True', b'job113']"
46.76733,46.41669845581055,"[b'chicago', b'control_concrete', b'True', b'job6']"
52.776867,51.541587829589844,"[b'chicago', b'control_concrete', b'True', b'job89']"
55.745678,54.46451187133789,"[b'chicago', b'control_concrete', b'True', b'job79']"
57.061424,55.25553512573242,"[b'chicago', b'control_concrete', b'True', b'job188']"
45.497955,44.881683349609375,"[b'chicago', b'control_concrete', b'True', b'job135']"
46.708706,46.73311233520508,"[b'chicago', b'control_concrete', b'True', b'job52']"
56.992706,55.97016525268555,"[b'chicago', b'control_concrete', b'True', b'job177']"
51.80258,51.2706184387207,"[b'chicago', b'control_concrete', b'True', b'job75']"
44.02485,43.46635055541992,"[b'chicago', b'control_concrete', b'True', b'job124']"
46.390976,45.08758544921875,"[b'chicago', b'control_concrete', b'True', b'job195']"
49.96528,49.132083892822266,"[b'chicago', b'control_concrete', b'True', b'job176']"
47.240566,47.122554779052734,"[b'chicago', b'control_concrete', b'True', b'job190']"
40.394306,39.86199188232422,"[b'chicago', b'control_concrete', b'True', b'job13']"
40.186665,39.71327590942383,"[b'chicago', b'control_concrete', b'True', b'job62']"
42.02841,41.2391357421875,"[b'chicago', b'control_concrete', b'True', b'job74']"
49.988564,49.331668853759766,"[b'chicago', b'control_concrete', b'True', b'job165']"
46.573185,46.126304626464844,"[b'chicago', b'control_concrete', b'True', b'job145']"
56.298336,54.859737396240234,"[b'chicago', b'control_concrete', b'True', b'job174']"
55.123787,54.105918884277344,"[b'chicago', b'control_concrete', b'True', b'job157']"
59.744884,57.709014892578125,"[b'chicago', b'control_concrete', b'True', b'job73']"
39.63848,39.66944122314453,"[b'chicago', b'control_concrete', b'True', b'job23']"
57.96099,56.31257629394531,"[b'chicago', b'control_concrete', b'True', b'job163']"
44.001434,42.78389358520508,"[b'chicago', b'control_concrete', b'True', b'job178']"
54.64267,53.104740142822266,"[b'chicago', b'control_concrete', b'True', b'job127']"
41.29416,40.666770935058594,"[b'chicago', b'control_concrete', b'True', b'job144']"
43.368572,42.8979377746582,"[b'chicago', b'control_concrete', b'True', b'job45']"
46.302505,45.575531005859375,"[b'chicago', b'control_concrete', b'True', b'job57']"
47.387344,46.17481231689453,"[b'chicago', b'control_concrete', b'True', b'job175']"
50.899097,49.24740982055664,"[b'chicago', b'control_concrete', b'True', b'job193']"
49.642838,48.63207244873047,"[b'chicago', b'control_concrete', b'True', b'job71']"
56.778233,55.05119705200195,"[b'chicago', b'control_concrete', b'True', b'job196']"
51.5815,49.942413330078125,"[b'chicago', b'control_concrete', b'True', b'job83']"
42.808807,42.008052825927734,"[b'chicago', b'control_concrete', b'True', b'job47']"
45.2787,44.59193420410156,"[b'chicago', b'control_concrete', b'True', b'job42']"
60.132156,59.22538375854492,"[b'chicago', b'control_concrete', b'True', b'job179']"
47.340496,46.279014587402344,"[b'chicago', b'control_concrete', b'True', b'job44']"
49.581497,48.302146911621094,"[b'chicago', b'control_concrete', b'True', b'job9']"
52.077267,51.011653900146484,"[b'chicago', b'control_concrete', b'True', b'job99']"
52.38059,51.659881591796875,"[b'chicago', b'control_concrete', b'True', b'job16']"
45.062843,44.72555160522461,"[b'chicago', b'control_concrete', b'True', b'job65']"
53.196434,52.305328369140625,"[b'chicago', b'control_concrete', b'True', b'job22']"
52.857597,51.33207321166992,"[b'chicago', b'control_concrete', b'True', b'job186']"
51.258457,50.61873245239258,"[b'chicago', b'control_concrete', b'True', b'job170']"
41.313744,40.26964569091797,"[b'chicago', b'control_concrete', b'True', b'job5']"
41.681725,42.01168441772461,"[b'chicago', b'control_concrete', b'True', b'job151']"
42.049473,41.36678695678711,"[b'chicago', b'control_concrete', b'True', b'job58']"
46.134804,45.57294845581055,"[b'chicago', b'control_concrete', b'True', b'job156']"
55.526035,54.512603759765625,"[b'chicago', b'control_concrete', b'True', b'job192']"
46.93807,46.70524597167969,"[b'chicago', b'control_concrete', b'True', b'job96']"
44.764378,44.18315887451172,"[b'chicago', b'control_concrete', b'True', b'job69']"
47.24514,46.4351921081543,"[b'chicago', b'control_concrete', b'True', b'job59']"
53.525517,51.557621002197266,"[b'chicago', b'control_concrete', b'True', b'job147']"
49.618805,48.353363037109375,"[b'chicago', b'control_concrete', b'True', b'job154']"
45.643017,45.65319061279297,"[b'chicago', b'control_concrete', b'True', b'job117']"
52.15749,50.5045051574707,"[b'chicago', b'control_concrete', b'True', b'job184']"
55.64855,54.82278060913086,"[b'chicago', b'control_concrete', b'True', b'job106']"
50.149944,49.87371826171875,"[b'chicago', b'control_concrete', b'True', b'job191']"
47.64558,47.138065338134766,"[b'chicago', b'control_concrete', b'True', b'job137']"
45.54369,44.706199645996094,"[b'chicago', b'control_concrete', b'True', b'job86']"
42.458015,40.81306457519531,"[b'chicago', b'control_concrete', b'True', b'job146']"
51.597576,51.77984619140625,"[b'chicago', b'control_concrete', b'True', b'job33']"
49.12412,47.420936584472656,"[b'chicago', b'control_concrete', b'True', b'job35']"
44.340687,43.23684310913086,"[b'chicago', b'control_concrete', b'True', b'job197']"
43.35979,42.52517318725586,"[b'chicago', b'control_concrete', b'True', b'job8']"
47.17503,46.40464401245117,"[b'chicago', b'control_concrete', b'True', b'job100']"
50.076633,47.912628173828125,"[b'chicago', b'control_concrete', b'True', b'job4']"
41.6193,40.74052047729492,"[b'chicago', b'control_concrete', b'True', b'job72']"
46.98508,46.357242584228516,"[b'chicago', b'control_concrete', b'True', b'job134']"
48.85062,47.7350959777832,"[b'chicago', b'control_concrete', b'True', b'job152']"
47.927753,47.53096389770508,"[b'chicago', b'control_concrete', b'True', b'job133']"
53.83692,53.165443420410156,"[b'chicago', b'control_concrete', b'True', b'job21']"
50.395096,49.12691879272461,"[b'chicago', b'control_concrete', b'True', b'job118']"
44.847305,43.987335205078125,"[b'chicago', b'control_concrete', b'True', b'job153']"
50.89945,49.69480895996094,"[b'chicago', b'control_concrete', b'True', b'job149']"
49.37268,49.303863525390625,"[b'chicago', b'control_concrete', b'True', b'job27']"
51.79933,51.153717041015625,"[b'chicago', b'control_concrete', b'True', b'job128']"
44.338684,43.425838470458984,"[b'chicago', b'control_concrete', b'True', b'job189']"
56.797245,55.39381790161133,"[b'chicago', b'control_concrete', b'True', b'job129']"
49.146492,47.998817443847656,"[b'chicago', b'control_concrete', b'True', b'job140']"
39.131054,39.28921890258789,"[b'chicago', b'control_concrete', b'True', b'job31']"
44.469948,44.60248947143555,"[b'chicago', b'control_concrete', b'True', b'job131']"
51.43707,50.62898254394531,"[b'chicago', b'control_concrete', b'True', b'job200']"
45.704906,44.803466796875,"[b'chicago', b'control_concrete', b'True', b'job116']"
44.31864,43.47291564941406,"[b'chicago', b'control_concrete', b'True', b'job199']"
55.23948,53.8956184387207,"[b'chicago', b'control_concrete', b'True', b'job160']"
46.723335,45.49065399169922,"[b'chicago', b'control_concrete', b'True', b'job107']"
48.162064,47.135501861572266,"[b'chicago', b'control_concrete', b'True', b'job67']"
45.423107,44.240699768066406,"[b'chicago', b'control_concrete', b'True', b'job39']"
44.0437,42.674461364746094,"[b'chicago', b'control_concrete', b'True', b'job150']"
42.841988,42.1046142578125,"[b'chicago', b'control_concrete', b'True', b'job36']"
48.318554,48.1370735168457,"[b'chicago', b'control_concrete', b'True', b'job76']"
42.708477,41.86428451538086,"[b'chicago', b'control_concrete', b'True', b'job10']"
51.4075,50.50563430786133,"[b'chicago', b'control_concrete', b'True', b'job155']"
46.782955,45.629554748535156,"[b'chicago', b'control_concrete', b'True', b'job119']"
45.16877,44.141021728515625,"[b'chicago', b'control_concrete', b'True', b'job139']"
59.868023,58.62059783935547,"[b'chicago', b'control_concrete', b'True', b'job159']"
41.7273,41.579505920410156,"[b'chicago', b'control_concrete', b'True', b'job143']"
42.092514,41.5627555847168,"[b'chicago', b'control_concrete', b'True', b'job63']"
47.95297,46.640750885009766,"[b'chicago', b'control_concrete', b'True', b'job92']"
40.839645,40.31307601928711,"[b'chicago', b'control_concrete', b'True', b'job68']"
50.718525,50.040794372558594,"[b'chicago', b'control_concrete', b'True', b'job111']"
43.97653,43.550743103027344,"[b'chicago', b'control_concrete', b'True', b'job110']"
44.595276,43.87172317504883,"[b'chicago', b'control_concrete', b'True', b'job182']"
39.83637,39.304412841796875,"[b'chicago', b'control_concrete', b'True', b'job123']"
48.1707,47.698944091796875,"[b'chicago', b'control_concrete', b'True', b'job55']"
53.175972,52.752410888671875,"[b'chicago', b'control_concrete', b'True', b'job101']"
45.187588,45.139808654785156,"[b'chicago', b'control_concrete', b'True', b'job56']"
47.000076,46.59839630126953,"[b'chicago', b'control_concrete', b'True', b'job168']"
55.147804,53.16069412231445,"[b'chicago', b'control_concrete', b'True', b'job109']"
47.88471,47.41328811645508,"[b'chicago', b'control_concrete', b'True', b'job125']"
40.88964,40.19089889526367,"[b'chicago', b'control_concrete', b'True', b'job54']"
51.141926,50.78230285644531,"[b'chicago', b'control_concrete', b'True', b'job34']"
42.393333,41.72789764404297,"[b'chicago', b'control_concrete', b'True', b'job121']"
50.374084,48.8430061340332,"[b'chicago', b'control_concrete', b'True', b'job180']"
51.499893,51.24965286254883,"[b'chicago', b'control_concrete', b'True', b'job138']"
43.74227,43.465030670166016,"[b'chicago', b'control_concrete', b'True', b'job185']"
46.654118,45.69529724121094,"[b'chicago', b'control_concrete', b'True', b'job20']"
41.31477,41.29475021362305,"[b'chicago', b'control_concrete', b'True', b'job70']"
46.2863,45.03096008300781,"[b'chicago', b'control_concrete', b'True', b'job82']"
49.974255,49.47284698486328,"[b'chicago', b'control_concrete', b'True', b'job112']"
