envelope_inf_hlc,envelope_inf_hlc_pred,md
53.592983,53.99884796142578,"[b'chicago', b'control_concrete', b'True', b'job60']"
41.515247,43.31182098388672,"[b'chicago', b'control_concrete', b'True', b'job194']"
50.542774,52.02888488769531,"[b'chicago', b'control_concrete', b'True', b'job108']"
53.2877,55.081398010253906,"[b'chicago', b'control_concrete', b'True', b'job183']"
43.11201,46.043312072753906,"[b'chicago', b'control_concrete', b'True', b'job12']"
45.74916,47.70414352416992,"[b'chicago', b'control_concrete', b'True', b'job173']"
51.709858,53.874393463134766,"[b'chicago', b'control_concrete', b'True', b'job167']"
44.737602,46.497493743896484,"[b'chicago', b'control_concrete', b'True', b'job142']"
49.232086,51.64794921875,"[b'chicago', b'control_concrete', b'True', b'job105']"
42.88869,44.496639251708984,"[b'chicago', b'control_concrete', b'True', b'job43']"
41.64143,43.311767578125,"[b'chicago', b'control_concrete', b'True', b'job132']"
54.95988,59.45990753173828,"[b'chicago', b'control_concrete', b'True', b'job161']"
47.150364,49.71454620361328,"[b'chicago', b'control_concrete', b'True', b'job18']"
39.9898,41.26879119873047,"[b'chicago', b'control_concrete', b'True', b'job38']"
44.462826,47.82752990722656,"[b'chicago', b'control_concrete', b'True', b'job14']"
46.91138,48.72507095336914,"[b'chicago', b'control_concrete', b'True', b'job90']"
45.702084,47.34090042114258,"[b'chicago', b'control_concrete', b'True', b'job198']"
43.99417,45.604896545410156,"[b'chicago', b'control_concrete', b'True', b'job104']"
49.340305,49.59495162963867,"[b'chicago', b'control_concrete', b'True', b'job122']"
57.273094,59.35983657836914,"[b'chicago', b'control_concrete', b'True', b'job162']"
52.55934,55.08335494995117,"[b'chicago', b'control_concrete', b'True', b'job120']"
58.14689,57.971614837646484,"[b'chicago', b'control_concrete', b'True', b'job37']"
54.724518,57.30201721191406,"[b'chicago', b'control_concrete', b'True', b'job3']"
41.298428,43.096343994140625,"[b'chicago', b'control_concrete', b'True', b'job85']"
46.259293,48.97317123413086,"[b'chicago', b'control_concrete', b'True', b'job130']"
49.760098,51.924949645996094,"[b'chicago', b'control_concrete', b'True', b'job81']"
49.68277,51.41659927368164,"[b'chicago', b'control_concrete', b'True', b'job164']"
53.0187,54.74787139892578,"[b'chicago', b'control_concrete', b'True', b'job103']"
51.01939,51.90287780761719,"[b'chicago', b'control_concrete', b'True', b'job32']"
57.82886,58.787601470947266,"[b'chicago', b'control_concrete', b'True', b'job87']"
50.055134,51.06560134887695,"[b'chicago', b'control_concrete', b'True', b'job40']"
41.77866,43.3981819152832,"[b'chicago', b'control_concrete', b'True', b'job126']"
46.16698,47.25481414794922,"[b'chicago', b'control_concrete', b'True', b'job171']"
41.73406,43.9281120300293,"[b'chicago', b'control_concrete', b'True', b'job94']"
53.963444,56.74671173095703,"[b'chicago', b'control_concrete', b'True', b'job7']"
52.13277,53.673282623291016,"[b'chicago', b'control_concrete', b'True', b'job114']"
44.41353,47.0961799621582,"[b'chicago', b'control_concrete', b'True', b'job98']"
48.259445,49.932945251464844,"[b'chicago', b'control_concrete', b'True', b'job166']"
46.467663,47.06394577026367,"[b'chicago', b'control_concrete', b'True', b'job24']"
43.014866,45.1688232421875,"[b'chicago', b'control_concrete', b'True', b'job91']"
51.788548,55.00010299682617,"[b'chicago', b'control_concrete', b'True', b'job46']"
41.11579,44.26430892944336,"[b'chicago', b'control_concrete', b'True', b'job64']"
57.440174,60.03669738769531,"[b'chicago', b'control_concrete', b'True', b'job66']"
43.005917,45.735198974609375,"[b'chicago', b'control_concrete', b'True', b'job158']"
44.503468,45.6257438659668,"[b'chicago', b'control_concrete', b'True', b'job102']"
58.082905,60.7109260559082,"[b'chicago', b'control_concrete', b'True', b'job187']"
52.675446,55.160343170166016,"[b'chicago', b'control_concrete', b'True', b'job51']"
49.946228,52.44855499267578,"[b'chicago', b'control_concrete', b'True', b'job172']"
51.287224,53.44893264770508,"[b'chicago', b'control_concrete', b'True', b'job11']"
42.216053,44.53901672363281,"[b'chicago', b'control_concrete', b'True', b'job181']"
48.445347,50.36408615112305,"[b'chicago', b'control_concrete', b'True', b'job30']"
51.5731,53.2415771484375,"[b'chicago', b'control_concrete', b'True', b'job148']"
42.765175,44.166934967041016,"[b'chicago', b'control_concrete', b'True', b'job115']"
42.603428,45.62266159057617,"[b'chicago', b'control_concrete', b'True', b'job61']"
49.488693,53.36851501464844,"[b'chicago', b'control_concrete', b'True', b'job41']"
41.728455,43.85880661010742,"[b'chicago', b'control_concrete', b'True', b'job141']"
43.65509,45.556705474853516,"[b'chicago', b'control_concrete', b'True', b'job169']"
41.943718,43.15696334838867,"[b'chicago', b'control_concrete', b'True', b'job136']"
48.031338,50.13301086425781,"[b'chicago', b'control_concrete', b'True', b'job113']"
46.76733,49.363922119140625,"[b'chicago', b'control_concrete', b'True', b'job6']"
52.776867,53.78841018676758,"[b'chicago', b'control_concrete', b'True', b'job89']"
55.745678,57.85441589355469,"[b'chicago', b'control_concrete', b'True', b'job79']"
57.061424,58.19551467895508,"[b'chicago', b'control_concrete', b'True', b'job188']"
45.497955,48.88227844238281,"[b'chicago', b'control_concrete', b'True', b'job135']"
46.708706,49.15060043334961,"[b'chicago', b'control_concrete', b'True', b'job52']"
56.992706,60.411808013916016,"[b'chicago', b'control_concrete', b'True', b'job177']"
51.80258,55.45933532714844,"[b'chicago', b'control_concrete', b'True', b'job75']"
44.02485,45.94540786743164,"[b'chicago', b'control_concrete', b'True', b'job124']"
46.390976,48.315208435058594,"[b'chicago', b'control_concrete', b'True', b'job195']"
49.96528,52.131591796875,"[b'chicago', b'control_concrete', b'True', b'job176']"
47.240566,49.41263198852539,"[b'chicago', b'control_concrete', b'True', b'job190']"
40.394306,42.35087585449219,"[b'chicago', b'control_concrete', b'True', b'job13']"
40.186665,42.605411529541016,"[b'chicago', b'control_concrete', b'True', b'job62']"
42.02841,43.34917068481445,"[b'chicago', b'control_concrete', b'True', b'job74']"
49.988564,51.4746208190918,"[b'chicago', b'control_concrete', b'True', b'job165']"
46.573185,48.8275260925293,"[b'chicago', b'control_concrete', b'True', b'job145']"
56.298336,57.800437927246094,"[b'chicago', b'control_concrete', b'True', b'job174']"
55.123787,56.72321319580078,"[b'chicago', b'control_concrete', b'True', b'job157']"
59.744884,60.89889144897461,"[b'chicago', b'control_concrete', b'True', b'job73']"
39.63848,42.310489654541016,"[b'chicago', b'control_concrete', b'True', b'job23']"
57.96099,60.428672790527344,"[b'chicago', b'control_concrete', b'True', b'job163']"
44.001434,45.38222122192383,"[b'chicago', b'control_concrete', b'True', b'job178']"
54.64267,56.06907272338867,"[b'chicago', b'control_concrete', b'True', b'job127']"
41.29416,42.93018341064453,"[b'chicago', b'control_concrete', b'True', b'job144']"
43.368572,45.87200927734375,"[b'chicago', b'control_concrete', b'True', b'job45']"
46.302505,48.25490188598633,"[b'chicago', b'control_concrete', b'True', b'job57']"
47.387344,48.20457458496094,"[b'chicago', b'control_concrete', b'True', b'job175']"
50.899097,52.04592514038086,"[b'chicago', b'control_concrete', b'True', b'job193']"
49.642838,51.77778244018555,"[b'chicago', b'control_concrete', b'True', b'job71']"
56.778233,59.824581146240234,"[b'chicago', b'control_concrete', b'True', b'job196']"
51.5815,52.19258499145508,"[b'chicago', b'control_concrete', b'True', b'job83']"
42.808807,45.69367218017578,"[b'chicago', b'control_concrete', b'True', b'job47']"
45.2787,48.04071807861328,"[b'chicago', b'control_concrete', b'True', b'job42']"
60.132156,61.93575668334961,"[b'chicago', b'control_concrete', b'True', b'job179']"
47.340496,49.4020881652832,"[b'chicago', b'control_concrete', b'True', b'job44']"
49.581497,49.84666061401367,"[b'chicago', b'control_concrete', b'True', b'job9']"
52.077267,54.792144775390625,"[b'chicago', b'control_concrete', b'True', b'job99']"
52.38059,54.6322021484375,"[b'chicago', b'control_concrete', b'True', b'job16']"
45.062843,46.964839935302734,"[b'chicago', b'control_concrete', b'True', b'job65']"
53.196434,53.038944244384766,"[b'chicago', b'control_concrete', b'True', b'job22']"
52.857597,55.30626678466797,"[b'chicago', b'control_concrete', b'True', b'job186']"
51.258457,54.368045806884766,"[b'chicago', b'control_concrete', b'True', b'job170']"
41.313744,43.58286666870117,"[b'chicago', b'control_concrete', b'True', b'job5']"
41.681725,44.958892822265625,"[b'chicago', b'control_concrete', b'True', b'job151']"
42.049473,42.66279220581055,"[b'chicago', b'control_concrete', b'True', b'job58']"
46.134804,47.88457107543945,"[b'chicago', b'control_concrete', b'True', b'job156']"
55.526035,56.680240631103516,"[b'chicago', b'control_concrete', b'True', b'job192']"
46.93807,48.488861083984375,"[b'chicago', b'control_concrete', b'True', b'job96']"
44.764378,48.02550506591797,"[b'chicago', b'control_concrete', b'True', b'job69']"
47.24514,48.88185501098633,"[b'chicago', b'control_concrete', b'True', b'job59']"
53.525517,55.190608978271484,"[b'chicago', b'control_concrete', b'True', b'job147']"
49.618805,49.324642181396484,"[b'chicago', b'control_concrete', b'True', b'job154']"
45.643017,47.591915130615234,"[b'chicago', b'control_concrete', b'True', b'job117']"
52.15749,54.325069427490234,"[b'chicago', b'control_concrete', b'True', b'job184']"
55.64855,57.741127014160156,"[b'chicago', b'control_concrete', b'True', b'job106']"
50.149944,51.748565673828125,"[b'chicago', b'control_concrete', b'True', b'job191']"
47.64558,50.173831939697266,"[b'chicago', b'control_concrete', b'True', b'job137']"
45.54369,47.312923431396484,"[b'chicago', b'control_concrete', b'True', b'job86']"
42.458015,44.29583740234375,"[b'chicago', b'control_concrete', b'True', b'job146']"
51.597576,53.75727844238281,"[b'chicago', b'control_concrete', b'True', b'job33']"
49.12412,50.48909378051758,"[b'chicago', b'control_concrete', b'True', b'job35']"
44.340687,44.91538619995117,"[b'chicago', b'control_concrete', b'True', b'job197']"
43.35979,45.64999771118164,"[b'chicago', b'control_concrete', b'True', b'job8']"
47.17503,48.641292572021484,"[b'chicago', b'control_concrete', b'True', b'job100']"
50.076633,50.32976531982422,"[b'chicago', b'control_concrete', b'True', b'job4']"
41.6193,43.73906707763672,"[b'chicago', b'control_concrete', b'True', b'job72']"
46.98508,48.8577766418457,"[b'chicago', b'control_concrete', b'True', b'job134']"
48.85062,51.389991760253906,"[b'chicago', b'control_concrete', b'True', b'job152']"
47.927753,50.0570068359375,"[b'chicago', b'control_concrete', b'True', b'job133']"
53.83692,56.262786865234375,"[b'chicago', b'control_concrete', b'True', b'job21']"
50.395096,52.37942886352539,"[b'chicago', b'control_concrete', b'True', b'job118']"
44.847305,46.97848129272461,"[b'chicago', b'control_concrete', b'True', b'job153']"
50.89945,53.62012481689453,"[b'chicago', b'control_concrete', b'True', b'job149']"
49.37268,51.06535339355469,"[b'chicago', b'control_concrete', b'True', b'job27']"
51.79933,53.566036224365234,"[b'chicago', b'control_concrete', b'True', b'job128']"
44.338684,46.52761459350586,"[b'chicago', b'control_concrete', b'True', b'job189']"
56.797245,59.47585678100586,"[b'chicago', b'control_concrete', b'True', b'job129']"
49.146492,51.4768180847168,"[b'chicago', b'control_concrete', b'True', b'job140']"
39.131054,41.514774322509766,"[b'chicago', b'control_concrete', b'True', b'job31']"
44.469948,45.560245513916016,"[b'chicago', b'control_concrete', b'True', b'job131']"
51.43707,54.341976165771484,"[b'chicago', b'control_concrete', b'True', b'job200']"
45.704906,47.266822814941406,"[b'chicago', b'control_concrete', b'True', b'job116']"
44.31864,47.745243072509766,"[b'chicago', b'control_concrete', b'True', b'job199']"
55.23948,56.257354736328125,"[b'chicago', b'control_concrete', b'True', b'job160']"
46.723335,47.0004768371582,"[b'chicago', b'control_concrete', b'True', b'job107']"
48.162064,49.92301559448242,"[b'chicago', b'control_concrete', b'True', b'job67']"
45.423107,45.57020950317383,"[b'chicago', b'control_concrete', b'True', b'job39']"
44.0437,45.87371063232422,"[b'chicago', b'control_concrete', b'True', b'job150']"
42.841988,45.59364700317383,"[b'chicago', b'control_concrete', b'True', b'job36']"
48.318554,49.06227493286133,"[b'chicago', b'control_concrete', b'True', b'job76']"
42.708477,44.400787353515625,"[b'chicago', b'control_concrete', b'True', b'job10']"
51.4075,53.606204986572266,"[b'chicago', b'control_concrete', b'True', b'job155']"
46.782955,48.06827926635742,"[b'chicago', b'control_concrete', b'True', b'job119']"
45.16877,46.821346282958984,"[b'chicago', b'control_concrete', b'True', b'job139']"
59.868023,61.17472457885742,"[b'chicago', b'control_concrete', b'True', b'job159']"
41.7273,44.81084060668945,"[b'chicago', b'control_concrete', b'True', b'job143']"
42.092514,44.473663330078125,"[b'chicago', b'control_concrete', b'True', b'job63']"
47.95297,49.25639724731445,"[b'chicago', b'control_concrete', b'True', b'job92']"
40.839645,42.83597946166992,"[b'chicago', b'control_concrete', b'True', b'job68']"
50.718525,53.43007278442383,"[b'chicago', b'control_concrete', b'True', b'job111']"
43.97653,46.22911834716797,"[b'chicago', b'control_concrete', b'True', b'job110']"
44.595276,46.862545013427734,"[b'chicago', b'control_concrete', b'True', b'job182']"
39.83637,41.2064323425293,"[b'chicago', b'control_concrete', b'True', b'job123']"
48.1707,50.71183395385742,"[b'chicago', b'control_concrete', b'True', b'job55']"
53.175972,55.74361801147461,"[b'chicago', b'control_concrete', b'True', b'job101']"
45.187588,48.662784576416016,"[b'chicago', b'control_concrete', b'True', b'job56']"
47.000076,48.1672477722168,"[b'chicago', b'control_concrete', b'True', b'job168']"
55.147804,55.774436950683594,"[b'chicago', b'control_concrete', b'True', b'job109']"
47.88471,49.43149948120117,"[b'chicago', b'control_concrete', b'True', b'job125']"
40.88964,43.087406158447266,"[b'chicago', b'control_concrete', b'True', b'job54']"
51.141926,52.71479797363281,"[b'chicago', b'control_concrete', b'True', b'job34']"
42.393333,44.794803619384766,"[b'chicago', b'control_concrete', b'True', b'job121']"
50.374084,51.519317626953125,"[b'chicago', b'control_concrete', b'True', b'job180']"
51.499893,53.7416877746582,"[b'chicago', b'control_concrete', b'True', b'job138']"
43.74227,46.40521240234375,"[b'chicago', b'control_concrete', b'True', b'job185']"
46.654118,48.073978424072266,"[b'chicago', b'control_concrete', b'True', b'job20']"
41.31477,45.22377014160156,"[b'chicago', b'control_concrete', b'True', b'job70']"
46.2863,48.53926467895508,"[b'chicago', b'control_concrete', b'True', b'job82']"
49.974255,52.29816436767578,"[b'chicago', b'control_concrete', b'True', b'job112']"
