envelope_inf_hlc,envelope_inf_hlc_pred,md
143.82611,145.93382263183594,"[b'victoria', b'control_wood_inf', b'True', b'job105']"
146.02579,149.0008087158203,"[b'victoria', b'control_wood_inf', b'True', b'job34']"
144.02838,144.46278381347656,"[b'victoria', b'control_wood_inf', b'True', b'job2']"
151.09747,153.156005859375,"[b'victoria', b'control_wood_inf', b'True', b'job79']"
137.07579,139.93080139160156,"[b'victoria', b'control_wood_inf', b'True', b'job91']"
133.01984,137.24066162109375,"[b'victoria', b'control_wood_inf', b'True', b'job31']"
143.92517,141.6708526611328,"[b'victoria', b'control_wood_inf', b'True', b'job154']"
140.71947,140.36109924316406,"[b'victoria', b'control_wood_inf', b'True', b'job195']"
145.2186,148.21710205078125,"[b'victoria', b'control_wood_inf', b'True', b'job180']"
136.4303,138.84344482421875,"[b'victoria', b'control_wood_inf', b'True', b'job181']"
154.30392,152.69680786132812,"[b'victoria', b'control_wood_inf', b'True', b'job66']"
146.6411,147.73138427734375,"[b'victoria', b'control_wood_inf', b'True', b'job155']"
141.42647,143.83689880371094,"[b'victoria', b'control_wood_inf', b'True', b'job90']"
136.69182,139.73123168945312,"[b'victoria', b'control_wood_inf', b'True', b'job10']"
155.93237,154.13169860839844,"[b'victoria', b'control_wood_inf', b'True', b'job179']"
133.63687,137.66384887695312,"[b'victoria', b'control_wood_inf', b'True', b'job23']"
155.82907,155.9943389892578,"[b'victoria', b'control_wood_inf', b'True', b'job159']"
135.77647,139.9431610107422,"[b'victoria', b'control_wood_inf', b'True', b'job94']"
141.55386,140.73997497558594,"[b'victoria', b'control_wood_inf', b'True', b'job18']"
144.22104,139.61717224121094,"[b'victoria', b'control_wood_inf', b'True', b'job164']"
138.81775,142.0404815673828,"[b'victoria', b'control_wood_inf', b'True', b'job14']"
137.60269,139.38427734375,"[b'victoria', b'control_wood_inf', b'True', b'job45']"
144.73106,148.9476776123047,"[b'victoria', b'control_wood_inf', b'True', b'job176']"
144.54488,151.20791625976562,"[b'victoria', b'control_wood_inf', b'True', b'job172']"
144.35101,144.36595153808594,"[b'victoria', b'control_wood_inf', b'True', b'job71']"
135.97319,139.6905517578125,"[b'victoria', b'control_wood_inf', b'True', b'job136']"
146.47636,147.12786865234375,"[b'victoria', b'control_wood_inf', b'True', b'job83']"
134.52397,138.79225158691406,"[b'victoria', b'control_wood_inf', b'True', b'job13']"
153.25095,153.40643310546875,"[b'victoria', b'control_wood_inf', b'True', b'job163']"
152.25381,154.77320861816406,"[b'victoria', b'control_wood_inf', b'True', b'job196']"
152.10323,154.13259887695312,"[b'victoria', b'control_wood_inf', b'True', b'job162']"
140.52716,140.86798095703125,"[b'victoria', b'control_wood_inf', b'True', b'job82']"
136.1559,141.52322387695312,"[b'victoria', b'control_wood_inf', b'True', b'job58']"
141.16188,140.80519104003906,"[b'victoria', b'control_wood_inf', b'True', b'job168']"
148.27353,151.2705078125,"[b'victoria', b'control_wood_inf', b'True', b'job101']"
143.9371,143.10073852539062,"[b'victoria', b'control_wood_inf', b'True', b'job122']"
156.61842,152.77284240722656,"[b'victoria', b'control_wood_inf', b'True', b'job73']"
150.39458,150.4615478515625,"[b'victoria', b'control_wood_inf', b'True', b'job161']"
146.64482,146.9716033935547,"[b'victoria', b'control_wood_inf', b'True', b'job33']"
135.42058,139.46609497070312,"[b'victoria', b'control_wood_inf', b'True', b'job72']"
146.21194,150.0318603515625,"[b'victoria', b'control_wood_inf', b'True', b'job193']"
146.18422,147.865966796875,"[b'victoria', b'control_wood_inf', b'True', b'job170']"
136.99495,139.5046844482422,"[b'victoria', b'control_wood_inf', b'True', b'job36']"
141.97928,143.0095672607422,"[b'victoria', b'control_wood_inf', b'True', b'job175']"
139.64836,139.60487365722656,"[b'victoria', b'control_wood_inf', b'True', b'job139']"
143.72772,143.80609130859375,"[b'victoria', b'control_wood_inf', b'True', b'job35']"
140.28299,142.6981201171875,"[b'victoria', b'control_wood_inf', b'True', b'job156']"
151.76886,154.5911407470703,"[b'victoria', b'control_wood_inf', b'True', b'job174']"
138.18163,138.10623168945312,"[b'victoria', b'control_wood_inf', b'True', b'job104']"
148.49995,146.0692596435547,"[b'victoria', b'control_wood_inf', b'True', b'job147']"
141.05838,142.4454345703125,"[b'victoria', b'control_wood_inf', b'True', b'job20']"
137.94028,142.5673828125,"[b'victoria', b'control_wood_inf', b'True', b'job185']"
147.35425,150.67977905273438,"[b'victoria', b'control_wood_inf', b'True', b'job16']"
145.1867,147.2638397216797,"[b'victoria', b'control_wood_inf', b'True', b'job118']"
136.57042,140.1538848876953,"[b'victoria', b'control_wood_inf', b'True', b'job121']"
146.15121,147.65135192871094,"[b'victoria', b'control_wood_inf', b'True', b'job11']"
141.34207,144.11683654785156,"[b'victoria', b'control_wood_inf', b'True', b'job134']"
146.17883,148.14639282226562,"[b'victoria', b'control_wood_inf', b'True', b'job200']"
145.52083,146.69297790527344,"[b'victoria', b'control_wood_inf', b'True', b'job111']"
140.46669,137.10342407226562,"[b'victoria', b'control_wood_inf', b'True', b'job171']"
145.30794,146.3640594482422,"[b'victoria', b'control_wood_inf', b'True', b'job191']"
135.8341,138.99192810058594,"[b'victoria', b'control_wood_inf', b'True', b'job151']"
135.62894,136.9595947265625,"[b'victoria', b'control_wood_inf', b'True', b'job194']"
139.96524,141.83551025390625,"[b'victoria', b'control_wood_inf', b'True', b'job173']"
148.80966,150.62393188476562,"[b'victoria', b'control_wood_inf', b'True', b'job60']"
141.78952,144.1372528076172,"[b'victoria', b'control_wood_inf', b'True', b'job44']"
135.85654,137.3858184814453,"[b'victoria', b'control_wood_inf', b'True', b'job126']"
149.40775,150.00685119628906,"[b'victoria', b'control_wood_inf', b'True', b'job109']"
143.82437,143.57395935058594,"[b'victoria', b'control_wood_inf', b'True', b'job140']"
135.49213,139.44837951660156,"[b'victoria', b'control_wood_inf', b'True', b'job144']"
139.02216,140.70921325683594,"[b'victoria', b'control_wood_inf', b'True', b'job69']"
139.41307,138.61302185058594,"[b'victoria', b'control_wood_inf', b'True', b'job65']"
134.06012,140.64471435546875,"[b'victoria', b'control_wood_inf', b'True', b'job62']"
152.41913,152.70040893554688,"[b'victoria', b'control_wood_inf', b'True', b'job188']"
150.28766,152.75527954101562,"[b'victoria', b'control_wood_inf', b'True', b'job160']"
138.25835,139.84678649902344,"[b'victoria', b'control_wood_inf', b'True', b'job124']"
153.16957,150.6094207763672,"[b'victoria', b'control_wood_inf', b'True', b'job187']"
140.8727,142.79141235351562,"[b'victoria', b'control_wood_inf', b'True', b'job24']"
147.87337,149.81895446777344,"[b'victoria', b'control_wood_inf', b'True', b'job89']"
149.77333,150.6923065185547,"[b'victoria', b'control_wood_inf', b'True', b'job192']"
147.98871,148.26072692871094,"[b'victoria', b'control_wood_inf', b'True', b'job103']"
138.65764,142.22117614746094,"[b'victoria', b'control_wood_inf', b'True', b'job98']"
148.28789,150.32009887695312,"[b'victoria', b'control_wood_inf', b'True', b'job183']"
139.00589,144.6529541015625,"[b'victoria', b'control_wood_inf', b'True', b'job142']"
141.58835,143.67225646972656,"[b'victoria', b'control_wood_inf', b'True', b'job59']"
136.63461,136.41395568847656,"[b'victoria', b'control_wood_inf', b'True', b'job61']"
146.42128,148.32244873046875,"[b'victoria', b'control_wood_inf', b'True', b'job138']"
143.70142,144.5917205810547,"[b'victoria', b'control_wood_inf', b'True', b'job27']"
146.45943,147.42918395996094,"[b'victoria', b'control_wood_inf', b'True', b'job128']"
150.2127,153.00791931152344,"[b'victoria', b'control_wood_inf', b'True', b'job157']"
141.08319,140.2836456298828,"[b'victoria', b'control_wood_inf', b'True', b'job107']"
134.84854,140.68777465820312,"[b'victoria', b'control_wood_inf', b'True', b'job54']"
144.6529,143.40126037597656,"[b'victoria', b'control_wood_inf', b'True', b'job40']"
136.08585,139.1542205810547,"[b'victoria', b'control_wood_inf', b'True', b'job63']"
139.71825,142.25161743164062,"[b'victoria', b'control_wood_inf', b'True', b'job39']"
143.23672,142.78253173828125,"[b'victoria', b'control_wood_inf', b'True', b'job30']"
142.6602,145.48374938964844,"[b'victoria', b'control_wood_inf', b'True', b'job55']"
144.21568,146.88595581054688,"[b'victoria', b'control_wood_inf', b'True', b'job41']"
135.34836,137.94784545898438,"[b'victoria', b'control_wood_inf', b'True', b'job70']"
148.37492,150.27723693847656,"[b'victoria', b'control_wood_inf', b'True', b'job22']"
136.87535,140.8626251220703,"[b'victoria', b'control_wood_inf', b'True', b'job115']"
136.17052,138.6396484375,"[b'victoria', b'control_wood_inf', b'True', b'job74']"
149.71394,150.09864807128906,"[b'victoria', b'control_wood_inf', b'True', b'job127']"
144.37079,146.21597290039062,"[b'victoria', b'control_wood_inf', b'True', b'job9']"
137.63664,138.74472045898438,"[b'victoria', b'control_wood_inf', b'True', b'job8']"
140.60713,142.26145935058594,"[b'victoria', b'control_wood_inf', b'True', b'job130']"
143.59906,144.20419311523438,"[b'victoria', b'control_wood_inf', b'True', b'job152']"
139.83424,144.59722900390625,"[b'victoria', b'control_wood_inf', b'True', b'job86']"
142.55354,147.62083435058594,"[b'victoria', b'control_wood_inf', b'True', b'job67']"
138.61232,140.092041015625,"[b'victoria', b'control_wood_inf', b'True', b'job189']"
143.08708,146.8561553955078,"[b'victoria', b'control_wood_inf', b'True', b'job76']"
135.36188,140.6782684326172,"[b'victoria', b'control_wood_inf', b'True', b'job5']"
141.79338,146.9685516357422,"[b'victoria', b'control_wood_inf', b'True', b'job190']"
135.87563,136.9008026123047,"[b'victoria', b'control_wood_inf', b'True', b'job141']"
145.31271,148.80027770996094,"[b'victoria', b'control_wood_inf', b'True', b'job108']"
137.36195,139.99496459960938,"[b'victoria', b'control_wood_inf', b'True', b'job12']"
145.93344,147.6701202392578,"[b'victoria', b'control_wood_inf', b'True', b'job32']"
138.24722,141.30882263183594,"[b'victoria', b'control_wood_inf', b'True', b'job150']"
153.15358,155.63946533203125,"[b'victoria', b'control_wood_inf', b'True', b'job37']"
152.23944,155.49526977539062,"[b'victoria', b'control_wood_inf', b'True', b'job129']"
141.18793,147.3550567626953,"[b'victoria', b'control_wood_inf', b'True', b'job52']"
144.68477,143.79287719726562,"[b'victoria', b'control_wood_inf', b'True', b'job4']"
140.06088,142.3946990966797,"[b'victoria', b'control_wood_inf', b'True', b'job117']"
135.8015,140.2119903564453,"[b'victoria', b'control_wood_inf', b'True', b'job132']"
140.01564,136.25601196289062,"[b'victoria', b'control_wood_inf', b'True', b'job135']"
139.5232,139.93505859375,"[b'victoria', b'control_wood_inf', b'True', b'job42']"
138.73505,141.15802001953125,"[b'victoria', b'control_wood_inf', b'True', b'job102']"
137.90019,139.72909545898438,"[b'victoria', b'control_wood_inf', b'True', b'job169']"
133.77576,136.20713806152344,"[b'victoria', b'control_wood_inf', b'True', b'job123']"
141.2259,143.2399444580078,"[b'victoria', b'control_wood_inf', b'True', b'job119']"
140.721,142.07997131347656,"[b'victoria', b'control_wood_inf', b'True', b'job57']"
138.6097,142.1425018310547,"[b'victoria', b'control_wood_inf', b'True', b'job131']"
138.5463,140.93145751953125,"[b'victoria', b'control_wood_inf', b'True', b'job199']"
146.99654,148.8485565185547,"[b'victoria', b'control_wood_inf', b'True', b'job114']"
138.61548,137.58229064941406,"[b'victoria', b'control_wood_inf', b'True', b'job197']"
134.90309,137.11196899414062,"[b'victoria', b'control_wood_inf', b'True', b'job68']"
138.15672,138.83961486816406,"[b'victoria', b'control_wood_inf', b'True', b'job178']"
134.0218,138.09474182128906,"[b'victoria', b'control_wood_inf', b'True', b'job38']"
140.20003,143.0502471923828,"[b'victoria', b'control_wood_inf', b'True', b'job116']"
147.04407,148.041259765625,"[b'victoria', b'control_wood_inf', b'True', b'job184']"
145.64905,147.82984924316406,"[b'victoria', b'control_wood_inf', b'True', b'job149']"
141.33398,143.99375915527344,"[b'victoria', b'control_wood_inf', b'True', b'job6']"
142.31703,140.46102905273438,"[b'victoria', b'control_wood_inf', b'True', b'job125']"
136.91618,139.5266571044922,"[b'victoria', b'control_wood_inf', b'True', b'job47']"
143.06764,141.65330505371094,"[b'victoria', b'control_wood_inf', b'True', b'job92']"
149.02043,148.94439697265625,"[b'victoria', b'control_wood_inf', b'True', b'job21']"
142.46547,145.01821899414062,"[b'victoria', b'control_wood_inf', b'True', b'job133']"
146.43982,149.69337463378906,"[b'victoria', b'control_wood_inf', b'True', b'job148']"
142.49611,138.49461364746094,"[b'victoria', b'control_wood_inf', b'True', b'job113']"
146.66689,149.2016143798828,"[b'victoria', b'control_wood_inf', b'True', b'job167']"
154.07301,154.95867919921875,"[b'victoria', b'control_wood_inf', b'True', b'job87']"
150.32709,148.64031982421875,"[b'victoria', b'control_wood_inf', b'True', b'job3']"
147.65807,152.5072021484375,"[b'victoria', b'control_wood_inf', b'True', b'job51']"
141.08107,144.1201171875,"[b'victoria', b'control_wood_inf', b'True', b'job145']"
136.51695,136.1254425048828,"[b'victoria', b'control_wood_inf', b'True', b'job146']"
141.29663,140.13363647460938,"[b'victoria', b'control_wood_inf', b'True', b'job96']"
150.61302,150.078369140625,"[b'victoria', b'control_wood_inf', b'True', b'job106']"
142.11095,139.3290252685547,"[b'victoria', b'control_wood_inf', b'True', b'job137']"
144.59538,145.15548706054688,"[b'victoria', b'control_wood_inf', b'True', b'job112']"
141.51845,140.39988708496094,"[b'victoria', b'control_wood_inf', b'True', b'job100']"
146.71965,144.60325622558594,"[b'victoria', b'control_wood_inf', b'True', b'job75']"
137.15411,136.38536071777344,"[b'victoria', b'control_wood_inf', b'True', b'job43']"
139.70325,145.2599334716797,"[b'victoria', b'control_wood_inf', b'True', b'job56']"
150.19157,151.97964477539062,"[b'victoria', b'control_wood_inf', b'True', b'job7']"
144.98009,145.14932250976562,"[b'victoria', b'control_wood_inf', b'True', b'job165']"
147.7835,150.81594848632812,"[b'victoria', b'control_wood_inf', b'True', b'job186']"
139.0268,138.737060546875,"[b'victoria', b'control_wood_inf', b'True', b'job153']"
135.89255,138.03480529785156,"[b'victoria', b'control_wood_inf', b'True', b'job143']"
147.68312,152.31056213378906,"[b'victoria', b'control_wood_inf', b'True', b'job120']"
135.38115,140.30056762695312,"[b'victoria', b'control_wood_inf', b'True', b'job85']"
143.23,147.81863403320312,"[b'victoria', b'control_wood_inf', b'True', b'job166']"
137.14105,137.2740478515625,"[b'victoria', b'control_wood_inf', b'True', b'job158']"
152.63821,154.02682495117188,"[b'victoria', b'control_wood_inf', b'True', b'job177']"
139.99167,139.79165649414062,"[b'victoria', b'control_wood_inf', b'True', b'job198']"
146.92152,149.28102111816406,"[b'victoria', b'control_wood_inf', b'True', b'job99']"
138.87627,141.42730712890625,"[b'victoria', b'control_wood_inf', b'True', b'job182']"
144.38498,143.51817321777344,"[b'victoria', b'control_wood_inf', b'True', b'job81']"
146.37991,147.4785614013672,"[b'victoria', b'control_wood_inf', b'True', b'job46']"
135.0509,138.26675415039062,"[b'victoria', b'control_wood_inf', b'True', b'job64']"
138.29816,140.10076904296875,"[b'victoria', b'control_wood_inf', b'True', b'job110']"
